%!PS-Adobe-3.0 EPSF-3.0
%%Creator: (MATLAB, The Mathworks, Inc. Version 9.2.0.538062 \(R2017a\). Operating System: Windows 8)
%%Title: C:/Users/chees/Documents/DottoratoLoc/GNSS/authProtocol/latex/figures/2hornEpsilon.eps
%%CreationDate: 2017-11-20T08:20:09
%%Pages: (atend)
%%BoundingBox: 0 0 284 284
%%LanguageLevel: 3
%%EndComments
%%BeginProlog
%%BeginResource: procset (Apache XML Graphics Std ProcSet) 1.2 0
%%Version: 1.2 0
%%Copyright: (Copyright 2001-2003,2010 The Apache Software Foundation. License terms: http://www.apache.org/licenses/LICENSE-2.0)
/bd{bind def}bind def
/ld{load def}bd
/GR/grestore ld
/M/moveto ld
/LJ/setlinejoin ld
/C/curveto ld
/f/fill ld
/LW/setlinewidth ld
/GC/setgray ld
/t/show ld
/N/newpath ld
/CT/concat ld
/cp/closepath ld
/S/stroke ld
/L/lineto ld
/CC/setcmykcolor ld
/A/ashow ld
/GS/gsave ld
/RC/setrgbcolor ld
/RM/rmoveto ld
/ML/setmiterlimit ld
/re {4 2 roll M
1 index 0 rlineto
0 exch rlineto
neg 0 rlineto
cp } bd
/_ctm matrix def
/_tm matrix def
/BT { _ctm currentmatrix pop matrix _tm copy pop 0 0 moveto } bd
/ET { _ctm setmatrix } bd
/iTm { _ctm setmatrix _tm concat } bd
/Tm { _tm astore pop iTm 0 0 moveto } bd
/ux 0.0 def
/uy 0.0 def
/F {
  /Tp exch def
  /Tf exch def
  Tf findfont Tp scalefont setfont
  /cf Tf def  /cs Tp def
} bd
/ULS {currentpoint /uy exch def /ux exch def} bd
/ULE {
  /Tcx currentpoint pop def
  gsave
  newpath
  cf findfont cs scalefont dup
  /FontMatrix get 0 get /Ts exch def /FontInfo get dup
  /UnderlinePosition get Ts mul /To exch def
  /UnderlineThickness get Ts mul /Tt exch def
  ux uy To add moveto  Tcx uy To add lineto
  Tt setlinewidth stroke
  grestore
} bd
/OLE {
  /Tcx currentpoint pop def
  gsave
  newpath
  cf findfont cs scalefont dup
  /FontMatrix get 0 get /Ts exch def /FontInfo get dup
  /UnderlinePosition get Ts mul /To exch def
  /UnderlineThickness get Ts mul /Tt exch def
  ux uy To add cs add moveto Tcx uy To add cs add lineto
  Tt setlinewidth stroke
  grestore
} bd
/SOE {
  /Tcx currentpoint pop def
  gsave
  newpath
  cf findfont cs scalefont dup
  /FontMatrix get 0 get /Ts exch def /FontInfo get dup
  /UnderlinePosition get Ts mul /To exch def
  /UnderlineThickness get Ts mul /Tt exch def
  ux uy To add cs 10 mul 26 idiv add moveto Tcx uy To add cs 10 mul 26 idiv add lineto
  Tt setlinewidth stroke
  grestore
} bd
/QT {
/Y22 exch store
/X22 exch store
/Y21 exch store
/X21 exch store
currentpoint
/Y21 load 2 mul add 3 div exch
/X21 load 2 mul add 3 div exch
/X21 load 2 mul /X22 load add 3 div
/Y21 load 2 mul /Y22 load add 3 div
/X22 load /Y22 load curveto
} bd
/SSPD {
dup length /d exch dict def
{
/v exch def
/k exch def
currentpagedevice k known {
/cpdv currentpagedevice k get def
v cpdv ne {
/upd false def
/nullv v type /nulltype eq def
/nullcpdv cpdv type /nulltype eq def
nullv nullcpdv or
{
/upd true def
} {
/sametype v type cpdv type eq def
sametype {
v type /arraytype eq {
/vlen v length def
/cpdvlen cpdv length def
vlen cpdvlen eq {
0 1 vlen 1 sub {
/i exch def
/obj v i get def
/cpdobj cpdv i get def
obj cpdobj ne {
/upd true def
exit
} if
} for
} {
/upd true def
} ifelse
} {
v type /dicttype eq {
v {
/dv exch def
/dk exch def
/cpddv cpdv dk get def
dv cpddv ne {
/upd true def
exit
} if
} forall
} {
/upd true def
} ifelse
} ifelse
} if
} ifelse
upd true eq {
d k v put
} if
} if
} if
} forall
d length 0 gt {
d setpagedevice
} if
} bd
/RE { % /NewFontName [NewEncodingArray] /FontName RE -
  findfont dup length dict begin
  {
    1 index /FID ne
    {def} {pop pop} ifelse
  } forall
  /Encoding exch def
  /FontName 1 index def
  currentdict definefont pop
  end
} bind def
%%EndResource
%%BeginResource: procset (Apache XML Graphics EPS ProcSet) 1.0 0
%%Version: 1.0 0
%%Copyright: (Copyright 2002-2003 The Apache Software Foundation. License terms: http://www.apache.org/licenses/LICENSE-2.0)
/BeginEPSF { %def
/b4_Inc_state save def         % Save state for cleanup
/dict_count countdictstack def % Count objects on dict stack
/op_count count 1 sub def      % Count objects on operand stack
userdict begin                 % Push userdict on dict stack
/showpage { } def              % Redefine showpage, { } = null proc
0 setgray 0 setlinecap         % Prepare graphics state
1 setlinewidth 0 setlinejoin
10 setmiterlimit [ ] 0 setdash newpath
/languagelevel where           % If level not equal to 1 then
{pop languagelevel             % set strokeadjust and
1 ne                           % overprint to their defaults.
{false setstrokeadjust false setoverprint
} if
} if
} bd
/EndEPSF { %def
count op_count sub {pop} repeat            % Clean up stacks
countdictstack dict_count sub {end} repeat
b4_Inc_state restore
} bd
%%EndResource
%FOPBeginFontDict
%%IncludeResource: font Courier-Bold
%%IncludeResource: font Helvetica
%%IncludeResource: font Courier-BoldOblique
%%IncludeResource: font Courier-Oblique
%%IncludeResource: font Times-Roman
%%IncludeResource: font Helvetica-BoldOblique
%%IncludeResource: font Helvetica-Bold
%%IncludeResource: font Helvetica-Oblique
%%IncludeResource: font Times-BoldItalic
%%IncludeResource: font Courier
%%IncludeResource: font Times-Italic
%%IncludeResource: font Times-Bold
%%IncludeResource: font Symbol
%%IncludeResource: font ZapfDingbats
%FOPEndFontDict
%%BeginResource: encoding WinAnsiEncoding
/WinAnsiEncoding [
/.notdef /.notdef /.notdef /.notdef /.notdef
/.notdef /.notdef /.notdef /.notdef /.notdef
/.notdef /.notdef /.notdef /.notdef /.notdef
/.notdef /.notdef /.notdef /.notdef /.notdef
/.notdef /.notdef /.notdef /.notdef /.notdef
/.notdef /.notdef /.notdef /.notdef /.notdef
/.notdef /.notdef /space /exclam /quotedbl
/numbersign /dollar /percent /ampersand /quotesingle
/parenleft /parenright /asterisk /plus /comma
/hyphen /period /slash /zero /one
/two /three /four /five /six
/seven /eight /nine /colon /semicolon
/less /equal /greater /question /at
/A /B /C /D /E
/F /G /H /I /J
/K /L /M /N /O
/P /Q /R /S /T
/U /V /W /X /Y
/Z /bracketleft /backslash /bracketright /asciicircum
/underscore /quoteleft /a /b /c
/d /e /f /g /h
/i /j /k /l /m
/n /o /p /q /r
/s /t /u /v /w
/x /y /z /braceleft /bar
/braceright /asciitilde /bullet /Euro /bullet
/quotesinglbase /florin /quotedblbase /ellipsis /dagger
/daggerdbl /circumflex /perthousand /Scaron /guilsinglleft
/OE /bullet /Zcaron /bullet /bullet
/quoteleft /quoteright /quotedblleft /quotedblright /bullet
/endash /emdash /asciitilde /trademark /scaron
/guilsinglright /oe /bullet /zcaron /Ydieresis
/space /exclamdown /cent /sterling /currency
/yen /brokenbar /section /dieresis /copyright
/ordfeminine /guillemotleft /logicalnot /sfthyphen /registered
/macron /degree /plusminus /twosuperior /threesuperior
/acute /mu /paragraph /middot /cedilla
/onesuperior /ordmasculine /guillemotright /onequarter /onehalf
/threequarters /questiondown /Agrave /Aacute /Acircumflex
/Atilde /Adieresis /Aring /AE /Ccedilla
/Egrave /Eacute /Ecircumflex /Edieresis /Igrave
/Iacute /Icircumflex /Idieresis /Eth /Ntilde
/Ograve /Oacute /Ocircumflex /Otilde /Odieresis
/multiply /Oslash /Ugrave /Uacute /Ucircumflex
/Udieresis /Yacute /Thorn /germandbls /agrave
/aacute /acircumflex /atilde /adieresis /aring
/ae /ccedilla /egrave /eacute /ecircumflex
/edieresis /igrave /iacute /icircumflex /idieresis
/eth /ntilde /ograve /oacute /ocircumflex
/otilde /odieresis /divide /oslash /ugrave
/uacute /ucircumflex /udieresis /yacute /thorn
/ydieresis
] def
%%EndResource
%FOPBeginFontReencode
/Courier-Bold findfont
dup length dict begin
  {1 index /FID ne {def} {pop pop} ifelse} forall
  /Encoding WinAnsiEncoding def
  currentdict
end
/Courier-Bold exch definefont pop
/Helvetica findfont
dup length dict begin
  {1 index /FID ne {def} {pop pop} ifelse} forall
  /Encoding WinAnsiEncoding def
  currentdict
end
/Helvetica exch definefont pop
/Courier-BoldOblique findfont
dup length dict begin
  {1 index /FID ne {def} {pop pop} ifelse} forall
  /Encoding WinAnsiEncoding def
  currentdict
end
/Courier-BoldOblique exch definefont pop
/Courier-Oblique findfont
dup length dict begin
  {1 index /FID ne {def} {pop pop} ifelse} forall
  /Encoding WinAnsiEncoding def
  currentdict
end
/Courier-Oblique exch definefont pop
/Times-Roman findfont
dup length dict begin
  {1 index /FID ne {def} {pop pop} ifelse} forall
  /Encoding WinAnsiEncoding def
  currentdict
end
/Times-Roman exch definefont pop
/Helvetica-BoldOblique findfont
dup length dict begin
  {1 index /FID ne {def} {pop pop} ifelse} forall
  /Encoding WinAnsiEncoding def
  currentdict
end
/Helvetica-BoldOblique exch definefont pop
/Helvetica-Bold findfont
dup length dict begin
  {1 index /FID ne {def} {pop pop} ifelse} forall
  /Encoding WinAnsiEncoding def
  currentdict
end
/Helvetica-Bold exch definefont pop
/Helvetica-Oblique findfont
dup length dict begin
  {1 index /FID ne {def} {pop pop} ifelse} forall
  /Encoding WinAnsiEncoding def
  currentdict
end
/Helvetica-Oblique exch definefont pop
/Times-BoldItalic findfont
dup length dict begin
  {1 index /FID ne {def} {pop pop} ifelse} forall
  /Encoding WinAnsiEncoding def
  currentdict
end
/Times-BoldItalic exch definefont pop
/Courier findfont
dup length dict begin
  {1 index /FID ne {def} {pop pop} ifelse} forall
  /Encoding WinAnsiEncoding def
  currentdict
end
/Courier exch definefont pop
/Times-Italic findfont
dup length dict begin
  {1 index /FID ne {def} {pop pop} ifelse} forall
  /Encoding WinAnsiEncoding def
  currentdict
end
/Times-Italic exch definefont pop
/Times-Bold findfont
dup length dict begin
  {1 index /FID ne {def} {pop pop} ifelse} forall
  /Encoding WinAnsiEncoding def
  currentdict
end
/Times-Bold exch definefont pop
%FOPEndFontReencode
%%EndProlog
%%Page: 1 1
%%PageBoundingBox: 0 0 284 284
%%BeginPageSetup
[1 0 0 -1 0 284] CT
%%EndPageSetup
GS
[0.60127 0 0 0.60127 0 0.20001] CT
N
0 0 M
472 0 L
472 472 L
0 472 L
0 0 L
cp
clip
1 GC
N
0 0 472 472 re
f
GR
GS
[0.60127 0 0 0.60127 0 0.20001] CT
1 GC
N
0 0 472 472 re
f
GR
GS
[0.60127 0 0 0.60127 0 0.20001] CT
1 GC
N
64 410 M
428 410 L
428 46 L
64 46 L
cp
f
GR
GS
[0.60127 0 0 0.60127 0 0.20001] CT
0.873 GC
1 LJ
0.833 LW
N
64 410 M
64 46 L
S
GR
GS
[0.60127 0 0 0.60127 0 0.20001] CT
0.873 GC
1 LJ
0.833 LW
N
155 410 M
155 46 L
S
GR
GS
[0.60127 0 0 0.60127 0 0.20001] CT
0.873 GC
1 LJ
0.833 LW
N
246 410 M
246 46 L
S
GR
GS
[0.60127 0 0 0.60127 0 0.20001] CT
0.873 GC
1 LJ
0.833 LW
N
337 410 M
337 46 L
S
GR
GS
[0.60127 0 0 0.60127 0 0.20001] CT
0.873 GC
1 LJ
0.833 LW
N
428 410 M
428 46 L
S
GR
GS
[0.60127 0 0 0.60127 0 0.20001] CT
0.873 GC
1 LJ
0.833 LW
N
428 410 M
64 410 L
S
GR
GS
[0.60127 0 0 0.60127 0 0.20001] CT
0.873 GC
1 LJ
0.833 LW
N
428 349.333 M
64 349.333 L
S
GR
GS
[0.60127 0 0 0.60127 0 0.20001] CT
0.873 GC
1 LJ
0.833 LW
N
428 288.667 M
64 288.667 L
S
GR
GS
[0.60127 0 0 0.60127 0 0.20001] CT
0.873 GC
1 LJ
0.833 LW
N
428 228 M
64 228 L
S
GR
GS
[0.60127 0 0 0.60127 0 0.20001] CT
0.873 GC
1 LJ
0.833 LW
N
428 167.333 M
64 167.333 L
S
GR
GS
[0.60127 0 0 0.60127 0 0.20001] CT
0.873 GC
1 LJ
0.833 LW
N
428 106.667 M
64 106.667 L
S
GR
GS
[0.60127 0 0 0.60127 0 0.20001] CT
0.873 GC
1 LJ
0.833 LW
N
428 46 M
64 46 L
S
GR
GS
[0.60127 0 0 0.60127 0 0.20001] CT
0.149 GC
2 setlinecap
1 LJ
0.833 LW
N
64 410 M
428 410 L
S
GR
GS
[0.60127 0 0 0.60127 0 0.20001] CT
0.149 GC
2 setlinecap
1 LJ
0.833 LW
N
64 410 M
64 406.36 L
S
GR
GS
[0.60127 0 0 0.60127 0 0.20001] CT
0.149 GC
2 setlinecap
1 LJ
0.833 LW
N
155 410 M
155 406.36 L
S
GR
GS
[0.60127 0 0 0.60127 0 0.20001] CT
0.149 GC
2 setlinecap
1 LJ
0.833 LW
N
246 410 M
246 406.36 L
S
GR
GS
[0.60127 0 0 0.60127 0 0.20001] CT
0.149 GC
2 setlinecap
1 LJ
0.833 LW
N
337 410 M
337 406.36 L
S
GR
GS
[0.60127 0 0 0.60127 0 0.20001] CT
0.149 GC
2 setlinecap
1 LJ
0.833 LW
N
428 410 M
428 406.36 L
S
GR
GS
[0.60127 0 0 0.60127 38.48135 250.72966] CT
0.149 GC
/Helvetica 16.667 F
GS
[1 0 0 1 0 0] CT
-15 18 moveto 
1 -1 scale
(-0.1) t 
GR
GR
GS
[0.60127 0 0 0.60127 93.19703 250.72966] CT
0.149 GC
/Helvetica 16.667 F
GS
[1 0 0 1 0 0] CT
-19.5 18 moveto 
1 -1 scale
(-0.05) t 
GR
GR
GS
[0.60127 0 0 0.60127 147.91271 250.72966] CT
0.149 GC
/Helvetica 16.667 F
GS
[1 0 0 1 0 0] CT
-5 18 moveto 
1 -1 scale
(0) t 
GR
GR
GS
[0.60127 0 0 0.60127 202.62838 250.72966] CT
0.149 GC
/Helvetica 16.667 F
GS
[1 0 0 1 0 0] CT
-17 18 moveto 
1 -1 scale
(0.05) t 
GR
GR
GS
[0.60127 0 0 0.60127 257.34406 250.72966] CT
0.149 GC
/Helvetica 16.667 F
GS
[1 0 0 1 0 0] CT
-12 18 moveto 
1 -1 scale
(0.1) t 
GR
GR
GS
[0.60127 0 0 0.60127 147.91281 264.95975] CT
0.149 GC
N
-18.676 16.35 M
-18.676 17.131 -18.395 17.795 QT
-18.113 18.459 -17.543 18.858 QT
-16.973 19.256 -16.207 19.256 QT
-15.692 19.256 -15.113 19.03 QT
-14.535 18.803 -14.035 18.53 QT
-13.535 18.256 -13.52 18.256 QT
-13.395 18.256 -13.324 18.397 QT
-13.254 18.537 -13.254 18.678 QT
-13.254 18.803 -13.317 18.834 QT
-14.754 19.866 -16.238 19.866 QT
-17.457 19.866 -18.434 19.295 QT
-19.41 18.725 -19.942 17.717 QT
-20.473 16.709 -20.473 15.506 QT
-20.473 14.303 -19.988 13.233 QT
-19.504 12.162 -18.653 11.366 QT
-17.801 10.569 -16.723 10.123 QT
-15.645 9.678 -14.457 9.678 QT
-13.16 9.678 L
-12.817 9.678 -12.817 10.037 QT
-12.817 10.225 -12.942 10.358 QT
-13.067 10.491 -13.254 10.491 QT
-14.504 10.491 L
-15.426 10.491 -16.176 10.897 QT
-16.926 11.303 -17.426 12.022 QT
-17.926 12.741 -18.207 13.647 QT
-14.145 13.647 L
-13.988 13.647 -13.895 13.741 QT
-13.801 13.834 -13.801 13.991 QT
-13.801 14.178 -13.926 14.311 QT
-14.051 14.444 -14.238 14.444 QT
-18.426 14.444 L
-18.676 15.631 -18.676 16.35 QT
cp
f
GR
GS
[0.60127 0 0 0.60127 147.91281 264.95975] CT
0.149 GC
N
-10.736 24.897 M
-10.736 24.819 -10.72 24.803 QT
-2.72 2.631 L
-2.674 2.491 -2.564 2.42 QT
-2.455 2.35 -2.314 2.35 QT
-2.111 2.35 -1.978 2.475 QT
-1.845 2.6 -1.845 2.803 QT
-1.845 2.897 L
-9.845 25.069 L
-9.97 25.35 -10.283 25.35 QT
-10.47 25.35 -10.603 25.217 QT
-10.736 25.084 -10.736 24.897 QT
cp
f
GR
GS
[0.60127 0 0 0.60127 147.91281 264.95975] CT
0.149 GC
N
0.696 19.303 M
0.696 19.241 0.735 19.092 QT
0.774 18.944 0.837 18.866 QT
0.899 18.787 1.009 18.787 QT
2.993 18.787 3.634 18.678 QT
4.243 18.522 4.368 18.022 QT
7.524 5.381 L
7.618 5.1 7.618 4.881 QT
7.618 4.694 6.806 4.694 QT
5.477 4.694 L
3.931 4.694 3.095 5.17 QT
2.259 5.647 1.868 6.42 QT
1.477 7.194 0.852 8.959 QT
0.774 9.162 0.618 9.162 QT
0.415 9.162 L
0.181 9.162 0.181 8.866 QT
1.821 4.1 L
1.868 3.881 2.056 3.881 QT
15.634 3.881 L
15.868 3.881 15.868 4.194 QT
15.102 8.959 L
15.102 9.022 15.024 9.092 QT
14.946 9.162 14.884 9.162 QT
14.665 9.162 L
14.446 9.162 14.446 8.866 QT
14.696 7.241 14.696 6.569 QT
14.696 5.756 14.36 5.342 QT
14.024 4.928 13.485 4.811 QT
12.946 4.694 12.071 4.694 QT
10.712 4.694 L
10.102 4.694 9.892 4.811 QT
9.681 4.928 9.524 5.491 QT
6.368 18.1 L
6.368 18.147 6.36 18.194 QT
6.352 18.241 6.321 18.303 QT
6.321 18.6 6.681 18.678 QT
7.274 18.787 9.227 18.787 QT
9.446 18.787 9.446 19.1 QT
9.368 19.412 9.321 19.506 QT
9.274 19.6 9.071 19.6 QT
0.931 19.6 L
0.696 19.6 0.696 19.303 QT
cp
f
GR
GS
[0.60127 0 0 0.60127 147.91281 264.95975] CT
0.149 GC
N
15.144 21.194 M
15.144 21.881 15.503 22.366 QT
15.863 22.85 16.519 22.85 QT
17.472 22.85 18.355 22.412 QT
19.238 21.975 19.785 21.209 QT
19.832 21.162 19.91 21.162 QT
19.988 21.162 20.074 21.248 QT
20.16 21.334 20.16 21.412 QT
20.16 21.475 20.128 21.506 QT
19.535 22.334 18.543 22.811 QT
17.55 23.287 16.488 23.287 QT
15.722 23.287 15.136 22.92 QT
14.55 22.553 14.23 21.944 QT
13.91 21.334 13.91 20.569 QT
13.91 19.491 14.511 18.428 QT
15.113 17.366 16.113 16.694 QT
17.113 16.022 18.222 16.022 QT
18.941 16.022 19.511 16.373 QT
20.082 16.725 20.082 17.397 QT
20.082 17.834 19.832 18.147 QT
19.582 18.459 19.144 18.459 QT
18.894 18.459 18.714 18.295 QT
18.535 18.131 18.535 17.881 QT
18.535 17.506 18.808 17.241 QT
19.082 16.975 19.457 16.975 QT
19.488 16.975 L
19.3 16.694 18.941 16.569 QT
18.582 16.444 18.207 16.444 QT
17.269 16.444 16.566 17.241 QT
15.863 18.037 15.503 19.155 QT
15.144 20.272 15.144 21.194 QT
cp
f
GR
GS
[0.60127 0 0 0.60127 0 0.20001] CT
0.149 GC
2 setlinecap
1 LJ
0.833 LW
N
64 410 M
64 46 L
S
GR
GS
[0.60127 0 0 0.60127 0 0.20001] CT
0.149 GC
2 setlinecap
1 LJ
0.833 LW
N
64 410 M
67.64 410 L
S
GR
GS
[0.60127 0 0 0.60127 0 0.20001] CT
0.149 GC
2 setlinecap
1 LJ
0.833 LW
N
64 349.333 M
67.64 349.333 L
S
GR
GS
[0.60127 0 0 0.60127 0 0.20001] CT
0.149 GC
2 setlinecap
1 LJ
0.833 LW
N
64 288.667 M
67.64 288.667 L
S
GR
GS
[0.60127 0 0 0.60127 0 0.20001] CT
0.149 GC
2 setlinecap
1 LJ
0.833 LW
N
64 228 M
67.64 228 L
S
GR
GS
[0.60127 0 0 0.60127 0 0.20001] CT
0.149 GC
2 setlinecap
1 LJ
0.833 LW
N
64 167.333 M
67.64 167.333 L
S
GR
GS
[0.60127 0 0 0.60127 0 0.20001] CT
0.149 GC
2 setlinecap
1 LJ
0.833 LW
N
64 106.667 M
67.64 106.667 L
S
GR
GS
[0.60127 0 0 0.60127 0 0.20001] CT
0.149 GC
2 setlinecap
1 LJ
0.833 LW
N
64 46 M
67.64 46 L
S
GR
GS
[0.60127 0 0 0.60127 34.47288 246.72119] CT
0.149 GC
/Helvetica 16.667 F
GS
[1 0 0 1 0 0] CT
-10 7 moveto 
1 -1 scale
(0) t 
GR
GR
GS
[0.60127 0 0 0.60127 34.47288 210.24408] CT
0.149 GC
/Helvetica 16.667 F
GS
[1 0 0 1 0 0] CT
-24 7 moveto 
1 -1 scale
(0.2) t 
GR
GR
GS
[0.60127 0 0 0.60127 34.47288 173.76695] CT
0.149 GC
/Helvetica 16.667 F
GS
[1 0 0 1 0 0] CT
-24 7 moveto 
1 -1 scale
(0.4) t 
GR
GR
GS
[0.60127 0 0 0.60127 34.47288 137.28984] CT
0.149 GC
/Helvetica 16.667 F
GS
[1 0 0 1 0 0] CT
-24 7 moveto 
1 -1 scale
(0.6) t 
GR
GR
GS
[0.60127 0 0 0.60127 34.47288 100.81272] CT
0.149 GC
/Helvetica 16.667 F
GS
[1 0 0 1 0 0] CT
-24 7 moveto 
1 -1 scale
(0.8) t 
GR
GR
GS
[0.60127 0 0 0.60127 34.47288 64.3356] CT
0.149 GC
/Helvetica 16.667 F
GS
[1 0 0 1 0 0] CT
-10 7 moveto 
1 -1 scale
(1) t 
GR
GR
GS
[0.60127 0 0 0.60127 34.47288 27.85848] CT
0.149 GC
/Helvetica 16.667 F
GS
[1 0 0 1 0 0] CT
-24 7 moveto 
1 -1 scale
(1.2) t 
GR
GR
GS
[0 -0.60127 0.60127 0 17.03602 137.28973] CT
0.149 GC
N
-58.743 -13.369 M
-58.743 -11.978 -58.212 -10.931 QT
-57.681 -9.884 -56.665 -9.291 QT
-55.649 -8.697 -54.259 -8.697 QT
-52.821 -8.697 -51.477 -9.439 QT
-50.134 -10.181 -49.181 -11.424 QT
-48.227 -12.666 -47.884 -14.056 QT
-47.837 -14.197 -47.712 -14.197 QT
-47.431 -14.197 L
-47.337 -14.197 -47.282 -14.134 QT
-47.227 -14.072 -47.227 -13.994 QT
-47.227 -13.978 -47.243 -13.931 QT
-47.634 -12.338 -48.766 -10.939 QT
-49.899 -9.541 -51.47 -8.72 QT
-53.04 -7.9 -54.696 -7.9 QT
-56.493 -7.9 -57.923 -8.705 QT
-59.352 -9.509 -60.141 -10.947 QT
-60.931 -12.384 -60.931 -14.197 QT
-60.931 -16.134 -60.071 -18.025 QT
-59.212 -19.916 -57.751 -21.392 QT
-56.29 -22.869 -54.415 -23.744 QT
-52.54 -24.619 -50.618 -24.619 QT
-49.868 -24.619 -49.165 -24.384 QT
-48.462 -24.15 -47.868 -23.681 QT
-47.274 -23.213 -46.899 -22.603 QT
-45.071 -24.572 L
-45.071 -24.619 -44.962 -24.619 QT
-44.837 -24.619 L
-44.743 -24.619 -44.688 -24.541 QT
-44.634 -24.463 -44.634 -24.384 QT
-46.196 -18.166 L
-46.196 -18.009 -46.368 -18.009 QT
-46.79 -18.009 L
-46.962 -18.009 -46.962 -18.275 QT
-46.868 -18.775 -46.868 -19.478 QT
-46.868 -20.603 -47.251 -21.603 QT
-47.634 -22.603 -48.438 -23.205 QT
-49.243 -23.806 -50.399 -23.806 QT
-52.274 -23.806 -53.837 -22.861 QT
-55.399 -21.916 -56.485 -20.384 QT
-57.571 -18.853 -58.157 -16.986 QT
-58.743 -15.119 -58.743 -13.369 QT
cp
f
GR
GS
[0 -0.60127 0.60127 0 17.03602 137.28973] CT
0.149 GC
N
-44.707 -4.9 M
-44.863 -4.9 -44.863 -5.119 QT
-44.801 -5.463 -44.66 -5.463 QT
-44.004 -5.463 -43.535 -5.72 QT
-43.066 -5.978 -42.722 -6.525 QT
-42.691 -6.556 -42.691 -6.556 QT
-36.972 -16.181 L
-36.847 -16.353 -36.676 -16.353 QT
-36.457 -16.353 L
-36.41 -16.353 -36.363 -16.338 QT
-36.316 -16.322 -36.285 -16.275 QT
-36.254 -16.228 -36.254 -16.181 QT
-35.285 -5.853 L
-35.285 -5.775 -35.207 -5.634 QT
-35.051 -5.463 -34.019 -5.463 QT
-33.847 -5.463 -33.847 -5.259 QT
-33.91 -5.041 -33.941 -4.97 QT
-33.972 -4.9 -34.129 -4.9 QT
-38.129 -4.9 L
-38.269 -4.9 -38.269 -5.119 QT
-38.191 -5.463 -38.066 -5.463 QT
-36.801 -5.463 -36.722 -5.9 QT
-36.957 -8.541 L
-40.91 -8.541 L
-42.191 -6.384 L
-42.301 -6.213 -42.301 -5.994 QT
-42.301 -5.713 -42.035 -5.588 QT
-41.769 -5.463 -41.441 -5.463 QT
-41.285 -5.463 -41.285 -5.259 QT
-41.332 -5.025 -41.363 -4.963 QT
-41.394 -4.9 -41.551 -4.9 QT
-44.707 -4.9 L
cp
-40.597 -9.103 M
-37.019 -9.103 L
-37.504 -14.275 L
-40.597 -9.103 L
cp
f
GR
GS
[0 -0.60127 0.60127 0 17.03602 137.28973] CT
0.149 GC
N
-21.512 -2.65 M
-21.512 -25.65 L
-18.372 -25.65 L
-18.372 -24.728 L
-20.59 -24.728 L
-20.59 -3.572 L
-18.372 -3.572 L
-18.372 -2.65 L
-21.512 -2.65 L
cp
f
GR
GS
[0 -0.60127 0.60127 0 17.03602 137.28973] CT
0.149 GC
N
-15.359 -8.4 M
-15.359 -22.009 L
-15.359 -22.634 -15.546 -22.908 QT
-15.734 -23.181 -16.078 -23.244 QT
-16.421 -23.306 -17.156 -23.306 QT
-17.156 -24.119 L
-13.75 -24.353 L
-13.75 -17.166 L
-13.375 -17.588 -12.859 -17.908 QT
-12.343 -18.228 -11.765 -18.392 QT
-11.187 -18.556 -10.578 -18.556 QT
-9.546 -18.556 -8.664 -18.142 QT
-7.781 -17.728 -7.125 -17.002 QT
-6.468 -16.275 -6.109 -15.322 QT
-5.75 -14.369 -5.75 -13.369 QT
-5.75 -11.978 -6.429 -10.775 QT
-7.109 -9.572 -8.281 -8.853 QT
-9.453 -8.134 -10.859 -8.134 QT
-11.734 -8.134 -12.554 -8.588 QT
-13.375 -9.041 -13.906 -9.775 QT
-14.687 -8.4 L
-15.359 -8.4 L
cp
-13.687 -10.65 M
-13.296 -9.822 -12.578 -9.283 QT
-11.859 -8.744 -10.984 -8.744 QT
-9.796 -8.744 -9.062 -9.431 QT
-8.328 -10.119 -8.039 -11.166 QT
-7.75 -12.213 -7.75 -13.369 QT
-7.75 -15.306 -8.25 -16.322 QT
-8.468 -16.759 -8.859 -17.142 QT
-9.25 -17.525 -9.726 -17.744 QT
-10.203 -17.963 -10.734 -17.963 QT
-11.656 -17.963 -12.437 -17.478 QT
-13.218 -16.994 -13.687 -16.166 QT
-13.687 -10.65 L
cp
f
GR
GS
[0 -0.60127 0.60127 0 17.03602 137.28973] CT
0.149 GC
N
-3.49 -3.103 M
-3.49 -3.181 -3.474 -3.197 QT
4.526 -25.369 L
4.573 -25.509 4.682 -25.58 QT
4.792 -25.65 4.932 -25.65 QT
5.135 -25.65 5.268 -25.525 QT
5.401 -25.4 5.401 -25.197 QT
5.401 -25.103 L
-2.599 -2.931 L
-2.724 -2.65 -3.037 -2.65 QT
-3.224 -2.65 -3.357 -2.783 QT
-3.49 -2.916 -3.49 -3.103 QT
cp
f
GR
GS
[0 -0.60127 0.60127 0 17.03602 137.28973] CT
0.149 GC
N
7.646 -8.338 M
7.646 -12.088 L
7.646 -12.259 7.849 -12.259 QT
8.13 -12.259 L
8.255 -12.259 8.302 -12.088 QT
8.943 -8.744 11.411 -8.744 QT
12.489 -8.744 13.232 -9.244 QT
13.974 -9.744 13.974 -10.775 QT
13.974 -11.509 13.396 -12.033 QT
12.818 -12.556 12.036 -12.744 QT
10.489 -13.056 L
9.724 -13.213 9.091 -13.564 QT
8.458 -13.916 8.052 -14.494 QT
7.646 -15.072 7.646 -15.838 QT
7.646 -16.853 8.177 -17.494 QT
8.708 -18.134 9.56 -18.424 QT
10.411 -18.713 11.411 -18.713 QT
12.583 -18.713 13.458 -18.088 QT
14.13 -18.65 L
14.13 -18.713 14.239 -18.713 QT
14.411 -18.713 L
14.474 -18.713 14.529 -18.65 QT
14.583 -18.588 14.583 -18.525 QT
14.583 -15.509 L
14.583 -15.291 14.411 -15.291 QT
14.13 -15.291 L
13.927 -15.291 13.927 -15.509 QT
13.927 -16.713 13.255 -17.439 QT
12.583 -18.166 11.38 -18.166 QT
10.349 -18.166 9.591 -17.783 QT
8.833 -17.4 8.833 -16.478 QT
8.833 -15.838 9.38 -15.424 QT
9.927 -15.009 10.661 -14.838 QT
12.208 -14.541 L
13.005 -14.369 13.685 -13.939 QT
14.364 -13.509 14.763 -12.861 QT
15.161 -12.213 15.161 -11.384 QT
15.161 -10.556 14.872 -9.947 QT
14.583 -9.338 14.075 -8.931 QT
13.568 -8.525 12.872 -8.33 QT
12.177 -8.134 11.411 -8.134 QT
9.974 -8.134 8.943 -9.103 QT
8.099 -8.197 L
8.099 -8.134 7.974 -8.134 QT
7.849 -8.134 L
7.646 -8.134 7.646 -8.338 QT
cp
f
GR
GS
[0 -0.60127 0.60127 0 17.03602 137.28973] CT
0.149 GC
N
17.381 -3.103 M
17.381 -3.181 17.396 -3.197 QT
25.396 -25.369 L
25.443 -25.509 25.553 -25.58 QT
25.662 -25.65 25.803 -25.65 QT
26.006 -25.65 26.138 -25.525 QT
26.271 -25.4 26.271 -25.197 QT
26.271 -25.103 L
18.271 -2.931 L
18.146 -2.65 17.834 -2.65 QT
17.646 -2.65 17.513 -2.783 QT
17.381 -2.916 17.381 -3.103 QT
cp
f
GR
GS
[0 -0.60127 0.60127 0 17.03602 137.28973] CT
0.149 GC
N
28.454 -8.4 M
28.454 -9.213 L
30.829 -9.213 30.829 -9.931 QT
30.829 -22.572 L
30.829 -23.306 28.454 -23.306 QT
28.454 -24.119 L
35.344 -24.119 L
35.344 -23.306 L
32.969 -23.306 32.969 -22.572 QT
32.969 -16.978 L
39.75 -16.978 L
39.75 -22.572 L
39.75 -23.306 37.391 -23.306 QT
37.391 -24.119 L
44.266 -24.119 L
44.266 -23.306 L
41.907 -23.306 41.907 -22.572 QT
41.907 -9.931 L
41.907 -9.213 44.266 -9.213 QT
44.266 -8.4 L
37.391 -8.4 L
37.391 -9.213 L
39.75 -9.213 39.75 -9.931 QT
39.75 -16.166 L
32.969 -16.166 L
32.969 -9.931 L
32.969 -9.213 35.344 -9.213 QT
35.344 -8.4 L
28.454 -8.4 L
cp
f
GR
GS
[0 -0.60127 0.60127 0 17.03602 137.28973] CT
0.149 GC
N
46.157 -8.4 M
45.891 -8.4 45.891 -8.666 QT
45.891 -8.838 L
45.891 -8.931 45.954 -8.994 QT
52.376 -17.713 L
50.313 -17.713 L
49.344 -17.713 48.704 -17.588 QT
48.063 -17.463 47.657 -17.119 QT
47.251 -16.775 47.063 -16.174 QT
46.876 -15.572 46.876 -14.525 QT
46.219 -14.525 L
46.469 -18.322 L
54.172 -18.322 L
54.282 -18.322 54.352 -18.244 QT
54.422 -18.166 54.422 -18.056 QT
54.422 -17.931 L
54.422 -17.853 54.376 -17.759 QT
47.954 -9.056 L
50.141 -9.056 L
51.141 -9.056 51.813 -9.181 QT
52.485 -9.306 52.954 -9.775 QT
53.391 -10.213 53.555 -10.955 QT
53.719 -11.697 53.813 -12.791 QT
54.469 -12.791 L
54.079 -8.4 L
46.157 -8.4 L
cp
f
GR
GS
[0 -0.60127 0.60127 0 17.03602 137.28973] CT
0.149 GC
N
56.121 -2.65 M
56.121 -3.572 L
58.355 -3.572 L
58.355 -24.728 L
56.121 -24.728 L
56.121 -25.65 L
59.277 -25.65 L
59.277 -2.65 L
56.121 -2.65 L
cp
f
GR
GS
[0.60127 0 0 0.60127 0 0.20001] CT
[2 2] 0 setdash
2 LJ
2.5 LW
N
63.957 410 M
64 410 L
65.82 410 L
67.64 410 L
69.46 410 L
71.28 410 L
73.1 410 L
74.92 410 L
76.74 410 L
78.56 410 L
80.38 410 L
82.2 410 L
84.02 410 L
85.84 410 L
87.66 410 L
89.48 410 L
91.3 410 L
93.12 410 L
94.94 410 L
96.76 410 L
98.58 410 L
100.4 410 L
102.22 410 L
104.04 410 L
105.86 410 L
107.68 410 L
109.5 410 L
111.32 410 L
113.14 410 L
114.96 410 L
116.78 410 L
118.6 410 L
120.42 410 L
122.24 410 L
124.06 410 L
125.88 410 L
127.7 410 L
129.52 410 L
131.34 410 L
133.16 410 L
134.98 410 L
136.8 410 L
138.62 410 L
140.44 410 L
142.26 410 L
144.08 410 L
145.9 410 L
147.72 410 L
149.54 410 L
151.36 410 L
153.18 410 L
155 410 L
156.82 410 L
158.64 410 L
160.46 410 L
162.28 410 L
164.1 410 L
165.92 410 L
167.74 410 L
169.56 410 L
171.38 410 L
173.2 410 L
175.02 410 L
176.84 410 L
178.66 410 L
180.48 410 L
182.3 410 L
184.12 410 L
185.94 410 L
187.76 410 L
189.58 410 L
191.4 410 L
193.22 410 L
195.04 410 L
196.86 410 L
198.68 410 L
200.5 410 L
202.32 410 L
204.14 406.55 L
205.96 401.89 L
207.78 397.363 L
209.6 392.967 L
211.42 388.697 L
213.24 384.553 L
215.06 380.532 L
216.88 376.635 L
218.7 372.86 L
220.52 369.209 L
222.34 365.683 L
224.16 362.284 L
225.98 359.013 L
227.8 355.875 L
229.62 352.873 L
231.44 350.012 L
233.26 347.295 L
235.08 344.727 L
236.9 342.315 L
238.72 340.062 L
240.54 337.974 L
242.36 336.055 L
244.18 334.308 L
246 332.735 L
247.82 334.308 L
249.64 336.055 L
251.46 337.974 L
253.28 340.062 L
255.1 342.315 L
256.92 344.727 L
258.74 347.295 L
260.56 350.012 L
262.38 352.873 L
264.2 355.875 L
266.02 359.013 L
267.84 362.284 L
269.66 365.683 L
271.48 369.209 L
273.3 372.86 L
275.12 376.635 L
276.94 380.532 L
278.76 384.553 L
280.58 388.697 L
282.4 392.967 L
284.22 397.363 L
286.04 401.89 L
287.86 406.55 L
289.68 410 L
291.5 410 L
293.32 410 L
295.14 410 L
296.96 410 L
298.78 410 L
300.6 410 L
302.42 410 L
304.24 410 L
306.06 410 L
307.88 410 L
309.7 410 L
311.52 410 L
313.34 410 L
315.16 410 L
316.98 410 L
318.8 410 L
320.62 410 L
322.44 410 L
324.26 410 L
326.08 410 L
327.9 410 L
329.72 410 L
331.54 410 L
333.36 410 L
335.18 410 L
337 410 L
338.82 410 L
340.64 410 L
342.46 410 L
344.28 410 L
346.1 410 L
347.92 410 L
349.74 410 L
351.56 410 L
353.38 410 L
355.2 410 L
357.02 410 L
358.84 410 L
360.66 410 L
362.48 410 L
364.3 410 L
366.12 410 L
367.94 410 L
369.76 410 L
371.58 410 L
373.4 410 L
375.22 410 L
377.04 410 L
378.86 410 L
380.68 410 L
382.5 410 L
384.32 410 L
386.14 410 L
387.96 410 L
389.78 410 L
391.6 410 L
393.42 410 L
395.24 410 L
397.06 410 L
398.88 410 L
400.7 410 L
402.52 410 L
404.34 410 L
406.16 410 L
407.98 410 L
409.8 410 L
411.62 410 L
413.44 410 L
415.26 410 L
417.08 410 L
418.9 410 L
420.72 410 L
422.54 410 L
424.36 410 L
426.18 410 L
428 410 L
428.043 410 L
S
GR
GS
[0.60127 0 0 0.60127 0 0.20001] CT
[8 2 4 2] 0 setdash
2 LJ
2.5 LW
N
63.957 410 M
64 410 L
65.82 410 L
67.64 410 L
69.46 410 L
71.28 410 L
73.1 410 L
74.92 410 L
76.74 410 L
78.56 410 L
80.38 410 L
82.2 410 L
84.02 410 L
85.84 410 L
87.66 410 L
89.48 410 L
91.3 410 L
93.12 410 L
94.94 410 L
96.76 410 L
98.58 410 L
100.4 410 L
102.22 410 L
104.04 410 L
105.86 410 L
107.68 410 L
109.5 410 L
111.32 410 L
113.14 410 L
114.96 410 L
116.78 410 L
118.6 410 L
120.42 410 L
122.24 410 L
124.06 410 L
125.88 410 L
127.7 410 L
129.52 410 L
131.34 410 L
133.16 410 L
134.98 410 L
136.8 410 L
138.62 410 L
140.44 410 L
142.26 410 L
144.08 410 L
145.9 410 L
147.72 410 L
149.54 410 L
151.36 410 L
153.18 410 L
155 410 L
156.82 410 L
158.64 410 L
160.46 410 L
162.28 410 L
164.1 410 L
165.92 410 L
167.74 410 L
169.56 410 L
171.38 410 L
173.2 410 L
175.02 410 L
176.84 410 L
178.66 410 L
180.48 410 L
182.3 410 L
184.12 410 L
185.94 410 L
187.76 410 L
189.58 410 L
191.4 410 L
193.22 410 L
195.04 410 L
196.86 410 L
198.68 410 L
200.5 410 L
202.32 407.186 L
204.14 398.363 L
205.96 389.521 L
207.78 380.651 L
209.6 371.745 L
211.42 362.795 L
213.24 353.793 L
215.06 344.733 L
216.88 335.61 L
218.7 326.421 L
220.52 317.161 L
222.34 307.831 L
224.16 298.431 L
225.98 288.963 L
227.8 279.431 L
229.62 269.843 L
231.44 260.207 L
233.26 250.536 L
235.08 240.845 L
236.9 231.151 L
238.72 221.478 L
240.54 211.851 L
242.36 202.299 L
244.18 192.857 L
246 183.563 L
247.82 192.857 L
249.64 202.299 L
251.46 211.851 L
253.28 221.478 L
255.1 231.151 L
256.92 240.845 L
258.74 250.536 L
260.56 260.207 L
262.38 269.843 L
264.2 279.431 L
266.02 288.963 L
267.84 298.431 L
269.66 307.831 L
271.48 317.161 L
273.3 326.421 L
275.12 335.61 L
276.94 344.733 L
278.76 353.793 L
280.58 362.795 L
282.4 371.745 L
284.22 380.651 L
286.04 389.521 L
287.86 398.363 L
289.68 407.186 L
291.5 410 L
293.32 410 L
295.14 410 L
296.96 410 L
298.78 410 L
300.6 410 L
302.42 410 L
304.24 410 L
306.06 410 L
307.88 410 L
309.7 410 L
311.52 410 L
313.34 410 L
315.16 410 L
316.98 410 L
318.8 410 L
320.62 410 L
322.44 410 L
324.26 410 L
326.08 410 L
327.9 410 L
329.72 410 L
331.54 410 L
333.36 410 L
335.18 410 L
337 410 L
338.82 410 L
340.64 410 L
342.46 410 L
344.28 410 L
346.1 410 L
347.92 410 L
349.74 410 L
351.56 410 L
353.38 410 L
355.2 410 L
357.02 410 L
358.84 410 L
360.66 410 L
362.48 410 L
364.3 410 L
366.12 410 L
367.94 410 L
369.76 410 L
371.58 410 L
373.4 410 L
375.22 410 L
377.04 410 L
378.86 410 L
380.68 410 L
382.5 410 L
384.32 410 L
386.14 410 L
387.96 410 L
389.78 410 L
391.6 410 L
393.42 410 L
395.24 410 L
397.06 410 L
398.88 410 L
400.7 410 L
402.52 410 L
404.34 410 L
406.16 410 L
407.98 410 L
409.8 410 L
411.62 410 L
413.44 410 L
415.26 410 L
417.08 410 L
418.9 410 L
420.72 410 L
422.54 410 L
424.36 410 L
426.18 410 L
428 410 L
428.043 410 L
S
GR
GS
[0.60127 0 0 0.60127 0 0.20001] CT
[8 8] 0 setdash
2 LJ
2.5 LW
N
63.957 410 M
64 410 L
65.82 410 L
67.64 410 L
69.46 410 L
71.28 410 L
73.1 410 L
74.92 410 L
76.74 410 L
78.56 410 L
80.38 410 L
82.2 410 L
84.02 410 L
85.84 410 L
87.66 410 L
89.48 410 L
91.3 410 L
93.12 410 L
94.94 410 L
96.76 410 L
98.58 410 L
100.4 410 L
102.22 410 L
104.04 410 L
105.86 410 L
107.68 410 L
109.5 410 L
111.32 410 L
113.14 410 L
114.96 410 L
116.78 410 L
118.6 410 L
120.42 410 L
122.24 410 L
124.06 410 L
125.88 410 L
127.7 410 L
129.52 410 L
131.34 410 L
133.16 410 L
134.98 410 L
136.8 410 L
138.62 410 L
140.44 410 L
142.26 410 L
144.08 410 L
145.9 410 L
147.72 410 L
149.54 410 L
151.36 410 L
153.18 410 L
155 410 L
156.82 410 L
158.64 410 L
160.46 410 L
162.28 410 L
164.1 410 L
165.92 410 L
167.74 410 L
169.56 410 L
171.38 410 L
173.2 410 L
175.02 410 L
176.84 410 L
178.66 410 L
180.48 410 L
182.3 410 L
184.12 410 L
185.94 410 L
187.76 410 L
189.58 410 L
191.4 410 L
193.22 410 L
195.04 410 L
196.86 410 L
198.68 410 L
200.5 410 L
202.32 405.275 L
204.14 396.267 L
205.96 387.194 L
207.78 378.038 L
209.6 368.786 L
211.42 359.422 L
213.24 349.932 L
215.06 340.302 L
216.88 330.519 L
218.7 320.568 L
220.52 310.438 L
222.34 300.115 L
224.16 289.587 L
225.98 278.842 L
227.8 267.868 L
229.62 256.653 L
231.44 245.185 L
233.26 233.452 L
235.08 221.441 L
236.9 209.139 L
238.72 196.531 L
240.54 183.602 L
242.36 170.336 L
244.18 156.713 L
246 142.714 L
247.82 156.713 L
249.64 170.336 L
251.46 183.602 L
253.28 196.531 L
255.1 209.139 L
256.92 221.441 L
258.74 233.452 L
260.56 245.185 L
262.38 256.653 L
264.2 267.868 L
266.02 278.842 L
267.84 289.587 L
269.66 300.115 L
271.48 310.438 L
273.3 320.568 L
275.12 330.519 L
276.94 340.302 L
278.76 349.932 L
280.58 359.422 L
282.4 368.786 L
284.22 378.038 L
286.04 387.194 L
287.86 396.267 L
289.68 405.275 L
291.5 410 L
293.32 410 L
295.14 410 L
296.96 410 L
298.78 410 L
300.6 410 L
302.42 410 L
304.24 410 L
306.06 410 L
307.88 410 L
309.7 410 L
311.52 410 L
313.34 410 L
315.16 410 L
316.98 410 L
318.8 410 L
320.62 410 L
322.44 410 L
324.26 410 L
326.08 410 L
327.9 410 L
329.72 410 L
331.54 410 L
333.36 410 L
335.18 410 L
337 410 L
338.82 410 L
340.64 410 L
342.46 410 L
344.28 410 L
346.1 410 L
347.92 410 L
349.74 410 L
351.56 410 L
353.38 410 L
355.2 410 L
357.02 410 L
358.84 410 L
360.66 410 L
362.48 410 L
364.3 410 L
366.12 410 L
367.94 410 L
369.76 410 L
371.58 410 L
373.4 410 L
375.22 410 L
377.04 410 L
378.86 410 L
380.68 410 L
382.5 410 L
384.32 410 L
386.14 410 L
387.96 410 L
389.78 410 L
391.6 410 L
393.42 410 L
395.24 410 L
397.06 410 L
398.88 410 L
400.7 410 L
402.52 410 L
404.34 410 L
406.16 410 L
407.98 410 L
409.8 410 L
411.62 410 L
413.44 410 L
415.26 410 L
417.08 410 L
418.9 410 L
420.72 410 L
422.54 410 L
424.36 410 L
426.18 410 L
428 410 L
428.043 410 L
S
GR
GS
[0.60127 0 0 0.60127 0 0.20001] CT
1 LJ
2.5 LW
N
63.957 410 M
64 410 L
65.82 410 L
67.64 410 L
69.46 410 L
71.28 410 L
73.1 410 L
74.92 410 L
76.74 410 L
78.56 410 L
80.38 410 L
82.2 410 L
84.02 410 L
85.84 410 L
87.66 410 L
89.48 410 L
91.3 410 L
93.12 410 L
94.94 410 L
96.76 410 L
98.58 410 L
100.4 410 L
102.22 410 L
104.04 410 L
105.86 410 L
107.68 410 L
109.5 410 L
111.32 410 L
113.14 410 L
114.96 410 L
116.78 410 L
118.6 410 L
120.42 410 L
122.24 410 L
124.06 410 L
125.88 410 L
127.7 410 L
129.52 410 L
131.34 410 L
133.16 410 L
134.98 410 L
136.8 410 L
138.62 410 L
140.44 410 L
142.26 410 L
144.08 410 L
145.9 410 L
147.72 410 L
149.54 410 L
151.36 410 L
153.18 410 L
155 410 L
156.82 410 L
158.64 410 L
160.46 410 L
162.28 410 L
164.1 410 L
165.92 410 L
167.74 410 L
169.56 410 L
171.38 410 L
173.2 410 L
175.02 410 L
176.84 410 L
178.66 410 L
180.48 410 L
182.3 410 L
184.12 410 L
185.94 410 L
187.76 410 L
189.58 410 L
191.4 410 L
193.22 410 L
195.04 410 L
196.86 410 L
198.68 410 L
200.5 407.894 L
202.32 399.345 L
204.14 390.56 L
205.96 381.531 L
207.78 372.247 L
209.6 362.699 L
211.42 352.873 L
213.24 342.76 L
215.06 332.344 L
216.88 321.613 L
218.7 310.552 L
220.52 299.143 L
222.34 287.37 L
224.16 275.212 L
225.98 262.65 L
227.8 249.661 L
229.62 236.219 L
231.44 222.297 L
233.26 207.866 L
235.08 192.892 L
236.9 177.338 L
238.72 161.164 L
240.54 144.324 L
242.36 126.766 L
244.18 108.435 L
246 89.263 L
247.82 108.435 L
249.64 126.766 L
251.46 144.324 L
253.28 161.164 L
255.1 177.338 L
256.92 192.892 L
258.74 207.866 L
260.56 222.297 L
262.38 236.219 L
264.2 249.661 L
266.02 262.65 L
267.84 275.212 L
269.66 287.37 L
271.48 299.143 L
273.3 310.552 L
275.12 321.613 L
276.94 332.344 L
278.76 342.76 L
280.58 352.873 L
282.4 362.699 L
284.22 372.247 L
286.04 381.531 L
287.86 390.56 L
289.68 399.345 L
291.5 407.894 L
293.32 410 L
295.14 410 L
296.96 410 L
298.78 410 L
300.6 410 L
302.42 410 L
304.24 410 L
306.06 410 L
307.88 410 L
309.7 410 L
311.52 410 L
313.34 410 L
315.16 410 L
316.98 410 L
318.8 410 L
320.62 410 L
322.44 410 L
324.26 410 L
326.08 410 L
327.9 410 L
329.72 410 L
331.54 410 L
333.36 410 L
335.18 410 L
337 410 L
338.82 410 L
340.64 410 L
342.46 410 L
344.28 410 L
346.1 410 L
347.92 410 L
349.74 410 L
351.56 410 L
353.38 410 L
355.2 410 L
357.02 410 L
358.84 410 L
360.66 410 L
362.48 410 L
364.3 410 L
366.12 410 L
367.94 410 L
369.76 410 L
371.58 410 L
373.4 410 L
375.22 410 L
377.04 410 L
378.86 410 L
380.68 410 L
382.5 410 L
384.32 410 L
386.14 410 L
387.96 410 L
389.78 410 L
391.6 410 L
393.42 410 L
395.24 410 L
397.06 410 L
398.88 410 L
400.7 410 L
402.52 410 L
404.34 410 L
406.16 410 L
407.98 410 L
409.8 410 L
411.62 410 L
413.44 410 L
415.26 410 L
417.08 410 L
418.9 410 L
420.72 410 L
422.54 410 L
424.36 410 L
426.18 410 L
428 410 L
428.043 410 L
S
GR
GS
[0.60127 0 0 0.60127 0 0.20001] CT
1 GC
N
263 174 M
263 63 L
411 63 L
411 174 L
cp
f
GR
GS
[0.60127 0 0 0.60127 193.2809 47.41031] CT
/Helvetica 20 F
GS
[1 0 0 1 0 0] CT
0 8 moveto 
1 -1 scale
(M = 2) t 
GR
GR
GS
[0.60127 0 0 0.60127 0 0.20001] CT
[2 2] 0 setdash
2 LJ
2.5 LW
N
267.975 78.517 M
317.723 78.517 L
S
GR
GS
[0.60127 0 0 0.60127 193.2809 63.4372] CT
/Helvetica 20 F
GS
[1 0 0 1 0 0] CT
0 8 moveto 
1 -1 scale
(M = 4) t 
GR
GR
GS
[0.60127 0 0 0.60127 0 0.20001] CT
[8 2 4 2] 0 setdash
2 LJ
2.5 LW
N
267.975 105.172 M
317.723 105.172 L
S
GR
GS
[0.60127 0 0 0.60127 193.2809 79.46409] CT
/Helvetica 20 F
GS
[1 0 0 1 0 0] CT
0 8 moveto 
1 -1 scale
(M = 8) t 
GR
GR
GS
[0.60127 0 0 0.60127 0 0.20001] CT
[8 8] 0 setdash
2 LJ
2.5 LW
N
267.975 131.828 M
317.723 131.828 L
S
GR
GS
[0.60127 0 0 0.60127 193.2809 95.49099] CT
/Helvetica 20 F
GS
[1 0 0 1 0 0] CT
0 8 moveto 
1 -1 scale
(Gaussian) t 
GR
GR
GS
[0.60127 0 0 0.60127 0 0.20001] CT
1 LJ
2.5 LW
N
267.975 158.483 M
317.723 158.483 L
S
GR
GS
[0.60127 0 0 0.60127 0 0.20001] CT
0.149 GC
10.0 ML
0.833 LW
N
263 174 M
263 63 L
411 63 L
411 174 L
cp
S
GR
%%Trailer
%%Pages: 1
%%EOF
