%!PS-Adobe-3.0 EPSF-3.0
%%Creator: (MATLAB, The Mathworks, Inc. Version 9.4.0.813654 \(R2018a\). Operating System: Windows 10)
%%Title: C:/Users/Francesco/Documents/gitRepo/authenticationProtocol/latex/figures/CA_powerConst.eps
%%CreationDate: 2018-07-31T10:35:32
%%Pages: (atend)
%%BoundingBox: 0 0 420 315
%%LanguageLevel: 3
%%EndComments
%%BeginProlog
%%BeginResource: procset (Apache XML Graphics Std ProcSet) 1.2 0
%%Version: 1.2 0
%%Copyright: (Copyright 2001-2003,2010 The Apache Software Foundation. License terms: http://www.apache.org/licenses/LICENSE-2.0)
/bd{bind def}bind def
/ld{load def}bd
/GR/grestore ld
/GS/gsave ld
/RM/rmoveto ld
/C/curveto ld
/t/show ld
/L/lineto ld
/ML/setmiterlimit ld
/CT/concat ld
/f/fill ld
/N/newpath ld
/S/stroke ld
/CC/setcmykcolor ld
/A/ashow ld
/cp/closepath ld
/RC/setrgbcolor ld
/LJ/setlinejoin ld
/GC/setgray ld
/LW/setlinewidth ld
/M/moveto ld
/re {4 2 roll M
1 index 0 rlineto
0 exch rlineto
neg 0 rlineto
cp } bd
/_ctm matrix def
/_tm matrix def
/BT { _ctm currentmatrix pop matrix _tm copy pop 0 0 moveto } bd
/ET { _ctm setmatrix } bd
/iTm { _ctm setmatrix _tm concat } bd
/Tm { _tm astore pop iTm 0 0 moveto } bd
/ux 0.0 def
/uy 0.0 def
/F {
  /Tp exch def
  /Tf exch def
  Tf findfont Tp scalefont setfont
  /cf Tf def  /cs Tp def
} bd
/ULS {currentpoint /uy exch def /ux exch def} bd
/ULE {
  /Tcx currentpoint pop def
  gsave
  newpath
  cf findfont cs scalefont dup
  /FontMatrix get 0 get /Ts exch def /FontInfo get dup
  /UnderlinePosition get Ts mul /To exch def
  /UnderlineThickness get Ts mul /Tt exch def
  ux uy To add moveto  Tcx uy To add lineto
  Tt setlinewidth stroke
  grestore
} bd
/OLE {
  /Tcx currentpoint pop def
  gsave
  newpath
  cf findfont cs scalefont dup
  /FontMatrix get 0 get /Ts exch def /FontInfo get dup
  /UnderlinePosition get Ts mul /To exch def
  /UnderlineThickness get Ts mul /Tt exch def
  ux uy To add cs add moveto Tcx uy To add cs add lineto
  Tt setlinewidth stroke
  grestore
} bd
/SOE {
  /Tcx currentpoint pop def
  gsave
  newpath
  cf findfont cs scalefont dup
  /FontMatrix get 0 get /Ts exch def /FontInfo get dup
  /UnderlinePosition get Ts mul /To exch def
  /UnderlineThickness get Ts mul /Tt exch def
  ux uy To add cs 10 mul 26 idiv add moveto Tcx uy To add cs 10 mul 26 idiv add lineto
  Tt setlinewidth stroke
  grestore
} bd
/QT {
/Y22 exch store
/X22 exch store
/Y21 exch store
/X21 exch store
currentpoint
/Y21 load 2 mul add 3 div exch
/X21 load 2 mul add 3 div exch
/X21 load 2 mul /X22 load add 3 div
/Y21 load 2 mul /Y22 load add 3 div
/X22 load /Y22 load curveto
} bd
/SSPD {
dup length /d exch dict def
{
/v exch def
/k exch def
currentpagedevice k known {
/cpdv currentpagedevice k get def
v cpdv ne {
/upd false def
/nullv v type /nulltype eq def
/nullcpdv cpdv type /nulltype eq def
nullv nullcpdv or
{
/upd true def
} {
/sametype v type cpdv type eq def
sametype {
v type /arraytype eq {
/vlen v length def
/cpdvlen cpdv length def
vlen cpdvlen eq {
0 1 vlen 1 sub {
/i exch def
/obj v i get def
/cpdobj cpdv i get def
obj cpdobj ne {
/upd true def
exit
} if
} for
} {
/upd true def
} ifelse
} {
v type /dicttype eq {
v {
/dv exch def
/dk exch def
/cpddv cpdv dk get def
dv cpddv ne {
/upd true def
exit
} if
} forall
} {
/upd true def
} ifelse
} ifelse
} if
} ifelse
upd true eq {
d k v put
} if
} if
} if
} forall
d length 0 gt {
d setpagedevice
} if
} bd
/RE { % /NewFontName [NewEncodingArray] /FontName RE -
  findfont dup length dict begin
  {
    1 index /FID ne
    {def} {pop pop} ifelse
  } forall
  /Encoding exch def
  /FontName 1 index def
  currentdict definefont pop
  end
} bind def
%%EndResource
%%BeginResource: procset (Apache XML Graphics EPS ProcSet) 1.0 0
%%Version: 1.0 0
%%Copyright: (Copyright 2002-2003 The Apache Software Foundation. License terms: http://www.apache.org/licenses/LICENSE-2.0)
/BeginEPSF { %def
/b4_Inc_state save def         % Save state for cleanup
/dict_count countdictstack def % Count objects on dict stack
/op_count count 1 sub def      % Count objects on operand stack
userdict begin                 % Push userdict on dict stack
/showpage { } def              % Redefine showpage, { } = null proc
0 setgray 0 setlinecap         % Prepare graphics state
1 setlinewidth 0 setlinejoin
10 setmiterlimit [ ] 0 setdash newpath
/languagelevel where           % If level not equal to 1 then
{pop languagelevel             % set strokeadjust and
1 ne                           % overprint to their defaults.
{false setstrokeadjust false setoverprint
} if
} if
} bd
/EndEPSF { %def
count op_count sub {pop} repeat            % Clean up stacks
countdictstack dict_count sub {end} repeat
b4_Inc_state restore
} bd
%%EndResource
%FOPBeginFontDict
%%IncludeResource: font Courier-Oblique
%%IncludeResource: font Courier-BoldOblique
%%IncludeResource: font Courier-Bold
%%IncludeResource: font ZapfDingbats
%%IncludeResource: font Symbol
%%IncludeResource: font Helvetica
%%IncludeResource: font Helvetica-Oblique
%%IncludeResource: font Helvetica-Bold
%%IncludeResource: font Helvetica-BoldOblique
%%IncludeResource: font Times-Roman
%%IncludeResource: font Times-Italic
%%IncludeResource: font Times-Bold
%%IncludeResource: font Times-BoldItalic
%%IncludeResource: font Courier
%FOPEndFontDict
%%BeginResource: encoding WinAnsiEncoding
/WinAnsiEncoding [
/.notdef /.notdef /.notdef /.notdef /.notdef
/.notdef /.notdef /.notdef /.notdef /.notdef
/.notdef /.notdef /.notdef /.notdef /.notdef
/.notdef /.notdef /.notdef /.notdef /.notdef
/.notdef /.notdef /.notdef /.notdef /.notdef
/.notdef /.notdef /.notdef /.notdef /.notdef
/.notdef /.notdef /space /exclam /quotedbl
/numbersign /dollar /percent /ampersand /quotesingle
/parenleft /parenright /asterisk /plus /comma
/hyphen /period /slash /zero /one
/two /three /four /five /six
/seven /eight /nine /colon /semicolon
/less /equal /greater /question /at
/A /B /C /D /E
/F /G /H /I /J
/K /L /M /N /O
/P /Q /R /S /T
/U /V /W /X /Y
/Z /bracketleft /backslash /bracketright /asciicircum
/underscore /quoteleft /a /b /c
/d /e /f /g /h
/i /j /k /l /m
/n /o /p /q /r
/s /t /u /v /w
/x /y /z /braceleft /bar
/braceright /asciitilde /bullet /Euro /bullet
/quotesinglbase /florin /quotedblbase /ellipsis /dagger
/daggerdbl /circumflex /perthousand /Scaron /guilsinglleft
/OE /bullet /Zcaron /bullet /bullet
/quoteleft /quoteright /quotedblleft /quotedblright /bullet
/endash /emdash /asciitilde /trademark /scaron
/guilsinglright /oe /bullet /zcaron /Ydieresis
/space /exclamdown /cent /sterling /currency
/yen /brokenbar /section /dieresis /copyright
/ordfeminine /guillemotleft /logicalnot /sfthyphen /registered
/macron /degree /plusminus /twosuperior /threesuperior
/acute /mu /paragraph /middot /cedilla
/onesuperior /ordmasculine /guillemotright /onequarter /onehalf
/threequarters /questiondown /Agrave /Aacute /Acircumflex
/Atilde /Adieresis /Aring /AE /Ccedilla
/Egrave /Eacute /Ecircumflex /Edieresis /Igrave
/Iacute /Icircumflex /Idieresis /Eth /Ntilde
/Ograve /Oacute /Ocircumflex /Otilde /Odieresis
/multiply /Oslash /Ugrave /Uacute /Ucircumflex
/Udieresis /Yacute /Thorn /germandbls /agrave
/aacute /acircumflex /atilde /adieresis /aring
/ae /ccedilla /egrave /eacute /ecircumflex
/edieresis /igrave /iacute /icircumflex /idieresis
/eth /ntilde /ograve /oacute /ocircumflex
/otilde /odieresis /divide /oslash /ugrave
/uacute /ucircumflex /udieresis /yacute /thorn
/ydieresis
] def
%%EndResource
%FOPBeginFontReencode
/Courier-Oblique findfont
dup length dict begin
  {1 index /FID ne {def} {pop pop} ifelse} forall
  /Encoding WinAnsiEncoding def
  currentdict
end
/Courier-Oblique exch definefont pop
/Courier-BoldOblique findfont
dup length dict begin
  {1 index /FID ne {def} {pop pop} ifelse} forall
  /Encoding WinAnsiEncoding def
  currentdict
end
/Courier-BoldOblique exch definefont pop
/Courier-Bold findfont
dup length dict begin
  {1 index /FID ne {def} {pop pop} ifelse} forall
  /Encoding WinAnsiEncoding def
  currentdict
end
/Courier-Bold exch definefont pop
/Helvetica findfont
dup length dict begin
  {1 index /FID ne {def} {pop pop} ifelse} forall
  /Encoding WinAnsiEncoding def
  currentdict
end
/Helvetica exch definefont pop
/Helvetica-Oblique findfont
dup length dict begin
  {1 index /FID ne {def} {pop pop} ifelse} forall
  /Encoding WinAnsiEncoding def
  currentdict
end
/Helvetica-Oblique exch definefont pop
/Helvetica-Bold findfont
dup length dict begin
  {1 index /FID ne {def} {pop pop} ifelse} forall
  /Encoding WinAnsiEncoding def
  currentdict
end
/Helvetica-Bold exch definefont pop
/Helvetica-BoldOblique findfont
dup length dict begin
  {1 index /FID ne {def} {pop pop} ifelse} forall
  /Encoding WinAnsiEncoding def
  currentdict
end
/Helvetica-BoldOblique exch definefont pop
/Times-Roman findfont
dup length dict begin
  {1 index /FID ne {def} {pop pop} ifelse} forall
  /Encoding WinAnsiEncoding def
  currentdict
end
/Times-Roman exch definefont pop
/Times-Italic findfont
dup length dict begin
  {1 index /FID ne {def} {pop pop} ifelse} forall
  /Encoding WinAnsiEncoding def
  currentdict
end
/Times-Italic exch definefont pop
/Times-Bold findfont
dup length dict begin
  {1 index /FID ne {def} {pop pop} ifelse} forall
  /Encoding WinAnsiEncoding def
  currentdict
end
/Times-Bold exch definefont pop
/Times-BoldItalic findfont
dup length dict begin
  {1 index /FID ne {def} {pop pop} ifelse} forall
  /Encoding WinAnsiEncoding def
  currentdict
end
/Times-BoldItalic exch definefont pop
/Courier findfont
dup length dict begin
  {1 index /FID ne {def} {pop pop} ifelse} forall
  /Encoding WinAnsiEncoding def
  currentdict
end
/Courier exch definefont pop
%FOPEndFontReencode
%%EndProlog
%%Page: 1 1
%%PageBoundingBox: 0 0 420 315
%%BeginPageSetup
[1 0 0 -1 0 315] CT
%%EndPageSetup
GS
[0.75 0 0 0.75 0 0] CT
1 GC
N
0 0 560 420 re
f
GR
GS
[0.75 0 0 0.75 0 0] CT
1 GC
N
0 0 560 420 re
f
GR
GS
[0.75 0 0 0.75 0 0] CT
1 GC
N
118.5 374 M
461.5 374 L
461.5 31 L
118.5 31 L
cp
f
GR
GS
[0.75 0 0 0.75 0 0] CT
0.873 GC
1 LJ
0.667 LW
N
118.5 374 M
118.5 31 L
S
GR
GS
[0.75 0 0 0.75 0 0] CT
0.873 GC
1 LJ
0.667 LW
N
175.667 374 M
175.667 31 L
S
GR
GS
[0.75 0 0 0.75 0 0] CT
0.873 GC
1 LJ
0.667 LW
N
232.833 374 M
232.833 31 L
S
GR
GS
[0.75 0 0 0.75 0 0] CT
0.873 GC
1 LJ
0.667 LW
N
290 374 M
290 31 L
S
GR
GS
[0.75 0 0 0.75 0 0] CT
0.873 GC
1 LJ
0.667 LW
N
347.167 374 M
347.167 31 L
S
GR
GS
[0.75 0 0 0.75 0 0] CT
0.873 GC
1 LJ
0.667 LW
N
404.333 374 M
404.333 31 L
S
GR
GS
[0.75 0 0 0.75 0 0] CT
0.873 GC
1 LJ
0.667 LW
N
461.5 374 M
461.5 31 L
S
GR
GS
[0.75 0 0 0.75 0 0] CT
0.873 GC
1 LJ
0.667 LW
N
461.5 374 M
118.5 374 L
S
GR
GS
[0.75 0 0 0.75 0 0] CT
0.873 GC
1 LJ
0.667 LW
N
461.5 325 M
118.5 325 L
S
GR
GS
[0.75 0 0 0.75 0 0] CT
0.873 GC
1 LJ
0.667 LW
N
461.5 276 M
118.5 276 L
S
GR
GS
[0.75 0 0 0.75 0 0] CT
0.873 GC
1 LJ
0.667 LW
N
461.5 227 M
118.5 227 L
S
GR
GS
[0.75 0 0 0.75 0 0] CT
0.873 GC
1 LJ
0.667 LW
N
461.5 178 M
118.5 178 L
S
GR
GS
[0.75 0 0 0.75 0 0] CT
0.873 GC
1 LJ
0.667 LW
N
461.5 129 M
118.5 129 L
S
GR
GS
[0.75 0 0 0.75 0 0] CT
0.873 GC
1 LJ
0.667 LW
N
461.5 80 M
118.5 80 L
S
GR
GS
[0.75 0 0 0.75 0 0] CT
0.873 GC
1 LJ
0.667 LW
N
461.5 31 M
118.5 31 L
S
GR
GS
[0.75 0 0 0.75 0 0] CT
0.149 GC
2 setlinecap
1 LJ
0.667 LW
N
118.5 374 M
461.5 374 L
S
GR
GS
[0.75 0 0 0.75 0 0] CT
0.149 GC
2 setlinecap
1 LJ
0.667 LW
N
118.5 374 M
118.5 370.57 L
S
GR
GS
[0.75 0 0 0.75 0 0] CT
0.149 GC
2 setlinecap
1 LJ
0.667 LW
N
175.667 374 M
175.667 370.57 L
S
GR
GS
[0.75 0 0 0.75 0 0] CT
0.149 GC
2 setlinecap
1 LJ
0.667 LW
N
232.833 374 M
232.833 370.57 L
S
GR
GS
[0.75 0 0 0.75 0 0] CT
0.149 GC
2 setlinecap
1 LJ
0.667 LW
N
290 374 M
290 370.57 L
S
GR
GS
[0.75 0 0 0.75 0 0] CT
0.149 GC
2 setlinecap
1 LJ
0.667 LW
N
347.167 374 M
347.167 370.57 L
S
GR
GS
[0.75 0 0 0.75 0 0] CT
0.149 GC
2 setlinecap
1 LJ
0.667 LW
N
404.333 374 M
404.333 370.57 L
S
GR
GS
[0.75 0 0 0.75 0 0] CT
0.149 GC
2 setlinecap
1 LJ
0.667 LW
N
461.5 374 M
461.5 370.57 L
S
GR
GS
[0.75 0 0 0.75 88.875 284.50001] CT
0.149 GC
/Helvetica 13.333 F
GS
[1 0 0 1 0 0] CT
-4 14 moveto 
1 -1 scale
(0) t 
GR
GR
GS
[0.75 0 0 0.75 131.75 284.50001] CT
0.149 GC
/Helvetica 13.333 F
GS
[1 0 0 1 0 0] CT
-9.5 14 moveto 
1 -1 scale
(0.5) t 
GR
GR
GS
[0.75 0 0 0.75 174.625 284.50001] CT
0.149 GC
/Helvetica 13.333 F
GS
[1 0 0 1 0 0] CT
-4 14 moveto 
1 -1 scale
(1) t 
GR
GR
GS
[0.75 0 0 0.75 217.5 284.50001] CT
0.149 GC
/Helvetica 13.333 F
GS
[1 0 0 1 0 0] CT
-9.5 14 moveto 
1 -1 scale
(1.5) t 
GR
GR
GS
[0.75 0 0 0.75 260.37499 284.50001] CT
0.149 GC
/Helvetica 13.333 F
GS
[1 0 0 1 0 0] CT
-4 14 moveto 
1 -1 scale
(2) t 
GR
GR
GS
[0.75 0 0 0.75 303.25001 284.50001] CT
0.149 GC
/Helvetica 13.333 F
GS
[1 0 0 1 0 0] CT
-9.5 14 moveto 
1 -1 scale
(2.5) t 
GR
GR
GS
[0.75 0 0 0.75 346.125 284.50001] CT
0.149 GC
/Helvetica 13.333 F
GS
[1 0 0 1 0 0] CT
-4 14 moveto 
1 -1 scale
(3) t 
GR
GR
GS
[0.75 0 0 0.75 217.50011 298.24999] CT
0.149 GC
N
-6.141 15.68 M
-6.328 15.68 -6.328 15.43 QT
-6.25 15.008 -6.094 15.008 QT
-5.328 15.008 -4.766 14.703 QT
-4.203 14.399 -3.797 13.758 QT
-3.75 13.727 -3.75 13.727 QT
3.031 2.289 L
3.172 2.086 3.391 2.086 QT
3.641 2.086 L
3.703 2.086 3.758 2.11 QT
3.813 2.133 3.852 2.18 QT
3.891 2.227 3.891 2.289 QT
5.047 14.555 L
5.047 14.633 5.125 14.805 QT
5.313 15.008 6.547 15.008 QT
6.734 15.008 6.734 15.258 QT
6.672 15.508 6.633 15.594 QT
6.594 15.68 6.422 15.68 QT
1.672 15.68 L
1.484 15.68 1.484 15.43 QT
1.594 15.008 1.734 15.008 QT
3.25 15.008 3.328 14.508 QT
3.047 11.367 L
-1.641 11.367 L
-3.156 13.914 L
-3.297 14.117 -3.297 14.383 QT
-3.297 14.727 -2.977 14.867 QT
-2.656 15.008 -2.266 15.008 QT
-2.078 15.008 -2.078 15.258 QT
-2.141 15.524 -2.18 15.602 QT
-2.219 15.68 -2.391 15.68 QT
-6.141 15.68 L
cp
-1.266 10.696 M
2.969 10.696 L
2.406 4.539 L
-1.266 10.696 L
cp
f
GR
GS
[0.75 0 0 0.75 0 0] CT
0.149 GC
2 setlinecap
1 LJ
0.667 LW
N
118.5 374 M
118.5 31 L
S
GR
GS
[0.75 0 0 0.75 0 0] CT
0.149 GC
2 setlinecap
1 LJ
0.667 LW
N
118.5 374 M
121.93 374 L
S
GR
GS
[0.75 0 0 0.75 0 0] CT
0.149 GC
2 setlinecap
1 LJ
0.667 LW
N
118.5 325 M
121.93 325 L
S
GR
GS
[0.75 0 0 0.75 0 0] CT
0.149 GC
2 setlinecap
1 LJ
0.667 LW
N
118.5 276 M
121.93 276 L
S
GR
GS
[0.75 0 0 0.75 0 0] CT
0.149 GC
2 setlinecap
1 LJ
0.667 LW
N
118.5 227 M
121.93 227 L
S
GR
GS
[0.75 0 0 0.75 0 0] CT
0.149 GC
2 setlinecap
1 LJ
0.667 LW
N
118.5 178 M
121.93 178 L
S
GR
GS
[0.75 0 0 0.75 0 0] CT
0.149 GC
2 setlinecap
1 LJ
0.667 LW
N
118.5 129 M
121.93 129 L
S
GR
GS
[0.75 0 0 0.75 0 0] CT
0.149 GC
2 setlinecap
1 LJ
0.667 LW
N
118.5 80 M
121.93 80 L
S
GR
GS
[0.75 0 0 0.75 0 0] CT
0.149 GC
2 setlinecap
1 LJ
0.667 LW
N
118.5 31 M
121.93 31 L
S
GR
GS
[0.75 0 0 0.75 84.875 280.5] CT
0.149 GC
/Helvetica 13.333 F
GS
[1 0 0 1 0 0] CT
-8 5.5 moveto 
1 -1 scale
(0) t 
GR
GR
GS
[0.75 0 0 0.75 84.875 243.75] CT
0.149 GC
/Helvetica 13.333 F
GS
[1 0 0 1 0 0] CT
-19 5.5 moveto 
1 -1 scale
(0.5) t 
GR
GR
GS
[0.75 0 0 0.75 84.875 207] CT
0.149 GC
/Helvetica 13.333 F
GS
[1 0 0 1 0 0] CT
-8 5.5 moveto 
1 -1 scale
(1) t 
GR
GR
GS
[0.75 0 0 0.75 84.875 170.25] CT
0.149 GC
/Helvetica 13.333 F
GS
[1 0 0 1 0 0] CT
-19 5.5 moveto 
1 -1 scale
(1.5) t 
GR
GR
GS
[0.75 0 0 0.75 84.875 133.5] CT
0.149 GC
/Helvetica 13.333 F
GS
[1 0 0 1 0 0] CT
-8 5.5 moveto 
1 -1 scale
(2) t 
GR
GR
GS
[0.75 0 0 0.75 84.875 96.75] CT
0.149 GC
/Helvetica 13.333 F
GS
[1 0 0 1 0 0] CT
-19 5.5 moveto 
1 -1 scale
(2.5) t 
GR
GR
GS
[0.75 0 0 0.75 84.875 60] CT
0.149 GC
/Helvetica 13.333 F
GS
[1 0 0 1 0 0] CT
-8 5.5 moveto 
1 -1 scale
(3) t 
GR
GR
GS
[0.75 0 0 0.75 84.875 23.25] CT
0.149 GC
/Helvetica 13.333 F
GS
[1 0 0 1 0 0] CT
-19 5.5 moveto 
1 -1 scale
(3.5) t 
GR
GR
GS
[0 -0.75 0.75 0 67.625 151.87487] CT
0.149 GC
N
-9.256 -10.814 M
-9.256 -9.673 -8.819 -8.806 QT
-8.381 -7.939 -7.545 -7.454 QT
-6.709 -6.97 -5.569 -6.97 QT
-4.366 -6.97 -3.256 -7.579 QT
-2.147 -8.189 -1.366 -9.22 QT
-0.584 -10.251 -0.287 -11.392 QT
-0.256 -11.501 -0.147 -11.501 QT
0.088 -11.501 L
0.166 -11.501 0.213 -11.454 QT
0.259 -11.408 0.259 -11.345 QT
0.259 -11.329 0.244 -11.283 QT
-0.084 -9.97 -1.022 -8.814 QT
-1.959 -7.658 -3.256 -6.978 QT
-4.553 -6.298 -5.928 -6.298 QT
-7.412 -6.298 -8.592 -6.97 QT
-9.772 -7.642 -10.42 -8.829 QT
-11.069 -10.017 -11.069 -11.501 QT
-11.069 -13.111 -10.358 -14.673 QT
-9.647 -16.236 -8.436 -17.454 QT
-7.225 -18.673 -5.686 -19.392 QT
-4.147 -20.111 -2.553 -20.111 QT
-1.928 -20.111 -1.35 -19.923 QT
-0.772 -19.736 -0.28 -19.345 QT
0.213 -18.954 0.525 -18.454 QT
2.025 -20.079 L
2.025 -20.111 2.119 -20.111 QT
2.228 -20.111 L
2.306 -20.111 2.353 -20.048 QT
2.4 -19.986 2.4 -19.923 QT
1.103 -14.798 L
1.103 -14.658 0.963 -14.658 QT
0.619 -14.658 L
0.463 -14.658 0.463 -14.876 QT
0.541 -15.298 0.541 -15.876 QT
0.541 -16.798 0.228 -17.626 QT
-0.084 -18.454 -0.748 -18.954 QT
-1.412 -19.454 -2.366 -19.454 QT
-3.912 -19.454 -5.209 -18.673 QT
-6.506 -17.892 -7.397 -16.626 QT
-8.287 -15.361 -8.772 -13.814 QT
-9.256 -12.267 -9.256 -10.814 QT
cp
f
GR
GS
[0 -0.75 0.75 0 67.625 151.87487] CT
0.149 GC
N
1.882 -3.92 M
1.757 -3.92 1.757 -4.092 QT
1.82 -4.373 1.929 -4.373 QT
2.46 -4.373 2.843 -4.584 QT
3.226 -4.795 3.507 -5.233 QT
3.523 -5.264 3.523 -5.264 QT
8.163 -13.092 L
8.273 -13.233 8.413 -13.233 QT
8.585 -13.233 L
8.617 -13.233 8.656 -13.217 QT
8.695 -13.201 8.726 -13.162 QT
8.757 -13.123 8.757 -13.092 QT
9.538 -4.686 L
9.538 -4.639 9.601 -4.514 QT
9.726 -4.373 10.57 -4.373 QT
10.71 -4.373 10.71 -4.201 QT
10.663 -4.029 10.632 -3.975 QT
10.601 -3.92 10.476 -3.92 QT
7.226 -3.92 L
7.117 -3.92 7.117 -4.092 QT
7.179 -4.373 7.288 -4.373 QT
8.32 -4.373 8.382 -4.733 QT
8.179 -6.873 L
4.976 -6.873 L
3.929 -5.123 L
3.835 -4.983 3.835 -4.795 QT
3.835 -4.576 4.054 -4.475 QT
4.273 -4.373 4.538 -4.373 QT
4.663 -4.373 4.663 -4.201 QT
4.617 -4.029 4.593 -3.975 QT
4.57 -3.92 4.46 -3.92 QT
1.882 -3.92 L
cp
5.226 -7.326 M
8.132 -7.326 L
7.742 -11.545 L
5.226 -7.326 L
cp
f
GR
GS
[0.75 0 0 0.75 0 0] CT
0 0.447 0.741 RC
1 LJ
2 LW
N
118.5 374 M
119.643 374 L
120.787 374 L
121.93 374 L
123.073 374 L
124.217 374 L
125.36 374 L
126.503 374 L
127.647 374 L
128.79 374 L
129.933 374 L
131.077 374 L
132.22 374 L
133.363 374 L
134.507 374 L
135.65 374 L
136.793 374 L
137.937 374 L
139.08 374 L
140.223 374 L
141.367 374 L
142.51 374 L
143.653 374 L
144.797 374 L
145.94 374 L
147.083 374 L
148.227 374 L
149.37 374 L
150.513 374 L
151.657 370.598 L
152.8 367.018 L
153.943 363.527 L
155.087 360.12 L
156.23 356.793 L
157.373 353.543 L
158.517 350.366 L
159.66 347.258 L
160.803 344.217 L
161.947 341.241 L
163.09 338.326 L
164.233 335.469 L
165.377 332.669 L
166.52 329.924 L
167.663 327.231 L
168.807 324.588 L
169.95 321.994 L
171.093 319.446 L
172.237 316.944 L
173.38 314.485 L
174.523 312.068 L
175.667 309.692 L
176.81 307.355 L
177.953 305.056 L
179.097 302.794 L
180.24 300.567 L
181.383 298.375 L
182.527 296.217 L
183.67 294.09 L
184.813 291.996 L
185.957 289.932 L
187.1 287.897 L
188.243 285.892 L
189.387 283.914 L
190.53 281.964 L
191.673 280.041 L
192.817 278.143 L
193.96 276.27 L
195.103 274.422 L
196.247 272.598 L
197.39 270.797 L
198.533 269.018 L
199.677 267.262 L
200.82 265.527 L
201.963 263.813 L
203.107 262.12 L
204.25 260.447 L
205.393 258.793 L
206.537 257.159 L
207.68 255.543 L
208.823 253.945 L
209.967 252.366 L
211.11 250.803 L
212.253 249.258 L
213.397 247.73 L
214.54 246.217 L
215.683 244.721 L
216.827 243.241 L
217.97 241.776 L
219.113 240.326 L
220.257 238.89 L
221.4 237.469 L
222.543 236.062 L
223.687 234.669 L
224.83 233.29 L
225.973 231.924 L
227.117 230.571 L
228.26 229.231 L
229.403 227.903 L
230.547 226.588 L
231.69 225.285 L
232.833 223.994 L
233.977 222.714 L
235.12 221.446 L
236.263 220.19 L
237.407 218.944 L
238.55 217.709 L
239.693 216.485 L
240.837 215.271 L
241.98 214.068 L
243.123 212.875 L
244.267 211.692 L
245.41 210.519 L
246.553 209.355 L
247.697 208.201 L
248.84 207.056 L
249.983 205.92 L
251.127 204.794 L
252.27 203.676 L
253.413 202.567 L
254.557 201.467 L
255.7 200.375 L
256.843 199.292 L
257.987 198.217 L
259.13 197.149 L
260.273 196.09 L
261.417 195.039 L
262.56 193.996 L
263.703 192.96 L
264.847 191.932 L
265.99 190.911 L
267.133 189.897 L
268.277 188.891 L
269.42 187.892 L
270.563 186.9 L
271.707 185.915 L
272.85 184.936 L
273.993 183.964 L
275.137 182.999 L
276.28 182.041 L
277.423 181.089 L
278.567 180.143 L
279.71 179.203 L
280.853 178.27 L
281.997 177.343 L
283.14 176.422 L
284.283 175.507 L
285.427 174.598 L
286.57 173.694 L
287.713 172.797 L
288.857 171.905 L
290 171.018 L
291.143 170.137 L
292.287 169.262 L
293.43 168.392 L
294.573 167.527 L
295.717 166.668 L
296.86 165.813 L
298.003 164.964 L
299.147 164.12 L
300.29 163.281 L
301.433 162.447 L
302.577 161.618 L
303.72 160.793 L
304.863 159.974 L
306.007 159.159 L
307.15 158.348 L
308.293 157.543 L
309.437 156.742 L
310.58 155.945 L
311.723 155.153 L
312.867 154.366 L
314.01 153.582 L
315.153 152.803 L
316.297 152.029 L
317.44 151.258 L
318.583 150.492 L
319.727 149.73 L
320.87 148.972 L
322.013 148.217 L
323.157 147.467 L
324.3 146.721 L
325.443 145.979 L
326.587 145.241 L
327.73 144.506 L
328.873 143.776 L
330.017 143.049 L
331.16 142.326 L
332.303 141.606 L
333.447 140.89 L
334.59 140.178 L
335.733 139.469 L
336.877 138.764 L
338.02 138.062 L
339.163 137.364 L
340.307 136.669 L
341.45 135.978 L
342.593 135.29 L
343.737 134.605 L
344.88 133.924 L
346.023 133.246 L
347.167 132.571 L
348.31 131.899 L
349.453 131.231 L
350.597 130.566 L
351.74 129.903 L
352.883 129.244 L
354.027 128.588 L
355.17 127.935 L
356.313 127.285 L
357.457 126.638 L
358.6 125.994 L
359.743 125.353 L
360.887 124.714 L
362.03 124.079 L
363.173 123.446 L
364.317 122.817 L
365.46 122.19 L
366.603 121.565 L
367.747 120.944 L
368.89 120.325 L
370.033 119.709 L
371.177 119.096 L
372.32 118.485 L
373.463 117.877 L
374.607 117.271 L
375.75 116.669 L
376.893 116.068 L
378.037 115.47 L
379.18 114.875 L
380.323 114.282 L
381.467 113.692 L
382.61 113.104 L
383.753 112.519 L
384.897 111.936 L
386.04 111.355 L
387.183 110.777 L
388.327 110.201 L
389.47 109.627 L
390.613 109.056 L
391.757 108.487 L
392.9 107.92 L
394.043 107.356 L
395.187 106.794 L
396.33 106.234 L
397.473 105.676 L
398.617 105.121 L
399.76 104.567 L
400.903 104.016 L
402.047 103.467 L
403.19 102.92 L
404.333 102.375 L
405.477 101.832 L
406.62 101.292 L
407.763 100.753 L
408.907 100.217 L
410.05 99.682 L
411.193 99.149 L
412.337 98.619 L
413.48 98.09 L
414.623 97.564 L
415.767 97.039 L
416.91 96.517 L
418.053 95.996 L
419.197 95.477 L
420.34 94.96 L
421.483 94.445 L
422.627 93.932 L
423.77 93.42 L
424.913 92.911 L
426.057 92.403 L
427.2 91.897 L
428.343 91.393 L
429.487 90.891 L
430.63 90.391 L
431.773 89.892 L
432.917 89.395 L
434.06 88.9 L
435.203 88.406 L
436.347 87.915 L
437.49 87.424 L
438.633 86.936 L
439.777 86.449 L
440.92 85.964 L
442.063 85.481 L
443.207 84.999 L
444.35 84.519 L
445.493 84.041 L
446.637 83.564 L
447.78 83.089 L
448.923 82.615 L
450.067 82.143 L
451.21 81.672 L
452.353 81.203 L
453.497 80.736 L
454.64 80.27 L
455.783 79.806 L
456.927 79.343 L
458.07 78.882 L
459.213 78.422 L
460.357 77.964 L
461.5 77.507 L
S
GR
GS
[0.75 0 0 0.75 0 0] CT
0.851 0.325 0.098 RC
1 LJ
2 LW
N
118.5 374 M
119.643 374 L
120.787 374 L
121.93 374 L
123.073 374 L
124.217 374 L
125.36 374 L
126.503 374 L
127.647 374 L
128.79 374 L
129.933 374 L
131.077 374 L
132.22 374 L
133.363 374 L
134.507 374 L
135.65 374 L
136.793 374 L
137.937 374 L
139.08 374 L
140.223 374 L
141.367 374 L
142.51 374 L
143.653 374 L
144.797 374 L
145.94 374 L
147.083 374 L
148.227 374 L
149.37 374 L
150.513 374 L
151.657 374 L
152.8 374 L
153.943 374 L
155.087 374 L
156.23 374 L
157.373 374 L
158.517 374 L
159.66 374 L
160.803 374 L
161.947 374 L
163.09 374 L
164.233 374 L
165.377 374 L
166.52 374 L
167.663 374 L
168.807 374 L
169.95 374 L
171.093 374 L
172.237 374 L
173.38 374 L
174.523 374 L
175.667 374 L
176.81 374 L
177.953 374 L
179.097 374 L
180.24 374 L
181.383 374 L
182.527 374 L
183.67 374 L
184.813 374 L
185.957 374 L
187.1 374 L
188.243 374 L
189.387 374 L
190.53 374 L
191.673 374 L
192.817 374 L
193.96 374 L
195.103 374 L
196.247 374 L
197.39 374 L
198.533 374 L
199.677 374 L
200.82 374 L
201.963 374 L
203.107 374 L
204.25 374 L
205.393 374 L
206.537 374 L
207.68 372.936 L
208.823 371.652 L
209.967 370.38 L
211.11 369.119 L
212.253 367.869 L
213.397 366.63 L
214.54 365.402 L
215.683 364.185 L
216.827 362.978 L
217.97 361.781 L
219.113 360.594 L
220.257 359.417 L
221.4 358.249 L
222.543 357.092 L
223.687 355.943 L
224.83 354.804 L
225.973 353.674 L
227.117 352.553 L
228.26 351.441 L
229.403 350.338 L
230.547 349.243 L
231.69 348.156 L
232.833 347.078 L
233.977 346.008 L
235.12 344.946 L
236.263 343.892 L
237.407 342.845 L
238.55 341.807 L
239.693 340.776 L
240.837 339.752 L
241.98 338.736 L
243.123 337.727 L
244.267 336.725 L
245.41 335.73 L
246.553 334.742 L
247.697 333.761 L
248.84 332.787 L
249.983 331.819 L
251.127 330.858 L
252.27 329.904 L
253.413 328.956 L
254.557 328.014 L
255.7 327.078 L
256.843 326.149 L
257.987 325.226 L
259.13 324.308 L
260.273 323.397 L
261.417 322.491 L
262.56 321.591 L
263.703 320.697 L
264.847 319.809 L
265.99 318.926 L
267.133 318.048 L
268.277 317.176 L
269.42 316.309 L
270.563 315.448 L
271.707 314.592 L
272.85 313.741 L
273.993 312.895 L
275.137 312.054 L
276.28 311.218 L
277.423 310.387 L
278.567 309.56 L
279.71 308.739 L
280.853 307.922 L
281.997 307.11 L
283.14 306.303 L
284.283 305.5 L
285.427 304.702 L
286.57 303.908 L
287.713 303.119 L
288.857 302.334 L
290 301.553 L
291.143 300.777 L
292.287 300.005 L
293.43 299.237 L
294.573 298.473 L
295.717 297.714 L
296.86 296.958 L
298.003 296.207 L
299.147 295.459 L
300.29 294.715 L
301.433 293.976 L
302.577 293.24 L
303.72 292.508 L
304.863 291.779 L
306.007 291.055 L
307.15 290.334 L
308.293 289.617 L
309.437 288.903 L
310.58 288.193 L
311.723 287.486 L
312.867 286.783 L
314.01 286.084 L
315.153 285.388 L
316.297 284.695 L
317.44 284.006 L
318.583 283.32 L
319.727 282.637 L
320.87 281.958 L
322.013 281.282 L
323.157 280.609 L
324.3 279.94 L
325.443 279.273 L
326.587 278.61 L
327.73 277.949 L
328.873 277.292 L
330.017 276.638 L
331.16 275.987 L
332.303 275.339 L
333.447 274.693 L
334.59 274.051 L
335.733 273.412 L
336.877 272.775 L
338.02 272.141 L
339.163 271.511 L
340.307 270.883 L
341.45 270.257 L
342.593 269.635 L
343.737 269.015 L
344.88 268.398 L
346.023 267.784 L
347.167 267.172 L
348.31 266.563 L
349.453 265.956 L
350.597 265.352 L
351.74 264.751 L
352.883 264.152 L
354.027 263.556 L
355.17 262.962 L
356.313 262.371 L
357.457 261.782 L
358.6 261.196 L
359.743 260.612 L
360.887 260.03 L
362.03 259.451 L
363.173 258.874 L
364.317 258.3 L
365.46 257.728 L
366.603 257.158 L
367.747 256.591 L
368.89 256.025 L
370.033 255.462 L
371.177 254.902 L
372.32 254.343 L
373.463 253.787 L
374.607 253.232 L
375.75 252.68 L
376.893 252.131 L
378.037 251.583 L
379.18 251.037 L
380.323 250.494 L
381.467 249.952 L
382.61 249.413 L
383.753 248.875 L
384.897 248.34 L
386.04 247.807 L
387.183 247.276 L
388.327 246.746 L
389.47 246.219 L
390.613 245.694 L
391.757 245.17 L
392.9 244.649 L
394.043 244.129 L
395.187 243.612 L
396.33 243.096 L
397.473 242.582 L
398.617 242.07 L
399.76 241.56 L
400.903 241.051 L
402.047 240.545 L
403.19 240.04 L
404.333 239.537 L
405.477 239.036 L
406.62 238.537 L
407.763 238.039 L
408.907 237.543 L
410.05 237.049 L
411.193 236.557 L
412.337 236.066 L
413.48 235.577 L
414.623 235.09 L
415.767 234.604 L
416.91 234.12 L
418.053 233.638 L
419.197 233.157 L
420.34 232.678 L
421.483 232.2 L
422.627 231.724 L
423.77 231.25 L
424.913 230.778 L
426.057 230.306 L
427.2 229.837 L
428.343 229.369 L
429.487 228.903 L
430.63 228.438 L
431.773 227.974 L
432.917 227.512 L
434.06 227.052 L
435.203 226.593 L
436.347 226.136 L
437.49 225.68 L
438.633 225.226 L
439.777 224.773 L
440.92 224.321 L
442.063 223.871 L
443.207 223.422 L
444.35 222.975 L
445.493 222.529 L
446.637 222.085 L
447.78 221.642 L
448.923 221.2 L
450.067 220.76 L
451.21 220.321 L
452.353 219.883 L
453.497 219.447 L
454.64 219.012 L
455.783 218.579 L
456.927 218.147 L
458.07 217.716 L
459.213 217.286 L
460.357 216.858 L
461.5 216.431 L
S
GR
GS
[0.75 0 0 0.75 0 0] CT
0.929 0.694 0.125 RC
1 LJ
2 LW
N
118.5 374 M
119.643 374 L
120.787 374 L
121.93 374 L
123.073 374 L
124.217 374 L
125.36 374 L
126.503 374 L
127.647 374 L
128.79 374 L
129.933 374 L
131.077 374 L
132.22 374 L
133.363 374 L
134.507 374 L
135.65 374 L
136.793 374 L
137.937 374 L
139.08 374 L
140.223 374 L
141.367 374 L
142.51 374 L
143.653 374 L
144.797 374 L
145.94 374 L
147.083 374 L
148.227 374 L
149.37 374 L
150.513 374 L
151.657 374 L
152.8 374 L
153.943 374 L
155.087 374 L
156.23 374 L
157.373 374 L
158.517 374 L
159.66 374 L
160.803 374 L
161.947 374 L
163.09 374 L
164.233 374 L
165.377 374 L
166.52 374 L
167.663 374 L
168.807 374 L
169.95 374 L
171.093 374 L
172.237 374 L
173.38 374 L
174.523 374 L
175.667 374 L
176.81 374 L
177.953 374 L
179.097 374 L
180.24 374 L
181.383 374 L
182.527 374 L
183.67 374 L
184.813 374 L
185.957 374 L
187.1 374 L
188.243 374 L
189.387 374 L
190.53 374 L
191.673 374 L
192.817 374 L
193.96 374 L
195.103 374 L
196.247 374 L
197.39 374 L
198.533 374 L
199.677 374 L
200.82 374 L
201.963 374 L
203.107 374 L
204.25 374 L
205.393 374 L
206.537 374 L
207.68 374 L
208.823 374 L
209.967 374 L
211.11 374 L
212.253 374 L
213.397 374 L
214.54 374 L
215.683 374 L
216.827 374 L
217.97 374 L
219.113 374 L
220.257 374 L
221.4 374 L
222.543 374 L
223.687 374 L
224.83 374 L
225.973 374 L
227.117 374 L
228.26 374 L
229.403 374 L
230.547 374 L
231.69 374 L
232.833 374 L
233.977 374 L
235.12 374 L
236.263 374 L
237.407 374 L
238.55 374 L
239.693 374 L
240.837 374 L
241.98 374 L
243.123 374 L
244.267 374 L
245.41 374 L
246.553 374 L
247.697 374 L
248.84 374 L
249.983 374 L
251.127 374 L
252.27 374 L
253.413 374 L
254.557 374 L
255.7 374 L
256.843 374 L
257.987 374 L
259.13 374 L
260.273 374 L
261.417 374 L
262.56 374 L
263.703 374 L
264.847 374 L
265.99 374 L
267.133 374 L
268.277 374 L
269.42 374 L
270.563 374 L
271.707 374 L
272.85 374 L
273.993 374 L
275.137 374 L
276.28 374 L
277.423 374 L
278.567 374 L
279.71 374 L
280.853 374 L
281.997 374 L
283.14 374 L
284.283 374 L
285.427 374 L
286.57 374 L
287.713 374 L
288.857 374 L
290 374 L
291.143 374 L
292.287 374 L
293.43 374 L
294.573 374 L
295.717 374 L
296.86 374 L
298.003 374 L
299.147 374 L
300.29 374 L
301.433 374 L
302.577 374 L
303.72 374 L
304.863 374 L
306.007 374 L
307.15 374 L
308.293 374 L
309.437 373.894 L
310.58 373.365 L
311.723 372.839 L
312.867 372.314 L
314.01 371.791 L
315.153 371.271 L
316.297 370.752 L
317.44 370.235 L
318.583 369.72 L
319.727 369.207 L
320.87 368.695 L
322.013 368.186 L
323.157 367.678 L
324.3 367.172 L
325.443 366.668 L
326.587 366.166 L
327.73 365.665 L
328.873 365.167 L
330.017 364.67 L
331.16 364.175 L
332.303 363.681 L
333.447 363.189 L
334.59 362.699 L
335.733 362.211 L
336.877 361.724 L
338.02 361.239 L
339.163 360.756 L
340.307 360.274 L
341.45 359.794 L
342.593 359.316 L
343.737 358.839 L
344.88 358.363 L
346.023 357.89 L
347.167 357.418 L
348.31 356.947 L
349.453 356.478 L
350.597 356.011 L
351.74 355.545 L
352.883 355.081 L
354.027 354.618 L
355.17 354.157 L
356.313 353.697 L
357.457 353.239 L
358.6 352.782 L
359.743 352.326 L
360.887 351.873 L
362.03 351.42 L
363.173 350.969 L
364.317 350.52 L
365.46 350.071 L
366.603 349.625 L
367.747 349.179 L
368.89 348.736 L
370.033 348.293 L
371.177 347.852 L
372.32 347.412 L
373.463 346.974 L
374.607 346.537 L
375.75 346.101 L
376.893 345.667 L
378.037 345.234 L
379.18 344.802 L
380.323 344.371 L
381.467 343.942 L
382.61 343.515 L
383.753 343.088 L
384.897 342.663 L
386.04 342.239 L
387.183 341.816 L
388.327 341.395 L
389.47 340.975 L
390.613 340.556 L
391.757 340.138 L
392.9 339.722 L
394.043 339.306 L
395.187 338.892 L
396.33 338.48 L
397.473 338.068 L
398.617 337.658 L
399.76 337.248 L
400.903 336.84 L
402.047 336.434 L
403.19 336.028 L
404.333 335.623 L
405.477 335.22 L
406.62 334.818 L
407.763 334.417 L
408.907 334.017 L
410.05 333.618 L
411.193 333.22 L
412.337 332.824 L
413.48 332.428 L
414.623 332.034 L
415.767 331.64 L
416.91 331.248 L
418.053 330.857 L
419.197 330.467 L
420.34 330.078 L
421.483 329.69 L
422.627 329.303 L
423.77 328.918 L
424.913 328.533 L
426.057 328.149 L
427.2 327.767 L
428.343 327.385 L
429.487 327.004 L
430.63 326.625 L
431.773 326.246 L
432.917 325.869 L
434.06 325.492 L
435.203 325.117 L
436.347 324.742 L
437.49 324.369 L
438.633 323.996 L
439.777 323.625 L
440.92 323.254 L
442.063 322.884 L
443.207 322.516 L
444.35 322.148 L
445.493 321.781 L
446.637 321.415 L
447.78 321.051 L
448.923 320.687 L
450.067 320.324 L
451.21 319.962 L
452.353 319.6 L
453.497 319.24 L
454.64 318.881 L
455.783 318.523 L
456.927 318.165 L
458.07 317.808 L
459.213 317.453 L
460.357 317.098 L
461.5 316.744 L
S
GR
GS
[0.75 0 0 0.75 0 0] CT
1 GC
N
269 104 M
269 42 L
129 42 L
129 104 L
cp
f
GR
GS
[0.75 0 0 0.75 131.99796 40.11661] CT
N
3 4.027 M
2.281 4.027 1.734 3.684 QT
1.188 3.34 0.883 2.762 QT
0.578 2.184 0.578 1.481 QT
0.578 0.746 0.914 -0.074 QT
1.25 -0.894 1.836 -1.574 QT
2.422 -2.254 3.156 -2.66 QT
3.891 -3.066 4.656 -3.066 QT
8.688 -3.066 L
8.859 -3.066 8.977 -2.957 QT
9.094 -2.848 9.094 -2.66 QT
9.094 -2.426 8.922 -2.246 QT
8.75 -2.066 8.516 -2.066 QT
6.563 -2.066 L
7.031 -1.379 7.031 -0.41 QT
7.031 0.402 6.719 1.184 QT
6.406 1.965 5.852 2.606 QT
5.297 3.246 4.555 3.637 QT
3.813 4.027 3 4.027 QT
cp
3.016 3.59 M
3.891 3.59 4.563 2.91 QT
5.234 2.231 5.594 1.238 QT
5.953 0.246 5.953 -0.598 QT
5.953 -1.285 5.578 -1.676 QT
5.203 -2.066 4.516 -2.066 QT
3.594 -2.066 2.938 -1.441 QT
2.281 -0.816 1.961 0.129 QT
1.641 1.074 1.641 1.949 QT
1.641 2.637 2 3.113 QT
2.359 3.59 3.016 3.59 QT
cp
f
GR
GS
[0.75 0 0 0.75 131.99796 40.11661] CT
N
10.264 -1.966 M
10.264 -2.263 L
10.264 -2.294 10.279 -2.326 QT
11.998 -4.216 L
12.389 -4.638 12.623 -4.919 QT
12.857 -5.201 13.099 -5.568 QT
13.342 -5.935 13.474 -6.326 QT
13.607 -6.716 13.607 -7.138 QT
13.607 -7.591 13.443 -8.005 QT
13.279 -8.419 12.951 -8.662 QT
12.623 -8.904 12.154 -8.904 QT
11.67 -8.904 11.287 -8.615 QT
10.904 -8.326 10.748 -7.873 QT
10.795 -7.888 10.873 -7.888 QT
11.123 -7.888 11.295 -7.724 QT
11.467 -7.56 11.467 -7.294 QT
11.467 -7.044 11.295 -6.865 QT
11.123 -6.685 10.873 -6.685 QT
10.607 -6.685 10.435 -6.865 QT
10.264 -7.044 10.264 -7.294 QT
10.264 -7.701 10.42 -8.068 QT
10.576 -8.435 10.865 -8.716 QT
11.154 -8.998 11.529 -9.146 QT
11.904 -9.294 12.31 -9.294 QT
12.935 -9.294 13.482 -9.029 QT
14.029 -8.763 14.342 -8.279 QT
14.654 -7.794 14.654 -7.138 QT
14.654 -6.654 14.443 -6.224 QT
14.232 -5.794 13.912 -5.443 QT
13.592 -5.091 13.076 -4.646 QT
12.56 -4.201 12.404 -4.06 QT
11.154 -2.857 L
12.217 -2.857 L
12.998 -2.857 13.521 -2.873 QT
14.045 -2.888 14.076 -2.919 QT
14.201 -3.044 14.342 -3.919 QT
14.654 -3.919 L
14.342 -1.966 L
10.264 -1.966 L
cp
f
GR
GS
[0.75 0 0 0.75 131.99796 40.11661] CT
N
10.33 6.514 M
10.33 6.28 10.393 5.983 QT
10.455 5.686 10.533 5.452 QT
10.611 5.217 10.791 4.733 QT
10.971 4.249 10.986 4.202 QT
11.127 3.811 11.127 3.545 QT
11.127 3.217 10.877 3.217 QT
10.455 3.217 10.166 3.67 QT
9.877 4.124 9.752 4.67 QT
9.721 4.733 9.658 4.733 QT
9.533 4.733 L
9.439 4.733 9.439 4.639 QT
9.439 4.608 L
9.611 3.952 9.979 3.444 QT
10.346 2.936 10.908 2.936 QT
11.299 2.936 11.572 3.194 QT
11.846 3.452 11.846 3.842 QT
11.846 4.045 11.752 4.28 QT
11.611 4.608 11.439 5.077 QT
11.268 5.545 11.174 5.928 QT
11.08 6.311 11.08 6.655 QT
11.08 7.092 11.307 7.358 QT
11.533 7.624 11.955 7.624 QT
12.549 7.624 12.924 6.733 QT
12.908 6.67 12.908 6.561 QT
12.908 6.264 13.002 5.889 QT
13.627 3.405 L
13.658 3.264 13.791 3.155 QT
13.924 3.045 14.08 3.045 QT
14.221 3.045 14.314 3.131 QT
14.408 3.217 14.408 3.358 QT
14.408 3.436 14.408 3.452 QT
13.783 5.905 L
13.674 6.342 13.674 6.702 QT
13.674 7.108 13.869 7.366 QT
14.064 7.624 14.471 7.624 QT
15.174 7.624 15.627 6.702 QT
15.799 6.358 16.01 5.709 QT
16.221 5.061 16.221 4.717 QT
16.221 4.405 16.119 4.217 QT
16.018 4.03 15.838 3.819 QT
15.658 3.608 15.658 3.499 QT
15.658 3.28 15.838 3.1 QT
16.018 2.92 16.236 2.92 QT
16.502 2.92 16.619 3.163 QT
16.736 3.405 16.736 3.717 QT
16.736 4.077 16.611 4.655 QT
16.486 5.233 16.299 5.811 QT
16.111 6.389 15.939 6.733 QT
15.346 7.92 14.439 7.92 QT
13.986 7.92 13.604 7.741 QT
13.221 7.561 13.033 7.17 QT
12.861 7.499 12.572 7.709 QT
12.283 7.92 11.939 7.92 QT
11.205 7.92 10.768 7.577 QT
10.33 7.233 10.33 6.514 QT
cp
f
GR
GS
[0.75 0 0 0.75 131.99796 40.11661] CT
N
17.567 9.475 M
17.489 9.475 17.489 9.366 QT
17.489 9.35 17.497 9.304 QT
17.505 9.257 17.528 9.225 QT
17.551 9.194 17.583 9.194 QT
17.817 9.194 17.981 9.179 QT
18.145 9.163 18.27 9.132 QT
18.364 9.1 18.426 8.929 QT
19.52 4.522 L
19.536 4.444 19.536 4.413 QT
19.536 4.335 19.442 4.319 QT
19.286 4.288 18.864 4.288 QT
18.786 4.288 18.786 4.179 QT
18.786 4.163 18.794 4.116 QT
18.801 4.069 18.825 4.038 QT
18.848 4.007 18.88 4.007 QT
21.755 4.007 L
22.005 4.007 22.262 4.069 QT
22.52 4.132 22.739 4.272 QT
22.958 4.413 23.083 4.624 QT
23.208 4.835 23.208 5.116 QT
23.208 5.413 23.051 5.671 QT
22.895 5.929 22.653 6.124 QT
22.411 6.319 22.13 6.436 QT
21.848 6.554 21.536 6.616 QT
21.755 6.616 21.981 6.702 QT
22.208 6.788 22.38 6.936 QT
22.551 7.085 22.661 7.296 QT
22.77 7.507 22.77 7.741 QT
22.77 8.225 22.434 8.624 QT
22.098 9.022 21.591 9.249 QT
21.083 9.475 20.598 9.475 QT
17.567 9.475 L
cp
19.036 9.132 M
19.036 9.194 19.301 9.194 QT
20.458 9.194 L
20.848 9.194 21.208 8.975 QT
21.567 8.757 21.778 8.397 QT
21.989 8.038 21.989 7.647 QT
21.989 7.413 21.895 7.202 QT
21.801 6.991 21.614 6.866 QT
21.426 6.741 21.176 6.741 QT
19.614 6.741 L
19.067 8.96 L
19.036 9.069 19.036 9.132 QT
cp
19.676 6.522 M
20.895 6.522 L
21.27 6.522 21.63 6.327 QT
21.989 6.132 22.223 5.796 QT
22.458 5.46 22.458 5.085 QT
22.458 4.741 22.239 4.514 QT
22.02 4.288 21.676 4.288 QT
20.583 4.288 L
20.364 4.288 20.286 4.327 QT
20.208 4.366 20.161 4.569 QT
19.676 6.522 L
cp
f
GR
GS
[0.75 0 0 0.75 131.99796 40.11661] CT
N
30.878 1.715 M
30.753 1.715 30.667 1.613 QT
30.581 1.512 30.581 1.387 QT
30.581 1.262 30.667 1.168 QT
30.753 1.074 30.878 1.074 QT
40.925 1.074 L
41.05 1.074 41.136 1.168 QT
41.222 1.262 41.222 1.387 QT
41.222 1.512 41.136 1.613 QT
41.05 1.715 40.925 1.715 QT
30.878 1.715 L
cp
30.878 -1.394 M
30.753 -1.394 30.667 -1.488 QT
30.581 -1.582 30.581 -1.723 QT
30.581 -1.832 30.667 -1.933 QT
30.753 -2.035 30.878 -2.035 QT
40.925 -2.035 L
41.05 -2.035 41.136 -1.933 QT
41.222 -1.832 41.222 -1.723 QT
41.222 -1.582 41.136 -1.488 QT
41.05 -1.394 40.925 -1.394 QT
30.878 -1.394 L
cp
f
GR
GS
[0.75 0 0 0.75 131.99796 40.11661] CT
N
42.307 0.871 M
42.307 -0.113 L
46.541 -0.113 L
46.541 0.871 L
42.307 0.871 L
cp
f
GR
GS
[0.75 0 0 0.75 131.99796 40.11661] CT
N
48.937 3.84 M
48.937 3.277 L
50.937 3.277 50.937 2.762 QT
50.937 -5.629 L
50.109 -5.238 48.843 -5.238 QT
48.843 -5.801 L
50.812 -5.801 51.812 -6.816 QT
52.031 -6.816 L
52.093 -6.816 52.14 -6.777 QT
52.187 -6.738 52.187 -6.676 QT
52.187 2.762 L
52.187 3.277 54.187 3.277 QT
54.187 3.84 L
48.937 3.84 L
cp
f
GR
GS
[0.75 0 0 0.75 131.99796 40.11661] CT
N
59.452 4.199 M
57.499 4.199 56.788 2.582 QT
56.077 0.965 56.077 -1.269 QT
56.077 -2.66 56.335 -3.887 QT
56.593 -5.113 57.343 -5.965 QT
58.093 -6.816 59.452 -6.816 QT
60.515 -6.816 61.187 -6.301 QT
61.859 -5.785 62.21 -4.973 QT
62.562 -4.16 62.687 -3.223 QT
62.812 -2.285 62.812 -1.269 QT
62.812 0.106 62.562 1.309 QT
62.312 2.512 61.57 3.356 QT
60.827 4.199 59.452 4.199 QT
cp
59.452 3.777 M
60.343 3.777 60.781 2.863 QT
61.218 1.949 61.32 0.84 QT
61.421 -0.269 61.421 -1.519 QT
61.421 -2.723 61.32 -3.738 QT
61.218 -4.754 60.788 -5.582 QT
60.359 -6.41 59.452 -6.41 QT
58.546 -6.41 58.109 -5.582 QT
57.671 -4.754 57.57 -3.738 QT
57.468 -2.723 57.468 -1.519 QT
57.468 -0.629 57.515 0.16 QT
57.562 0.949 57.749 1.785 QT
57.937 2.621 58.351 3.199 QT
58.765 3.777 59.452 3.777 QT
cp
f
GR
GS
[0.75 0 0 0.75 131.99796 40.11661] CT
N
72.692 4.027 M
71.755 4.027 70.973 3.512 QT
70.192 2.996 69.755 2.16 QT
69.317 1.324 69.317 0.387 QT
69.317 -0.582 69.794 -1.418 QT
70.27 -2.254 71.083 -2.746 QT
71.895 -3.238 72.864 -3.238 QT
73.458 -3.238 73.981 -2.988 QT
74.505 -2.738 74.88 -2.301 QT
74.88 -5.629 L
74.88 -6.066 74.755 -6.254 QT
74.63 -6.441 74.387 -6.488 QT
74.145 -6.535 73.645 -6.535 QT
73.645 -7.098 L
76.005 -7.269 L
76.005 2.387 L
76.005 2.809 76.137 2.996 QT
76.27 3.184 76.505 3.231 QT
76.739 3.277 77.255 3.277 QT
77.255 3.84 L
74.833 4.027 L
74.833 3.012 L
74.426 3.481 73.856 3.754 QT
73.286 4.027 72.692 4.027 QT
cp
71.067 2.449 M
71.333 2.965 71.794 3.277 QT
72.255 3.59 72.786 3.59 QT
73.458 3.59 74.012 3.207 QT
74.567 2.824 74.833 2.215 QT
74.833 -1.613 L
74.645 -1.973 74.364 -2.246 QT
74.083 -2.519 73.723 -2.668 QT
73.364 -2.816 72.973 -2.816 QT
72.13 -2.816 71.622 -2.348 QT
71.114 -1.879 70.911 -1.144 QT
70.708 -0.41 70.708 0.402 QT
70.708 1.043 70.778 1.52 QT
70.848 1.996 71.067 2.449 QT
cp
f
GR
GS
[0.75 0 0 0.75 131.99796 40.11661] CT
N
78.222 3.84 M
78.222 3.277 L
79.878 3.277 79.878 2.762 QT
79.878 -6.019 L
79.878 -6.535 78.222 -6.535 QT
78.222 -7.098 L
84.112 -7.098 L
84.925 -7.098 85.753 -6.777 QT
86.581 -6.457 87.12 -5.84 QT
87.659 -5.223 87.659 -4.379 QT
87.659 -3.394 86.862 -2.738 QT
86.065 -2.082 84.987 -1.879 QT
85.69 -1.879 86.425 -1.496 QT
87.159 -1.113 87.628 -0.473 QT
88.097 0.168 88.097 0.887 QT
88.097 1.762 87.573 2.434 QT
87.05 3.106 86.222 3.473 QT
85.393 3.84 84.565 3.84 QT
78.222 3.84 L
cp
81.268 2.762 M
81.268 3.106 81.464 3.192 QT
81.659 3.277 82.081 3.277 QT
84.112 3.277 L
84.737 3.277 85.268 2.949 QT
85.8 2.621 86.112 2.067 QT
86.425 1.512 86.425 0.887 QT
86.425 0.277 86.167 -0.301 QT
85.909 -0.879 85.433 -1.254 QT
84.956 -1.629 84.331 -1.629 QT
81.268 -1.629 L
81.268 2.762 L
cp
81.268 -2.051 M
83.659 -2.051 L
84.143 -2.051 84.573 -2.23 QT
85.003 -2.41 85.339 -2.738 QT
85.675 -3.066 85.862 -3.488 QT
86.05 -3.91 86.05 -4.379 QT
86.05 -4.785 85.909 -5.168 QT
85.768 -5.551 85.503 -5.863 QT
85.237 -6.176 84.878 -6.355 QT
84.518 -6.535 84.112 -6.535 QT
82.081 -6.535 L
81.784 -6.535 81.628 -6.512 QT
81.472 -6.488 81.37 -6.371 QT
81.268 -6.254 81.268 -6.019 QT
81.268 -2.051 L
cp
f
GR
GS
[0.75 0 0 0.75 0 0] CT
0 0.447 0.741 RC
1 LJ
2 LW
N
133 53.489 M
172.997 53.489 L
S
GR
GS
[0.75 0 0 0.75 131.99796 54.75] CT
N
/f-1610747416{3 4.027 M
2.281 4.027 1.734 3.684 QT
1.188 3.34 0.883 2.762 QT
0.578 2.184 0.578 1.481 QT
0.578 0.746 0.914 -0.074 QT
1.25 -0.894 1.836 -1.574 QT
2.422 -2.254 3.156 -2.66 QT
3.891 -3.066 4.656 -3.066 QT
8.688 -3.066 L
8.859 -3.066 8.977 -2.957 QT
9.094 -2.848 9.094 -2.66 QT
9.094 -2.426 8.922 -2.246 QT
8.75 -2.066 8.516 -2.066 QT
6.563 -2.066 L
7.031 -1.379 7.031 -0.41 QT
7.031 0.402 6.719 1.184 QT
6.406 1.965 5.852 2.606 QT
5.297 3.246 4.555 3.637 QT
3.813 4.027 3 4.027 QT
cp
3.016 3.59 M
3.891 3.59 4.563 2.91 QT
5.234 2.231 5.594 1.238 QT
5.953 0.246 5.953 -0.598 QT
5.953 -1.285 5.578 -1.676 QT
5.203 -2.066 4.516 -2.066 QT
3.594 -2.066 2.938 -1.441 QT
2.281 -0.816 1.961 0.129 QT
1.641 1.074 1.641 1.949 QT
1.641 2.637 2 3.113 QT
2.359 3.59 3.016 3.59 QT
cp}def
f-1610747416
f
GR
GS
[0.75 0 0 0.75 131.99796 54.75] CT
N
/f766163535{10.264 -1.966 M
10.264 -2.263 L
10.264 -2.294 10.279 -2.326 QT
11.998 -4.216 L
12.389 -4.638 12.623 -4.919 QT
12.857 -5.201 13.099 -5.568 QT
13.342 -5.935 13.474 -6.326 QT
13.607 -6.716 13.607 -7.138 QT
13.607 -7.591 13.443 -8.005 QT
13.279 -8.419 12.951 -8.662 QT
12.623 -8.904 12.154 -8.904 QT
11.67 -8.904 11.287 -8.615 QT
10.904 -8.326 10.748 -7.873 QT
10.795 -7.888 10.873 -7.888 QT
11.123 -7.888 11.295 -7.724 QT
11.467 -7.56 11.467 -7.294 QT
11.467 -7.044 11.295 -6.865 QT
11.123 -6.685 10.873 -6.685 QT
10.607 -6.685 10.435 -6.865 QT
10.264 -7.044 10.264 -7.294 QT
10.264 -7.701 10.42 -8.068 QT
10.576 -8.435 10.865 -8.716 QT
11.154 -8.998 11.529 -9.146 QT
11.904 -9.294 12.31 -9.294 QT
12.935 -9.294 13.482 -9.029 QT
14.029 -8.763 14.342 -8.279 QT
14.654 -7.794 14.654 -7.138 QT
14.654 -6.654 14.443 -6.224 QT
14.232 -5.794 13.912 -5.443 QT
13.592 -5.091 13.076 -4.646 QT
12.56 -4.201 12.404 -4.06 QT
11.154 -2.857 L
12.217 -2.857 L
12.998 -2.857 13.521 -2.873 QT
14.045 -2.888 14.076 -2.919 QT
14.201 -3.044 14.342 -3.919 QT
14.654 -3.919 L
14.342 -1.966 L
10.264 -1.966 L
cp}def
f766163535
f
GR
GS
[0.75 0 0 0.75 131.99796 54.75] CT
N
/f94862946{10.33 6.514 M
10.33 6.28 10.393 5.983 QT
10.455 5.686 10.533 5.452 QT
10.611 5.217 10.791 4.733 QT
10.971 4.249 10.986 4.202 QT
11.127 3.811 11.127 3.545 QT
11.127 3.217 10.877 3.217 QT
10.455 3.217 10.166 3.67 QT
9.877 4.124 9.752 4.67 QT
9.721 4.733 9.658 4.733 QT
9.533 4.733 L
9.439 4.733 9.439 4.639 QT
9.439 4.608 L
9.611 3.952 9.979 3.444 QT
10.346 2.936 10.908 2.936 QT
11.299 2.936 11.572 3.194 QT
11.846 3.452 11.846 3.842 QT
11.846 4.045 11.752 4.28 QT
11.611 4.608 11.439 5.077 QT
11.268 5.545 11.174 5.928 QT
11.08 6.311 11.08 6.655 QT
11.08 7.092 11.307 7.358 QT
11.533 7.624 11.955 7.624 QT
12.549 7.624 12.924 6.733 QT
12.908 6.67 12.908 6.561 QT
12.908 6.264 13.002 5.889 QT
13.627 3.405 L
13.658 3.264 13.791 3.155 QT
13.924 3.045 14.08 3.045 QT
14.221 3.045 14.314 3.131 QT
14.408 3.217 14.408 3.358 QT
14.408 3.436 14.408 3.452 QT
13.783 5.905 L
13.674 6.342 13.674 6.702 QT
13.674 7.108 13.869 7.366 QT
14.064 7.624 14.471 7.624 QT
15.174 7.624 15.627 6.702 QT
15.799 6.358 16.01 5.709 QT
16.221 5.061 16.221 4.717 QT
16.221 4.405 16.119 4.217 QT
16.018 4.03 15.838 3.819 QT
15.658 3.608 15.658 3.499 QT
15.658 3.28 15.838 3.1 QT
16.018 2.92 16.236 2.92 QT
16.502 2.92 16.619 3.163 QT
16.736 3.405 16.736 3.717 QT
16.736 4.077 16.611 4.655 QT
16.486 5.233 16.299 5.811 QT
16.111 6.389 15.939 6.733 QT
15.346 7.92 14.439 7.92 QT
13.986 7.92 13.604 7.741 QT
13.221 7.561 13.033 7.17 QT
12.861 7.499 12.572 7.709 QT
12.283 7.92 11.939 7.92 QT
11.205 7.92 10.768 7.577 QT
10.33 7.233 10.33 6.514 QT
cp}def
f94862946
f
GR
GS
[0.75 0 0 0.75 131.99796 54.75] CT
N
/f1996904053{17.567 9.475 M
17.489 9.475 17.489 9.366 QT
17.489 9.35 17.497 9.304 QT
17.505 9.257 17.528 9.225 QT
17.551 9.194 17.583 9.194 QT
17.817 9.194 17.981 9.179 QT
18.145 9.163 18.27 9.132 QT
18.364 9.1 18.426 8.929 QT
19.52 4.522 L
19.536 4.444 19.536 4.413 QT
19.536 4.335 19.442 4.319 QT
19.286 4.288 18.864 4.288 QT
18.786 4.288 18.786 4.179 QT
18.786 4.163 18.794 4.116 QT
18.801 4.069 18.825 4.038 QT
18.848 4.007 18.88 4.007 QT
21.755 4.007 L
22.005 4.007 22.262 4.069 QT
22.52 4.132 22.739 4.272 QT
22.958 4.413 23.083 4.624 QT
23.208 4.835 23.208 5.116 QT
23.208 5.413 23.051 5.671 QT
22.895 5.929 22.653 6.124 QT
22.411 6.319 22.13 6.436 QT
21.848 6.554 21.536 6.616 QT
21.755 6.616 21.981 6.702 QT
22.208 6.788 22.38 6.936 QT
22.551 7.085 22.661 7.296 QT
22.77 7.507 22.77 7.741 QT
22.77 8.225 22.434 8.624 QT
22.098 9.022 21.591 9.249 QT
21.083 9.475 20.598 9.475 QT
17.567 9.475 L
cp
19.036 9.132 M
19.036 9.194 19.301 9.194 QT
20.458 9.194 L
20.848 9.194 21.208 8.975 QT
21.567 8.757 21.778 8.397 QT
21.989 8.038 21.989 7.647 QT
21.989 7.413 21.895 7.202 QT
21.801 6.991 21.614 6.866 QT
21.426 6.741 21.176 6.741 QT
19.614 6.741 L
19.067 8.96 L
19.036 9.069 19.036 9.132 QT
cp
19.676 6.522 M
20.895 6.522 L
21.27 6.522 21.63 6.327 QT
21.989 6.132 22.223 5.796 QT
22.458 5.46 22.458 5.085 QT
22.458 4.741 22.239 4.514 QT
22.02 4.288 21.676 4.288 QT
20.583 4.288 L
20.364 4.288 20.286 4.327 QT
20.208 4.366 20.161 4.569 QT
19.676 6.522 L
cp}def
f1996904053
f
GR
GS
[0.75 0 0 0.75 131.99796 54.75] CT
N
/f-1784479988{30.878 1.715 M
30.753 1.715 30.667 1.613 QT
30.581 1.512 30.581 1.387 QT
30.581 1.262 30.667 1.168 QT
30.753 1.074 30.878 1.074 QT
40.925 1.074 L
41.05 1.074 41.136 1.168 QT
41.222 1.262 41.222 1.387 QT
41.222 1.512 41.136 1.613 QT
41.05 1.715 40.925 1.715 QT
30.878 1.715 L
cp
30.878 -1.394 M
30.753 -1.394 30.667 -1.488 QT
30.581 -1.582 30.581 -1.723 QT
30.581 -1.832 30.667 -1.933 QT
30.753 -2.035 30.878 -2.035 QT
40.925 -2.035 L
41.05 -2.035 41.136 -1.933 QT
41.222 -1.832 41.222 -1.723 QT
41.222 -1.582 41.136 -1.488 QT
41.05 -1.394 40.925 -1.394 QT
30.878 -1.394 L
cp}def
f-1784479988
f
GR
GS
[0.75 0 0 0.75 131.99796 54.75] CT
N
/f1173778276{42.307 0.871 M
42.307 -0.113 L
46.541 -0.113 L
46.541 0.871 L
42.307 0.871 L
cp}def
f1173778276
f
GR
GS
[0.75 0 0 0.75 131.99796 54.75] CT
N
/f-1227292472{48.843 2.012 M
49.015 2.481 49.351 2.863 QT
49.687 3.246 50.156 3.465 QT
50.624 3.684 51.124 3.684 QT
52.281 3.684 52.718 2.785 QT
53.156 1.887 53.156 0.606 QT
53.156 0.043 53.132 -0.332 QT
53.109 -0.707 53.031 -1.066 QT
52.874 -1.629 52.507 -2.051 QT
52.14 -2.473 51.593 -2.473 QT
51.062 -2.473 50.671 -2.308 QT
50.281 -2.144 50.038 -1.926 QT
49.796 -1.707 49.609 -1.465 QT
49.421 -1.223 49.374 -1.207 QT
49.202 -1.207 L
49.156 -1.207 49.101 -1.254 QT
49.046 -1.301 49.046 -1.348 QT
49.046 -6.691 L
49.046 -6.738 49.093 -6.777 QT
49.14 -6.816 49.202 -6.816 QT
49.249 -6.816 L
50.327 -6.301 51.531 -6.301 QT
52.718 -6.301 53.827 -6.816 QT
53.874 -6.816 L
53.921 -6.816 53.968 -6.777 QT
54.015 -6.738 54.015 -6.691 QT
54.015 -6.551 L
54.015 -6.473 53.984 -6.473 QT
53.437 -5.738 52.617 -5.332 QT
51.796 -4.926 50.906 -4.926 QT
50.265 -4.926 49.593 -5.113 QT
49.593 -2.082 L
50.124 -2.519 50.546 -2.699 QT
50.968 -2.879 51.609 -2.879 QT
52.499 -2.879 53.195 -2.371 QT
53.89 -1.863 54.265 -1.051 QT
54.64 -0.238 54.64 0.621 QT
54.64 1.574 54.171 2.395 QT
53.702 3.215 52.89 3.707 QT
52.077 4.199 51.124 4.199 QT
50.327 4.199 49.671 3.785 QT
49.015 3.371 48.632 2.684 QT
48.249 1.996 48.249 1.231 QT
48.249 0.871 48.484 0.645 QT
48.718 0.418 49.077 0.418 QT
49.421 0.418 49.663 0.645 QT
49.906 0.871 49.906 1.231 QT
49.906 1.574 49.663 1.809 QT
49.421 2.043 49.077 2.043 QT
49.015 2.043 48.945 2.035 QT
48.874 2.027 48.843 2.012 QT
cp}def
f-1227292472
f
GR
GS
[0.75 0 0 0.75 131.99796 54.75] CT
N
/f465917453{64.692 4.027 M
63.755 4.027 62.973 3.512 QT
62.192 2.996 61.755 2.16 QT
61.317 1.324 61.317 0.387 QT
61.317 -0.582 61.794 -1.418 QT
62.27 -2.254 63.083 -2.746 QT
63.895 -3.238 64.864 -3.238 QT
65.458 -3.238 65.981 -2.988 QT
66.505 -2.738 66.88 -2.301 QT
66.88 -5.629 L
66.88 -6.066 66.755 -6.254 QT
66.63 -6.441 66.387 -6.488 QT
66.145 -6.535 65.645 -6.535 QT
65.645 -7.098 L
68.005 -7.269 L
68.005 2.387 L
68.005 2.809 68.137 2.996 QT
68.27 3.184 68.505 3.231 QT
68.739 3.277 69.255 3.277 QT
69.255 3.84 L
66.833 4.027 L
66.833 3.012 L
66.426 3.481 65.856 3.754 QT
65.286 4.027 64.692 4.027 QT
cp
63.067 2.449 M
63.333 2.965 63.794 3.277 QT
64.255 3.59 64.786 3.59 QT
65.458 3.59 66.012 3.207 QT
66.567 2.824 66.833 2.215 QT
66.833 -1.613 L
66.645 -1.973 66.364 -2.246 QT
66.083 -2.519 65.723 -2.668 QT
65.364 -2.816 64.973 -2.816 QT
64.13 -2.816 63.622 -2.348 QT
63.114 -1.879 62.911 -1.144 QT
62.708 -0.41 62.708 0.402 QT
62.708 1.043 62.778 1.52 QT
62.848 1.996 63.067 2.449 QT
cp}def
f465917453
f
GR
GS
[0.75 0 0 0.75 131.99796 54.75] CT
N
/f1071057157{70.222 3.84 M
70.222 3.277 L
71.878 3.277 71.878 2.762 QT
71.878 -6.019 L
71.878 -6.535 70.222 -6.535 QT
70.222 -7.098 L
76.112 -7.098 L
76.925 -7.098 77.753 -6.777 QT
78.581 -6.457 79.12 -5.84 QT
79.659 -5.223 79.659 -4.379 QT
79.659 -3.394 78.862 -2.738 QT
78.065 -2.082 76.987 -1.879 QT
77.69 -1.879 78.425 -1.496 QT
79.159 -1.113 79.628 -0.473 QT
80.097 0.168 80.097 0.887 QT
80.097 1.762 79.573 2.434 QT
79.05 3.106 78.222 3.473 QT
77.393 3.84 76.565 3.84 QT
70.222 3.84 L
cp
73.268 2.762 M
73.268 3.106 73.464 3.192 QT
73.659 3.277 74.081 3.277 QT
76.112 3.277 L
76.737 3.277 77.268 2.949 QT
77.8 2.621 78.112 2.067 QT
78.425 1.512 78.425 0.887 QT
78.425 0.277 78.167 -0.301 QT
77.909 -0.879 77.433 -1.254 QT
76.956 -1.629 76.331 -1.629 QT
73.268 -1.629 L
73.268 2.762 L
cp
73.268 -2.051 M
75.659 -2.051 L
76.143 -2.051 76.573 -2.23 QT
77.003 -2.41 77.339 -2.738 QT
77.675 -3.066 77.862 -3.488 QT
78.05 -3.91 78.05 -4.379 QT
78.05 -4.785 77.909 -5.168 QT
77.768 -5.551 77.503 -5.863 QT
77.237 -6.176 76.878 -6.355 QT
76.518 -6.535 76.112 -6.535 QT
74.081 -6.535 L
73.784 -6.535 73.628 -6.512 QT
73.472 -6.488 73.37 -6.371 QT
73.268 -6.254 73.268 -6.019 QT
73.268 -2.051 L
cp}def
f1071057157
f
GR
GS
[0.75 0 0 0.75 0 0] CT
0.851 0.325 0.098 RC
1 LJ
2 LW
N
133 73 M
172.997 73 L
S
GR
GS
[0.75 0 0 0.75 131.99796 69.38339] CT
N
f-1610747416
f
GR
GS
[0.75 0 0 0.75 131.99796 69.38339] CT
N
f766163535
f
GR
GS
[0.75 0 0 0.75 131.99796 69.38339] CT
N
f94862946
f
GR
GS
[0.75 0 0 0.75 131.99796 69.38339] CT
N
f1996904053
f
GR
GS
[0.75 0 0 0.75 131.99796 69.38339] CT
N
f-1784479988
f
GR
GS
[0.75 0 0 0.75 131.99796 69.38339] CT
N
/f-1369367478{46.119 4.199 M
44.166 4.199 43.455 2.582 QT
42.744 0.965 42.744 -1.269 QT
42.744 -2.66 43.002 -3.887 QT
43.26 -5.113 44.01 -5.965 QT
44.76 -6.816 46.119 -6.816 QT
47.182 -6.816 47.853 -6.301 QT
48.525 -5.785 48.877 -4.973 QT
49.228 -4.16 49.353 -3.223 QT
49.478 -2.285 49.478 -1.269 QT
49.478 0.106 49.228 1.309 QT
48.978 2.512 48.236 3.356 QT
47.494 4.199 46.119 4.199 QT
cp
46.119 3.777 M
47.01 3.777 47.447 2.863 QT
47.885 1.949 47.986 0.84 QT
48.088 -0.269 48.088 -1.519 QT
48.088 -2.723 47.986 -3.738 QT
47.885 -4.754 47.455 -5.582 QT
47.025 -6.41 46.119 -6.41 QT
45.213 -6.41 44.775 -5.582 QT
44.338 -4.754 44.236 -3.738 QT
44.135 -2.723 44.135 -1.519 QT
44.135 -0.629 44.182 0.16 QT
44.228 0.949 44.416 1.785 QT
44.603 2.621 45.018 3.199 QT
45.432 3.777 46.119 3.777 QT
cp}def
f-1369367478
f
GR
GS
[0.75 0 0 0.75 131.99796 69.38339] CT
N
/f1457244154{59.359 4.027 M
58.421 4.027 57.64 3.512 QT
56.859 2.996 56.421 2.16 QT
55.984 1.324 55.984 0.387 QT
55.984 -0.582 56.46 -1.418 QT
56.937 -2.254 57.749 -2.746 QT
58.562 -3.238 59.531 -3.238 QT
60.124 -3.238 60.648 -2.988 QT
61.171 -2.738 61.546 -2.301 QT
61.546 -5.629 L
61.546 -6.066 61.421 -6.254 QT
61.296 -6.441 61.054 -6.488 QT
60.812 -6.535 60.312 -6.535 QT
60.312 -7.098 L
62.671 -7.269 L
62.671 2.387 L
62.671 2.809 62.804 2.996 QT
62.937 3.184 63.171 3.231 QT
63.406 3.277 63.921 3.277 QT
63.921 3.84 L
61.499 4.027 L
61.499 3.012 L
61.093 3.481 60.523 3.754 QT
59.952 4.027 59.359 4.027 QT
cp
57.734 2.449 M
57.999 2.965 58.46 3.277 QT
58.921 3.59 59.452 3.59 QT
60.124 3.59 60.679 3.207 QT
61.234 2.824 61.499 2.215 QT
61.499 -1.613 L
61.312 -1.973 61.031 -2.246 QT
60.749 -2.519 60.39 -2.668 QT
60.031 -2.816 59.64 -2.816 QT
58.796 -2.816 58.288 -2.348 QT
57.781 -1.879 57.577 -1.144 QT
57.374 -0.41 57.374 0.402 QT
57.374 1.043 57.445 1.52 QT
57.515 1.996 57.734 2.449 QT
cp}def
f1457244154
f
GR
GS
[0.75 0 0 0.75 131.99796 69.38339] CT
N
/f-1981292189{64.888 3.84 M
64.888 3.277 L
66.545 3.277 66.545 2.762 QT
66.545 -6.019 L
66.545 -6.535 64.888 -6.535 QT
64.888 -7.098 L
70.779 -7.098 L
71.591 -7.098 72.42 -6.777 QT
73.248 -6.457 73.787 -5.84 QT
74.326 -5.223 74.326 -4.379 QT
74.326 -3.394 73.529 -2.738 QT
72.732 -2.082 71.654 -1.879 QT
72.357 -1.879 73.091 -1.496 QT
73.826 -1.113 74.295 -0.473 QT
74.763 0.168 74.763 0.887 QT
74.763 1.762 74.24 2.434 QT
73.716 3.106 72.888 3.473 QT
72.06 3.84 71.232 3.84 QT
64.888 3.84 L
cp
67.935 2.762 M
67.935 3.106 68.13 3.192 QT
68.326 3.277 68.748 3.277 QT
70.779 3.277 L
71.404 3.277 71.935 2.949 QT
72.466 2.621 72.779 2.067 QT
73.091 1.512 73.091 0.887 QT
73.091 0.277 72.834 -0.301 QT
72.576 -0.879 72.099 -1.254 QT
71.623 -1.629 70.998 -1.629 QT
67.935 -1.629 L
67.935 2.762 L
cp
67.935 -2.051 M
70.326 -2.051 L
70.81 -2.051 71.24 -2.23 QT
71.67 -2.41 72.005 -2.738 QT
72.341 -3.066 72.529 -3.488 QT
72.716 -3.91 72.716 -4.379 QT
72.716 -4.785 72.576 -5.168 QT
72.435 -5.551 72.17 -5.863 QT
71.904 -6.176 71.545 -6.355 QT
71.185 -6.535 70.779 -6.535 QT
68.748 -6.535 L
68.451 -6.535 68.295 -6.512 QT
68.138 -6.488 68.037 -6.371 QT
67.935 -6.254 67.935 -6.019 QT
67.935 -2.051 L
cp}def
f-1981292189
f
GR
GS
[0.75 0 0 0.75 0 0] CT
0.929 0.694 0.125 RC
1 LJ
2 LW
N
133 92.511 M
172.997 92.511 L
S
GR
GS
[0.75 0 0 0.75 0 0] CT
0.149 GC
10.0 ML
0.667 LW
N
129 104 M
129 42 L
269 42 L
269 104 L
cp
S
GR
%%Trailer
%%Pages: 1
%%EOF
