%!PS-Adobe-3.0 EPSF-3.0
%%Creator: (MATLAB, The Mathworks, Inc. Version 9.2.0.538062 \(R2017a\). Operating System: Windows 8)
%%Title: (C:/Users/chees/Google Drive/TesiMagistrale/latex/figures/CBpsk.eps)
%%CreationDate: 2017-06-06T22:04:38
%%Pages: (atend)
%%BoundingBox: 0 0 573 337
%%LanguageLevel: 3
%%EndComments
%%BeginProlog
%%BeginResource: procset (Apache XML Graphics Std ProcSet) 1.2 0
%%Version: 1.2 0
%%Copyright: (Copyright 2001-2003,2010 The Apache Software Foundation. License terms: http://www.apache.org/licenses/LICENSE-2.0)
/bd{bind def}bind def
/ld{load def}bd
/GR/grestore ld
/M/moveto ld
/LJ/setlinejoin ld
/C/curveto ld
/f/fill ld
/LW/setlinewidth ld
/GC/setgray ld
/t/show ld
/N/newpath ld
/CT/concat ld
/cp/closepath ld
/S/stroke ld
/L/lineto ld
/CC/setcmykcolor ld
/A/ashow ld
/GS/gsave ld
/RC/setrgbcolor ld
/RM/rmoveto ld
/ML/setmiterlimit ld
/re {4 2 roll M
1 index 0 rlineto
0 exch rlineto
neg 0 rlineto
cp } bd
/_ctm matrix def
/_tm matrix def
/BT { _ctm currentmatrix pop matrix _tm copy pop 0 0 moveto } bd
/ET { _ctm setmatrix } bd
/iTm { _ctm setmatrix _tm concat } bd
/Tm { _tm astore pop iTm 0 0 moveto } bd
/ux 0.0 def
/uy 0.0 def
/F {
  /Tp exch def
  /Tf exch def
  Tf findfont Tp scalefont setfont
  /cf Tf def  /cs Tp def
} bd
/ULS {currentpoint /uy exch def /ux exch def} bd
/ULE {
  /Tcx currentpoint pop def
  gsave
  newpath
  cf findfont cs scalefont dup
  /FontMatrix get 0 get /Ts exch def /FontInfo get dup
  /UnderlinePosition get Ts mul /To exch def
  /UnderlineThickness get Ts mul /Tt exch def
  ux uy To add moveto  Tcx uy To add lineto
  Tt setlinewidth stroke
  grestore
} bd
/OLE {
  /Tcx currentpoint pop def
  gsave
  newpath
  cf findfont cs scalefont dup
  /FontMatrix get 0 get /Ts exch def /FontInfo get dup
  /UnderlinePosition get Ts mul /To exch def
  /UnderlineThickness get Ts mul /Tt exch def
  ux uy To add cs add moveto Tcx uy To add cs add lineto
  Tt setlinewidth stroke
  grestore
} bd
/SOE {
  /Tcx currentpoint pop def
  gsave
  newpath
  cf findfont cs scalefont dup
  /FontMatrix get 0 get /Ts exch def /FontInfo get dup
  /UnderlinePosition get Ts mul /To exch def
  /UnderlineThickness get Ts mul /Tt exch def
  ux uy To add cs 10 mul 26 idiv add moveto Tcx uy To add cs 10 mul 26 idiv add lineto
  Tt setlinewidth stroke
  grestore
} bd
/QT {
/Y22 exch store
/X22 exch store
/Y21 exch store
/X21 exch store
currentpoint
/Y21 load 2 mul add 3 div exch
/X21 load 2 mul add 3 div exch
/X21 load 2 mul /X22 load add 3 div
/Y21 load 2 mul /Y22 load add 3 div
/X22 load /Y22 load curveto
} bd
/SSPD {
dup length /d exch dict def
{
/v exch def
/k exch def
currentpagedevice k known {
/cpdv currentpagedevice k get def
v cpdv ne {
/upd false def
/nullv v type /nulltype eq def
/nullcpdv cpdv type /nulltype eq def
nullv nullcpdv or
{
/upd true def
} {
/sametype v type cpdv type eq def
sametype {
v type /arraytype eq {
/vlen v length def
/cpdvlen cpdv length def
vlen cpdvlen eq {
0 1 vlen 1 sub {
/i exch def
/obj v i get def
/cpdobj cpdv i get def
obj cpdobj ne {
/upd true def
exit
} if
} for
} {
/upd true def
} ifelse
} {
v type /dicttype eq {
v {
/dv exch def
/dk exch def
/cpddv cpdv dk get def
dv cpddv ne {
/upd true def
exit
} if
} forall
} {
/upd true def
} ifelse
} ifelse
} if
} ifelse
upd true eq {
d k v put
} if
} if
} if
} forall
d length 0 gt {
d setpagedevice
} if
} bd
/RE { % /NewFontName [NewEncodingArray] /FontName RE -
  findfont dup length dict begin
  {
    1 index /FID ne
    {def} {pop pop} ifelse
  } forall
  /Encoding exch def
  /FontName 1 index def
  currentdict definefont pop
  end
} bind def
%%EndResource
%%BeginResource: procset (Apache XML Graphics EPS ProcSet) 1.0 0
%%Version: 1.0 0
%%Copyright: (Copyright 2002-2003 The Apache Software Foundation. License terms: http://www.apache.org/licenses/LICENSE-2.0)
/BeginEPSF { %def
/b4_Inc_state save def         % Save state for cleanup
/dict_count countdictstack def % Count objects on dict stack
/op_count count 1 sub def      % Count objects on operand stack
userdict begin                 % Push userdict on dict stack
/showpage { } def              % Redefine showpage, { } = null proc
0 setgray 0 setlinecap         % Prepare graphics state
1 setlinewidth 0 setlinejoin
10 setmiterlimit [ ] 0 setdash newpath
/languagelevel where           % If level not equal to 1 then
{pop languagelevel             % set strokeadjust and
1 ne                           % overprint to their defaults.
{false setstrokeadjust false setoverprint
} if
} if
} bd
/EndEPSF { %def
count op_count sub {pop} repeat            % Clean up stacks
countdictstack dict_count sub {end} repeat
b4_Inc_state restore
} bd
%%EndResource
%FOPBeginFontDict
%%IncludeResource: font Courier-Bold
%%IncludeResource: font Helvetica
%%IncludeResource: font Courier-BoldOblique
%%IncludeResource: font Courier-Oblique
%%IncludeResource: font Times-Roman
%%IncludeResource: font Helvetica-BoldOblique
%%IncludeResource: font Helvetica-Bold
%%IncludeResource: font Helvetica-Oblique
%%IncludeResource: font Times-BoldItalic
%%IncludeResource: font Courier
%%IncludeResource: font Times-Italic
%%IncludeResource: font Times-Bold
%%IncludeResource: font Symbol
%%IncludeResource: font ZapfDingbats
%FOPEndFontDict
%%BeginResource: encoding WinAnsiEncoding
/WinAnsiEncoding [
/.notdef /.notdef /.notdef /.notdef /.notdef
/.notdef /.notdef /.notdef /.notdef /.notdef
/.notdef /.notdef /.notdef /.notdef /.notdef
/.notdef /.notdef /.notdef /.notdef /.notdef
/.notdef /.notdef /.notdef /.notdef /.notdef
/.notdef /.notdef /.notdef /.notdef /.notdef
/.notdef /.notdef /space /exclam /quotedbl
/numbersign /dollar /percent /ampersand /quotesingle
/parenleft /parenright /asterisk /plus /comma
/hyphen /period /slash /zero /one
/two /three /four /five /six
/seven /eight /nine /colon /semicolon
/less /equal /greater /question /at
/A /B /C /D /E
/F /G /H /I /J
/K /L /M /N /O
/P /Q /R /S /T
/U /V /W /X /Y
/Z /bracketleft /backslash /bracketright /asciicircum
/underscore /quoteleft /a /b /c
/d /e /f /g /h
/i /j /k /l /m
/n /o /p /q /r
/s /t /u /v /w
/x /y /z /braceleft /bar
/braceright /asciitilde /bullet /Euro /bullet
/quotesinglbase /florin /quotedblbase /ellipsis /dagger
/daggerdbl /circumflex /perthousand /Scaron /guilsinglleft
/OE /bullet /Zcaron /bullet /bullet
/quoteleft /quoteright /quotedblleft /quotedblright /bullet
/endash /emdash /asciitilde /trademark /scaron
/guilsinglright /oe /bullet /zcaron /Ydieresis
/space /exclamdown /cent /sterling /currency
/yen /brokenbar /section /dieresis /copyright
/ordfeminine /guillemotleft /logicalnot /sfthyphen /registered
/macron /degree /plusminus /twosuperior /threesuperior
/acute /mu /paragraph /middot /cedilla
/onesuperior /ordmasculine /guillemotright /onequarter /onehalf
/threequarters /questiondown /Agrave /Aacute /Acircumflex
/Atilde /Adieresis /Aring /AE /Ccedilla
/Egrave /Eacute /Ecircumflex /Edieresis /Igrave
/Iacute /Icircumflex /Idieresis /Eth /Ntilde
/Ograve /Oacute /Ocircumflex /Otilde /Odieresis
/multiply /Oslash /Ugrave /Uacute /Ucircumflex
/Udieresis /Yacute /Thorn /germandbls /agrave
/aacute /acircumflex /atilde /adieresis /aring
/ae /ccedilla /egrave /eacute /ecircumflex
/edieresis /igrave /iacute /icircumflex /idieresis
/eth /ntilde /ograve /oacute /ocircumflex
/otilde /odieresis /divide /oslash /ugrave
/uacute /ucircumflex /udieresis /yacute /thorn
/ydieresis
] def
%%EndResource
%FOPBeginFontReencode
/Courier-Bold findfont
dup length dict begin
  {1 index /FID ne {def} {pop pop} ifelse} forall
  /Encoding WinAnsiEncoding def
  currentdict
end
/Courier-Bold exch definefont pop
/Helvetica findfont
dup length dict begin
  {1 index /FID ne {def} {pop pop} ifelse} forall
  /Encoding WinAnsiEncoding def
  currentdict
end
/Helvetica exch definefont pop
/Courier-BoldOblique findfont
dup length dict begin
  {1 index /FID ne {def} {pop pop} ifelse} forall
  /Encoding WinAnsiEncoding def
  currentdict
end
/Courier-BoldOblique exch definefont pop
/Courier-Oblique findfont
dup length dict begin
  {1 index /FID ne {def} {pop pop} ifelse} forall
  /Encoding WinAnsiEncoding def
  currentdict
end
/Courier-Oblique exch definefont pop
/Times-Roman findfont
dup length dict begin
  {1 index /FID ne {def} {pop pop} ifelse} forall
  /Encoding WinAnsiEncoding def
  currentdict
end
/Times-Roman exch definefont pop
/Helvetica-BoldOblique findfont
dup length dict begin
  {1 index /FID ne {def} {pop pop} ifelse} forall
  /Encoding WinAnsiEncoding def
  currentdict
end
/Helvetica-BoldOblique exch definefont pop
/Helvetica-Bold findfont
dup length dict begin
  {1 index /FID ne {def} {pop pop} ifelse} forall
  /Encoding WinAnsiEncoding def
  currentdict
end
/Helvetica-Bold exch definefont pop
/Helvetica-Oblique findfont
dup length dict begin
  {1 index /FID ne {def} {pop pop} ifelse} forall
  /Encoding WinAnsiEncoding def
  currentdict
end
/Helvetica-Oblique exch definefont pop
/Times-BoldItalic findfont
dup length dict begin
  {1 index /FID ne {def} {pop pop} ifelse} forall
  /Encoding WinAnsiEncoding def
  currentdict
end
/Times-BoldItalic exch definefont pop
/Courier findfont
dup length dict begin
  {1 index /FID ne {def} {pop pop} ifelse} forall
  /Encoding WinAnsiEncoding def
  currentdict
end
/Courier exch definefont pop
/Times-Italic findfont
dup length dict begin
  {1 index /FID ne {def} {pop pop} ifelse} forall
  /Encoding WinAnsiEncoding def
  currentdict
end
/Times-Italic exch definefont pop
/Times-Bold findfont
dup length dict begin
  {1 index /FID ne {def} {pop pop} ifelse} forall
  /Encoding WinAnsiEncoding def
  currentdict
end
/Times-Bold exch definefont pop
%FOPEndFontReencode
%%EndProlog
%%Page: 1 1
%%PageBoundingBox: 0 0 573 337
%%BeginPageSetup
[1 0 0 -1 0 337] CT
%%EndPageSetup
GS
[0.6 0 0 0.6 0 -0.20001] CT
1 GC
N
0 0 955 562 re
f
GR
GS
[0.6 0 0 0.6 0 -0.20001] CT
1 GC
N
0 0 955 562 re
f
GR
GS
[0.6 0 0 0.6 0 -0.20001] CT
1 GC
N
124 500 M
864 500 L
864 42 L
124 42 L
cp
f
GR
GS
[0.6 0 0 0.6 0 -0.20001] CT
0.873 GC
1 LJ
0.833 LW
N
144.556 500 M
144.556 42 L
S
GR
GS
[0.6 0 0 0.6 0 -0.20001] CT
0.873 GC
1 LJ
0.833 LW
N
247.333 500 M
247.333 42 L
S
GR
GS
[0.6 0 0 0.6 0 -0.20001] CT
0.873 GC
1 LJ
0.833 LW
N
350.111 500 M
350.111 42 L
S
GR
GS
[0.6 0 0 0.6 0 -0.20001] CT
0.873 GC
1 LJ
0.833 LW
N
452.889 500 M
452.889 42 L
S
GR
GS
[0.6 0 0 0.6 0 -0.20001] CT
0.873 GC
1 LJ
0.833 LW
N
555.667 500 M
555.667 42 L
S
GR
GS
[0.6 0 0 0.6 0 -0.20001] CT
0.873 GC
1 LJ
0.833 LW
N
658.444 500 M
658.444 42 L
S
GR
GS
[0.6 0 0 0.6 0 -0.20001] CT
0.873 GC
1 LJ
0.833 LW
N
761.222 500 M
761.222 42 L
S
GR
GS
[0.6 0 0 0.6 0 -0.20001] CT
0.873 GC
1 LJ
0.833 LW
N
864 500 M
864 42 L
S
GR
GS
[0.6 0 0 0.6 0 -0.20001] CT
0.873 GC
1 LJ
0.833 LW
N
864 500 M
124 500 L
S
GR
GS
[0.6 0 0 0.6 0 -0.20001] CT
0.873 GC
1 LJ
0.833 LW
N
864 434.571 M
124 434.571 L
S
GR
GS
[0.6 0 0 0.6 0 -0.20001] CT
0.873 GC
1 LJ
0.833 LW
N
864 369.143 M
124 369.143 L
S
GR
GS
[0.6 0 0 0.6 0 -0.20001] CT
0.873 GC
1 LJ
0.833 LW
N
864 303.714 M
124 303.714 L
S
GR
GS
[0.6 0 0 0.6 0 -0.20001] CT
0.873 GC
1 LJ
0.833 LW
N
864 238.286 M
124 238.286 L
S
GR
GS
[0.6 0 0 0.6 0 -0.20001] CT
0.873 GC
1 LJ
0.833 LW
N
864 172.857 M
124 172.857 L
S
GR
GS
[0.6 0 0 0.6 0 -0.20001] CT
0.873 GC
1 LJ
0.833 LW
N
864 107.429 M
124 107.429 L
S
GR
GS
[0.6 0 0 0.6 0 -0.20001] CT
0.873 GC
1 LJ
0.833 LW
N
864 42 M
124 42 L
S
GR
GS
[0.6 0 0 0.6 0 -0.20001] CT
0.149 GC
2 setlinecap
1 LJ
0.833 LW
N
124 500 M
864 500 L
S
GR
GS
[0.6 0 0 0.6 0 -0.20001] CT
0.149 GC
2 setlinecap
1 LJ
0.833 LW
N
144.556 500 M
144.556 492.6 L
S
GR
GS
[0.6 0 0 0.6 0 -0.20001] CT
0.149 GC
2 setlinecap
1 LJ
0.833 LW
N
247.333 500 M
247.333 492.6 L
S
GR
GS
[0.6 0 0 0.6 0 -0.20001] CT
0.149 GC
2 setlinecap
1 LJ
0.833 LW
N
350.111 500 M
350.111 492.6 L
S
GR
GS
[0.6 0 0 0.6 0 -0.20001] CT
0.149 GC
2 setlinecap
1 LJ
0.833 LW
N
452.889 500 M
452.889 492.6 L
S
GR
GS
[0.6 0 0 0.6 0 -0.20001] CT
0.149 GC
2 setlinecap
1 LJ
0.833 LW
N
555.667 500 M
555.667 492.6 L
S
GR
GS
[0.6 0 0 0.6 0 -0.20001] CT
0.149 GC
2 setlinecap
1 LJ
0.833 LW
N
658.444 500 M
658.444 492.6 L
S
GR
GS
[0.6 0 0 0.6 0 -0.20001] CT
0.149 GC
2 setlinecap
1 LJ
0.833 LW
N
761.222 500 M
761.222 492.6 L
S
GR
GS
[0.6 0 0 0.6 0 -0.20001] CT
0.149 GC
2 setlinecap
1 LJ
0.833 LW
N
864 500 M
864 492.6 L
S
GR
GS
[0.6 0 0 0.6 86.73333 303.79999] CT
0.149 GC
/Helvetica 16.667 F
GS
[1 0 0 1 0 0] CT
-12.5 18 moveto 
1 -1 scale
(-15) t 
GR
GR
GS
[0.6 0 0 0.6 148.4 303.79999] CT
0.149 GC
/Helvetica 16.667 F
GS
[1 0 0 1 0 0] CT
-12.5 18 moveto 
1 -1 scale
(-10) t 
GR
GR
GS
[0.6 0 0 0.6 210.06667 303.79999] CT
0.149 GC
/Helvetica 16.667 F
GS
[1 0 0 1 0 0] CT
-8 18 moveto 
1 -1 scale
(-5) t 
GR
GR
GS
[0.6 0 0 0.6 271.73333 303.79999] CT
0.149 GC
/Helvetica 16.667 F
GS
[1 0 0 1 0 0] CT
-5 18 moveto 
1 -1 scale
(0) t 
GR
GR
GS
[0.6 0 0 0.6 333.40001 303.79999] CT
0.149 GC
/Helvetica 16.667 F
GS
[1 0 0 1 0 0] CT
-5 18 moveto 
1 -1 scale
(5) t 
GR
GR
GS
[0.6 0 0 0.6 395.06667 303.79999] CT
0.149 GC
/Helvetica 16.667 F
GS
[1 0 0 1 0 0] CT
-9.5 18 moveto 
1 -1 scale
(10) t 
GR
GR
GS
[0.6 0 0 0.6 456.73334 303.79999] CT
0.149 GC
/Helvetica 16.667 F
GS
[1 0 0 1 0 0] CT
-9.5 18 moveto 
1 -1 scale
(15) t 
GR
GR
GS
[0.6 0 0 0.6 518.4 303.79999] CT
0.149 GC
/Helvetica 16.667 F
GS
[1 0 0 1 0 0] CT
-9.5 18 moveto 
1 -1 scale
(20) t 
GR
GR
GS
[0.6 0 0 0.6 296.40022 317.99999] CT
0.149 GC
N
-38.397 19.866 M
-39.412 19.866 -40.201 19.373 QT
-40.99 18.881 -41.428 18.053 QT
-41.865 17.225 -41.865 16.225 QT
-41.865 15.147 -41.381 13.967 QT
-40.897 12.787 -40.061 11.811 QT
-39.225 10.834 -38.17 10.256 QT
-37.115 9.678 -36.006 9.678 QT
-30.209 9.678 L
-29.975 9.678 -29.803 9.834 QT
-29.631 9.991 -29.631 10.272 QT
-29.631 10.6 -29.873 10.858 QT
-30.115 11.116 -30.459 11.116 QT
-33.256 11.116 L
-32.6 12.1 -32.6 13.506 QT
-32.6 14.662 -33.045 15.78 QT
-33.49 16.897 -34.287 17.826 QT
-35.084 18.756 -36.147 19.311 QT
-37.209 19.866 -38.397 19.866 QT
cp
-38.365 19.256 M
-37.115 19.256 -36.139 18.272 QT
-35.162 17.287 -34.647 15.866 QT
-34.131 14.444 -34.131 13.225 QT
-34.131 12.241 -34.678 11.678 QT
-35.225 11.116 -36.209 11.116 QT
-37.537 11.116 -38.475 12.014 QT
-39.412 12.912 -39.881 14.272 QT
-40.35 15.631 -40.35 16.881 QT
-40.35 17.866 -39.826 18.561 QT
-39.303 19.256 -38.365 19.256 QT
cp
f
GR
GS
[0.6 0 0 0.6 296.40022 317.99999] CT
0.149 GC
N
-27.727 11.132 M
-27.727 10.695 L
-27.727 10.664 -27.695 10.617 QT
-25.211 7.867 L
-24.648 7.257 -24.297 6.843 QT
-23.945 6.429 -23.602 5.89 QT
-23.258 5.351 -23.055 4.789 QT
-22.852 4.226 -22.852 3.601 QT
-22.852 2.945 -23.094 2.351 QT
-23.336 1.757 -23.82 1.398 QT
-24.305 1.039 -24.977 1.039 QT
-25.68 1.039 -26.234 1.453 QT
-26.789 1.867 -27.008 2.539 QT
-26.945 2.523 -26.836 2.523 QT
-26.477 2.523 -26.227 2.765 QT
-25.977 3.007 -25.977 3.382 QT
-25.977 3.757 -26.227 4.007 QT
-26.477 4.257 -26.836 4.257 QT
-27.211 4.257 -27.469 4 QT
-27.727 3.742 -27.727 3.382 QT
-27.727 2.789 -27.5 2.257 QT
-27.273 1.726 -26.844 1.32 QT
-26.414 0.914 -25.883 0.695 QT
-25.352 0.476 -24.742 0.476 QT
-23.836 0.476 -23.047 0.859 QT
-22.258 1.242 -21.797 1.953 QT
-21.336 2.664 -21.336 3.601 QT
-21.336 4.304 -21.641 4.929 QT
-21.945 5.554 -22.422 6.062 QT
-22.898 6.57 -23.641 7.218 QT
-24.383 7.867 -24.617 8.086 QT
-26.43 9.836 L
-24.883 9.836 L
-23.758 9.836 -22.992 9.812 QT
-22.227 9.789 -22.18 9.757 QT
-21.992 9.554 -21.805 8.273 QT
-21.336 8.273 L
-21.789 11.132 L
-27.727 11.132 L
cp
f
GR
GS
[0.6 0 0 0.6 296.40022 317.99999] CT
0.149 GC
N
-27.626 23.509 M
-27.626 23.165 -27.54 22.728 QT
-27.454 22.29 -27.345 21.954 QT
-27.236 21.618 -26.97 20.915 QT
-26.704 20.212 -26.689 20.15 QT
-26.47 19.556 -26.47 19.181 QT
-26.47 18.712 -26.829 18.712 QT
-27.454 18.712 -27.868 19.36 QT
-28.282 20.009 -28.47 20.821 QT
-28.501 20.915 -28.611 20.915 QT
-28.798 20.915 L
-28.923 20.915 -28.923 20.775 QT
-28.923 20.728 L
-28.673 19.775 -28.142 19.032 QT
-27.611 18.29 -26.798 18.29 QT
-26.22 18.29 -25.829 18.665 QT
-25.439 19.04 -25.439 19.618 QT
-25.439 19.915 -25.564 20.243 QT
-25.751 20.728 -26.009 21.407 QT
-26.267 22.087 -26.407 22.642 QT
-26.548 23.196 -26.548 23.712 QT
-26.548 24.337 -26.22 24.728 QT
-25.892 25.118 -25.267 25.118 QT
-24.407 25.118 -23.845 23.821 QT
-23.876 23.728 -23.876 23.556 QT
-23.876 23.134 -23.736 22.587 QT
-22.845 18.978 L
-22.782 18.775 -22.587 18.618 QT
-22.392 18.462 -22.173 18.462 QT
-21.986 18.462 -21.837 18.587 QT
-21.689 18.712 -21.689 18.915 QT
-21.689 19.009 -21.704 19.04 QT
-22.611 22.618 L
-22.767 23.259 -22.767 23.759 QT
-22.767 24.368 -22.486 24.743 QT
-22.204 25.118 -21.611 25.118 QT
-20.579 25.118 -19.923 23.759 QT
-19.673 23.275 -19.361 22.329 QT
-19.048 21.384 -19.048 20.884 QT
-19.048 20.431 -19.197 20.157 QT
-19.345 19.884 -19.611 19.571 QT
-19.876 19.259 -19.876 19.103 QT
-19.876 18.806 -19.611 18.54 QT
-19.345 18.275 -19.032 18.275 QT
-18.657 18.275 -18.486 18.626 QT
-18.314 18.978 -18.314 19.431 QT
-18.314 19.962 -18.493 20.798 QT
-18.673 21.634 -18.947 22.47 QT
-19.22 23.306 -19.47 23.806 QT
-20.345 25.556 -21.642 25.556 QT
-22.314 25.556 -22.868 25.29 QT
-23.423 25.025 -23.689 24.462 QT
-23.954 24.931 -24.368 25.243 QT
-24.782 25.556 -25.298 25.556 QT
-26.345 25.556 -26.986 25.048 QT
-27.626 24.54 -27.626 23.509 QT
cp
f
GR
GS
[0.6 0 0 0.6 296.40022 317.99999] CT
0.149 GC
N
-16.103 19.119 M
-16.228 19.119 -16.337 19.009 QT
-16.447 18.9 -16.447 18.759 QT
-16.447 18.556 -16.275 18.478 QT
-14.556 17.65 L
-16.275 16.837 L
-16.447 16.759 -16.447 16.54 QT
-16.447 16.415 -16.337 16.298 QT
-16.228 16.181 -16.103 16.181 QT
-16.009 16.181 -15.931 16.244 QT
-14.4 17.369 L
-14.572 15.4 L
-14.572 15.259 -14.47 15.165 QT
-14.368 15.072 -14.228 15.072 QT
-14.087 15.072 -13.993 15.158 QT
-13.9 15.244 -13.9 15.384 QT
-13.9 15.4 L
-14.072 17.369 L
-12.54 16.244 L
-12.462 16.181 -12.368 16.181 QT
-12.228 16.181 -12.126 16.298 QT
-12.025 16.415 -12.025 16.54 QT
-12.025 16.759 -12.181 16.837 QT
-13.915 17.65 L
-12.181 18.478 L
-12.025 18.556 -12.025 18.759 QT
-12.025 18.9 -12.126 19.009 QT
-12.228 19.119 -12.368 19.119 QT
-12.462 19.119 -12.54 19.072 QT
-14.072 17.947 L
-13.9 19.9 L
-13.9 19.931 L
-13.9 20.056 -14.001 20.15 QT
-14.103 20.244 -14.228 20.244 QT
-14.368 20.244 -14.47 20.142 QT
-14.572 20.04 -14.572 19.9 QT
-14.4 17.947 L
-15.931 19.072 L
-16.009 19.119 -16.103 19.119 QT
cp
f
GR
GS
[0.6 0 0 0.6 296.40022 317.99999] CT
0.149 GC
N
1.435 25.35 M
1.435 2.35 L
4.576 2.35 L
4.576 3.272 L
2.357 3.272 L
2.357 24.428 L
4.576 24.428 L
4.576 25.35 L
1.435 25.35 L
cp
f
GR
GS
[0.6 0 0 0.6 296.40022 317.99999] CT
0.149 GC
N
9.198 19.866 M
7.745 19.866 6.909 18.764 QT
6.073 17.662 6.073 16.178 QT
6.073 14.709 6.839 13.123 QT
7.604 11.537 8.901 10.491 QT
10.198 9.444 11.683 9.444 QT
12.37 9.444 12.909 9.819 QT
13.448 10.194 13.761 10.819 QT
15.042 5.678 L
15.136 5.287 15.167 5.069 QT
15.167 4.694 13.667 4.694 QT
13.433 4.694 13.433 4.397 QT
13.448 4.334 13.487 4.194 QT
13.526 4.053 13.589 3.967 QT
13.651 3.881 13.761 3.881 QT
16.854 3.647 L
17.136 3.647 17.136 3.928 QT
13.823 17.162 L
13.667 17.537 13.667 18.256 QT
13.667 19.256 14.323 19.256 QT
15.042 19.256 15.425 18.342 QT
15.808 17.428 16.058 16.225 QT
16.104 16.084 16.245 16.084 QT
16.526 16.084 L
16.604 16.084 16.659 16.162 QT
16.714 16.241 16.714 16.303 QT
16.323 17.912 15.839 18.889 QT
15.354 19.866 14.276 19.866 QT
13.511 19.866 12.917 19.405 QT
12.323 18.944 12.167 18.194 QT
10.683 19.866 9.198 19.866 QT
cp
9.214 19.256 M
10.058 19.256 10.831 18.631 QT
11.604 18.006 12.167 17.162 QT
12.198 17.147 12.198 17.069 QT
13.448 12.006 L
13.323 11.194 12.862 10.616 QT
12.401 10.037 11.636 10.037 QT
10.854 10.037 10.19 10.67 QT
9.526 11.303 9.058 12.162 QT
8.62 13.084 8.206 14.694 QT
7.792 16.303 7.792 17.178 QT
7.792 17.975 8.136 18.616 QT
8.479 19.256 9.214 19.256 QT
cp
f
GR
GS
[0.6 0 0 0.6 296.40022 317.99999] CT
0.149 GC
N
18.483 19.6 M
18.265 19.6 18.265 19.303 QT
18.28 19.241 18.312 19.108 QT
18.343 18.975 18.398 18.881 QT
18.452 18.787 18.562 18.787 QT
19.218 18.787 19.702 18.756 QT
20.187 18.725 20.515 18.631 QT
20.796 18.537 20.952 18.022 QT
24.108 5.381 L
24.155 5.162 24.155 5.069 QT
24.155 4.819 23.874 4.787 QT
23.437 4.694 22.218 4.694 QT
21.999 4.694 21.999 4.397 QT
21.999 4.334 22.038 4.194 QT
22.077 4.053 22.14 3.967 QT
22.202 3.881 22.28 3.881 QT
30.53 3.881 L
31.28 3.881 32.015 4.069 QT
32.749 4.256 33.374 4.662 QT
33.999 5.069 34.366 5.67 QT
34.733 6.272 34.733 7.069 QT
34.733 7.928 34.288 8.67 QT
33.843 9.412 33.14 9.967 QT
32.437 10.522 31.624 10.873 QT
30.812 11.225 29.921 11.397 QT
30.546 11.397 31.194 11.639 QT
31.843 11.881 32.351 12.311 QT
32.858 12.741 33.163 13.334 QT
33.468 13.928 33.468 14.616 QT
33.468 15.991 32.507 17.139 QT
31.546 18.287 30.077 18.944 QT
28.608 19.6 27.233 19.6 QT
18.483 19.6 L
cp
22.718 18.616 M
22.718 18.787 23.515 18.787 QT
26.796 18.787 L
27.921 18.787 28.952 18.162 QT
29.983 17.537 30.608 16.506 QT
31.233 15.475 31.233 14.35 QT
31.233 13.662 30.944 13.053 QT
30.655 12.444 30.116 12.092 QT
29.577 11.741 28.89 11.741 QT
24.405 11.741 L
22.812 18.1 L
22.718 18.428 22.718 18.616 QT
cp
24.562 11.131 M
28.062 11.131 L
29.155 11.131 30.194 10.569 QT
31.233 10.006 31.89 9.045 QT
32.546 8.084 32.546 7.006 QT
32.546 6.006 31.921 5.35 QT
31.296 4.694 30.312 4.694 QT
27.155 4.694 L
26.546 4.694 26.327 4.811 QT
26.108 4.928 25.968 5.491 QT
24.562 11.131 L
cp
f
GR
GS
[0.6 0 0 0.6 296.40022 317.99999] CT
0.149 GC
N
36.712 25.35 M
36.712 24.428 L
38.946 24.428 L
38.946 3.272 L
36.712 3.272 L
36.712 2.35 L
39.868 2.35 L
39.868 25.35 L
36.712 25.35 L
cp
f
GR
GS
[0.6 0 0 0.6 0 -0.20001] CT
0.149 GC
2 setlinecap
1 LJ
0.833 LW
N
124 500 M
124 42 L
S
GR
GS
[0.6 0 0 0.6 0 -0.20001] CT
0.149 GC
2 setlinecap
1 LJ
0.833 LW
N
124 500 M
131.4 500 L
S
GR
GS
[0.6 0 0 0.6 0 -0.20001] CT
0.149 GC
2 setlinecap
1 LJ
0.833 LW
N
124 434.571 M
131.4 434.571 L
S
GR
GS
[0.6 0 0 0.6 0 -0.20001] CT
0.149 GC
2 setlinecap
1 LJ
0.833 LW
N
124 369.143 M
131.4 369.143 L
S
GR
GS
[0.6 0 0 0.6 0 -0.20001] CT
0.149 GC
2 setlinecap
1 LJ
0.833 LW
N
124 303.714 M
131.4 303.714 L
S
GR
GS
[0.6 0 0 0.6 0 -0.20001] CT
0.149 GC
2 setlinecap
1 LJ
0.833 LW
N
124 238.286 M
131.4 238.286 L
S
GR
GS
[0.6 0 0 0.6 0 -0.20001] CT
0.149 GC
2 setlinecap
1 LJ
0.833 LW
N
124 172.857 M
131.4 172.857 L
S
GR
GS
[0.6 0 0 0.6 0 -0.20001] CT
0.149 GC
2 setlinecap
1 LJ
0.833 LW
N
124 107.429 M
131.4 107.429 L
S
GR
GS
[0.6 0 0 0.6 0 -0.20001] CT
0.149 GC
2 setlinecap
1 LJ
0.833 LW
N
124 42 M
131.4 42 L
S
GR
GS
[0.6 0 0 0.6 70.40001 299.8] CT
0.149 GC
/Helvetica 16.667 F
GS
[1 0 0 1 0 0] CT
-10 7 moveto 
1 -1 scale
(0) t 
GR
GR
GS
[0.6 0 0 0.6 70.40001 260.54286] CT
0.149 GC
/Helvetica 16.667 F
GS
[1 0 0 1 0 0] CT
-24 7 moveto 
1 -1 scale
(0.5) t 
GR
GR
GS
[0.6 0 0 0.6 70.40001 221.28571] CT
0.149 GC
/Helvetica 16.667 F
GS
[1 0 0 1 0 0] CT
-10 7 moveto 
1 -1 scale
(1) t 
GR
GR
GS
[0.6 0 0 0.6 70.40001 182.02857] CT
0.149 GC
/Helvetica 16.667 F
GS
[1 0 0 1 0 0] CT
-24 7 moveto 
1 -1 scale
(1.5) t 
GR
GR
GS
[0.6 0 0 0.6 70.40001 142.77143] CT
0.149 GC
/Helvetica 16.667 F
GS
[1 0 0 1 0 0] CT
-10 7 moveto 
1 -1 scale
(2) t 
GR
GR
GS
[0.6 0 0 0.6 70.40001 103.51428] CT
0.149 GC
/Helvetica 16.667 F
GS
[1 0 0 1 0 0] CT
-24 7 moveto 
1 -1 scale
(2.5) t 
GR
GR
GS
[0.6 0 0 0.6 70.40001 64.25713] CT
0.149 GC
/Helvetica 16.667 F
GS
[1 0 0 1 0 0] CT
-10 7 moveto 
1 -1 scale
(3) t 
GR
GR
GS
[0.6 0 0 0.6 70.40001 24.99999] CT
0.149 GC
/Helvetica 16.667 F
GS
[1 0 0 1 0 0] CT
-24 7 moveto 
1 -1 scale
(3.5) t 
GR
GR
GS
[0 -0.6 0.6 0 52.99999 162.39987] CT
0.149 GC
N
-12.167 -13.369 M
-12.167 -11.978 -11.635 -10.931 QT
-11.104 -9.884 -10.088 -9.291 QT
-9.073 -8.697 -7.682 -8.697 QT
-6.245 -8.697 -4.901 -9.439 QT
-3.557 -10.181 -2.604 -11.424 QT
-1.651 -12.666 -1.307 -14.056 QT
-1.26 -14.197 -1.135 -14.197 QT
-0.854 -14.197 L
-0.76 -14.197 -0.706 -14.134 QT
-0.651 -14.072 -0.651 -13.994 QT
-0.651 -13.978 -0.667 -13.931 QT
-1.057 -12.338 -2.19 -10.939 QT
-3.323 -9.541 -4.893 -8.72 QT
-6.463 -7.9 -8.12 -7.9 QT
-9.917 -7.9 -11.346 -8.705 QT
-12.776 -9.509 -13.565 -10.947 QT
-14.354 -12.384 -14.354 -14.197 QT
-14.354 -16.134 -13.495 -18.025 QT
-12.635 -19.916 -11.174 -21.392 QT
-9.713 -22.869 -7.838 -23.744 QT
-5.963 -24.619 -4.042 -24.619 QT
-3.292 -24.619 -2.588 -24.384 QT
-1.885 -24.15 -1.292 -23.681 QT
-0.698 -23.213 -0.323 -22.603 QT
1.505 -24.572 L
1.505 -24.619 1.615 -24.619 QT
1.74 -24.619 L
1.833 -24.619 1.888 -24.541 QT
1.943 -24.463 1.943 -24.384 QT
0.38 -18.166 L
0.38 -18.009 0.208 -18.009 QT
-0.213 -18.009 L
-0.385 -18.009 -0.385 -18.275 QT
-0.292 -18.775 -0.292 -19.478 QT
-0.292 -20.603 -0.674 -21.603 QT
-1.057 -22.603 -1.862 -23.205 QT
-2.667 -23.806 -3.823 -23.806 QT
-5.698 -23.806 -7.26 -22.861 QT
-8.823 -21.916 -9.909 -20.384 QT
-10.995 -18.853 -11.581 -16.986 QT
-12.167 -15.119 -12.167 -13.369 QT
cp
f
GR
GS
[0 -0.6 0.6 0 52.99999 162.39987] CT
0.149 GC
N
1.948 -4.9 M
1.792 -4.9 1.792 -5.119 QT
1.807 -5.15 1.831 -5.244 QT
1.854 -5.338 1.893 -5.4 QT
1.932 -5.463 2.01 -5.463 QT
2.463 -5.463 2.799 -5.486 QT
3.135 -5.509 3.37 -5.572 QT
3.557 -5.65 3.667 -6.009 QT
5.854 -14.791 L
5.885 -14.947 5.885 -15.009 QT
5.885 -15.181 5.698 -15.213 QT
5.401 -15.275 4.542 -15.275 QT
4.385 -15.275 4.385 -15.478 QT
4.401 -15.525 4.424 -15.619 QT
4.448 -15.713 4.487 -15.775 QT
4.526 -15.838 4.588 -15.838 QT
10.323 -15.838 L
10.854 -15.838 11.362 -15.705 QT
11.87 -15.572 12.307 -15.291 QT
12.745 -15.009 12.995 -14.595 QT
13.245 -14.181 13.245 -13.619 QT
13.245 -13.025 12.94 -12.509 QT
12.635 -11.994 12.143 -11.611 QT
11.651 -11.228 11.088 -10.978 QT
10.526 -10.728 9.901 -10.619 QT
10.338 -10.619 10.792 -10.447 QT
11.245 -10.275 11.596 -9.978 QT
11.948 -9.681 12.159 -9.267 QT
12.37 -8.853 12.37 -8.369 QT
12.37 -7.416 11.698 -6.619 QT
11.026 -5.822 10.01 -5.361 QT
8.995 -4.9 8.042 -4.9 QT
1.948 -4.9 L
cp
4.901 -5.588 M
4.901 -5.463 5.448 -5.463 QT
7.729 -5.463 L
8.51 -5.463 9.229 -5.9 QT
9.948 -6.338 10.385 -7.056 QT
10.823 -7.775 10.823 -8.556 QT
10.823 -9.025 10.62 -9.455 QT
10.417 -9.884 10.042 -10.127 QT
9.667 -10.369 9.182 -10.369 QT
6.073 -10.369 L
4.963 -5.947 L
4.901 -5.728 4.901 -5.588 QT
cp
6.182 -10.791 M
8.604 -10.791 L
9.37 -10.791 10.096 -11.181 QT
10.823 -11.572 11.276 -12.244 QT
11.729 -12.916 11.729 -13.666 QT
11.729 -14.369 11.299 -14.822 QT
10.87 -15.275 10.182 -15.275 QT
7.979 -15.275 L
7.557 -15.275 7.409 -15.197 QT
7.26 -15.119 7.151 -14.728 QT
6.182 -10.791 L
cp
f
GR
GS
[0.6 0 0 0.6 0 -0.20001] CT
0 0.447 0.741 RC
1 LJ
2.5 LW
N
124 369.143 M
144.556 369.143 L
165.111 369.143 L
185.667 369.143 L
206.222 369.143 L
226.778 369.146 L
247.333 369.161 L
267.889 369.218 L
288.444 369.406 L
309 369.909 L
329.556 371.032 L
350.111 373.173 L
370.667 376.718 L
391.222 381.924 L
411.778 388.822 L
432.333 397.205 L
452.889 406.678 L
473.444 416.757 L
494 426.951 L
514.556 436.84 L
535.111 446.106 L
555.667 454.54 L
576.222 462.036 L
596.778 468.566 L
617.333 474.161 L
637.889 478.891 L
658.444 482.843 L
679 486.114 L
699.556 488.801 L
720.111 490.995 L
740.667 492.776 L
761.222 494.216 L
781.778 495.376 L
802.333 496.308 L
822.889 497.056 L
843.444 497.653 L
864 498.131 L
S
GR
GS
[0.6 0 0 0.6 0 -0.20001] CT
0.851 0.325 0.098 RC
1 LJ
2.5 LW
N
124 238.29 M
144.556 238.301 L
165.111 238.334 L
185.667 238.433 L
206.222 238.701 L
226.778 239.358 L
247.333 240.792 L
267.889 243.58 L
288.444 248.418 L
309 255.961 L
329.556 266.629 L
350.111 280.453 L
370.667 297.047 L
391.222 315.688 L
411.778 335.473 L
432.333 355.485 L
452.889 374.919 L
473.444 393.158 L
494 409.79 L
514.556 424.597 L
535.111 437.518 L
555.667 448.605 L
576.222 457.988 L
596.778 465.837 L
617.333 472.34 L
637.889 477.686 L
658.444 482.052 L
679 485.599 L
699.556 488.467 L
720.111 490.779 L
740.667 492.637 L
761.222 494.127 L
781.778 495.319 L
802.333 496.272 L
822.889 497.033 L
843.444 497.639 L
864 498.122 L
S
GR
GS
[0.6 0 0 0.6 0 -0.20001] CT
0.929 0.694 0.125 RC
1 LJ
2.5 LW
N
124 115.616 M
144.556 119.299 L
165.111 124.522 L
185.667 131.678 L
206.222 141.083 L
226.778 152.903 L
247.333 167.107 L
267.889 183.482 L
288.444 201.707 L
309 221.45 L
329.556 242.407 L
350.111 264.289 L
370.667 286.771 L
391.222 309.446 L
411.778 331.839 L
432.333 353.45 L
452.889 373.821 L
473.444 392.584 L
494 409.499 L
514.556 424.454 L
535.111 437.449 L
555.667 448.573 L
576.222 457.973 L
596.778 465.83 L
617.333 472.337 L
637.889 477.685 L
658.444 482.051 L
679 485.598 L
699.556 488.467 L
720.111 490.779 L
740.667 492.637 L
761.222 494.127 L
781.778 495.319 L
802.333 496.272 L
822.889 497.033 L
843.444 497.639 L
864 498.122 L
S
GR
GS
[0.6 0 0 0.6 0 -0.20001] CT
0.494 0.184 0.557 RC
1 LJ
2.5 LW
N
124 74.815 M
144.556 86.255 L
165.111 99.066 L
185.667 113.183 L
206.222 128.523 L
226.778 145 L
247.333 162.535 L
267.889 181.063 L
288.444 200.541 L
309 220.938 L
329.556 242.202 L
350.111 264.214 L
370.667 286.745 L
391.222 309.438 L
411.778 331.836 L
432.333 353.45 L
452.889 373.82 L
473.444 392.584 L
494 409.499 L
514.556 424.454 L
535.111 437.449 L
555.667 448.573 L
576.222 457.973 L
596.778 465.83 L
617.333 472.337 L
637.889 477.685 L
658.444 482.051 L
679 485.598 L
699.556 488.467 L
720.111 490.779 L
740.667 492.637 L
761.222 494.127 L
781.778 495.319 L
802.333 496.272 L
822.889 497.033 L
843.444 497.639 L
864 498.122 L
S
GR
GS
[0.6 0 0 0.6 0 -0.20001] CT
1 GC
N
649 203 M
649 84 L
780 84 L
780 203 L
cp
f
GR
GS
[0.6 0 0 0.6 424.44932 60.1104] CT
/Helvetica 21.667 F
GS
[1 0 0 1 0 0] CT
0 9 moveto 
1 -1 scale
(M = 2) t 
GR
GR
GS
[0.6 0 0 0.6 0 -0.20001] CT
0 0.447 0.741 RC
1 LJ
2.5 LW
N
653.972 100.517 M
703.687 100.517 L
S
GR
GS
[0.6 0 0 0.6 424.44932 77.30346] CT
/Helvetica 21.667 F
GS
[1 0 0 1 0 0] CT
0 9 moveto 
1 -1 scale
(M = 4) t 
GR
GR
GS
[0.6 0 0 0.6 0 -0.20001] CT
0.851 0.325 0.098 RC
1 LJ
2.5 LW
N
653.972 129.172 M
703.687 129.172 L
S
GR
GS
[0.6 0 0 0.6 424.44932 94.49652] CT
/Helvetica 21.667 F
GS
[1 0 0 1 0 0] CT
0 9 moveto 
1 -1 scale
(M = 8) t 
GR
GR
GS
[0.6 0 0 0.6 0 -0.20001] CT
0.929 0.694 0.125 RC
1 LJ
2.5 LW
N
653.972 157.828 M
703.687 157.828 L
S
GR
GS
[0.6 0 0 0.6 424.44932 111.68958] CT
/Helvetica 21.667 F
GS
[1 0 0 1 0 0] CT
0 9 moveto 
1 -1 scale
(M = 16) t 
GR
GR
GS
[0.6 0 0 0.6 0 -0.20001] CT
0.494 0.184 0.557 RC
1 LJ
2.5 LW
N
653.972 186.483 M
703.687 186.483 L
S
GR
GS
[0.6 0 0 0.6 0 -0.20001] CT
0.149 GC
10.0 ML
0.833 LW
N
649 203 M
649 84 L
780 84 L
780 203 L
cp
S
GR
%%Trailer
%%Pages: 1
%%EOF
