%!PS-Adobe-3.0 EPSF-3.0
%%Creator: (MATLAB, The Mathworks, Inc. Version 9.2.0.538062 \(R2017a\). Operating System: Windows 8)
%%Title: C:/Users/chees/Documents/DottoratoLoc/GNSS/authProtocol/latex/figures/confrontoFea.eps
%%CreationDate: 2018-04-05T15:00:58
%%Pages: (atend)
%%BoundingBox: 0 0 284 284
%%LanguageLevel: 3
%%EndComments
%%BeginProlog
%%BeginResource: procset (Apache XML Graphics Std ProcSet) 1.2 0
%%Version: 1.2 0
%%Copyright: (Copyright 2001-2003,2010 The Apache Software Foundation. License terms: http://www.apache.org/licenses/LICENSE-2.0)
/bd{bind def}bind def
/ld{load def}bd
/GR/grestore ld
/M/moveto ld
/LJ/setlinejoin ld
/C/curveto ld
/f/fill ld
/LW/setlinewidth ld
/GC/setgray ld
/t/show ld
/N/newpath ld
/CT/concat ld
/cp/closepath ld
/S/stroke ld
/L/lineto ld
/CC/setcmykcolor ld
/A/ashow ld
/GS/gsave ld
/RC/setrgbcolor ld
/RM/rmoveto ld
/ML/setmiterlimit ld
/re {4 2 roll M
1 index 0 rlineto
0 exch rlineto
neg 0 rlineto
cp } bd
/_ctm matrix def
/_tm matrix def
/BT { _ctm currentmatrix pop matrix _tm copy pop 0 0 moveto } bd
/ET { _ctm setmatrix } bd
/iTm { _ctm setmatrix _tm concat } bd
/Tm { _tm astore pop iTm 0 0 moveto } bd
/ux 0.0 def
/uy 0.0 def
/F {
  /Tp exch def
  /Tf exch def
  Tf findfont Tp scalefont setfont
  /cf Tf def  /cs Tp def
} bd
/ULS {currentpoint /uy exch def /ux exch def} bd
/ULE {
  /Tcx currentpoint pop def
  gsave
  newpath
  cf findfont cs scalefont dup
  /FontMatrix get 0 get /Ts exch def /FontInfo get dup
  /UnderlinePosition get Ts mul /To exch def
  /UnderlineThickness get Ts mul /Tt exch def
  ux uy To add moveto  Tcx uy To add lineto
  Tt setlinewidth stroke
  grestore
} bd
/OLE {
  /Tcx currentpoint pop def
  gsave
  newpath
  cf findfont cs scalefont dup
  /FontMatrix get 0 get /Ts exch def /FontInfo get dup
  /UnderlinePosition get Ts mul /To exch def
  /UnderlineThickness get Ts mul /Tt exch def
  ux uy To add cs add moveto Tcx uy To add cs add lineto
  Tt setlinewidth stroke
  grestore
} bd
/SOE {
  /Tcx currentpoint pop def
  gsave
  newpath
  cf findfont cs scalefont dup
  /FontMatrix get 0 get /Ts exch def /FontInfo get dup
  /UnderlinePosition get Ts mul /To exch def
  /UnderlineThickness get Ts mul /Tt exch def
  ux uy To add cs 10 mul 26 idiv add moveto Tcx uy To add cs 10 mul 26 idiv add lineto
  Tt setlinewidth stroke
  grestore
} bd
/QT {
/Y22 exch store
/X22 exch store
/Y21 exch store
/X21 exch store
currentpoint
/Y21 load 2 mul add 3 div exch
/X21 load 2 mul add 3 div exch
/X21 load 2 mul /X22 load add 3 div
/Y21 load 2 mul /Y22 load add 3 div
/X22 load /Y22 load curveto
} bd
/SSPD {
dup length /d exch dict def
{
/v exch def
/k exch def
currentpagedevice k known {
/cpdv currentpagedevice k get def
v cpdv ne {
/upd false def
/nullv v type /nulltype eq def
/nullcpdv cpdv type /nulltype eq def
nullv nullcpdv or
{
/upd true def
} {
/sametype v type cpdv type eq def
sametype {
v type /arraytype eq {
/vlen v length def
/cpdvlen cpdv length def
vlen cpdvlen eq {
0 1 vlen 1 sub {
/i exch def
/obj v i get def
/cpdobj cpdv i get def
obj cpdobj ne {
/upd true def
exit
} if
} for
} {
/upd true def
} ifelse
} {
v type /dicttype eq {
v {
/dv exch def
/dk exch def
/cpddv cpdv dk get def
dv cpddv ne {
/upd true def
exit
} if
} forall
} {
/upd true def
} ifelse
} ifelse
} if
} ifelse
upd true eq {
d k v put
} if
} if
} if
} forall
d length 0 gt {
d setpagedevice
} if
} bd
/RE { % /NewFontName [NewEncodingArray] /FontName RE -
  findfont dup length dict begin
  {
    1 index /FID ne
    {def} {pop pop} ifelse
  } forall
  /Encoding exch def
  /FontName 1 index def
  currentdict definefont pop
  end
} bind def
%%EndResource
%%BeginResource: procset (Apache XML Graphics EPS ProcSet) 1.0 0
%%Version: 1.0 0
%%Copyright: (Copyright 2002-2003 The Apache Software Foundation. License terms: http://www.apache.org/licenses/LICENSE-2.0)
/BeginEPSF { %def
/b4_Inc_state save def         % Save state for cleanup
/dict_count countdictstack def % Count objects on dict stack
/op_count count 1 sub def      % Count objects on operand stack
userdict begin                 % Push userdict on dict stack
/showpage { } def              % Redefine showpage, { } = null proc
0 setgray 0 setlinecap         % Prepare graphics state
1 setlinewidth 0 setlinejoin
10 setmiterlimit [ ] 0 setdash newpath
/languagelevel where           % If level not equal to 1 then
{pop languagelevel             % set strokeadjust and
1 ne                           % overprint to their defaults.
{false setstrokeadjust false setoverprint
} if
} if
} bd
/EndEPSF { %def
count op_count sub {pop} repeat            % Clean up stacks
countdictstack dict_count sub {end} repeat
b4_Inc_state restore
} bd
%%EndResource
%FOPBeginFontDict
%%IncludeResource: font Courier-Bold
%%IncludeResource: font Helvetica
%%IncludeResource: font Courier-BoldOblique
%%IncludeResource: font Courier-Oblique
%%IncludeResource: font Times-Roman
%%IncludeResource: font Helvetica-BoldOblique
%%IncludeResource: font Helvetica-Bold
%%IncludeResource: font Helvetica-Oblique
%%IncludeResource: font Times-BoldItalic
%%IncludeResource: font Courier
%%IncludeResource: font Times-Italic
%%IncludeResource: font Times-Bold
%%IncludeResource: font Symbol
%%IncludeResource: font ZapfDingbats
%FOPEndFontDict
%%BeginResource: encoding WinAnsiEncoding
/WinAnsiEncoding [
/.notdef /.notdef /.notdef /.notdef /.notdef
/.notdef /.notdef /.notdef /.notdef /.notdef
/.notdef /.notdef /.notdef /.notdef /.notdef
/.notdef /.notdef /.notdef /.notdef /.notdef
/.notdef /.notdef /.notdef /.notdef /.notdef
/.notdef /.notdef /.notdef /.notdef /.notdef
/.notdef /.notdef /space /exclam /quotedbl
/numbersign /dollar /percent /ampersand /quotesingle
/parenleft /parenright /asterisk /plus /comma
/hyphen /period /slash /zero /one
/two /three /four /five /six
/seven /eight /nine /colon /semicolon
/less /equal /greater /question /at
/A /B /C /D /E
/F /G /H /I /J
/K /L /M /N /O
/P /Q /R /S /T
/U /V /W /X /Y
/Z /bracketleft /backslash /bracketright /asciicircum
/underscore /quoteleft /a /b /c
/d /e /f /g /h
/i /j /k /l /m
/n /o /p /q /r
/s /t /u /v /w
/x /y /z /braceleft /bar
/braceright /asciitilde /bullet /Euro /bullet
/quotesinglbase /florin /quotedblbase /ellipsis /dagger
/daggerdbl /circumflex /perthousand /Scaron /guilsinglleft
/OE /bullet /Zcaron /bullet /bullet
/quoteleft /quoteright /quotedblleft /quotedblright /bullet
/endash /emdash /asciitilde /trademark /scaron
/guilsinglright /oe /bullet /zcaron /Ydieresis
/space /exclamdown /cent /sterling /currency
/yen /brokenbar /section /dieresis /copyright
/ordfeminine /guillemotleft /logicalnot /sfthyphen /registered
/macron /degree /plusminus /twosuperior /threesuperior
/acute /mu /paragraph /middot /cedilla
/onesuperior /ordmasculine /guillemotright /onequarter /onehalf
/threequarters /questiondown /Agrave /Aacute /Acircumflex
/Atilde /Adieresis /Aring /AE /Ccedilla
/Egrave /Eacute /Ecircumflex /Edieresis /Igrave
/Iacute /Icircumflex /Idieresis /Eth /Ntilde
/Ograve /Oacute /Ocircumflex /Otilde /Odieresis
/multiply /Oslash /Ugrave /Uacute /Ucircumflex
/Udieresis /Yacute /Thorn /germandbls /agrave
/aacute /acircumflex /atilde /adieresis /aring
/ae /ccedilla /egrave /eacute /ecircumflex
/edieresis /igrave /iacute /icircumflex /idieresis
/eth /ntilde /ograve /oacute /ocircumflex
/otilde /odieresis /divide /oslash /ugrave
/uacute /ucircumflex /udieresis /yacute /thorn
/ydieresis
] def
%%EndResource
%FOPBeginFontReencode
/Courier-Bold findfont
dup length dict begin
  {1 index /FID ne {def} {pop pop} ifelse} forall
  /Encoding WinAnsiEncoding def
  currentdict
end
/Courier-Bold exch definefont pop
/Helvetica findfont
dup length dict begin
  {1 index /FID ne {def} {pop pop} ifelse} forall
  /Encoding WinAnsiEncoding def
  currentdict
end
/Helvetica exch definefont pop
/Courier-BoldOblique findfont
dup length dict begin
  {1 index /FID ne {def} {pop pop} ifelse} forall
  /Encoding WinAnsiEncoding def
  currentdict
end
/Courier-BoldOblique exch definefont pop
/Courier-Oblique findfont
dup length dict begin
  {1 index /FID ne {def} {pop pop} ifelse} forall
  /Encoding WinAnsiEncoding def
  currentdict
end
/Courier-Oblique exch definefont pop
/Times-Roman findfont
dup length dict begin
  {1 index /FID ne {def} {pop pop} ifelse} forall
  /Encoding WinAnsiEncoding def
  currentdict
end
/Times-Roman exch definefont pop
/Helvetica-BoldOblique findfont
dup length dict begin
  {1 index /FID ne {def} {pop pop} ifelse} forall
  /Encoding WinAnsiEncoding def
  currentdict
end
/Helvetica-BoldOblique exch definefont pop
/Helvetica-Bold findfont
dup length dict begin
  {1 index /FID ne {def} {pop pop} ifelse} forall
  /Encoding WinAnsiEncoding def
  currentdict
end
/Helvetica-Bold exch definefont pop
/Helvetica-Oblique findfont
dup length dict begin
  {1 index /FID ne {def} {pop pop} ifelse} forall
  /Encoding WinAnsiEncoding def
  currentdict
end
/Helvetica-Oblique exch definefont pop
/Times-BoldItalic findfont
dup length dict begin
  {1 index /FID ne {def} {pop pop} ifelse} forall
  /Encoding WinAnsiEncoding def
  currentdict
end
/Times-BoldItalic exch definefont pop
/Courier findfont
dup length dict begin
  {1 index /FID ne {def} {pop pop} ifelse} forall
  /Encoding WinAnsiEncoding def
  currentdict
end
/Courier exch definefont pop
/Times-Italic findfont
dup length dict begin
  {1 index /FID ne {def} {pop pop} ifelse} forall
  /Encoding WinAnsiEncoding def
  currentdict
end
/Times-Italic exch definefont pop
/Times-Bold findfont
dup length dict begin
  {1 index /FID ne {def} {pop pop} ifelse} forall
  /Encoding WinAnsiEncoding def
  currentdict
end
/Times-Bold exch definefont pop
%FOPEndFontReencode
%%EndProlog
%%Page: 1 1
%%PageBoundingBox: 0 0 284 284
%%BeginPageSetup
[1 0 0 -1 0 284] CT
%%EndPageSetup
GS
[0.60127 0 0 0.60127 0 0.20001] CT
N
0 0 M
472 0 L
472 472 L
0 472 L
0 0 L
cp
clip
1 GC
N
0 0 472 472 re
f
GR
GS
[0.60127 0 0 0.60127 0 0.20001] CT
1 GC
N
0 0 472 472 re
f
GR
GS
[0.60127 0 0 0.60127 0 0.20001] CT
1 GC
N
78 415 M
428 415 L
428 35 L
78 35 L
cp
f
GR
GS
[0.60127 0 0 0.60127 0 0.20001] CT
0.873 GC
1 LJ
0.833 LW
N
94.667 415 M
94.667 35 L
S
GR
GS
[0.60127 0 0 0.60127 0 0.20001] CT
0.873 GC
1 LJ
0.833 LW
N
178 415 M
178 35 L
S
GR
GS
[0.60127 0 0 0.60127 0 0.20001] CT
0.873 GC
1 LJ
0.833 LW
N
261.333 415 M
261.333 35 L
S
GR
GS
[0.60127 0 0 0.60127 0 0.20001] CT
0.873 GC
1 LJ
0.833 LW
N
344.667 415 M
344.667 35 L
S
GR
GS
[0.60127 0 0 0.60127 0 0.20001] CT
0.873 GC
1 LJ
0.833 LW
N
428 415 M
428 35 L
S
GR
GS
[0.60127 0 0 0.60127 0 0.20001] CT
0.775 GC
[1 3] 0 setdash
2 LJ
0.833 LW
N
428 390.165 M
78 390.165 L
S
GR
GS
[0.60127 0 0 0.60127 0 0.20001] CT
0.775 GC
[1 3] 0 setdash
2 LJ
0.833 LW
N
428 365.33 M
78 365.33 L
S
GR
GS
[0.60127 0 0 0.60127 0 0.20001] CT
0.775 GC
[1 3] 0 setdash
2 LJ
0.833 LW
N
428 340.495 M
78 340.495 L
S
GR
GS
[0.60127 0 0 0.60127 0 0.20001] CT
0.775 GC
[1 3] 0 setdash
2 LJ
0.833 LW
N
428 315.66 M
78 315.66 L
S
GR
GS
[0.60127 0 0 0.60127 0 0.20001] CT
0.775 GC
[1 3] 0 setdash
2 LJ
0.833 LW
N
428 265.99 M
78 265.99 L
S
GR
GS
[0.60127 0 0 0.60127 0 0.20001] CT
0.775 GC
[1 3] 0 setdash
2 LJ
0.833 LW
N
428 241.155 M
78 241.155 L
S
GR
GS
[0.60127 0 0 0.60127 0 0.20001] CT
0.775 GC
[1 3] 0 setdash
2 LJ
0.833 LW
N
428 216.321 M
78 216.321 L
S
GR
GS
[0.60127 0 0 0.60127 0 0.20001] CT
0.775 GC
[1 3] 0 setdash
2 LJ
0.833 LW
N
428 191.486 M
78 191.486 L
S
GR
GS
[0.60127 0 0 0.60127 0 0.20001] CT
0.775 GC
[1 3] 0 setdash
2 LJ
0.833 LW
N
428 141.816 M
78 141.816 L
S
GR
GS
[0.60127 0 0 0.60127 0 0.20001] CT
0.775 GC
[1 3] 0 setdash
2 LJ
0.833 LW
N
428 116.981 M
78 116.981 L
S
GR
GS
[0.60127 0 0 0.60127 0 0.20001] CT
0.775 GC
[1 3] 0 setdash
2 LJ
0.833 LW
N
428 92.146 M
78 92.146 L
S
GR
GS
[0.60127 0 0 0.60127 0 0.20001] CT
0.775 GC
[1 3] 0 setdash
2 LJ
0.833 LW
N
428 67.311 M
78 67.311 L
S
GR
GS
[0.60127 0 0 0.60127 0 0.20001] CT
0.873 GC
1 LJ
0.833 LW
N
428 415 M
78 415 L
S
GR
GS
[0.60127 0 0 0.60127 0 0.20001] CT
0.873 GC
1 LJ
0.833 LW
N
428 290.825 M
78 290.825 L
S
GR
GS
[0.60127 0 0 0.60127 0 0.20001] CT
0.873 GC
1 LJ
0.833 LW
N
428 166.651 M
78 166.651 L
S
GR
GS
[0.60127 0 0 0.60127 0 0.20001] CT
0.873 GC
1 LJ
0.833 LW
N
428 42.476 M
78 42.476 L
S
GR
GS
[0.60127 0 0 0.60127 0 0.20001] CT
0.149 GC
2 setlinecap
1 LJ
0.833 LW
N
78 415 M
428 415 L
S
GR
GS
[0.60127 0 0 0.60127 0 0.20001] CT
0.149 GC
2 setlinecap
1 LJ
0.833 LW
N
78 35 M
428 35 L
S
GR
GS
[0.60127 0 0 0.60127 0 0.20001] CT
0.149 GC
2 setlinecap
1 LJ
0.833 LW
N
94.667 415 M
94.667 411.2 L
S
GR
GS
[0.60127 0 0 0.60127 0 0.20001] CT
0.149 GC
2 setlinecap
1 LJ
0.833 LW
N
178 415 M
178 411.2 L
S
GR
GS
[0.60127 0 0 0.60127 0 0.20001] CT
0.149 GC
2 setlinecap
1 LJ
0.833 LW
N
261.333 415 M
261.333 411.2 L
S
GR
GS
[0.60127 0 0 0.60127 0 0.20001] CT
0.149 GC
2 setlinecap
1 LJ
0.833 LW
N
344.667 415 M
344.667 411.2 L
S
GR
GS
[0.60127 0 0 0.60127 0 0.20001] CT
0.149 GC
2 setlinecap
1 LJ
0.833 LW
N
428 415 M
428 411.2 L
S
GR
GS
[0.60127 0 0 0.60127 0 0.20001] CT
0.149 GC
2 setlinecap
1 LJ
0.833 LW
N
94.667 35 M
94.667 38.8 L
S
GR
GS
[0.60127 0 0 0.60127 0 0.20001] CT
0.149 GC
2 setlinecap
1 LJ
0.833 LW
N
178 35 M
178 38.8 L
S
GR
GS
[0.60127 0 0 0.60127 0 0.20001] CT
0.149 GC
2 setlinecap
1 LJ
0.833 LW
N
261.333 35 M
261.333 38.8 L
S
GR
GS
[0.60127 0 0 0.60127 0 0.20001] CT
0.149 GC
2 setlinecap
1 LJ
0.833 LW
N
344.667 35 M
344.667 38.8 L
S
GR
GS
[0.60127 0 0 0.60127 0 0.20001] CT
0.149 GC
2 setlinecap
1 LJ
0.833 LW
N
428 35 M
428 38.8 L
S
GR
GS
[0.60127 0 0 0.60127 56.92034 253.73601] CT
0.149 GC
/Helvetica 16.667 F
GS
[1 0 0 1 0 0] CT
-9.5 18 moveto 
1 -1 scale
(50) t 
GR
GR
GS
[0.60127 0 0 0.60127 107.02627 253.73601] CT
0.149 GC
/Helvetica 16.667 F
GS
[1 0 0 1 0 0] CT
-14.5 18 moveto 
1 -1 scale
(100) t 
GR
GR
GS
[0.60127 0 0 0.60127 157.1322 253.73601] CT
0.149 GC
/Helvetica 16.667 F
GS
[1 0 0 1 0 0] CT
-14.5 18 moveto 
1 -1 scale
(150) t 
GR
GR
GS
[0.60127 0 0 0.60127 207.23812 253.73601] CT
0.149 GC
/Helvetica 16.667 F
GS
[1 0 0 1 0 0] CT
-14.5 18 moveto 
1 -1 scale
(200) t 
GR
GR
GS
[0.60127 0 0 0.60127 257.34406 253.73601] CT
0.149 GC
/Helvetica 16.667 F
GS
[1 0 0 1 0 0] CT
-14.5 18 moveto 
1 -1 scale
(250) t 
GR
GR
GS
[0.60127 0 0 0.60127 152.1217 267.96611] CT
0.149 GC
N
-5.221 19.209 M
-5.221 19.069 -5.206 19.006 QT
-3.487 12.147 L
-3.315 11.506 -3.315 11.022 QT
-3.315 10.037 -3.987 10.037 QT
-4.706 10.037 -5.057 10.897 QT
-5.409 11.756 -5.737 13.069 QT
-5.737 13.131 -5.8 13.17 QT
-5.862 13.209 -5.925 13.209 QT
-6.19 13.209 L
-6.268 13.209 -6.323 13.123 QT
-6.378 13.037 -6.378 12.975 QT
-6.143 11.975 -5.909 11.28 QT
-5.675 10.584 -5.19 10.014 QT
-4.706 9.444 -3.971 9.444 QT
-3.112 9.444 -2.448 9.983 QT
-1.784 10.522 -1.784 11.366 QT
-1.096 10.475 -0.175 9.959 QT
0.747 9.444 1.779 9.444 QT
2.607 9.444 3.2 9.717 QT
3.794 9.991 4.122 10.561 QT
4.45 11.131 4.45 11.912 QT
4.45 12.866 4.029 14.201 QT
3.607 15.537 2.982 17.178 QT
2.654 17.944 2.654 18.569 QT
2.654 19.256 3.185 19.256 QT
4.075 19.256 4.677 18.287 QT
5.279 17.319 5.529 16.225 QT
5.575 16.084 5.716 16.084 QT
5.997 16.084 L
6.075 16.084 6.138 16.139 QT
6.2 16.194 6.2 16.287 QT
6.2 16.303 6.185 16.35 QT
5.872 17.662 5.091 18.764 QT
4.31 19.866 3.138 19.866 QT
2.325 19.866 1.755 19.303 QT
1.185 18.741 1.185 17.944 QT
1.185 17.522 1.357 17.053 QT
1.654 16.303 2.029 15.256 QT
2.404 14.209 2.646 13.256 QT
2.888 12.303 2.888 11.569 QT
2.888 10.928 2.622 10.483 QT
2.357 10.037 1.732 10.037 QT
0.888 10.037 0.185 10.405 QT
-0.518 10.772 -1.05 11.381 QT
-1.581 11.991 -2.018 12.834 QT
-3.581 19.1 L
-3.659 19.412 -3.932 19.639 QT
-4.206 19.866 -4.55 19.866 QT
-4.831 19.866 -5.026 19.686 QT
-5.221 19.506 -5.221 19.209 QT
cp
f
GR
GS
[0.60127 0 0 0.60127 0 0.20001] CT
0.149 GC
2 setlinecap
1 LJ
0.833 LW
N
78 415 M
78 35 L
S
GR
GS
[0.60127 0 0 0.60127 0 0.20001] CT
0.149 GC
2 setlinecap
1 LJ
0.833 LW
N
428 415 M
428 35 L
S
GR
GS
[0.60127 0 0 0.60127 0 0.20001] CT
0.149 GC
2 setlinecap
1 LJ
0.833 LW
N
78 415 M
81.8 415 L
S
GR
GS
[0.60127 0 0 0.60127 0 0.20001] CT
0.149 GC
2 setlinecap
1 LJ
0.833 LW
N
78 290.825 M
81.8 290.825 L
S
GR
GS
[0.60127 0 0 0.60127 0 0.20001] CT
0.149 GC
2 setlinecap
1 LJ
0.833 LW
N
78 166.651 M
81.8 166.651 L
S
GR
GS
[0.60127 0 0 0.60127 0 0.20001] CT
0.149 GC
2 setlinecap
1 LJ
0.833 LW
N
78 42.476 M
81.8 42.476 L
S
GR
GS
[0.60127 0 0 0.60127 0 0.20001] CT
0.149 GC
2 setlinecap
1 LJ
0.833 LW
N
428 415 M
424.2 415 L
S
GR
GS
[0.60127 0 0 0.60127 0 0.20001] CT
0.149 GC
2 setlinecap
1 LJ
0.833 LW
N
428 290.825 M
424.2 290.825 L
S
GR
GS
[0.60127 0 0 0.60127 0 0.20001] CT
0.149 GC
2 setlinecap
1 LJ
0.833 LW
N
428 166.651 M
424.2 166.651 L
S
GR
GS
[0.60127 0 0 0.60127 0 0.20001] CT
0.149 GC
2 setlinecap
1 LJ
0.833 LW
N
428 42.476 M
424.2 42.476 L
S
GR
GS
[0.60127 0 0 0.60127 0 0.20001] CT
0.149 GC
2 setlinecap
1 LJ
0.833 LW
N
78 415 M
79.9 415 L
S
GR
GS
[0.60127 0 0 0.60127 0 0.20001] CT
0.149 GC
2 setlinecap
1 LJ
0.833 LW
N
78 390.165 M
79.9 390.165 L
S
GR
GS
[0.60127 0 0 0.60127 0 0.20001] CT
0.149 GC
2 setlinecap
1 LJ
0.833 LW
N
78 365.33 M
79.9 365.33 L
S
GR
GS
[0.60127 0 0 0.60127 0 0.20001] CT
0.149 GC
2 setlinecap
1 LJ
0.833 LW
N
78 340.495 M
79.9 340.495 L
S
GR
GS
[0.60127 0 0 0.60127 0 0.20001] CT
0.149 GC
2 setlinecap
1 LJ
0.833 LW
N
78 315.66 M
79.9 315.66 L
S
GR
GS
[0.60127 0 0 0.60127 0 0.20001] CT
0.149 GC
2 setlinecap
1 LJ
0.833 LW
N
78 290.825 M
79.9 290.825 L
S
GR
GS
[0.60127 0 0 0.60127 0 0.20001] CT
0.149 GC
2 setlinecap
1 LJ
0.833 LW
N
78 265.99 M
79.9 265.99 L
S
GR
GS
[0.60127 0 0 0.60127 0 0.20001] CT
0.149 GC
2 setlinecap
1 LJ
0.833 LW
N
78 241.155 M
79.9 241.155 L
S
GR
GS
[0.60127 0 0 0.60127 0 0.20001] CT
0.149 GC
2 setlinecap
1 LJ
0.833 LW
N
78 216.321 M
79.9 216.321 L
S
GR
GS
[0.60127 0 0 0.60127 0 0.20001] CT
0.149 GC
2 setlinecap
1 LJ
0.833 LW
N
78 191.486 M
79.9 191.486 L
S
GR
GS
[0.60127 0 0 0.60127 0 0.20001] CT
0.149 GC
2 setlinecap
1 LJ
0.833 LW
N
78 166.651 M
79.9 166.651 L
S
GR
GS
[0.60127 0 0 0.60127 0 0.20001] CT
0.149 GC
2 setlinecap
1 LJ
0.833 LW
N
78 141.816 M
79.9 141.816 L
S
GR
GS
[0.60127 0 0 0.60127 0 0.20001] CT
0.149 GC
2 setlinecap
1 LJ
0.833 LW
N
78 116.981 M
79.9 116.981 L
S
GR
GS
[0.60127 0 0 0.60127 0 0.20001] CT
0.149 GC
2 setlinecap
1 LJ
0.833 LW
N
78 92.146 M
79.9 92.146 L
S
GR
GS
[0.60127 0 0 0.60127 0 0.20001] CT
0.149 GC
2 setlinecap
1 LJ
0.833 LW
N
78 67.311 M
79.9 67.311 L
S
GR
GS
[0.60127 0 0 0.60127 0 0.20001] CT
0.149 GC
2 setlinecap
1 LJ
0.833 LW
N
78 42.476 M
79.9 42.476 L
S
GR
GS
[0.60127 0 0 0.60127 0 0.20001] CT
0.149 GC
2 setlinecap
1 LJ
0.833 LW
N
428 415 M
426.1 415 L
S
GR
GS
[0.60127 0 0 0.60127 0 0.20001] CT
0.149 GC
2 setlinecap
1 LJ
0.833 LW
N
428 390.165 M
426.1 390.165 L
S
GR
GS
[0.60127 0 0 0.60127 0 0.20001] CT
0.149 GC
2 setlinecap
1 LJ
0.833 LW
N
428 365.33 M
426.1 365.33 L
S
GR
GS
[0.60127 0 0 0.60127 0 0.20001] CT
0.149 GC
2 setlinecap
1 LJ
0.833 LW
N
428 340.495 M
426.1 340.495 L
S
GR
GS
[0.60127 0 0 0.60127 0 0.20001] CT
0.149 GC
2 setlinecap
1 LJ
0.833 LW
N
428 315.66 M
426.1 315.66 L
S
GR
GS
[0.60127 0 0 0.60127 0 0.20001] CT
0.149 GC
2 setlinecap
1 LJ
0.833 LW
N
428 290.825 M
426.1 290.825 L
S
GR
GS
[0.60127 0 0 0.60127 0 0.20001] CT
0.149 GC
2 setlinecap
1 LJ
0.833 LW
N
428 265.99 M
426.1 265.99 L
S
GR
GS
[0.60127 0 0 0.60127 0 0.20001] CT
0.149 GC
2 setlinecap
1 LJ
0.833 LW
N
428 241.155 M
426.1 241.155 L
S
GR
GS
[0.60127 0 0 0.60127 0 0.20001] CT
0.149 GC
2 setlinecap
1 LJ
0.833 LW
N
428 216.321 M
426.1 216.321 L
S
GR
GS
[0.60127 0 0 0.60127 0 0.20001] CT
0.149 GC
2 setlinecap
1 LJ
0.833 LW
N
428 191.486 M
426.1 191.486 L
S
GR
GS
[0.60127 0 0 0.60127 0 0.20001] CT
0.149 GC
2 setlinecap
1 LJ
0.833 LW
N
428 166.651 M
426.1 166.651 L
S
GR
GS
[0.60127 0 0 0.60127 0 0.20001] CT
0.149 GC
2 setlinecap
1 LJ
0.833 LW
N
428 141.816 M
426.1 141.816 L
S
GR
GS
[0.60127 0 0 0.60127 0 0.20001] CT
0.149 GC
2 setlinecap
1 LJ
0.833 LW
N
428 116.981 M
426.1 116.981 L
S
GR
GS
[0.60127 0 0 0.60127 0 0.20001] CT
0.149 GC
2 setlinecap
1 LJ
0.833 LW
N
428 92.146 M
426.1 92.146 L
S
GR
GS
[0.60127 0 0 0.60127 0 0.20001] CT
0.149 GC
2 setlinecap
1 LJ
0.833 LW
N
428 67.311 M
426.1 67.311 L
S
GR
GS
[0.60127 0 0 0.60127 0 0.20001] CT
0.149 GC
2 setlinecap
1 LJ
0.833 LW
N
428 42.476 M
426.1 42.476 L
S
GR
GS
[0.60127 0 0 0.60127 19.84195 255.13898] CT
0.149 GC
/Helvetica 16.667 F
GS
[1 0 0 1 0 0] CT
0 0 moveto 
1 -1 scale
(10) t 
GR
GR
GS
[0.60127 0 0 0.60127 31.2661 250.32882] CT
0.149 GC
/Helvetica 13.333 F
GS
[1 0 0 1 0 0] CT
0 0 moveto 
1 -1 scale
(-15) t 
GR
GR
GS
[0.60127 0 0 0.60127 19.84195 180.58136] CT
0.149 GC
/Helvetica 16.667 F
GS
[1 0 0 1 0 0] CT
0 0 moveto 
1 -1 scale
(10) t 
GR
GR
GS
[0.60127 0 0 0.60127 31.2661 175.77119] CT
0.149 GC
/Helvetica 13.333 F
GS
[1 0 0 1 0 0] CT
0 0 moveto 
1 -1 scale
(-10) t 
GR
GR
GS
[0.60127 0 0 0.60127 24.05085 106.02374] CT
0.149 GC
/Helvetica 16.667 F
GS
[1 0 0 1 0 0] CT
0 0 moveto 
1 -1 scale
(10) t 
GR
GR
GS
[0.60127 0 0 0.60127 35.475 101.21357] CT
0.149 GC
/Helvetica 13.333 F
GS
[1 0 0 1 0 0] CT
0 0 moveto 
1 -1 scale
(-5) t 
GR
GR
GS
[0.60127 0 0 0.60127 26.45593 30.86484] CT
0.149 GC
/Helvetica 16.667 F
GS
[1 0 0 1 0 0] CT
0 0 moveto 
1 -1 scale
(10) t 
GR
GR
GS
[0.60127 0 0 0.60127 37.88008 26.05467] CT
0.149 GC
/Helvetica 13.333 F
GS
[1 0 0 1 0 0] CT
0 0 moveto 
1 -1 scale
(0) t 
GR
GR
GS
[0 -0.60127 0.60127 0 17.03601 135.48591] CT
0.149 GC
N
-22.52 -8.4 M
-22.739 -8.4 -22.739 -8.697 QT
-22.739 -8.759 -22.7 -8.9 QT
-22.661 -9.041 -22.606 -9.127 QT
-22.551 -9.213 -22.458 -9.213 QT
-21.051 -9.213 -20.489 -9.369 QT
-20.192 -9.463 -20.067 -9.978 QT
-16.911 -22.619 L
-16.864 -22.838 -16.864 -22.931 QT
-16.864 -23.181 -17.129 -23.213 QT
-17.567 -23.306 -18.786 -23.306 QT
-19.02 -23.306 -19.02 -23.603 QT
-19.004 -23.666 -18.973 -23.806 QT
-18.942 -23.947 -18.879 -24.033 QT
-18.817 -24.119 -18.723 -24.119 QT
-10.786 -24.119 L
-9.692 -24.119 -8.668 -23.728 QT
-7.645 -23.338 -6.997 -22.541 QT
-6.348 -21.744 -6.348 -20.603 QT
-6.348 -19.15 -7.379 -18.002 QT
-8.411 -16.853 -9.942 -16.213 QT
-11.473 -15.572 -12.911 -15.572 QT
-16.645 -15.572 L
-18.051 -9.9 L
-18.098 -9.666 -18.098 -9.572 QT
-18.098 -9.478 -18.067 -9.416 QT
-18.036 -9.353 -17.989 -9.338 QT
-17.942 -9.322 -17.833 -9.306 QT
-17.395 -9.213 -16.161 -9.213 QT
-15.942 -9.213 -15.942 -8.9 QT
-16.02 -8.588 -16.067 -8.494 QT
-16.114 -8.4 -16.333 -8.4 QT
-22.52 -8.4 L
cp
-16.536 -16.259 M
-13.317 -16.259 L
-11.083 -16.259 -9.911 -17.463 QT
-9.317 -18.056 -8.942 -19.181 QT
-8.567 -20.306 -8.567 -21.213 QT
-8.567 -22.353 -9.426 -22.83 QT
-10.286 -23.306 -11.567 -23.306 QT
-13.77 -23.306 L
-14.395 -23.306 -14.598 -23.197 QT
-14.801 -23.088 -14.973 -22.509 QT
-16.536 -16.259 L
cp
f
GR
GS
[0 -0.60127 0.60127 0 17.03601 135.48591] CT
0.149 GC
N
-7.274 -5.884 M
-6.837 -5.15 -5.54 -5.15 QT
-4.977 -5.15 -4.469 -5.338 QT
-3.962 -5.525 -3.633 -5.908 QT
-3.305 -6.291 -3.305 -6.838 QT
-3.305 -7.259 -3.602 -7.525 QT
-3.899 -7.791 -4.321 -7.884 QT
-5.196 -8.056 L
-5.79 -8.197 -6.173 -8.603 QT
-6.555 -9.009 -6.555 -9.588 QT
-6.555 -10.306 -6.165 -10.853 QT
-5.774 -11.4 -5.141 -11.689 QT
-4.508 -11.978 -3.837 -11.978 QT
-3.102 -11.978 -2.532 -11.627 QT
-1.962 -11.275 -1.962 -10.603 QT
-1.962 -10.228 -2.165 -9.947 QT
-2.368 -9.666 -2.743 -9.666 QT
-2.946 -9.666 -3.102 -9.806 QT
-3.258 -9.947 -3.258 -10.15 QT
-3.258 -10.338 -3.149 -10.517 QT
-3.04 -10.697 -2.868 -10.799 QT
-2.696 -10.9 -2.508 -10.9 QT
-2.649 -11.244 -3.032 -11.4 QT
-3.415 -11.556 -3.868 -11.556 QT
-4.274 -11.556 -4.68 -11.392 QT
-5.087 -11.228 -5.329 -10.916 QT
-5.571 -10.603 -5.571 -10.166 QT
-5.571 -9.884 -5.368 -9.666 QT
-5.165 -9.447 -4.868 -9.353 QT
-3.946 -9.166 L
-3.493 -9.072 -3.126 -8.83 QT
-2.758 -8.588 -2.54 -8.228 QT
-2.321 -7.869 -2.321 -7.4 QT
-2.321 -6.806 -2.657 -6.228 QT
-2.993 -5.65 -3.477 -5.306 QT
-4.321 -4.713 -5.555 -4.713 QT
-6.415 -4.713 -7.126 -5.111 QT
-7.837 -5.509 -7.837 -6.275 QT
-7.837 -6.713 -7.579 -7.041 QT
-7.321 -7.369 -6.883 -7.369 QT
-6.633 -7.369 -6.454 -7.213 QT
-6.274 -7.056 -6.274 -6.791 QT
-6.274 -6.431 -6.548 -6.158 QT
-6.821 -5.884 -7.196 -5.884 QT
-7.274 -5.884 L
cp
f
GR
GS
[0 -0.60127 0.60127 0 17.03601 135.48591] CT
0.149 GC
N
0.695 -6.65 M
0.695 -7.166 0.835 -7.72 QT
0.976 -8.275 1.226 -8.947 QT
1.476 -9.619 1.663 -10.119 QT
1.882 -10.713 1.882 -11.088 QT
1.882 -11.556 1.523 -11.556 QT
0.898 -11.556 0.484 -10.908 QT
0.07 -10.259 -0.118 -9.447 QT
-0.149 -9.353 -0.258 -9.353 QT
-0.446 -9.353 L
-0.571 -9.353 -0.571 -9.494 QT
-0.571 -9.541 L
-0.321 -10.494 0.21 -11.236 QT
0.742 -11.978 1.554 -11.978 QT
2.132 -11.978 2.523 -11.603 QT
2.913 -11.228 2.913 -10.65 QT
2.913 -10.353 2.788 -10.025 QT
2.71 -9.822 2.46 -9.166 QT
2.21 -8.509 2.077 -8.08 QT
1.945 -7.65 1.859 -7.236 QT
1.773 -6.822 1.773 -6.416 QT
1.773 -5.884 1.999 -5.517 QT
2.226 -5.15 2.742 -5.15 QT
3.757 -5.15 4.538 -6.416 QT
4.554 -6.478 4.562 -6.533 QT
4.57 -6.588 4.585 -6.65 QT
5.726 -11.291 L
5.788 -11.494 5.984 -11.65 QT
6.179 -11.806 6.398 -11.806 QT
6.601 -11.806 6.742 -11.681 QT
6.882 -11.556 6.882 -11.353 QT
6.882 -11.259 6.867 -11.228 QT
5.71 -6.619 L
5.601 -6.134 5.601 -5.838 QT
5.601 -5.15 6.07 -5.15 QT
6.585 -5.15 6.835 -5.783 QT
7.085 -6.416 7.273 -7.259 QT
7.304 -7.353 7.398 -7.353 QT
7.585 -7.353 L
7.648 -7.353 7.687 -7.299 QT
7.726 -7.244 7.726 -7.197 QT
7.554 -6.509 7.398 -6.017 QT
7.242 -5.525 6.898 -5.119 QT
6.554 -4.713 6.038 -4.713 QT
5.523 -4.713 5.124 -4.994 QT
4.726 -5.275 4.585 -5.759 QT
4.21 -5.291 3.726 -5.002 QT
3.242 -4.713 2.71 -4.713 QT
1.788 -4.713 1.242 -5.22 QT
0.695 -5.728 0.695 -6.65 QT
cp
f
GR
GS
[0 -0.60127 0.60127 0 17.03601 135.48591] CT
0.149 GC
N
10.217 -6.806 M
10.217 -6.119 10.576 -5.634 QT
10.935 -5.15 11.592 -5.15 QT
12.545 -5.15 13.428 -5.588 QT
14.31 -6.025 14.857 -6.791 QT
14.904 -6.838 14.982 -6.838 QT
15.06 -6.838 15.146 -6.752 QT
15.232 -6.666 15.232 -6.588 QT
15.232 -6.525 15.201 -6.494 QT
14.607 -5.666 13.615 -5.189 QT
12.623 -4.713 11.56 -4.713 QT
10.795 -4.713 10.209 -5.08 QT
9.623 -5.447 9.303 -6.056 QT
8.982 -6.666 8.982 -7.431 QT
8.982 -8.509 9.584 -9.572 QT
10.185 -10.634 11.185 -11.306 QT
12.185 -11.978 13.295 -11.978 QT
14.014 -11.978 14.584 -11.627 QT
15.154 -11.275 15.154 -10.603 QT
15.154 -10.166 14.904 -9.853 QT
14.654 -9.541 14.217 -9.541 QT
13.967 -9.541 13.787 -9.705 QT
13.607 -9.869 13.607 -10.119 QT
13.607 -10.494 13.881 -10.759 QT
14.154 -11.025 14.529 -11.025 QT
14.56 -11.025 L
14.373 -11.306 14.014 -11.431 QT
13.654 -11.556 13.279 -11.556 QT
12.342 -11.556 11.639 -10.759 QT
10.935 -9.963 10.576 -8.845 QT
10.217 -7.728 10.217 -6.806 QT
cp
f
GR
GS
[0 -0.60127 0.60127 0 17.03601 135.48591] CT
0.149 GC
N
17.285 -6.806 M
17.285 -6.119 17.644 -5.634 QT
18.004 -5.15 18.66 -5.15 QT
19.613 -5.15 20.496 -5.588 QT
21.379 -6.025 21.926 -6.791 QT
21.973 -6.838 22.051 -6.838 QT
22.129 -6.838 22.215 -6.752 QT
22.301 -6.666 22.301 -6.588 QT
22.301 -6.525 22.269 -6.494 QT
21.676 -5.666 20.683 -5.189 QT
19.691 -4.713 18.629 -4.713 QT
17.863 -4.713 17.277 -5.08 QT
16.691 -5.447 16.371 -6.056 QT
16.051 -6.666 16.051 -7.431 QT
16.051 -8.509 16.652 -9.572 QT
17.254 -10.634 18.254 -11.306 QT
19.254 -11.978 20.363 -11.978 QT
21.082 -11.978 21.652 -11.627 QT
22.223 -11.275 22.223 -10.603 QT
22.223 -10.166 21.973 -9.853 QT
21.723 -9.541 21.285 -9.541 QT
21.035 -9.541 20.855 -9.705 QT
20.676 -9.869 20.676 -10.119 QT
20.676 -10.494 20.949 -10.759 QT
21.223 -11.025 21.598 -11.025 QT
21.629 -11.025 L
21.441 -11.306 21.082 -11.431 QT
20.723 -11.556 20.348 -11.556 QT
19.41 -11.556 18.707 -10.759 QT
18.004 -9.963 17.644 -8.845 QT
17.285 -7.728 17.285 -6.806 QT
cp
f
GR
GS
[0.60127 0 0 0.60127 0 0.20001] CT
[2 2] 0 setdash
2 LJ
2.5 LW
N
77.958 148.733 M
78 148.565 L
79.667 142.277 L
81.333 136.373 L
83 130.824 L
84.667 125.606 L
86.333 120.695 L
88 116.073 L
89.667 111.718 L
91.333 107.615 L
93 103.746 L
94.667 100.098 L
96.333 96.656 L
98 93.409 L
99.667 90.344 L
101.333 87.451 L
103 84.72 L
104.667 82.142 L
106.333 79.708 L
108 77.409 L
109.667 75.239 L
111.333 73.191 L
113 71.257 L
114.667 69.432 L
116.333 67.71 L
118 66.085 L
119.667 64.553 L
121.333 63.108 L
123 61.746 L
124.667 60.462 L
126.333 59.254 L
128 58.116 L
129.667 57.045 L
131.333 56.038 L
133 55.091 L
134.667 54.201 L
136.333 53.366 L
138 52.582 L
139.667 51.847 L
141.333 51.158 L
143 50.513 L
144.667 49.909 L
146.333 49.345 L
148 48.817 L
149.667 48.325 L
151.333 47.866 L
153 47.438 L
154.667 47.04 L
156.333 46.669 L
158 46.325 L
159.667 46.005 L
161.333 45.709 L
163 45.435 L
164.667 45.181 L
166.333 44.946 L
168 44.729 L
169.667 44.529 L
171.333 44.345 L
173 44.176 L
174.667 44.02 L
176.333 43.877 L
178 43.746 L
179.667 43.626 L
181.333 43.516 L
183 43.416 L
184.667 43.324 L
186.333 43.24 L
188 43.164 L
189.667 43.095 L
191.333 43.033 L
193 42.976 L
194.667 42.924 L
196.333 42.878 L
198 42.835 L
199.667 42.797 L
201.333 42.763 L
203 42.732 L
204.667 42.704 L
206.333 42.679 L
208 42.657 L
209.667 42.637 L
211.333 42.619 L
213 42.603 L
214.667 42.588 L
216.333 42.576 L
218 42.564 L
219.667 42.554 L
221.333 42.545 L
223 42.537 L
224.667 42.53 L
226.333 42.523 L
228 42.518 L
229.667 42.513 L
231.333 42.508 L
233 42.504 L
234.667 42.501 L
236.333 42.498 L
238 42.495 L
239.667 42.493 L
241.333 42.491 L
243 42.489 L
244.667 42.487 L
246.333 42.486 L
248 42.485 L
249.667 42.484 L
251.333 42.483 L
253 42.482 L
254.667 42.481 L
256.333 42.48 L
258 42.48 L
259.667 42.479 L
261.333 42.479 L
263 42.479 L
264.667 42.478 L
266.333 42.478 L
268 42.478 L
269.667 42.477 L
271.333 42.477 L
273 42.477 L
274.667 42.477 L
276.333 42.477 L
278 42.477 L
279.667 42.477 L
281.333 42.477 L
283 42.476 L
284.667 42.476 L
286.333 42.476 L
288 42.476 L
289.667 42.476 L
291.333 42.476 L
293 42.476 L
294.667 42.476 L
296.333 42.476 L
298 42.476 L
299.667 42.476 L
301.333 42.476 L
303 42.476 L
304.667 42.476 L
306.333 42.476 L
308 42.476 L
309.667 42.476 L
311.333 42.476 L
313 42.476 L
314.667 42.476 L
316.333 42.476 L
318 42.476 L
319.667 42.476 L
321.333 42.476 L
323 42.476 L
324.667 42.476 L
326.333 42.476 L
328 42.476 L
329.667 42.476 L
331.333 42.476 L
333 42.476 L
334.667 42.476 L
336.333 42.476 L
338 42.476 L
339.667 42.476 L
341.333 42.476 L
343 42.476 L
344.667 42.476 L
346.333 42.476 L
348 42.476 L
349.667 42.476 L
351.333 42.476 L
353 42.476 L
354.667 42.476 L
356.333 42.476 L
358 42.476 L
359.667 42.476 L
361.333 42.476 L
363 42.476 L
364.667 42.476 L
366.333 42.476 L
368 42.476 L
369.667 42.476 L
371.333 42.476 L
373 42.476 L
374.667 42.476 L
376.333 42.476 L
378 42.476 L
379.667 42.476 L
381.333 42.476 L
383 42.476 L
384.667 42.476 L
386.333 42.476 L
388 42.476 L
389.667 42.476 L
391.333 42.476 L
393 42.476 L
394.667 42.476 L
396.333 42.476 L
398 42.476 L
399.667 42.476 L
401.333 42.476 L
403 42.476 L
404.667 42.476 L
406.333 42.476 L
408 42.476 L
409.667 42.476 L
411.333 42.476 L
413 42.476 L
414.667 42.476 L
416.333 42.476 L
418 42.476 L
419.667 42.476 L
421.333 42.476 L
423 42.476 L
424.667 42.476 L
426.333 42.476 L
428 42.476 L
S
GR
GS
[0.60127 0 0 0.60127 0 0.20001] CT
[8 8] 0 setdash
2 LJ
2.5 LW
N
77.958 230.337 M
78 230.079 L
79.667 220.334 L
81.333 211.142 L
83 202.465 L
84.667 194.267 L
86.333 186.514 L
88 179.178 L
89.667 172.231 L
91.333 165.649 L
93 159.409 L
94.667 153.489 L
96.333 147.871 L
98 142.537 L
99.667 137.47 L
101.333 132.655 L
103 128.077 L
104.667 123.725 L
106.333 119.584 L
108 115.645 L
109.667 111.897 L
111.333 108.328 L
113 104.931 L
114.667 101.697 L
116.333 98.617 L
118 95.684 L
119.667 92.891 L
121.333 90.231 L
123 87.697 L
124.667 85.284 L
126.333 82.986 L
128 80.797 L
129.667 78.713 L
131.333 76.729 L
133 74.841 L
134.667 73.043 L
136.333 71.332 L
138 69.705 L
139.667 68.157 L
141.333 66.685 L
143 65.285 L
144.667 63.955 L
146.333 62.692 L
148 61.492 L
149.667 60.353 L
151.333 59.272 L
153 58.247 L
154.667 57.275 L
156.333 56.353 L
158 55.481 L
159.667 54.655 L
161.333 53.873 L
163 53.135 L
164.667 52.436 L
166.333 51.777 L
168 51.154 L
169.667 50.567 L
171.333 50.014 L
173 49.493 L
174.667 49.002 L
176.333 48.541 L
178 48.107 L
179.667 47.701 L
181.333 47.319 L
183 46.961 L
184.667 46.626 L
186.333 46.312 L
188 46.019 L
189.667 45.745 L
191.333 45.49 L
193 45.252 L
194.667 45.03 L
196.333 44.824 L
198 44.632 L
199.667 44.454 L
201.333 44.289 L
203 44.136 L
204.667 43.995 L
206.333 43.864 L
208 43.743 L
209.667 43.632 L
211.333 43.529 L
213 43.434 L
214.667 43.347 L
216.333 43.268 L
218 43.194 L
219.667 43.127 L
221.333 43.066 L
223 43.01 L
224.667 42.959 L
226.333 42.912 L
228 42.869 L
229.667 42.831 L
231.333 42.795 L
233 42.763 L
234.667 42.734 L
236.333 42.708 L
238 42.684 L
239.667 42.663 L
241.333 42.643 L
243 42.625 L
244.667 42.61 L
246.333 42.595 L
248 42.583 L
249.667 42.571 L
251.333 42.561 L
253 42.551 L
254.667 42.543 L
256.333 42.536 L
258 42.529 L
259.667 42.523 L
261.333 42.518 L
263 42.513 L
264.667 42.509 L
266.333 42.505 L
268 42.502 L
269.667 42.499 L
271.333 42.496 L
273 42.494 L
274.667 42.492 L
276.333 42.49 L
278 42.488 L
279.667 42.487 L
281.333 42.485 L
283 42.484 L
284.667 42.483 L
286.333 42.482 L
288 42.482 L
289.667 42.481 L
291.333 42.48 L
293 42.48 L
294.667 42.479 L
296.333 42.479 L
298 42.479 L
299.667 42.478 L
301.333 42.478 L
303 42.478 L
304.667 42.478 L
306.333 42.477 L
308 42.477 L
309.667 42.477 L
311.333 42.477 L
313 42.477 L
314.667 42.477 L
316.333 42.477 L
318 42.477 L
319.667 42.476 L
321.333 42.476 L
323 42.476 L
324.667 42.476 L
326.333 42.476 L
328 42.476 L
329.667 42.476 L
331.333 42.476 L
333 42.476 L
334.667 42.476 L
336.333 42.476 L
338 42.476 L
339.667 42.476 L
341.333 42.476 L
343 42.476 L
344.667 42.476 L
346.333 42.476 L
348 42.476 L
349.667 42.476 L
351.333 42.476 L
353 42.476 L
354.667 42.476 L
356.333 42.476 L
358 42.476 L
359.667 42.476 L
361.333 42.476 L
363 42.476 L
364.667 42.476 L
366.333 42.476 L
368 42.476 L
369.667 42.476 L
371.333 42.476 L
373 42.476 L
374.667 42.476 L
376.333 42.476 L
378 42.476 L
379.667 42.476 L
381.333 42.476 L
383 42.476 L
384.667 42.476 L
386.333 42.476 L
388 42.476 L
389.667 42.476 L
391.333 42.476 L
393 42.476 L
394.667 42.476 L
396.333 42.476 L
398 42.476 L
399.667 42.476 L
401.333 42.476 L
403 42.476 L
404.667 42.476 L
406.333 42.476 L
408 42.476 L
409.667 42.476 L
411.333 42.476 L
413 42.476 L
414.667 42.476 L
416.333 42.476 L
418 42.476 L
419.667 42.476 L
421.333 42.476 L
423 42.476 L
424.667 42.476 L
426.333 42.476 L
428 42.476 L
S
GR
GS
[0.60127 0 0 0.60127 0 0.20001] CT
[8 2 4 2] 0 setdash
2 LJ
2.5 LW
N
98.703 415.045 M
99.667 406.396 L
101.333 393.197 L
103 380.484 L
104.667 368.22 L
106.333 356.471 L
108 345.189 L
109.667 334.356 L
111.333 323.946 L
113 313.941 L
114.667 304.319 L
116.333 295.063 L
118 286.155 L
119.667 277.579 L
121.333 269.32 L
123 261.363 L
124.667 253.694 L
126.333 246.302 L
128 239.174 L
129.667 232.298 L
131.333 225.665 L
133 219.263 L
134.667 213.084 L
136.333 207.119 L
138 201.358 L
139.667 195.794 L
141.333 190.418 L
143 185.225 L
144.667 180.206 L
146.333 175.356 L
148 170.667 L
149.667 166.134 L
151.333 161.752 L
153 157.514 L
154.667 153.415 L
156.333 149.451 L
158 145.617 L
159.667 141.909 L
161.333 138.321 L
163 134.851 L
164.667 131.493 L
166.333 128.245 L
168 125.102 L
169.667 122.061 L
171.333 119.12 L
173 116.273 L
174.667 113.52 L
176.333 110.855 L
178 108.278 L
179.667 105.785 L
181.333 103.373 L
183 101.039 L
184.667 98.783 L
186.333 96.6 L
188 94.49 L
189.667 92.449 L
191.333 90.475 L
193 88.568 L
194.667 86.724 L
196.333 84.941 L
198 83.219 L
199.667 81.555 L
201.333 79.947 L
203 78.394 L
204.667 76.894 L
206.333 75.446 L
208 74.048 L
209.667 72.699 L
211.333 71.397 L
213 70.142 L
214.667 68.93 L
216.333 67.762 L
218 66.637 L
219.667 65.552 L
221.333 64.506 L
223 63.5 L
224.667 62.53 L
226.333 61.597 L
228 60.7 L
229.667 59.836 L
231.333 59.006 L
233 58.208 L
234.667 57.441 L
236.333 56.705 L
238 55.998 L
239.667 55.319 L
241.333 54.669 L
243 54.045 L
244.667 53.447 L
246.333 52.874 L
248 52.326 L
249.667 51.801 L
251.333 51.299 L
253 50.819 L
254.667 50.361 L
256.333 49.923 L
258 49.505 L
259.667 49.106 L
261.333 48.727 L
263 48.365 L
264.667 48.02 L
266.333 47.692 L
268 47.38 L
269.667 47.084 L
271.333 46.803 L
273 46.536 L
274.667 46.283 L
276.333 46.043 L
278 45.816 L
279.667 45.601 L
281.333 45.397 L
283 45.205 L
284.667 45.024 L
286.333 44.853 L
288 44.692 L
289.667 44.54 L
291.333 44.397 L
293 44.262 L
294.667 44.136 L
296.333 44.018 L
298 43.906 L
299.667 43.802 L
301.333 43.704 L
303 43.613 L
304.667 43.528 L
306.333 43.448 L
308 43.374 L
309.667 43.304 L
311.333 43.24 L
313 43.18 L
314.667 43.124 L
316.333 43.072 L
318 43.024 L
319.667 42.979 L
321.333 42.937 L
323 42.899 L
324.667 42.864 L
326.333 42.831 L
328 42.801 L
329.667 42.773 L
331.333 42.747 L
333 42.723 L
334.667 42.702 L
336.333 42.682 L
338 42.663 L
339.667 42.646 L
341.333 42.631 L
343 42.617 L
344.667 42.604 L
346.333 42.592 L
348 42.581 L
349.667 42.571 L
351.333 42.562 L
353 42.554 L
354.667 42.546 L
356.333 42.54 L
358 42.534 L
359.667 42.528 L
361.333 42.523 L
363 42.518 L
364.667 42.514 L
366.333 42.51 L
368 42.507 L
369.667 42.504 L
371.333 42.501 L
373 42.498 L
374.667 42.496 L
376.333 42.494 L
378 42.492 L
379.667 42.49 L
381.333 42.489 L
383 42.488 L
384.667 42.486 L
386.333 42.485 L
388 42.484 L
389.667 42.483 L
391.333 42.483 L
393 42.482 L
394.667 42.481 L
396.333 42.481 L
398 42.48 L
399.667 42.48 L
401.333 42.479 L
403 42.479 L
404.667 42.479 L
406.333 42.478 L
408 42.478 L
409.667 42.478 L
411.333 42.478 L
413 42.477 L
414.667 42.477 L
416.333 42.477 L
418 42.477 L
419.667 42.477 L
421.333 42.477 L
423 42.477 L
424.667 42.477 L
426.333 42.477 L
428 42.477 L
S
GR
GS
[0.60127 0 0 0.60127 0 0.20001] CT
1 LJ
2.5 LW
N
118.174 415.045 M
119.667 404.43 L
121.333 392.731 L
123 381.779 L
124.667 371.091 L
126.333 360.791 L
128 350.843 L
129.667 341.224 L
131.333 331.925 L
133 322.933 L
134.667 314.236 L
136.333 305.82 L
138 297.675 L
139.667 289.79 L
141.333 282.155 L
143 274.761 L
144.667 267.598 L
146.333 260.658 L
148 253.932 L
149.667 247.413 L
151.333 241.093 L
153 234.965 L
154.667 229.022 L
156.333 223.258 L
158 217.666 L
159.667 212.241 L
161.333 206.976 L
163 201.868 L
164.667 196.909 L
166.333 192.096 L
168 187.424 L
169.667 182.888 L
171.333 178.484 L
173 174.207 L
174.667 170.054 L
176.333 166.021 L
178 162.104 L
179.667 158.3 L
181.333 154.604 L
183 151.015 L
184.667 147.528 L
186.333 144.142 L
188 140.852 L
189.667 137.655 L
191.333 134.551 L
193 131.535 L
194.667 128.605 L
196.333 125.759 L
198 122.994 L
199.667 120.308 L
201.333 117.7 L
203 115.166 L
204.667 112.705 L
206.333 110.315 L
208 107.994 L
209.667 105.739 L
211.333 103.551 L
213 101.425 L
214.667 99.362 L
216.333 97.359 L
218 95.415 L
219.667 93.527 L
221.333 91.696 L
223 89.918 L
224.667 88.194 L
226.333 86.521 L
228 84.898 L
229.667 83.325 L
231.333 81.798 L
233 80.319 L
234.667 78.884 L
236.333 77.494 L
238 76.147 L
239.667 74.842 L
241.333 73.577 L
243 72.353 L
244.667 71.167 L
246.333 70.02 L
248 68.909 L
249.667 67.834 L
251.333 66.794 L
253 65.789 L
254.667 64.817 L
256.333 63.877 L
258 62.969 L
259.667 62.092 L
261.333 61.245 L
263 60.427 L
264.667 59.638 L
266.333 58.876 L
268 58.142 L
269.667 57.434 L
271.333 56.751 L
273 56.094 L
274.667 55.46 L
276.333 54.851 L
278 54.264 L
279.667 53.7 L
281.333 53.158 L
283 52.636 L
284.667 52.135 L
286.333 51.654 L
288 51.193 L
289.667 50.75 L
291.333 50.325 L
293 49.919 L
294.667 49.529 L
296.333 49.156 L
298 48.799 L
299.667 48.457 L
301.333 48.131 L
303 47.819 L
304.667 47.522 L
306.333 47.238 L
308 46.967 L
309.667 46.709 L
311.333 46.464 L
313 46.23 L
314.667 46.007 L
316.333 45.796 L
318 45.595 L
319.667 45.405 L
321.333 45.224 L
323 45.052 L
324.667 44.89 L
326.333 44.736 L
328 44.591 L
329.667 44.454 L
331.333 44.324 L
333 44.202 L
334.667 44.086 L
336.333 43.977 L
338 43.875 L
339.667 43.778 L
341.333 43.688 L
343 43.603 L
344.667 43.523 L
346.333 43.448 L
348 43.377 L
349.667 43.312 L
351.333 43.25 L
353 43.193 L
354.667 43.139 L
356.333 43.089 L
358 43.042 L
359.667 42.998 L
361.333 42.958 L
363 42.92 L
364.667 42.885 L
366.333 42.852 L
368 42.822 L
369.667 42.794 L
371.333 42.768 L
373 42.744 L
374.667 42.722 L
376.333 42.701 L
378 42.682 L
379.667 42.665 L
381.333 42.649 L
383 42.634 L
384.667 42.62 L
386.333 42.607 L
388 42.596 L
389.667 42.585 L
391.333 42.575 L
393 42.566 L
394.667 42.558 L
396.333 42.551 L
398 42.544 L
399.667 42.538 L
401.333 42.532 L
403 42.527 L
404.667 42.522 L
406.333 42.518 L
408 42.514 L
409.667 42.51 L
411.333 42.507 L
413 42.504 L
414.667 42.501 L
416.333 42.499 L
418 42.496 L
419.667 42.494 L
421.333 42.493 L
423 42.491 L
424.667 42.489 L
426.333 42.488 L
428 42.487 L
S
GR
GS
[0.60127 0 0 0.60127 0 0.20001] CT
1 GC
N
164 385 M
164 282 L
415 282 L
415 385 L
cp
f
GR
GS
[0.60127 0 0 0.60127 133.8434 178.4875] CT
N
2.141 2.55 M
2.141 2.097 2.25 1.558 QT
2.359 1.019 2.461 0.675 QT
2.563 0.331 2.945 -0.677 QT
3.328 -1.684 3.344 -1.731 QT
3.609 -2.45 3.609 -2.919 QT
3.609 -3.528 3.172 -3.528 QT
2.375 -3.528 1.859 -2.708 QT
1.344 -1.888 1.109 -0.888 QT
1.063 -0.763 0.938 -0.763 QT
0.703 -0.763 L
0.531 -0.763 0.531 -0.95 QT
0.531 -0.997 L
0.859 -2.2 1.523 -3.122 QT
2.188 -4.044 3.203 -4.044 QT
3.922 -4.044 4.414 -3.575 QT
4.906 -3.106 4.906 -2.372 QT
4.906 -2.013 4.734 -1.591 QT
4.344 -0.575 4.117 0.034 QT
3.891 0.644 3.703 1.401 QT
3.516 2.159 3.516 2.8 QT
3.516 3.55 3.859 4.026 QT
4.203 4.503 4.938 4.503 QT
6.328 4.503 7.438 2.362 QT
7.797 1.659 8.109 0.722 QT
8.422 -0.216 8.422 -0.794 QT
8.422 -1.403 8.227 -1.739 QT
8.031 -2.075 7.719 -2.442 QT
7.406 -2.809 7.406 -3.028 QT
7.406 -3.419 7.727 -3.739 QT
8.047 -4.059 8.438 -4.059 QT
8.922 -4.059 9.133 -3.622 QT
9.344 -3.184 9.344 -2.622 QT
9.344 -1.966 9.148 -1.044 QT
8.953 -0.122 8.617 0.862 QT
8.281 1.847 8 2.409 QT
6.688 5.019 4.922 5.019 QT
3.656 5.019 2.898 4.394 QT
2.141 3.769 2.141 2.55 QT
cp
f
GR
GS
[0.60127 0 0 0.60127 133.8434 178.4875] CT
N
17.467 2.144 M
17.311 2.144 17.202 2.019 QT
17.092 1.894 17.092 1.737 QT
17.092 1.581 17.202 1.464 QT
17.311 1.347 17.467 1.347 QT
30.03 1.347 L
30.171 1.347 30.28 1.464 QT
30.389 1.581 30.389 1.737 QT
30.389 1.894 30.28 2.019 QT
30.171 2.144 30.03 2.144 QT
17.467 2.144 L
cp
17.467 -1.747 M
17.311 -1.747 17.202 -1.864 QT
17.092 -1.981 17.092 -2.138 QT
17.092 -2.294 17.202 -2.419 QT
17.311 -2.544 17.467 -2.544 QT
30.03 -2.544 L
30.171 -2.544 30.28 -2.419 QT
30.389 -2.294 30.389 -2.138 QT
30.389 -1.981 30.28 -1.864 QT
30.171 -1.747 30.03 -1.747 QT
17.467 -1.747 L
cp
f
GR
GS
[0.60127 0 0 0.60127 133.8434 178.4875] CT
N
32.086 1.503 M
32.086 0.8 L
38.257 -8.419 L
38.336 -8.528 38.461 -8.528 QT
38.757 -8.528 L
38.992 -8.528 38.992 -8.294 QT
38.992 0.8 L
40.945 0.8 L
40.945 1.503 L
38.992 1.503 L
38.992 3.456 L
38.992 3.878 39.578 3.987 QT
40.164 4.097 40.929 4.097 QT
40.929 4.8 L
35.414 4.8 L
35.414 4.097 L
36.195 4.097 36.781 3.987 QT
37.367 3.878 37.367 3.456 QT
37.367 1.503 L
32.086 1.503 L
cp
32.742 0.8 M
37.476 0.8 L
37.476 -6.278 L
32.742 0.8 L
cp
f
GR
GS
[0.60127 0 0 0.60127 133.8434 178.4875] CT
N
42.523 4.8 M
42.523 4.269 L
42.523 4.206 42.554 4.159 QT
45.664 0.722 L
46.367 -0.044 46.804 -0.559 QT
47.242 -1.075 47.672 -1.755 QT
48.101 -2.434 48.351 -3.13 QT
48.601 -3.825 48.601 -4.606 QT
48.601 -5.419 48.297 -6.169 QT
47.992 -6.919 47.398 -7.372 QT
46.804 -7.825 45.945 -7.825 QT
45.086 -7.825 44.39 -7.302 QT
43.695 -6.778 43.414 -5.95 QT
43.492 -5.966 43.617 -5.966 QT
44.07 -5.966 44.39 -5.661 QT
44.711 -5.356 44.711 -4.872 QT
44.711 -4.419 44.39 -4.099 QT
44.07 -3.778 43.617 -3.778 QT
43.148 -3.778 42.836 -4.106 QT
42.523 -4.434 42.523 -4.872 QT
42.523 -5.638 42.804 -6.294 QT
43.086 -6.95 43.617 -7.466 QT
44.148 -7.981 44.82 -8.255 QT
45.492 -8.528 46.242 -8.528 QT
47.382 -8.528 48.367 -8.044 QT
49.351 -7.559 49.929 -6.677 QT
50.507 -5.794 50.507 -4.606 QT
50.507 -3.731 50.125 -2.95 QT
49.742 -2.169 49.148 -1.528 QT
48.554 -0.888 47.625 -0.083 QT
46.695 0.722 46.414 1.003 QT
44.148 3.175 L
46.07 3.175 L
47.476 3.175 48.429 3.151 QT
49.382 3.128 49.445 3.081 QT
49.679 2.831 49.929 1.237 QT
50.507 1.237 L
49.945 4.8 L
42.523 4.8 L
cp
f
GR
GS
[0.60127 0 0 0.60127 0 0.20001] CT
[2 2] 0 setdash
2 LJ
2.5 LW
N
168.987 296.518 M
218.86 296.518 L
S
GR
GS
[0.60127 0 0 0.60127 133.8434 193.3118] CT
N
/f1428114429{2.141 2.55 M
2.141 2.097 2.25 1.558 QT
2.359 1.019 2.461 0.675 QT
2.563 0.331 2.945 -0.677 QT
3.328 -1.684 3.344 -1.731 QT
3.609 -2.45 3.609 -2.919 QT
3.609 -3.528 3.172 -3.528 QT
2.375 -3.528 1.859 -2.708 QT
1.344 -1.888 1.109 -0.888 QT
1.063 -0.763 0.938 -0.763 QT
0.703 -0.763 L
0.531 -0.763 0.531 -0.95 QT
0.531 -0.997 L
0.859 -2.2 1.523 -3.122 QT
2.188 -4.044 3.203 -4.044 QT
3.922 -4.044 4.414 -3.575 QT
4.906 -3.106 4.906 -2.372 QT
4.906 -2.013 4.734 -1.591 QT
4.344 -0.575 4.117 0.034 QT
3.891 0.644 3.703 1.401 QT
3.516 2.159 3.516 2.8 QT
3.516 3.55 3.859 4.026 QT
4.203 4.503 4.938 4.503 QT
6.328 4.503 7.438 2.362 QT
7.797 1.659 8.109 0.722 QT
8.422 -0.216 8.422 -0.794 QT
8.422 -1.403 8.227 -1.739 QT
8.031 -2.075 7.719 -2.442 QT
7.406 -2.809 7.406 -3.028 QT
7.406 -3.419 7.727 -3.739 QT
8.047 -4.059 8.438 -4.059 QT
8.922 -4.059 9.133 -3.622 QT
9.344 -3.184 9.344 -2.622 QT
9.344 -1.966 9.148 -1.044 QT
8.953 -0.122 8.617 0.862 QT
8.281 1.847 8 2.409 QT
6.688 5.019 4.922 5.019 QT
3.656 5.019 2.898 4.394 QT
2.141 3.769 2.141 2.55 QT
cp}def
f1428114429
f
GR
GS
[0.60127 0 0 0.60127 133.8434 193.3118] CT
N
/f1308119367{17.467 2.144 M
17.311 2.144 17.202 2.019 QT
17.092 1.894 17.092 1.737 QT
17.092 1.581 17.202 1.464 QT
17.311 1.347 17.467 1.347 QT
30.03 1.347 L
30.171 1.347 30.28 1.464 QT
30.389 1.581 30.389 1.737 QT
30.389 1.894 30.28 2.019 QT
30.171 2.144 30.03 2.144 QT
17.467 2.144 L
cp
17.467 -1.747 M
17.311 -1.747 17.202 -1.864 QT
17.092 -1.981 17.092 -2.138 QT
17.092 -2.294 17.202 -2.419 QT
17.311 -2.544 17.467 -2.544 QT
30.03 -2.544 L
30.171 -2.544 30.28 -2.419 QT
30.389 -2.294 30.389 -2.138 QT
30.389 -1.981 30.28 -1.864 QT
30.171 -1.747 30.03 -1.747 QT
17.467 -1.747 L
cp}def
f1308119367
f
GR
GS
[0.60127 0 0 0.60127 133.8434 193.3118] CT
N
/f-1832695863{33.257 2.519 M
33.461 3.112 33.89 3.589 QT
34.32 4.066 34.898 4.331 QT
35.476 4.597 36.101 4.597 QT
37.554 4.597 38.101 3.48 QT
38.648 2.362 38.648 0.753 QT
38.648 0.066 38.625 -0.411 QT
38.601 -0.888 38.492 -1.325 QT
38.304 -2.028 37.836 -2.552 QT
37.367 -3.075 36.695 -3.075 QT
36.023 -3.075 35.539 -2.872 QT
35.054 -2.669 34.757 -2.395 QT
34.461 -2.122 34.226 -1.817 QT
33.992 -1.513 33.929 -1.497 QT
33.695 -1.497 L
33.648 -1.497 33.578 -1.559 QT
33.507 -1.622 33.507 -1.684 QT
33.507 -8.372 L
33.507 -8.419 33.57 -8.474 QT
33.632 -8.528 33.695 -8.528 QT
33.757 -8.528 L
35.101 -7.872 36.617 -7.872 QT
38.101 -7.872 39.476 -8.528 QT
39.539 -8.528 L
39.617 -8.528 39.671 -8.474 QT
39.726 -8.419 39.726 -8.372 QT
39.726 -8.184 L
39.726 -8.075 39.695 -8.075 QT
39.007 -7.169 37.976 -6.661 QT
36.945 -6.153 35.836 -6.153 QT
35.039 -6.153 34.195 -6.388 QT
34.195 -2.606 L
34.867 -3.138 35.39 -3.372 QT
35.914 -3.606 36.726 -3.606 QT
37.82 -3.606 38.695 -2.966 QT
39.57 -2.325 40.039 -1.309 QT
40.507 -0.294 40.507 0.769 QT
40.507 1.972 39.914 3.003 QT
39.32 4.034 38.304 4.636 QT
37.289 5.237 36.101 5.237 QT
35.117 5.237 34.289 4.73 QT
33.461 4.222 32.992 3.362 QT
32.523 2.503 32.523 1.534 QT
32.523 1.081 32.812 0.8 QT
33.101 0.519 33.539 0.519 QT
33.992 0.519 34.289 0.808 QT
34.586 1.097 34.586 1.534 QT
34.586 1.972 34.289 2.269 QT
33.992 2.566 33.539 2.566 QT
33.476 2.566 33.39 2.55 QT
33.304 2.534 33.257 2.519 QT
cp}def
f-1832695863
f
GR
GS
[0.60127 0 0 0.60127 133.8434 193.3118] CT
N
/f-1957552601{46.523 5.237 M
44.07 5.237 43.187 3.222 QT
42.304 1.206 42.304 -1.575 QT
42.304 -3.309 42.625 -4.849 QT
42.945 -6.388 43.882 -7.458 QT
44.82 -8.528 46.523 -8.528 QT
47.836 -8.528 48.679 -7.88 QT
49.523 -7.231 49.961 -6.208 QT
50.398 -5.184 50.562 -4.02 QT
50.726 -2.856 50.726 -1.575 QT
50.726 0.144 50.406 1.644 QT
50.086 3.144 49.156 4.191 QT
48.226 5.237 46.523 5.237 QT
cp
46.523 4.722 M
47.632 4.722 48.179 3.581 QT
48.726 2.441 48.859 1.05 QT
48.992 -0.341 48.992 -1.903 QT
48.992 -3.403 48.859 -4.677 QT
48.726 -5.95 48.187 -6.974 QT
47.648 -7.997 46.523 -7.997 QT
45.398 -7.997 44.851 -6.966 QT
44.304 -5.934 44.172 -4.669 QT
44.039 -3.403 44.039 -1.903 QT
44.039 -0.794 44.093 0.198 QT
44.148 1.191 44.382 2.237 QT
44.617 3.284 45.14 4.003 QT
45.664 4.722 46.523 4.722 QT
cp}def
f-1957552601
f
GR
GS
[0.60127 0 0 0.60127 0 0.20001] CT
[8 8] 0 setdash
2 LJ
2.5 LW
N
168.987 321.173 M
218.86 321.173 L
S
GR
GS
[0.60127 0 0 0.60127 133.8434 208.13609] CT
N
f1428114429
f
GR
GS
[0.60127 0 0 0.60127 133.8434 208.13609] CT
N
f1308119367
f
GR
GS
[0.60127 0 0 0.60127 133.8434 208.13609] CT
N
/f-1366022747{35.007 4.284 M
35.007 3.175 35.203 2.105 QT
35.398 1.034 35.773 -0.005 QT
36.148 -1.044 36.679 -2.044 QT
37.211 -3.044 37.836 -3.919 QT
39.664 -6.466 L
37.382 -6.466 L
33.836 -6.466 33.726 -6.356 QT
33.461 -6.044 33.226 -4.513 QT
32.648 -4.513 L
33.304 -8.716 L
33.882 -8.716 L
33.882 -8.653 L
33.882 -8.294 35.109 -8.184 QT
36.336 -8.075 37.507 -8.075 QT
41.226 -8.075 L
41.226 -7.559 L
41.226 -7.544 41.218 -7.536 QT
41.211 -7.528 41.195 -7.513 QT
38.445 -3.638 L
37.429 -2.138 37.179 -0.302 QT
36.929 1.534 36.929 4.284 QT
36.929 4.675 36.64 4.956 QT
36.351 5.237 35.961 5.237 QT
35.57 5.237 35.289 4.956 QT
35.007 4.675 35.007 4.284 QT
cp}def
f-1366022747
f
GR
GS
[0.60127 0 0 0.60127 133.8434 208.13609] CT
N
/f-1165233075{43.257 2.519 M
43.461 3.112 43.89 3.589 QT
44.32 4.066 44.898 4.331 QT
45.476 4.597 46.101 4.597 QT
47.554 4.597 48.101 3.48 QT
48.648 2.362 48.648 0.753 QT
48.648 0.066 48.625 -0.411 QT
48.601 -0.888 48.492 -1.325 QT
48.304 -2.028 47.836 -2.552 QT
47.367 -3.075 46.695 -3.075 QT
46.023 -3.075 45.539 -2.872 QT
45.054 -2.669 44.757 -2.395 QT
44.461 -2.122 44.226 -1.817 QT
43.992 -1.513 43.929 -1.497 QT
43.695 -1.497 L
43.648 -1.497 43.578 -1.559 QT
43.507 -1.622 43.507 -1.684 QT
43.507 -8.372 L
43.507 -8.419 43.57 -8.474 QT
43.632 -8.528 43.695 -8.528 QT
43.757 -8.528 L
45.101 -7.872 46.617 -7.872 QT
48.101 -7.872 49.476 -8.528 QT
49.539 -8.528 L
49.617 -8.528 49.672 -8.474 QT
49.726 -8.419 49.726 -8.372 QT
49.726 -8.184 L
49.726 -8.075 49.695 -8.075 QT
49.007 -7.169 47.976 -6.661 QT
46.945 -6.153 45.836 -6.153 QT
45.039 -6.153 44.195 -6.388 QT
44.195 -2.606 L
44.867 -3.138 45.39 -3.372 QT
45.914 -3.606 46.726 -3.606 QT
47.82 -3.606 48.695 -2.966 QT
49.57 -2.325 50.039 -1.309 QT
50.507 -0.294 50.507 0.769 QT
50.507 1.972 49.914 3.003 QT
49.32 4.034 48.304 4.636 QT
47.289 5.237 46.101 5.237 QT
45.117 5.237 44.289 4.73 QT
43.461 4.222 42.992 3.362 QT
42.523 2.503 42.523 1.534 QT
42.523 1.081 42.812 0.8 QT
43.101 0.519 43.539 0.519 QT
43.992 0.519 44.289 0.808 QT
44.586 1.097 44.586 1.534 QT
44.586 1.972 44.289 2.269 QT
43.992 2.566 43.539 2.566 QT
43.476 2.566 43.39 2.55 QT
43.304 2.534 43.257 2.519 QT
cp}def
f-1165233075
f
GR
GS
[0.60127 0 0 0.60127 0 0.20001] CT
[8 2 4 2] 0 setdash
2 LJ
2.5 LW
N
168.987 345.827 M
218.86 345.827 L
S
GR
GS
[0.60127 0 0 0.60127 133.8434 222.96039] CT
N
/f2067074856{0.641 4.8 M
0.641 4.097 L
2.438 4.097 2.844 2.909 QT
7.047 -9.309 L
7.094 -9.513 7.359 -9.513 QT
7.625 -9.513 L
7.875 -9.513 7.938 -9.309 QT
12.328 3.456 L
12.516 3.878 13.039 3.987 QT
13.563 4.097 14.344 4.097 QT
14.344 4.8 L
8.766 4.8 L
8.766 4.097 L
10.422 4.097 10.422 3.566 QT
10.422 3.456 L
9.344 0.331 L
4.484 0.331 L
3.578 2.909 L
3.563 2.987 3.563 3.112 QT
3.563 3.612 4.039 3.855 QT
4.516 4.097 5.063 4.097 QT
5.063 4.8 L
0.641 4.8 L
cp
4.719 -0.356 M
9.109 -0.356 L
6.906 -6.747 L
4.719 -0.356 L
cp}def
f2067074856
f
GR
GS
[0.60127 0 0 0.60127 133.8434 222.96039] CT
N
/f-1507785326{17.156 2.409 M
17.156 -1.997 L
17.156 -2.528 17 -2.77 QT
16.844 -3.013 16.539 -3.067 QT
16.234 -3.122 15.594 -3.122 QT
15.594 -3.825 L
18.625 -4.044 L
18.625 2.409 L
18.625 3.191 18.734 3.628 QT
18.844 4.066 19.211 4.284 QT
19.578 4.503 20.375 4.503 QT
21.453 4.503 22.086 3.605 QT
22.719 2.706 22.719 1.55 QT
22.719 -1.997 L
22.719 -2.528 22.555 -2.77 QT
22.391 -3.013 22.094 -3.067 QT
21.797 -3.122 21.156 -3.122 QT
21.156 -3.825 L
24.188 -4.044 L
24.188 2.987 L
24.188 3.503 24.344 3.745 QT
24.5 3.987 24.805 4.042 QT
25.109 4.097 25.75 4.097 QT
25.75 4.8 L
22.781 5.019 L
22.781 3.331 L
22.406 4.081 21.742 4.55 QT
21.078 5.019 20.281 5.019 QT
18.844 5.019 18 4.409 QT
17.156 3.8 17.156 2.409 QT
cp}def
f-1507785326
f
GR
GS
[0.60127 0 0 0.60127 133.8434 222.96039] CT
N
/f-1103329201{28.158 2.394 M
28.158 -3.122 L
26.486 -3.122 L
26.486 -3.638 L
27.799 -3.638 28.416 -4.856 QT
29.033 -6.075 29.033 -7.513 QT
29.611 -7.513 L
29.611 -3.825 L
32.424 -3.825 L
32.424 -3.122 L
29.611 -3.122 L
29.611 2.362 L
29.611 3.191 29.885 3.816 QT
30.158 4.441 30.892 4.441 QT
31.564 4.441 31.869 3.776 QT
32.174 3.112 32.174 2.362 QT
32.174 1.175 L
32.752 1.175 L
32.752 2.394 L
32.752 3.019 32.525 3.628 QT
32.299 4.237 31.846 4.628 QT
31.392 5.019 30.752 5.019 QT
29.549 5.019 28.853 4.3 QT
28.158 3.581 28.158 2.394 QT
cp}def
f-1103329201
f
GR
GS
[0.60127 0 0 0.60127 133.8434 222.96039] CT
N
/f1330057172{34.483 4.8 M
34.483 4.097 L
35.17 4.097 35.608 3.987 QT
36.045 3.878 36.045 3.456 QT
36.045 -7.044 L
36.045 -7.575 35.889 -7.817 QT
35.733 -8.059 35.428 -8.106 QT
35.123 -8.153 34.483 -8.153 QT
34.483 -8.856 L
37.451 -9.075 L
37.451 -2.2 L
37.873 -3.028 38.623 -3.536 QT
39.373 -4.044 40.28 -4.044 QT
41.67 -4.044 42.373 -3.38 QT
43.076 -2.716 43.076 -1.341 QT
43.076 3.456 L
43.076 3.878 43.514 3.987 QT
43.951 4.097 44.639 4.097 QT
44.639 4.8 L
40.045 4.8 L
40.045 4.097 L
40.733 4.097 41.17 3.987 QT
41.608 3.878 41.608 3.456 QT
41.608 -1.278 L
41.608 -2.263 41.326 -2.895 QT
41.045 -3.528 40.17 -3.528 QT
39.014 -3.528 38.264 -2.599 QT
37.514 -1.669 37.514 -0.481 QT
37.514 3.456 L
37.514 3.878 37.951 3.987 QT
38.389 4.097 39.061 4.097 QT
39.061 4.8 L
34.483 4.8 L
cp}def
f1330057172
f
GR
GS
[0.60127 0 0 0.60127 133.8434 222.96039] CT
N
/f1822517951{49.984 5.019 M
48.766 5.019 47.742 4.378 QT
46.719 3.737 46.141 2.675 QT
45.563 1.612 45.563 0.409 QT
45.563 -0.763 46.094 -1.817 QT
46.625 -2.872 47.578 -3.52 QT
48.531 -4.169 49.703 -4.169 QT
50.609 -4.169 51.289 -3.856 QT
51.969 -3.544 52.414 -2.997 QT
52.859 -2.45 53.078 -1.708 QT
53.297 -0.966 53.297 -0.091 QT
53.297 0.175 53.094 0.175 QT
47.313 0.175 L
47.313 0.394 L
47.313 2.05 47.977 3.245 QT
48.641 4.441 50.156 4.441 QT
50.766 4.441 51.289 4.167 QT
51.813 3.894 52.203 3.401 QT
52.594 2.909 52.719 2.362 QT
52.75 2.284 52.805 2.23 QT
52.859 2.175 52.922 2.175 QT
53.094 2.175 L
53.297 2.175 53.297 2.441 QT
53.016 3.566 52.078 4.292 QT
51.141 5.019 49.984 5.019 QT
cp
47.328 -0.325 M
51.891 -0.325 L
51.891 -1.075 51.68 -1.841 QT
51.469 -2.606 50.977 -3.122 QT
50.484 -3.638 49.703 -3.638 QT
48.563 -3.638 47.945 -2.575 QT
47.328 -1.513 47.328 -0.325 QT
cp}def
f1822517951
f
GR
GS
[0.60127 0 0 0.60127 133.8434 222.96039] CT
N
/f-1545678284{54.483 4.8 M
54.483 4.097 L
55.17 4.097 55.608 3.987 QT
56.045 3.878 56.045 3.456 QT
56.045 -1.997 L
56.045 -2.528 55.889 -2.77 QT
55.733 -3.013 55.428 -3.067 QT
55.123 -3.122 54.483 -3.122 QT
54.483 -3.825 L
57.389 -4.044 L
57.389 -2.091 L
57.78 -2.95 58.569 -3.497 QT
59.358 -4.044 60.28 -4.044 QT
61.67 -4.044 62.373 -3.38 QT
63.077 -2.716 63.077 -1.341 QT
63.077 3.456 L
63.077 3.878 63.514 3.987 QT
63.952 4.097 64.639 4.097 QT
64.639 4.8 L
60.045 4.8 L
60.045 4.097 L
60.733 4.097 61.17 3.987 QT
61.608 3.878 61.608 3.456 QT
61.608 -1.278 L
61.608 -2.263 61.327 -2.895 QT
61.045 -3.528 60.17 -3.528 QT
59.014 -3.528 58.264 -2.599 QT
57.514 -1.669 57.514 -0.481 QT
57.514 3.456 L
57.514 3.878 57.952 3.987 QT
58.389 4.097 59.061 4.097 QT
59.061 4.8 L
54.483 4.8 L
cp}def
f-1545678284
f
GR
GS
[0.60127 0 0 0.60127 133.8434 222.96039] CT
N
/f588092869{66.491 2.394 M
66.491 -3.122 L
64.82 -3.122 L
64.82 -3.638 L
66.132 -3.638 66.749 -4.856 QT
67.366 -6.075 67.366 -7.513 QT
67.945 -7.513 L
67.945 -3.825 L
70.757 -3.825 L
70.757 -3.122 L
67.945 -3.122 L
67.945 2.362 L
67.945 3.191 68.218 3.816 QT
68.491 4.441 69.226 4.441 QT
69.898 4.441 70.202 3.776 QT
70.507 3.112 70.507 2.362 QT
70.507 1.175 L
71.085 1.175 L
71.085 2.394 L
71.085 3.019 70.859 3.628 QT
70.632 4.237 70.179 4.628 QT
69.726 5.019 69.085 5.019 QT
67.882 5.019 67.187 4.3 QT
66.491 3.581 66.491 2.394 QT
cp}def
f588092869
f
GR
GS
[0.60127 0 0 0.60127 133.8434 222.96039] CT
N
/f1061649286{72.832 4.8 M
72.832 4.097 L
73.519 4.097 73.957 3.987 QT
74.394 3.878 74.394 3.456 QT
74.394 -1.997 L
74.394 -2.763 74.097 -2.942 QT
73.801 -3.122 72.926 -3.122 QT
72.926 -3.825 L
75.801 -4.044 L
75.801 3.456 L
75.801 3.878 76.183 3.987 QT
76.566 4.097 77.207 4.097 QT
77.207 4.8 L
72.832 4.8 L
cp
73.691 -7.481 M
73.691 -7.919 74.019 -8.247 QT
74.347 -8.575 74.785 -8.575 QT
75.066 -8.575 75.332 -8.434 QT
75.597 -8.294 75.738 -8.028 QT
75.879 -7.763 75.879 -7.481 QT
75.879 -7.044 75.551 -6.716 QT
75.222 -6.388 74.785 -6.388 QT
74.347 -6.388 74.019 -6.716 QT
73.691 -7.044 73.691 -7.481 QT
cp}def
f1061649286
f
GR
GS
[0.60127 0 0 0.60127 133.8434 222.96039] CT
N
/f1730539576{82.762 5.019 M
81.544 5.019 80.559 4.394 QT
79.575 3.769 79.012 2.714 QT
78.45 1.659 78.45 0.487 QT
78.45 -0.7 79.005 -1.786 QT
79.559 -2.872 80.551 -3.52 QT
81.544 -4.169 82.762 -4.169 QT
83.934 -4.169 84.895 -3.708 QT
85.856 -3.247 85.856 -2.2 QT
85.856 -1.809 85.575 -1.52 QT
85.294 -1.231 84.903 -1.231 QT
84.497 -1.231 84.215 -1.52 QT
83.934 -1.809 83.934 -2.2 QT
83.934 -2.559 84.161 -2.817 QT
84.387 -3.075 84.715 -3.138 QT
84.028 -3.575 82.778 -3.575 QT
81.825 -3.575 81.239 -2.942 QT
80.653 -2.309 80.419 -1.372 QT
80.184 -0.434 80.184 0.487 QT
80.184 1.456 80.473 2.355 QT
80.762 3.253 81.403 3.847 QT
82.044 4.441 82.997 4.441 QT
83.95 4.441 84.614 3.855 QT
85.278 3.269 85.528 2.331 QT
85.528 2.222 85.684 2.222 QT
85.919 2.222 L
85.981 2.222 86.028 2.276 QT
86.075 2.331 86.075 2.394 QT
86.075 2.456 L
85.778 3.644 84.88 4.331 QT
83.981 5.019 82.762 5.019 QT
cp}def
f1730539576
f
GR
GS
[0.60127 0 0 0.60127 133.8434 222.96039] CT
N
/f-1398056929{87.464 2.831 M
87.464 1.644 88.401 0.894 QT
89.339 0.144 90.651 -0.161 QT
91.964 -0.466 93.151 -0.466 QT
93.151 -1.278 L
93.151 -1.856 92.901 -2.403 QT
92.651 -2.95 92.167 -3.294 QT
91.682 -3.638 91.104 -3.638 QT
89.776 -3.638 89.089 -3.044 QT
89.464 -3.044 89.714 -2.755 QT
89.964 -2.466 89.964 -2.091 QT
89.964 -1.684 89.682 -1.403 QT
89.401 -1.122 89.011 -1.122 QT
88.604 -1.122 88.323 -1.403 QT
88.042 -1.684 88.042 -2.091 QT
88.042 -3.138 89.003 -3.653 QT
89.964 -4.169 91.104 -4.169 QT
91.917 -4.169 92.737 -3.817 QT
93.557 -3.466 94.081 -2.825 QT
94.604 -2.184 94.604 -1.325 QT
94.604 3.175 L
94.604 3.566 94.768 3.894 QT
94.932 4.222 95.292 4.222 QT
95.62 4.222 95.784 3.894 QT
95.948 3.566 95.948 3.175 QT
95.948 1.894 L
96.526 1.894 L
96.526 3.175 L
96.526 3.628 96.292 4.034 QT
96.057 4.441 95.667 4.683 QT
95.276 4.925 94.807 4.925 QT
94.229 4.925 93.8 4.464 QT
93.37 4.003 93.323 3.378 QT
92.964 4.128 92.237 4.573 QT
91.511 5.019 90.698 5.019 QT
89.932 5.019 89.19 4.8 QT
88.448 4.581 87.956 4.097 QT
87.464 3.612 87.464 2.831 QT
cp
89.089 2.831 M
89.089 3.534 89.604 4.019 QT
90.12 4.503 90.823 4.503 QT
91.479 4.503 92.003 4.175 QT
92.526 3.847 92.839 3.292 QT
93.151 2.737 93.151 2.128 QT
93.151 0.05 L
92.245 0.05 91.292 0.347 QT
90.339 0.644 89.714 1.276 QT
89.089 1.909 89.089 2.831 QT
cp}def
f-1398056929
f
GR
GS
[0.60127 0 0 0.60127 133.8434 222.96039] CT
N
/f-766674075{98.714 2.394 M
98.714 -3.122 L
97.042 -3.122 L
97.042 -3.638 L
98.354 -3.638 98.972 -4.856 QT
99.589 -6.075 99.589 -7.513 QT
100.167 -7.513 L
100.167 -3.825 L
102.979 -3.825 L
102.979 -3.122 L
100.167 -3.122 L
100.167 2.362 L
100.167 3.191 100.44 3.816 QT
100.714 4.441 101.448 4.441 QT
102.12 4.441 102.425 3.776 QT
102.729 3.112 102.729 2.362 QT
102.729 1.175 L
103.307 1.175 L
103.307 2.394 L
103.307 3.019 103.081 3.628 QT
102.854 4.237 102.401 4.628 QT
101.948 5.019 101.307 5.019 QT
100.104 5.019 99.409 4.3 QT
98.714 3.581 98.714 2.394 QT
cp}def
f-766674075
f
GR
GS
[0.60127 0 0 0.60127 133.8434 222.96039] CT
N
/f-1707154993{105.054 4.8 M
105.054 4.097 L
105.742 4.097 106.179 3.987 QT
106.617 3.878 106.617 3.456 QT
106.617 -1.997 L
106.617 -2.763 106.32 -2.942 QT
106.023 -3.122 105.148 -3.122 QT
105.148 -3.825 L
108.023 -4.044 L
108.023 3.456 L
108.023 3.878 108.406 3.987 QT
108.788 4.097 109.429 4.097 QT
109.429 4.8 L
105.054 4.8 L
cp
105.913 -7.481 M
105.913 -7.919 106.242 -8.247 QT
106.57 -8.575 107.007 -8.575 QT
107.288 -8.575 107.554 -8.434 QT
107.82 -8.294 107.96 -8.028 QT
108.101 -7.763 108.101 -7.481 QT
108.101 -7.044 107.773 -6.716 QT
107.445 -6.388 107.007 -6.388 QT
106.57 -6.388 106.242 -6.716 QT
105.913 -7.044 105.913 -7.481 QT
cp}def
f-1707154993
f
GR
GS
[0.60127 0 0 0.60127 133.8434 222.96039] CT
N
/f1566175220{115 5.019 M
113.797 5.019 112.774 4.409 QT
111.75 3.8 111.156 2.776 QT
110.563 1.753 110.563 0.534 QT
110.563 -0.372 110.891 -1.224 QT
111.219 -2.075 111.828 -2.747 QT
112.438 -3.419 113.242 -3.794 QT
114.047 -4.169 115 -4.169 QT
116.235 -4.169 117.242 -3.52 QT
118.25 -2.872 118.836 -1.778 QT
119.422 -0.684 119.422 0.534 QT
119.422 1.737 118.828 2.769 QT
118.235 3.8 117.211 4.409 QT
116.188 5.019 115 5.019 QT
cp
115 4.441 M
116.61 4.441 117.141 3.276 QT
117.672 2.112 117.672 0.316 QT
117.672 -0.684 117.571 -1.349 QT
117.469 -2.013 117.094 -2.544 QT
116.875 -2.872 116.531 -3.122 QT
116.188 -3.372 115.797 -3.505 QT
115.406 -3.638 115 -3.638 QT
114.375 -3.638 113.813 -3.356 QT
113.25 -3.075 112.875 -2.544 QT
112.516 -1.981 112.414 -1.302 QT
112.313 -0.622 112.313 0.316 QT
112.313 1.441 112.508 2.331 QT
112.703 3.222 113.289 3.831 QT
113.875 4.441 115 4.441 QT
cp}def
f1566175220
f
GR
GS
[0.60127 0 0 0.60127 133.8434 222.96039] CT
N
/f-1325558452{120.594 4.8 M
120.594 4.097 L
121.282 4.097 121.719 3.987 QT
122.157 3.878 122.157 3.456 QT
122.157 -1.997 L
122.157 -2.528 122 -2.77 QT
121.844 -3.013 121.539 -3.067 QT
121.235 -3.122 120.594 -3.122 QT
120.594 -3.825 L
123.5 -4.044 L
123.5 -2.091 L
123.891 -2.95 124.68 -3.497 QT
125.469 -4.044 126.391 -4.044 QT
127.782 -4.044 128.485 -3.38 QT
129.188 -2.716 129.188 -1.341 QT
129.188 3.456 L
129.188 3.878 129.625 3.987 QT
130.063 4.097 130.75 4.097 QT
130.75 4.8 L
126.157 4.8 L
126.157 4.097 L
126.844 4.097 127.282 3.987 QT
127.719 3.878 127.719 3.456 QT
127.719 -1.278 L
127.719 -2.263 127.438 -2.895 QT
127.157 -3.528 126.282 -3.528 QT
125.125 -3.528 124.375 -2.599 QT
123.625 -1.669 123.625 -0.481 QT
123.625 3.456 L
123.625 3.878 124.063 3.987 QT
124.5 4.097 125.172 4.097 QT
125.172 4.8 L
120.594 4.8 L
cp}def
f-1325558452
f
GR
GS
[0.60127 0 0 0.60127 133.8434 222.96039] CT
N
/f-1577650061{138.45 4.862 M
138.45 1.597 L
138.45 1.441 138.622 1.441 QT
138.856 1.441 L
138.981 1.441 139.012 1.597 QT
139.575 4.503 141.716 4.503 QT
142.669 4.503 143.302 4.073 QT
143.934 3.644 143.934 2.737 QT
143.934 2.097 143.442 1.644 QT
142.95 1.191 142.262 1.019 QT
140.919 0.753 L
140.247 0.612 139.7 0.308 QT
139.153 0.003 138.802 -0.497 QT
138.45 -0.997 138.45 -1.669 QT
138.45 -2.544 138.911 -3.106 QT
139.372 -3.669 140.114 -3.919 QT
140.856 -4.169 141.716 -4.169 QT
142.747 -4.169 143.497 -3.622 QT
144.075 -4.122 L
144.075 -4.169 144.169 -4.169 QT
144.325 -4.169 L
144.387 -4.169 144.434 -4.114 QT
144.481 -4.059 144.481 -3.997 QT
144.481 -1.388 L
144.481 -1.2 144.325 -1.2 QT
144.075 -1.2 L
143.903 -1.2 143.903 -1.388 QT
143.903 -2.434 143.325 -3.067 QT
142.747 -3.7 141.7 -3.7 QT
140.794 -3.7 140.137 -3.364 QT
139.481 -3.028 139.481 -2.216 QT
139.481 -1.669 139.95 -1.309 QT
140.419 -0.95 141.059 -0.794 QT
142.419 -0.544 L
143.106 -0.388 143.692 -0.013 QT
144.278 0.362 144.63 0.925 QT
144.981 1.487 144.981 2.206 QT
144.981 2.925 144.731 3.456 QT
144.481 3.987 144.036 4.339 QT
143.591 4.691 142.981 4.855 QT
142.372 5.019 141.716 5.019 QT
140.466 5.019 139.575 4.191 QT
138.841 4.972 L
138.841 5.019 138.731 5.019 QT
138.622 5.019 L
138.45 5.019 138.45 4.862 QT
cp}def
f-1577650061
f
GR
GS
[0.60127 0 0 0.60127 133.8434 222.96039] CT
N
/f-1308999939{146.276 4.8 M
146.276 4.097 L
146.964 4.097 147.401 3.987 QT
147.839 3.878 147.839 3.456 QT
147.839 -1.997 L
147.839 -2.763 147.542 -2.942 QT
147.245 -3.122 146.37 -3.122 QT
146.37 -3.825 L
149.245 -4.044 L
149.245 3.456 L
149.245 3.878 149.628 3.987 QT
150.011 4.097 150.651 4.097 QT
150.651 4.8 L
146.276 4.8 L
cp
147.136 -7.481 M
147.136 -7.919 147.464 -8.247 QT
147.792 -8.575 148.229 -8.575 QT
148.511 -8.575 148.776 -8.434 QT
149.042 -8.294 149.183 -8.028 QT
149.323 -7.763 149.323 -7.481 QT
149.323 -7.044 148.995 -6.716 QT
148.667 -6.388 148.229 -6.388 QT
147.792 -6.388 147.464 -6.716 QT
147.136 -7.044 147.136 -7.481 QT
cp}def
f-1308999939
f
GR
GS
[0.60127 0 0 0.60127 133.8434 222.96039] CT
N
/f1850890565{151.785 6.362 M
151.785 5.644 152.301 5.112 QT
152.816 4.581 153.535 4.362 QT
153.129 4.05 152.918 3.597 QT
152.707 3.144 152.707 2.628 QT
152.707 1.691 153.301 0.956 QT
152.379 0.066 152.379 -1.106 QT
152.379 -1.731 152.652 -2.278 QT
152.926 -2.825 153.402 -3.224 QT
153.879 -3.622 154.465 -3.833 QT
155.051 -4.044 155.66 -4.044 QT
156.863 -4.044 157.801 -3.341 QT
158.223 -3.778 158.777 -4.02 QT
159.332 -4.263 159.941 -4.263 QT
160.379 -4.263 160.652 -3.958 QT
160.926 -3.653 160.926 -3.216 QT
160.926 -2.981 160.738 -2.794 QT
160.551 -2.606 160.301 -2.606 QT
160.051 -2.606 159.863 -2.794 QT
159.676 -2.981 159.676 -3.216 QT
159.676 -3.591 159.926 -3.731 QT
158.894 -3.731 158.144 -3.028 QT
158.504 -2.669 158.723 -2.145 QT
158.941 -1.622 158.941 -1.106 QT
158.941 -0.247 158.473 0.433 QT
158.004 1.112 157.238 1.487 QT
156.473 1.862 155.66 1.862 QT
154.566 1.862 153.66 1.269 QT
153.379 1.659 153.379 2.144 QT
153.379 2.675 153.73 3.066 QT
154.082 3.456 154.598 3.456 QT
156.238 3.456 L
157.441 3.456 158.394 3.675 QT
159.348 3.894 159.996 4.534 QT
160.644 5.175 160.644 6.362 QT
160.644 7.237 159.902 7.823 QT
159.16 8.409 158.129 8.667 QT
157.098 8.925 156.223 8.925 QT
155.332 8.925 154.301 8.667 QT
153.269 8.409 152.527 7.823 QT
151.785 7.237 151.785 6.362 QT
cp
152.91 6.362 M
152.91 7.034 153.457 7.487 QT
154.004 7.941 154.769 8.159 QT
155.535 8.378 156.223 8.378 QT
156.894 8.378 157.668 8.159 QT
158.441 7.941 158.98 7.487 QT
159.519 7.034 159.519 6.362 QT
159.519 5.316 158.566 5.011 QT
157.613 4.706 156.238 4.706 QT
154.598 4.706 L
154.144 4.706 153.762 4.925 QT
153.379 5.144 153.144 5.542 QT
152.91 5.941 152.91 6.362 QT
cp
155.66 1.316 M
157.363 1.316 157.363 -1.106 QT
157.363 -2.138 157.004 -2.817 QT
156.644 -3.497 155.66 -3.497 QT
154.691 -3.497 154.332 -2.817 QT
153.973 -2.138 153.973 -1.106 QT
153.973 -0.434 154.105 0.105 QT
154.238 0.644 154.613 0.98 QT
154.988 1.316 155.66 1.316 QT
cp}def
f1850890565
f
GR
GS
[0.60127 0 0 0.60127 133.8434 222.96039] CT
N
/f592562258{161.816 4.8 M
161.816 4.097 L
162.504 4.097 162.941 3.987 QT
163.379 3.878 163.379 3.456 QT
163.379 -1.997 L
163.379 -2.528 163.223 -2.77 QT
163.066 -3.013 162.762 -3.067 QT
162.457 -3.122 161.816 -3.122 QT
161.816 -3.825 L
164.723 -4.044 L
164.723 -2.091 L
165.113 -2.95 165.902 -3.497 QT
166.691 -4.044 167.613 -4.044 QT
169.004 -4.044 169.707 -3.38 QT
170.41 -2.716 170.41 -1.341 QT
170.41 3.456 L
170.41 3.878 170.848 3.987 QT
171.285 4.097 171.973 4.097 QT
171.973 4.8 L
167.379 4.8 L
167.379 4.097 L
168.066 4.097 168.504 3.987 QT
168.941 3.878 168.941 3.456 QT
168.941 -1.278 L
168.941 -2.263 168.66 -2.895 QT
168.379 -3.528 167.504 -3.528 QT
166.348 -3.528 165.598 -2.599 QT
164.848 -1.669 164.848 -0.481 QT
164.848 3.456 L
164.848 3.878 165.285 3.987 QT
165.723 4.097 166.394 4.097 QT
166.394 4.8 L
161.816 4.8 L
cp}def
f592562258
f
GR
GS
[0.60127 0 0 0.60127 133.8434 222.96039] CT
N
/f1532269070{173.131 2.831 M
173.131 1.644 174.068 0.894 QT
175.006 0.144 176.318 -0.161 QT
177.631 -0.466 178.818 -0.466 QT
178.818 -1.278 L
178.818 -1.856 178.568 -2.403 QT
178.318 -2.95 177.834 -3.294 QT
177.349 -3.638 176.771 -3.638 QT
175.443 -3.638 174.756 -3.044 QT
175.131 -3.044 175.381 -2.755 QT
175.631 -2.466 175.631 -2.091 QT
175.631 -1.684 175.349 -1.403 QT
175.068 -1.122 174.677 -1.122 QT
174.271 -1.122 173.99 -1.403 QT
173.709 -1.684 173.709 -2.091 QT
173.709 -3.138 174.67 -3.653 QT
175.631 -4.169 176.771 -4.169 QT
177.584 -4.169 178.404 -3.817 QT
179.224 -3.466 179.748 -2.825 QT
180.271 -2.184 180.271 -1.325 QT
180.271 3.175 L
180.271 3.566 180.435 3.894 QT
180.599 4.222 180.959 4.222 QT
181.287 4.222 181.451 3.894 QT
181.615 3.566 181.615 3.175 QT
181.615 1.894 L
182.193 1.894 L
182.193 3.175 L
182.193 3.628 181.959 4.034 QT
181.724 4.441 181.334 4.683 QT
180.943 4.925 180.474 4.925 QT
179.896 4.925 179.467 4.464 QT
179.037 4.003 178.99 3.378 QT
178.631 4.128 177.904 4.573 QT
177.177 5.019 176.365 5.019 QT
175.599 5.019 174.857 4.8 QT
174.115 4.581 173.623 4.097 QT
173.131 3.612 173.131 2.831 QT
cp
174.756 2.831 M
174.756 3.534 175.271 4.019 QT
175.787 4.503 176.49 4.503 QT
177.146 4.503 177.67 4.175 QT
178.193 3.847 178.506 3.292 QT
178.818 2.737 178.818 2.128 QT
178.818 0.05 L
177.912 0.05 176.959 0.347 QT
176.006 0.644 175.381 1.276 QT
174.756 1.909 174.756 2.831 QT
cp}def
f1532269070
f
GR
GS
[0.60127 0 0 0.60127 133.8434 222.96039] CT
N
/f1959849228{182.943 4.8 M
182.943 4.097 L
183.631 4.097 184.068 3.987 QT
184.506 3.878 184.506 3.456 QT
184.506 -7.044 L
184.506 -7.575 184.349 -7.817 QT
184.193 -8.059 183.888 -8.106 QT
183.584 -8.153 182.943 -8.153 QT
182.943 -8.856 L
185.912 -9.075 L
185.912 3.456 L
185.912 3.878 186.357 3.987 QT
186.802 4.097 187.474 4.097 QT
187.474 4.8 L
182.943 4.8 L
cp}def
f1959849228
f
GR
GS
[0.60127 0 0 0.60127 0 0.20001] CT
1 LJ
2.5 LW
N
168.987 370.482 M
218.86 370.482 L
S
GR
GS
[0.60127 0 0 0.60127 0 0.20001] CT
0.149 GC
10.0 ML
0.833 LW
N
164 385 M
164 282 L
415 282 L
415 385 L
cp
S
GR
%%Trailer
%%Pages: 1
%%EOF
