%!PS-Adobe-3.0 EPSF-3.0
%%Creator: (MATLAB, The Mathworks, Inc. Version 9.2.0.538062 \(R2017a\). Operating System: Windows 8)
%%Title: C:/Users/chees/Documents/DottoratoLoc/GNSS/authProtocol/latex/figures/CsDeg1HornStandardPsk.eps
%%CreationDate: 2017-10-16T17:12:57
%%Pages: (atend)
%%BoundingBox: 0 0 284 284
%%LanguageLevel: 3
%%EndComments
%%BeginProlog
%%BeginResource: procset (Apache XML Graphics Std ProcSet) 1.2 0
%%Version: 1.2 0
%%Copyright: (Copyright 2001-2003,2010 The Apache Software Foundation. License terms: http://www.apache.org/licenses/LICENSE-2.0)
/bd{bind def}bind def
/ld{load def}bd
/GR/grestore ld
/M/moveto ld
/LJ/setlinejoin ld
/C/curveto ld
/f/fill ld
/LW/setlinewidth ld
/GC/setgray ld
/t/show ld
/N/newpath ld
/CT/concat ld
/cp/closepath ld
/S/stroke ld
/L/lineto ld
/CC/setcmykcolor ld
/A/ashow ld
/GS/gsave ld
/RC/setrgbcolor ld
/RM/rmoveto ld
/ML/setmiterlimit ld
/re {4 2 roll M
1 index 0 rlineto
0 exch rlineto
neg 0 rlineto
cp } bd
/_ctm matrix def
/_tm matrix def
/BT { _ctm currentmatrix pop matrix _tm copy pop 0 0 moveto } bd
/ET { _ctm setmatrix } bd
/iTm { _ctm setmatrix _tm concat } bd
/Tm { _tm astore pop iTm 0 0 moveto } bd
/ux 0.0 def
/uy 0.0 def
/F {
  /Tp exch def
  /Tf exch def
  Tf findfont Tp scalefont setfont
  /cf Tf def  /cs Tp def
} bd
/ULS {currentpoint /uy exch def /ux exch def} bd
/ULE {
  /Tcx currentpoint pop def
  gsave
  newpath
  cf findfont cs scalefont dup
  /FontMatrix get 0 get /Ts exch def /FontInfo get dup
  /UnderlinePosition get Ts mul /To exch def
  /UnderlineThickness get Ts mul /Tt exch def
  ux uy To add moveto  Tcx uy To add lineto
  Tt setlinewidth stroke
  grestore
} bd
/OLE {
  /Tcx currentpoint pop def
  gsave
  newpath
  cf findfont cs scalefont dup
  /FontMatrix get 0 get /Ts exch def /FontInfo get dup
  /UnderlinePosition get Ts mul /To exch def
  /UnderlineThickness get Ts mul /Tt exch def
  ux uy To add cs add moveto Tcx uy To add cs add lineto
  Tt setlinewidth stroke
  grestore
} bd
/SOE {
  /Tcx currentpoint pop def
  gsave
  newpath
  cf findfont cs scalefont dup
  /FontMatrix get 0 get /Ts exch def /FontInfo get dup
  /UnderlinePosition get Ts mul /To exch def
  /UnderlineThickness get Ts mul /Tt exch def
  ux uy To add cs 10 mul 26 idiv add moveto Tcx uy To add cs 10 mul 26 idiv add lineto
  Tt setlinewidth stroke
  grestore
} bd
/QT {
/Y22 exch store
/X22 exch store
/Y21 exch store
/X21 exch store
currentpoint
/Y21 load 2 mul add 3 div exch
/X21 load 2 mul add 3 div exch
/X21 load 2 mul /X22 load add 3 div
/Y21 load 2 mul /Y22 load add 3 div
/X22 load /Y22 load curveto
} bd
/SSPD {
dup length /d exch dict def
{
/v exch def
/k exch def
currentpagedevice k known {
/cpdv currentpagedevice k get def
v cpdv ne {
/upd false def
/nullv v type /nulltype eq def
/nullcpdv cpdv type /nulltype eq def
nullv nullcpdv or
{
/upd true def
} {
/sametype v type cpdv type eq def
sametype {
v type /arraytype eq {
/vlen v length def
/cpdvlen cpdv length def
vlen cpdvlen eq {
0 1 vlen 1 sub {
/i exch def
/obj v i get def
/cpdobj cpdv i get def
obj cpdobj ne {
/upd true def
exit
} if
} for
} {
/upd true def
} ifelse
} {
v type /dicttype eq {
v {
/dv exch def
/dk exch def
/cpddv cpdv dk get def
dv cpddv ne {
/upd true def
exit
} if
} forall
} {
/upd true def
} ifelse
} ifelse
} if
} ifelse
upd true eq {
d k v put
} if
} if
} if
} forall
d length 0 gt {
d setpagedevice
} if
} bd
/RE { % /NewFontName [NewEncodingArray] /FontName RE -
  findfont dup length dict begin
  {
    1 index /FID ne
    {def} {pop pop} ifelse
  } forall
  /Encoding exch def
  /FontName 1 index def
  currentdict definefont pop
  end
} bind def
%%EndResource
%%BeginResource: procset (Apache XML Graphics EPS ProcSet) 1.0 0
%%Version: 1.0 0
%%Copyright: (Copyright 2002-2003 The Apache Software Foundation. License terms: http://www.apache.org/licenses/LICENSE-2.0)
/BeginEPSF { %def
/b4_Inc_state save def         % Save state for cleanup
/dict_count countdictstack def % Count objects on dict stack
/op_count count 1 sub def      % Count objects on operand stack
userdict begin                 % Push userdict on dict stack
/showpage { } def              % Redefine showpage, { } = null proc
0 setgray 0 setlinecap         % Prepare graphics state
1 setlinewidth 0 setlinejoin
10 setmiterlimit [ ] 0 setdash newpath
/languagelevel where           % If level not equal to 1 then
{pop languagelevel             % set strokeadjust and
1 ne                           % overprint to their defaults.
{false setstrokeadjust false setoverprint
} if
} if
} bd
/EndEPSF { %def
count op_count sub {pop} repeat            % Clean up stacks
countdictstack dict_count sub {end} repeat
b4_Inc_state restore
} bd
%%EndResource
%FOPBeginFontDict
%%IncludeResource: font Courier-Bold
%%IncludeResource: font Helvetica
%%IncludeResource: font Courier-BoldOblique
%%IncludeResource: font Courier-Oblique
%%IncludeResource: font Times-Roman
%%IncludeResource: font Helvetica-BoldOblique
%%IncludeResource: font Helvetica-Bold
%%IncludeResource: font Helvetica-Oblique
%%IncludeResource: font Times-BoldItalic
%%IncludeResource: font Courier
%%IncludeResource: font Times-Italic
%%IncludeResource: font Times-Bold
%%IncludeResource: font Symbol
%%IncludeResource: font ZapfDingbats
%FOPEndFontDict
%%BeginResource: encoding WinAnsiEncoding
/WinAnsiEncoding [
/.notdef /.notdef /.notdef /.notdef /.notdef
/.notdef /.notdef /.notdef /.notdef /.notdef
/.notdef /.notdef /.notdef /.notdef /.notdef
/.notdef /.notdef /.notdef /.notdef /.notdef
/.notdef /.notdef /.notdef /.notdef /.notdef
/.notdef /.notdef /.notdef /.notdef /.notdef
/.notdef /.notdef /space /exclam /quotedbl
/numbersign /dollar /percent /ampersand /quotesingle
/parenleft /parenright /asterisk /plus /comma
/hyphen /period /slash /zero /one
/two /three /four /five /six
/seven /eight /nine /colon /semicolon
/less /equal /greater /question /at
/A /B /C /D /E
/F /G /H /I /J
/K /L /M /N /O
/P /Q /R /S /T
/U /V /W /X /Y
/Z /bracketleft /backslash /bracketright /asciicircum
/underscore /quoteleft /a /b /c
/d /e /f /g /h
/i /j /k /l /m
/n /o /p /q /r
/s /t /u /v /w
/x /y /z /braceleft /bar
/braceright /asciitilde /bullet /Euro /bullet
/quotesinglbase /florin /quotedblbase /ellipsis /dagger
/daggerdbl /circumflex /perthousand /Scaron /guilsinglleft
/OE /bullet /Zcaron /bullet /bullet
/quoteleft /quoteright /quotedblleft /quotedblright /bullet
/endash /emdash /asciitilde /trademark /scaron
/guilsinglright /oe /bullet /zcaron /Ydieresis
/space /exclamdown /cent /sterling /currency
/yen /brokenbar /section /dieresis /copyright
/ordfeminine /guillemotleft /logicalnot /sfthyphen /registered
/macron /degree /plusminus /twosuperior /threesuperior
/acute /mu /paragraph /middot /cedilla
/onesuperior /ordmasculine /guillemotright /onequarter /onehalf
/threequarters /questiondown /Agrave /Aacute /Acircumflex
/Atilde /Adieresis /Aring /AE /Ccedilla
/Egrave /Eacute /Ecircumflex /Edieresis /Igrave
/Iacute /Icircumflex /Idieresis /Eth /Ntilde
/Ograve /Oacute /Ocircumflex /Otilde /Odieresis
/multiply /Oslash /Ugrave /Uacute /Ucircumflex
/Udieresis /Yacute /Thorn /germandbls /agrave
/aacute /acircumflex /atilde /adieresis /aring
/ae /ccedilla /egrave /eacute /ecircumflex
/edieresis /igrave /iacute /icircumflex /idieresis
/eth /ntilde /ograve /oacute /ocircumflex
/otilde /odieresis /divide /oslash /ugrave
/uacute /ucircumflex /udieresis /yacute /thorn
/ydieresis
] def
%%EndResource
%FOPBeginFontReencode
/Courier-Bold findfont
dup length dict begin
  {1 index /FID ne {def} {pop pop} ifelse} forall
  /Encoding WinAnsiEncoding def
  currentdict
end
/Courier-Bold exch definefont pop
/Helvetica findfont
dup length dict begin
  {1 index /FID ne {def} {pop pop} ifelse} forall
  /Encoding WinAnsiEncoding def
  currentdict
end
/Helvetica exch definefont pop
/Courier-BoldOblique findfont
dup length dict begin
  {1 index /FID ne {def} {pop pop} ifelse} forall
  /Encoding WinAnsiEncoding def
  currentdict
end
/Courier-BoldOblique exch definefont pop
/Courier-Oblique findfont
dup length dict begin
  {1 index /FID ne {def} {pop pop} ifelse} forall
  /Encoding WinAnsiEncoding def
  currentdict
end
/Courier-Oblique exch definefont pop
/Times-Roman findfont
dup length dict begin
  {1 index /FID ne {def} {pop pop} ifelse} forall
  /Encoding WinAnsiEncoding def
  currentdict
end
/Times-Roman exch definefont pop
/Helvetica-BoldOblique findfont
dup length dict begin
  {1 index /FID ne {def} {pop pop} ifelse} forall
  /Encoding WinAnsiEncoding def
  currentdict
end
/Helvetica-BoldOblique exch definefont pop
/Helvetica-Bold findfont
dup length dict begin
  {1 index /FID ne {def} {pop pop} ifelse} forall
  /Encoding WinAnsiEncoding def
  currentdict
end
/Helvetica-Bold exch definefont pop
/Helvetica-Oblique findfont
dup length dict begin
  {1 index /FID ne {def} {pop pop} ifelse} forall
  /Encoding WinAnsiEncoding def
  currentdict
end
/Helvetica-Oblique exch definefont pop
/Times-BoldItalic findfont
dup length dict begin
  {1 index /FID ne {def} {pop pop} ifelse} forall
  /Encoding WinAnsiEncoding def
  currentdict
end
/Times-BoldItalic exch definefont pop
/Courier findfont
dup length dict begin
  {1 index /FID ne {def} {pop pop} ifelse} forall
  /Encoding WinAnsiEncoding def
  currentdict
end
/Courier exch definefont pop
/Times-Italic findfont
dup length dict begin
  {1 index /FID ne {def} {pop pop} ifelse} forall
  /Encoding WinAnsiEncoding def
  currentdict
end
/Times-Italic exch definefont pop
/Times-Bold findfont
dup length dict begin
  {1 index /FID ne {def} {pop pop} ifelse} forall
  /Encoding WinAnsiEncoding def
  currentdict
end
/Times-Bold exch definefont pop
%FOPEndFontReencode
%%EndProlog
%%Page: 1 1
%%PageBoundingBox: 0 0 284 284
%%BeginPageSetup
[1 0 0 -1 0 284] CT
%%EndPageSetup
GS
[0.60127 0 0 0.60127 0 0.20001] CT
N
0 0 M
472 0 L
472 472 L
0 472 L
0 0 L
cp
clip
1 GC
N
0 0 472 472 re
f
GR
GS
[0.60127 0 0 0.60127 0 0.20001] CT
1 GC
N
0 0 472 472 re
f
GR
GS
[0.60127 0 0 0.60127 0 0.20001] CT
1 GC
N
64 410 M
428 410 L
428 46 L
64 46 L
cp
f
GR
GS
[0.60127 0 0 0.60127 0 0.20001] CT
0.873 GC
1 LJ
0.833 LW
N
64 410 M
64 46 L
S
GR
GS
[0.60127 0 0 0.60127 0 0.20001] CT
0.873 GC
1 LJ
0.833 LW
N
155 410 M
155 46 L
S
GR
GS
[0.60127 0 0 0.60127 0 0.20001] CT
0.873 GC
1 LJ
0.833 LW
N
246 410 M
246 46 L
S
GR
GS
[0.60127 0 0 0.60127 0 0.20001] CT
0.873 GC
1 LJ
0.833 LW
N
337 410 M
337 46 L
S
GR
GS
[0.60127 0 0 0.60127 0 0.20001] CT
0.873 GC
1 LJ
0.833 LW
N
428 410 M
428 46 L
S
GR
GS
[0.60127 0 0 0.60127 0 0.20001] CT
0.873 GC
1 LJ
0.833 LW
N
428 410 M
64 410 L
S
GR
GS
[0.60127 0 0 0.60127 0 0.20001] CT
0.873 GC
1 LJ
0.833 LW
N
428 288.667 M
64 288.667 L
S
GR
GS
[0.60127 0 0 0.60127 0 0.20001] CT
0.873 GC
1 LJ
0.833 LW
N
428 167.333 M
64 167.333 L
S
GR
GS
[0.60127 0 0 0.60127 0 0.20001] CT
0.873 GC
1 LJ
0.833 LW
N
428 46 M
64 46 L
S
GR
GS
[0.60127 0 0 0.60127 0 0.20001] CT
0.149 GC
2 setlinecap
1 LJ
0.833 LW
N
64 410 M
428 410 L
S
GR
GS
[0.60127 0 0 0.60127 0 0.20001] CT
0.149 GC
2 setlinecap
1 LJ
0.833 LW
N
64 410 M
64 406.36 L
S
GR
GS
[0.60127 0 0 0.60127 0 0.20001] CT
0.149 GC
2 setlinecap
1 LJ
0.833 LW
N
155 410 M
155 406.36 L
S
GR
GS
[0.60127 0 0 0.60127 0 0.20001] CT
0.149 GC
2 setlinecap
1 LJ
0.833 LW
N
246 410 M
246 406.36 L
S
GR
GS
[0.60127 0 0 0.60127 0 0.20001] CT
0.149 GC
2 setlinecap
1 LJ
0.833 LW
N
337 410 M
337 406.36 L
S
GR
GS
[0.60127 0 0 0.60127 0 0.20001] CT
0.149 GC
2 setlinecap
1 LJ
0.833 LW
N
428 410 M
428 406.36 L
S
GR
GS
[0.60127 0 0 0.60127 38.48135 250.72966] CT
0.149 GC
/Helvetica 16.667 F
GS
[1 0 0 1 0 0] CT
-8 18 moveto 
1 -1 scale
(-1) t 
GR
GR
GS
[0.60127 0 0 0.60127 93.19703 250.72966] CT
0.149 GC
/Helvetica 16.667 F
GS
[1 0 0 1 0 0] CT
-15 18 moveto 
1 -1 scale
(-0.5) t 
GR
GR
GS
[0.60127 0 0 0.60127 147.91271 250.72966] CT
0.149 GC
/Helvetica 16.667 F
GS
[1 0 0 1 0 0] CT
-5 18 moveto 
1 -1 scale
(0) t 
GR
GR
GS
[0.60127 0 0 0.60127 202.62838 250.72966] CT
0.149 GC
/Helvetica 16.667 F
GS
[1 0 0 1 0 0] CT
-12 18 moveto 
1 -1 scale
(0.5) t 
GR
GR
GS
[0.60127 0 0 0.60127 257.34406 250.72966] CT
0.149 GC
/Helvetica 16.667 F
GS
[1 0 0 1 0 0] CT
-5 18 moveto 
1 -1 scale
(1) t 
GR
GR
GS
[0.60127 0 0 0.60127 147.91281 264.95975] CT
0.149 GC
N
-18.676 16.35 M
-18.676 17.131 -18.395 17.795 QT
-18.113 18.459 -17.543 18.858 QT
-16.973 19.256 -16.207 19.256 QT
-15.692 19.256 -15.113 19.03 QT
-14.535 18.803 -14.035 18.53 QT
-13.535 18.256 -13.52 18.256 QT
-13.395 18.256 -13.324 18.397 QT
-13.254 18.537 -13.254 18.678 QT
-13.254 18.803 -13.317 18.834 QT
-14.754 19.866 -16.238 19.866 QT
-17.457 19.866 -18.434 19.295 QT
-19.41 18.725 -19.942 17.717 QT
-20.473 16.709 -20.473 15.506 QT
-20.473 14.303 -19.988 13.233 QT
-19.504 12.162 -18.653 11.366 QT
-17.801 10.569 -16.723 10.123 QT
-15.645 9.678 -14.457 9.678 QT
-13.16 9.678 L
-12.817 9.678 -12.817 10.037 QT
-12.817 10.225 -12.942 10.358 QT
-13.067 10.491 -13.254 10.491 QT
-14.504 10.491 L
-15.426 10.491 -16.176 10.897 QT
-16.926 11.303 -17.426 12.022 QT
-17.926 12.741 -18.207 13.647 QT
-14.145 13.647 L
-13.988 13.647 -13.895 13.741 QT
-13.801 13.834 -13.801 13.991 QT
-13.801 14.178 -13.926 14.311 QT
-14.051 14.444 -14.238 14.444 QT
-18.426 14.444 L
-18.676 15.631 -18.676 16.35 QT
cp
f
GR
GS
[0.60127 0 0 0.60127 147.91281 264.95975] CT
0.149 GC
N
-10.736 24.897 M
-10.736 24.819 -10.72 24.803 QT
-2.72 2.631 L
-2.674 2.491 -2.564 2.42 QT
-2.455 2.35 -2.314 2.35 QT
-2.111 2.35 -1.978 2.475 QT
-1.845 2.6 -1.845 2.803 QT
-1.845 2.897 L
-9.845 25.069 L
-9.97 25.35 -10.283 25.35 QT
-10.47 25.35 -10.603 25.217 QT
-10.736 25.084 -10.736 24.897 QT
cp
f
GR
GS
[0.60127 0 0 0.60127 147.91281 264.95975] CT
0.149 GC
N
0.696 19.303 M
0.696 19.241 0.735 19.092 QT
0.774 18.944 0.837 18.866 QT
0.899 18.787 1.009 18.787 QT
2.993 18.787 3.634 18.678 QT
4.243 18.522 4.368 18.022 QT
7.524 5.381 L
7.618 5.1 7.618 4.881 QT
7.618 4.694 6.806 4.694 QT
5.477 4.694 L
3.931 4.694 3.095 5.17 QT
2.259 5.647 1.868 6.42 QT
1.477 7.194 0.852 8.959 QT
0.774 9.162 0.618 9.162 QT
0.415 9.162 L
0.181 9.162 0.181 8.866 QT
1.821 4.1 L
1.868 3.881 2.056 3.881 QT
15.634 3.881 L
15.868 3.881 15.868 4.194 QT
15.102 8.959 L
15.102 9.022 15.024 9.092 QT
14.946 9.162 14.884 9.162 QT
14.665 9.162 L
14.446 9.162 14.446 8.866 QT
14.696 7.241 14.696 6.569 QT
14.696 5.756 14.36 5.342 QT
14.024 4.928 13.485 4.811 QT
12.946 4.694 12.071 4.694 QT
10.712 4.694 L
10.102 4.694 9.892 4.811 QT
9.681 4.928 9.524 5.491 QT
6.368 18.1 L
6.368 18.147 6.36 18.194 QT
6.352 18.241 6.321 18.303 QT
6.321 18.6 6.681 18.678 QT
7.274 18.787 9.227 18.787 QT
9.446 18.787 9.446 19.1 QT
9.368 19.412 9.321 19.506 QT
9.274 19.6 9.071 19.6 QT
0.931 19.6 L
0.696 19.6 0.696 19.303 QT
cp
f
GR
GS
[0.60127 0 0 0.60127 147.91281 264.95975] CT
0.149 GC
N
15.144 21.194 M
15.144 21.881 15.503 22.366 QT
15.863 22.85 16.519 22.85 QT
17.472 22.85 18.355 22.412 QT
19.238 21.975 19.785 21.209 QT
19.832 21.162 19.91 21.162 QT
19.988 21.162 20.074 21.248 QT
20.16 21.334 20.16 21.412 QT
20.16 21.475 20.128 21.506 QT
19.535 22.334 18.543 22.811 QT
17.55 23.287 16.488 23.287 QT
15.722 23.287 15.136 22.92 QT
14.55 22.553 14.23 21.944 QT
13.91 21.334 13.91 20.569 QT
13.91 19.491 14.511 18.428 QT
15.113 17.366 16.113 16.694 QT
17.113 16.022 18.222 16.022 QT
18.941 16.022 19.511 16.373 QT
20.082 16.725 20.082 17.397 QT
20.082 17.834 19.832 18.147 QT
19.582 18.459 19.144 18.459 QT
18.894 18.459 18.714 18.295 QT
18.535 18.131 18.535 17.881 QT
18.535 17.506 18.808 17.241 QT
19.082 16.975 19.457 16.975 QT
19.488 16.975 L
19.3 16.694 18.941 16.569 QT
18.582 16.444 18.207 16.444 QT
17.269 16.444 16.566 17.241 QT
15.863 18.037 15.503 19.155 QT
15.144 20.272 15.144 21.194 QT
cp
f
GR
GS
[0.60127 0 0 0.60127 0 0.20001] CT
0.149 GC
2 setlinecap
1 LJ
0.833 LW
N
64 410 M
64 46 L
S
GR
GS
[0.60127 0 0 0.60127 0 0.20001] CT
0.149 GC
2 setlinecap
1 LJ
0.833 LW
N
64 410 M
67.64 410 L
S
GR
GS
[0.60127 0 0 0.60127 0 0.20001] CT
0.149 GC
2 setlinecap
1 LJ
0.833 LW
N
64 288.667 M
67.64 288.667 L
S
GR
GS
[0.60127 0 0 0.60127 0 0.20001] CT
0.149 GC
2 setlinecap
1 LJ
0.833 LW
N
64 167.333 M
67.64 167.333 L
S
GR
GS
[0.60127 0 0 0.60127 0 0.20001] CT
0.149 GC
2 setlinecap
1 LJ
0.833 LW
N
64 46 M
67.64 46 L
S
GR
GS
[0.60127 0 0 0.60127 34.47288 246.72119] CT
0.149 GC
/Helvetica 16.667 F
GS
[1 0 0 1 0 0] CT
-10 7 moveto 
1 -1 scale
(0) t 
GR
GR
GS
[0.60127 0 0 0.60127 34.47288 173.76695] CT
0.149 GC
/Helvetica 16.667 F
GS
[1 0 0 1 0 0] CT
-24 7 moveto 
1 -1 scale
(0.5) t 
GR
GR
GS
[0.60127 0 0 0.60127 34.47288 100.81272] CT
0.149 GC
/Helvetica 16.667 F
GS
[1 0 0 1 0 0] CT
-10 7 moveto 
1 -1 scale
(1) t 
GR
GR
GS
[0.60127 0 0 0.60127 34.47288 27.85849] CT
0.149 GC
/Helvetica 16.667 F
GS
[1 0 0 1 0 0] CT
-24 7 moveto 
1 -1 scale
(1.5) t 
GR
GR
GS
[0 -0.60127 0.60127 0 17.03602 137.28974] CT
0.149 GC
N
-66.72 -13.369 M
-66.72 -11.978 -66.189 -10.931 QT
-65.658 -9.884 -64.642 -9.291 QT
-63.626 -8.697 -62.236 -8.697 QT
-60.798 -8.697 -59.454 -9.439 QT
-58.111 -10.181 -57.158 -11.424 QT
-56.204 -12.666 -55.861 -14.056 QT
-55.814 -14.197 -55.689 -14.197 QT
-55.408 -14.197 L
-55.314 -14.197 -55.259 -14.134 QT
-55.204 -14.072 -55.204 -13.994 QT
-55.204 -13.978 -55.22 -13.931 QT
-55.611 -12.338 -56.743 -10.939 QT
-57.876 -9.541 -59.447 -8.72 QT
-61.017 -7.9 -62.673 -7.9 QT
-64.47 -7.9 -65.9 -8.705 QT
-67.329 -9.509 -68.118 -10.947 QT
-68.908 -12.384 -68.908 -14.197 QT
-68.908 -16.134 -68.048 -18.025 QT
-67.189 -19.916 -65.728 -21.392 QT
-64.267 -22.869 -62.392 -23.744 QT
-60.517 -24.619 -58.595 -24.619 QT
-57.845 -24.619 -57.142 -24.384 QT
-56.439 -24.15 -55.845 -23.681 QT
-55.251 -23.213 -54.876 -22.603 QT
-53.048 -24.572 L
-53.048 -24.619 -52.939 -24.619 QT
-52.814 -24.619 L
-52.72 -24.619 -52.665 -24.541 QT
-52.611 -24.463 -52.611 -24.384 QT
-54.173 -18.166 L
-54.173 -18.009 -54.345 -18.009 QT
-54.767 -18.009 L
-54.939 -18.009 -54.939 -18.275 QT
-54.845 -18.775 -54.845 -19.478 QT
-54.845 -20.603 -55.228 -21.603 QT
-55.611 -22.603 -56.415 -23.205 QT
-57.22 -23.806 -58.376 -23.806 QT
-60.251 -23.806 -61.814 -22.861 QT
-63.376 -21.916 -64.462 -20.384 QT
-65.548 -18.853 -66.134 -16.986 QT
-66.72 -15.119 -66.72 -13.369 QT
cp
f
GR
GS
[0 -0.60127 0.60127 0 17.03602 137.28974] CT
0.149 GC
N
-52.012 -5.884 M
-51.574 -5.15 -50.278 -5.15 QT
-49.715 -5.15 -49.207 -5.338 QT
-48.699 -5.525 -48.371 -5.908 QT
-48.043 -6.291 -48.043 -6.838 QT
-48.043 -7.259 -48.34 -7.525 QT
-48.637 -7.791 -49.059 -7.884 QT
-49.934 -8.056 L
-50.528 -8.197 -50.91 -8.603 QT
-51.293 -9.009 -51.293 -9.588 QT
-51.293 -10.306 -50.903 -10.853 QT
-50.512 -11.4 -49.879 -11.689 QT
-49.246 -11.978 -48.574 -11.978 QT
-47.84 -11.978 -47.27 -11.627 QT
-46.699 -11.275 -46.699 -10.603 QT
-46.699 -10.228 -46.903 -9.947 QT
-47.106 -9.666 -47.481 -9.666 QT
-47.684 -9.666 -47.84 -9.806 QT
-47.996 -9.947 -47.996 -10.15 QT
-47.996 -10.338 -47.887 -10.517 QT
-47.778 -10.697 -47.606 -10.799 QT
-47.434 -10.9 -47.246 -10.9 QT
-47.387 -11.244 -47.77 -11.4 QT
-48.153 -11.556 -48.606 -11.556 QT
-49.012 -11.556 -49.418 -11.392 QT
-49.824 -11.228 -50.067 -10.916 QT
-50.309 -10.603 -50.309 -10.166 QT
-50.309 -9.884 -50.106 -9.666 QT
-49.903 -9.447 -49.606 -9.353 QT
-48.684 -9.166 L
-48.231 -9.072 -47.863 -8.83 QT
-47.496 -8.588 -47.278 -8.228 QT
-47.059 -7.869 -47.059 -7.4 QT
-47.059 -6.806 -47.395 -6.228 QT
-47.731 -5.65 -48.215 -5.306 QT
-49.059 -4.713 -50.293 -4.713 QT
-51.153 -4.713 -51.863 -5.111 QT
-52.574 -5.509 -52.574 -6.275 QT
-52.574 -6.713 -52.317 -7.041 QT
-52.059 -7.369 -51.621 -7.369 QT
-51.371 -7.369 -51.192 -7.213 QT
-51.012 -7.056 -51.012 -6.791 QT
-51.012 -6.431 -51.285 -6.158 QT
-51.559 -5.884 -51.934 -5.884 QT
-52.012 -5.884 L
cp
f
GR
GS
[0 -0.60127 0.60127 0 17.03602 137.28974] CT
0.149 GC
N
-34.083 -2.65 M
-34.083 -25.65 L
-30.942 -25.65 L
-30.942 -24.728 L
-33.161 -24.728 L
-33.161 -3.572 L
-30.942 -3.572 L
-30.942 -2.65 L
-34.083 -2.65 L
cp
f
GR
GS
[0 -0.60127 0.60127 0 17.03602 137.28974] CT
0.149 GC
N
-26.352 -8.134 M
-27.742 -8.134 -28.516 -9.228 QT
-29.289 -10.322 -29.289 -11.775 QT
-29.289 -11.994 -29.18 -12.619 QT
-29.07 -13.244 -29.07 -13.384 QT
-26.852 -22.322 L
-26.758 -22.713 -26.742 -22.931 QT
-26.742 -23.306 -28.227 -23.306 QT
-28.461 -23.306 -28.461 -23.603 QT
-28.445 -23.666 -28.406 -23.806 QT
-28.367 -23.947 -28.305 -24.033 QT
-28.242 -24.119 -28.133 -24.119 QT
-25.023 -24.353 L
-24.742 -24.353 -24.742 -24.072 QT
-26.461 -17.291 L
-25.148 -18.556 -23.836 -18.556 QT
-22.852 -18.556 -22.148 -18.041 QT
-21.445 -17.525 -21.102 -16.689 QT
-20.758 -15.853 -20.758 -14.884 QT
-20.758 -13.775 -21.188 -12.595 QT
-21.617 -11.416 -22.383 -10.4 QT
-23.148 -9.384 -24.172 -8.759 QT
-25.195 -8.134 -26.352 -8.134 QT
cp
-26.305 -8.744 M
-25.508 -8.744 -24.828 -9.4 QT
-24.148 -10.056 -23.711 -10.884 QT
-23.258 -11.806 -22.859 -13.384 QT
-22.461 -14.963 -22.461 -15.9 QT
-22.461 -16.728 -22.805 -17.345 QT
-23.148 -17.963 -23.883 -17.963 QT
-24.711 -17.963 -25.469 -17.353 QT
-26.227 -16.744 -26.805 -15.9 QT
-27.445 -13.291 L
-27.82 -11.853 -27.836 -10.978 QT
-27.836 -10.103 -27.461 -9.424 QT
-27.086 -8.744 -26.305 -8.744 QT
cp
f
GR
GS
[0 -0.60127 0.60127 0 17.03602 137.28974] CT
0.149 GC
N
-18.51 -10.056 M
-18.51 -10.478 -18.322 -10.947 QT
-16.463 -15.9 L
-16.166 -16.744 -16.166 -17.291 QT
-16.166 -17.963 -16.666 -17.963 QT
-17.572 -17.963 -18.166 -17.025 QT
-18.76 -16.088 -19.041 -14.931 QT
-19.088 -14.791 -19.228 -14.791 QT
-19.494 -14.791 L
-19.682 -14.791 -19.682 -15.009 QT
-19.682 -15.072 L
-19.322 -16.447 -18.557 -17.502 QT
-17.791 -18.556 -16.619 -18.556 QT
-15.807 -18.556 -15.236 -18.017 QT
-14.666 -17.478 -14.666 -16.65 QT
-14.666 -16.228 -14.853 -15.759 QT
-16.728 -10.822 L
-17.041 -10.056 -17.041 -9.431 QT
-17.041 -8.744 -16.51 -8.744 QT
-15.619 -8.744 -15.017 -9.705 QT
-14.416 -10.666 -14.166 -11.775 QT
-14.119 -11.916 -13.978 -11.916 QT
-13.697 -11.916 L
-13.619 -11.916 -13.557 -11.853 QT
-13.494 -11.791 -13.494 -11.713 QT
-13.494 -11.697 -13.525 -11.65 QT
-13.838 -10.338 -14.619 -9.236 QT
-15.4 -8.134 -16.557 -8.134 QT
-17.369 -8.134 -17.939 -8.697 QT
-18.51 -9.259 -18.51 -10.056 QT
cp
-15.916 -22.338 M
-15.916 -22.822 -15.51 -23.213 QT
-15.103 -23.603 -14.619 -23.603 QT
-14.228 -23.603 -13.978 -23.361 QT
-13.728 -23.119 -13.728 -22.759 QT
-13.728 -22.244 -14.135 -21.853 QT
-14.541 -21.463 -15.041 -21.463 QT
-15.416 -21.463 -15.666 -21.713 QT
-15.916 -21.963 -15.916 -22.338 QT
cp
f
GR
GS
[0 -0.60127 0.60127 0 17.03602 137.28974] CT
0.149 GC
N
-10.846 -10.259 M
-10.846 -10.603 -10.768 -10.9 QT
-9.112 -17.509 L
-11.533 -17.509 L
-11.768 -17.509 -11.768 -17.806 QT
-11.674 -18.322 -11.455 -18.322 QT
-8.908 -18.322 L
-7.987 -22.072 L
-7.893 -22.369 -7.627 -22.58 QT
-7.362 -22.791 -7.018 -22.791 QT
-6.737 -22.791 -6.533 -22.619 QT
-6.33 -22.447 -6.33 -22.15 QT
-6.33 -22.088 -6.338 -22.049 QT
-6.346 -22.009 -6.362 -21.963 QT
-7.283 -18.322 L
-4.908 -18.322 L
-4.674 -18.322 -4.674 -18.009 QT
-4.69 -17.963 -4.721 -17.822 QT
-4.752 -17.681 -4.807 -17.595 QT
-4.862 -17.509 -4.987 -17.509 QT
-7.487 -17.509 L
-9.127 -10.853 L
-9.299 -10.213 -9.299 -9.744 QT
-9.299 -8.744 -8.627 -8.744 QT
-7.612 -8.744 -6.838 -9.697 QT
-6.065 -10.65 -5.643 -11.775 QT
-5.549 -11.916 -5.455 -11.916 QT
-5.174 -11.916 L
-5.096 -11.916 -5.041 -11.853 QT
-4.987 -11.791 -4.987 -11.713 QT
-4.987 -11.666 -5.002 -11.65 QT
-5.502 -10.259 -6.471 -9.197 QT
-7.44 -8.134 -8.69 -8.134 QT
-9.596 -8.134 -10.221 -8.736 QT
-10.846 -9.338 -10.846 -10.259 QT
cp
f
GR
GS
[0 -0.60127 0.60127 0 17.03602 137.28974] CT
0.149 GC
N
-2.545 -3.103 M
-2.545 -3.181 -2.529 -3.197 QT
5.471 -25.369 L
5.517 -25.509 5.627 -25.58 QT
5.736 -25.65 5.877 -25.65 QT
6.08 -25.65 6.213 -25.525 QT
6.346 -25.4 6.346 -25.197 QT
6.346 -25.103 L
-1.654 -2.931 L
-1.779 -2.65 -2.092 -2.65 QT
-2.279 -2.65 -2.412 -2.783 QT
-2.545 -2.916 -2.545 -3.103 QT
cp
f
GR
GS
[0 -0.60127 0.60127 0 17.03602 137.28974] CT
0.149 GC
N
9.825 -9.806 M
10.434 -8.744 12.309 -8.744 QT
13.122 -8.744 13.848 -9.025 QT
14.575 -9.306 15.051 -9.853 QT
15.528 -10.4 15.528 -11.181 QT
15.528 -11.775 15.098 -12.158 QT
14.669 -12.541 14.059 -12.681 QT
12.809 -12.931 L
11.965 -13.134 11.411 -13.72 QT
10.856 -14.306 10.856 -15.134 QT
10.856 -16.166 11.411 -16.947 QT
11.965 -17.728 12.879 -18.142 QT
13.794 -18.556 14.762 -18.556 QT
15.809 -18.556 16.637 -18.064 QT
17.465 -17.572 17.465 -16.588 QT
17.465 -16.056 17.169 -15.65 QT
16.872 -15.244 16.34 -15.244 QT
16.028 -15.244 15.809 -15.447 QT
15.59 -15.65 15.59 -15.947 QT
15.59 -16.213 15.747 -16.47 QT
15.903 -16.728 16.153 -16.877 QT
16.403 -17.025 16.669 -17.025 QT
16.465 -17.525 15.911 -17.744 QT
15.356 -17.963 14.715 -17.963 QT
14.137 -17.963 13.551 -17.728 QT
12.965 -17.494 12.614 -17.041 QT
12.262 -16.588 12.262 -15.963 QT
12.262 -15.556 12.551 -15.244 QT
12.84 -14.931 13.278 -14.791 QT
14.606 -14.525 L
15.247 -14.384 15.778 -14.041 QT
16.309 -13.697 16.622 -13.174 QT
16.934 -12.65 16.934 -11.978 QT
16.934 -11.134 16.458 -10.299 QT
15.981 -9.463 15.278 -8.978 QT
14.059 -8.134 12.278 -8.134 QT
11.059 -8.134 10.036 -8.697 QT
9.012 -9.259 9.012 -10.384 QT
9.012 -11.009 9.379 -11.47 QT
9.747 -11.931 10.372 -11.931 QT
10.747 -11.931 10.997 -11.713 QT
11.247 -11.494 11.247 -11.119 QT
11.247 -10.588 10.856 -10.197 QT
10.465 -9.806 9.934 -9.806 QT
9.825 -9.806 L
cp
f
GR
GS
[0 -0.60127 0.60127 0 17.03602 137.28974] CT
0.149 GC
N
20.059 -3.103 M
20.059 -3.181 20.075 -3.197 QT
28.075 -25.369 L
28.122 -25.509 28.231 -25.58 QT
28.34 -25.65 28.481 -25.65 QT
28.684 -25.65 28.817 -25.525 QT
28.95 -25.4 28.95 -25.197 QT
28.95 -25.103 L
20.95 -2.931 L
20.825 -2.65 20.512 -2.65 QT
20.325 -2.65 20.192 -2.783 QT
20.059 -2.916 20.059 -3.103 QT
cp
f
GR
GS
[0 -0.60127 0.60127 0 17.03602 137.28974] CT
0.149 GC
N
31.507 -8.4 M
31.288 -8.4 31.288 -8.697 QT
31.288 -8.759 31.327 -8.9 QT
31.366 -9.041 31.429 -9.127 QT
31.491 -9.213 31.57 -9.213 QT
32.976 -9.213 33.523 -9.369 QT
33.835 -9.463 33.96 -9.978 QT
37.116 -22.619 L
37.163 -22.838 37.163 -22.931 QT
37.163 -23.181 36.882 -23.213 QT
36.46 -23.306 35.241 -23.306 QT
35.007 -23.306 35.007 -23.603 QT
35.085 -23.9 35.132 -24.009 QT
35.179 -24.119 35.398 -24.119 QT
41.585 -24.119 L
41.82 -24.119 41.82 -23.806 QT
41.804 -23.759 41.773 -23.619 QT
41.741 -23.478 41.687 -23.392 QT
41.632 -23.306 41.507 -23.306 QT
40.116 -23.306 39.554 -23.15 QT
39.257 -23.041 39.116 -22.509 QT
37.741 -16.978 L
44.648 -16.978 L
46.054 -22.619 L
46.101 -22.838 46.101 -22.931 QT
46.101 -23.181 45.82 -23.213 QT
45.382 -23.306 44.163 -23.306 QT
43.929 -23.306 43.929 -23.603 QT
44.007 -23.9 44.054 -24.009 QT
44.101 -24.119 44.32 -24.119 QT
50.507 -24.119 L
50.741 -24.119 50.741 -23.806 QT
50.726 -23.759 50.687 -23.619 QT
50.648 -23.478 50.593 -23.392 QT
50.538 -23.306 50.445 -23.306 QT
49.038 -23.306 48.491 -23.15 QT
48.179 -23.041 48.054 -22.509 QT
44.898 -9.9 L
44.851 -9.666 44.851 -9.572 QT
44.851 -9.338 45.132 -9.306 QT
45.57 -9.213 46.788 -9.213 QT
47.023 -9.213 47.023 -8.9 QT
46.945 -8.634 46.882 -8.517 QT
46.82 -8.4 46.616 -8.4 QT
40.429 -8.4 L
40.195 -8.4 40.195 -8.697 QT
40.241 -8.869 40.265 -8.947 QT
40.288 -9.025 40.351 -9.119 QT
40.413 -9.213 40.507 -9.213 QT
41.913 -9.213 42.46 -9.369 QT
42.757 -9.463 42.898 -9.978 QT
44.429 -16.166 L
37.538 -16.166 L
35.976 -9.9 L
35.913 -9.619 35.913 -9.572 QT
35.913 -9.338 36.195 -9.306 QT
36.632 -9.213 37.866 -9.213 QT
38.085 -9.213 38.085 -8.9 QT
38.007 -8.603 37.96 -8.502 QT
37.913 -8.4 37.695 -8.4 QT
31.507 -8.4 L
cp
f
GR
GS
[0 -0.60127 0.60127 0 17.03602 137.28974] CT
0.149 GC
N
52.846 -8.134 M
52.658 -8.134 52.658 -8.353 QT
52.658 -8.463 52.705 -8.509 QT
53.33 -9.572 54.197 -10.549 QT
55.064 -11.525 56.174 -12.517 QT
57.283 -13.509 58.4 -14.509 QT
59.517 -15.509 60.205 -16.291 QT
60.127 -16.291 L
59.611 -16.291 58.635 -16.611 QT
57.658 -16.931 57.096 -16.931 QT
56.486 -16.931 55.916 -16.666 QT
55.346 -16.4 55.189 -15.853 QT
55.158 -15.681 55.017 -15.681 QT
54.736 -15.681 L
54.549 -15.681 54.549 -15.931 QT
54.549 -15.994 L
54.736 -16.666 55.142 -17.252 QT
55.549 -17.838 56.15 -18.197 QT
56.752 -18.556 57.408 -18.556 QT
57.861 -18.556 58.166 -18.353 QT
58.471 -18.15 58.877 -17.713 QT
59.283 -17.275 59.533 -17.08 QT
59.783 -16.884 60.174 -16.884 QT
60.674 -16.884 61.072 -17.345 QT
61.471 -17.806 61.861 -18.494 QT
61.924 -18.556 62.033 -18.556 QT
62.299 -18.556 L
62.377 -18.556 62.431 -18.502 QT
62.486 -18.447 62.486 -18.369 QT
62.486 -18.291 62.439 -18.213 QT
61.814 -17.15 60.994 -16.22 QT
60.174 -15.291 58.838 -14.095 QT
57.502 -12.9 56.588 -12.08 QT
55.674 -11.259 54.877 -10.384 QT
55.049 -10.416 55.361 -10.416 QT
55.924 -10.416 56.892 -10.095 QT
57.861 -9.775 58.392 -9.775 QT
58.971 -9.775 59.549 -10.025 QT
60.127 -10.275 60.556 -10.728 QT
60.986 -11.181 61.127 -11.759 QT
61.189 -11.916 61.314 -11.916 QT
61.596 -11.916 L
61.689 -11.916 61.744 -11.845 QT
61.799 -11.775 61.799 -11.697 QT
61.799 -11.666 61.767 -11.619 QT
61.564 -10.744 61.033 -9.955 QT
60.502 -9.166 59.736 -8.65 QT
58.971 -8.134 58.096 -8.134 QT
57.658 -8.134 57.353 -8.338 QT
57.049 -8.541 56.635 -8.986 QT
56.221 -9.431 55.963 -9.627 QT
55.705 -9.822 55.33 -9.822 QT
54.189 -9.822 53.283 -8.213 QT
53.205 -8.134 53.127 -8.134 QT
52.846 -8.134 L
cp
f
GR
GS
[0 -0.60127 0.60127 0 17.03602 137.28974] CT
0.149 GC
N
64.098 -2.65 M
64.098 -3.572 L
66.332 -3.572 L
66.332 -24.728 L
64.098 -24.728 L
64.098 -25.65 L
67.254 -25.65 L
67.254 -2.65 L
64.098 -2.65 L
cp
f
GR
GS
[0.60127 0 0 0.60127 0 0.20001] CT
0 0.447 0.741 RC
1 LJ
2.5 LW
N
63.957 410 M
64 410 L
65.82 410 L
67.64 410 L
69.46 410 L
71.28 410 L
73.1 410 L
74.92 410 L
76.74 410 L
78.56 410 L
80.38 410 L
82.2 410 L
84.02 410 L
85.84 410 L
87.66 410 L
89.48 410 L
91.3 410 L
93.12 410 L
94.94 410 L
96.76 410 L
98.58 410 L
100.4 410 L
102.22 410 L
104.04 410 L
105.86 410 L
107.68 410 L
109.5 410 L
111.32 410 L
113.14 410 L
114.96 410 L
116.78 410 L
118.6 410 L
120.42 410 L
122.24 410 L
124.06 410 L
125.88 410 L
127.7 410 L
129.52 410 L
131.34 410 L
133.16 410 L
134.98 410 L
136.8 410 L
138.62 410 L
140.44 410 L
142.26 410 L
144.08 410 L
145.9 410 L
147.72 410 L
149.54 410 L
151.36 410 L
153.18 410 L
155 410 L
156.82 410 L
158.64 410 L
160.46 410 L
162.28 410 L
164.1 410 L
165.92 410 L
167.74 410 L
169.56 410 L
171.38 410 L
173.2 410 L
175.02 410 L
176.84 410 L
178.66 410 L
180.48 410 L
182.3 410 L
184.12 410 L
185.94 410 L
187.76 410 L
189.58 410 L
191.4 410 L
193.22 410 L
195.04 410 L
196.86 410 L
198.68 410 L
200.5 410 L
202.32 410 L
204.14 410 L
205.96 410 L
207.78 410 L
209.6 410 L
211.42 410 L
213.24 410 L
215.06 410 L
216.88 410 L
218.7 410 L
220.52 410 L
222.34 410 L
224.16 410 L
225.98 410 L
227.8 410 L
229.62 410 L
231.44 410 L
233.26 409.38 L
235.08 408.265 L
236.9 407.844 L
238.72 407.699 L
240.54 407.654 L
242.36 407.642 L
244.18 407.638 L
246 407.638 L
247.82 407.638 L
249.64 407.642 L
251.46 407.654 L
253.28 407.699 L
255.1 407.844 L
256.92 408.265 L
258.74 409.38 L
260.56 410 L
262.38 410 L
264.2 410 L
266.02 410 L
267.84 410 L
269.66 410 L
271.48 410 L
273.3 410 L
275.12 410 L
276.94 410 L
278.76 410 L
280.58 410 L
282.4 410 L
284.22 410 L
286.04 410 L
287.86 410 L
289.68 410 L
291.5 410 L
293.32 410 L
295.14 410 L
296.96 410 L
298.78 410 L
300.6 410 L
302.42 410 L
304.24 410 L
306.06 410 L
307.88 410 L
309.7 410 L
311.52 410 L
313.34 410 L
315.16 410 L
316.98 410 L
318.8 410 L
320.62 410 L
322.44 410 L
324.26 410 L
326.08 410 L
327.9 410 L
329.72 410 L
331.54 410 L
333.36 410 L
335.18 410 L
337 410 L
338.82 410 L
340.64 410 L
342.46 410 L
344.28 410 L
346.1 410 L
347.92 410 L
349.74 410 L
351.56 410 L
353.38 410 L
355.2 410 L
357.02 410 L
358.84 410 L
360.66 410 L
362.48 410 L
364.3 410 L
366.12 410 L
367.94 410 L
369.76 410 L
371.58 410 L
373.4 410 L
375.22 410 L
377.04 410 L
378.86 410 L
380.68 410 L
382.5 410 L
384.32 410 L
386.14 410 L
387.96 410 L
389.78 410 L
391.6 410 L
393.42 410 L
395.24 410 L
397.06 410 L
398.88 410 L
400.7 410 L
402.52 410 L
404.34 410 L
406.16 410 L
407.98 410 L
409.8 410 L
411.62 410 L
413.44 410 L
415.26 410 L
417.08 410 L
418.9 410 L
420.72 410 L
422.54 410 L
424.36 410 L
426.18 410 L
428 410 L
428.043 410 L
S
GR
GS
[0.60127 0 0 0.60127 0 0.20001] CT
0.851 0.325 0.098 RC
1 LJ
2.5 LW
N
63.957 410 M
64 410 L
65.82 410 L
67.64 410 L
69.46 410 L
71.28 410 L
73.1 410 L
74.92 410 L
76.74 410 L
78.56 410 L
80.38 410 L
82.2 410 L
84.02 410 L
85.84 410 L
87.66 410 L
89.48 410 L
91.3 410 L
93.12 410 L
94.94 410 L
96.76 410 L
98.58 410 L
100.4 410 L
102.22 410 L
104.04 410 L
105.86 410 L
107.68 410 L
109.5 410 L
111.32 410 L
113.14 410 L
114.96 410 L
116.78 410 L
118.6 410 L
120.42 410 L
122.24 410 L
124.06 410 L
125.88 410 L
127.7 410 L
129.52 410 L
131.34 410 L
133.16 410 L
134.98 410 L
136.8 410 L
138.62 410 L
140.44 410 L
142.26 410 L
144.08 410 L
145.9 410 L
147.72 410 L
149.54 410 L
151.36 410 L
153.18 410 L
155 410 L
156.82 410 L
158.64 410 L
160.46 410 L
162.28 410 L
164.1 410 L
165.92 410 L
167.74 410 L
169.56 410 L
171.38 410 L
173.2 410 L
175.02 410 L
176.84 410 L
178.66 410 L
180.48 410 L
182.3 410 L
184.12 410 L
185.94 410 L
187.76 410 L
189.58 410 L
191.4 410 L
193.22 410 L
195.04 410 L
196.86 410 L
198.68 410 L
200.5 410 L
202.32 410 L
204.14 410 L
205.96 410 L
207.78 410 L
209.6 410 L
211.42 410 L
213.24 410 L
215.06 410 L
216.88 410 L
218.7 410 L
220.52 410 L
222.34 410 L
224.16 410 L
225.98 410 L
227.8 410 L
229.62 410 L
231.44 410 L
233.26 403.708 L
235.08 388.649 L
236.9 379.241 L
238.72 373.663 L
240.54 370.522 L
242.36 368.84 L
244.18 367.983 L
246 367.567 L
247.82 367.983 L
249.64 368.84 L
251.46 370.522 L
253.28 373.663 L
255.1 379.241 L
256.92 388.649 L
258.74 403.708 L
260.56 410 L
262.38 410 L
264.2 410 L
266.02 410 L
267.84 410 L
269.66 410 L
271.48 410 L
273.3 410 L
275.12 410 L
276.94 410 L
278.76 410 L
280.58 410 L
282.4 410 L
284.22 410 L
286.04 410 L
287.86 410 L
289.68 410 L
291.5 410 L
293.32 410 L
295.14 410 L
296.96 410 L
298.78 410 L
300.6 410 L
302.42 410 L
304.24 410 L
306.06 410 L
307.88 410 L
309.7 410 L
311.52 410 L
313.34 410 L
315.16 410 L
316.98 410 L
318.8 410 L
320.62 410 L
322.44 410 L
324.26 410 L
326.08 410 L
327.9 410 L
329.72 410 L
331.54 410 L
333.36 410 L
335.18 410 L
337 410 L
338.82 410 L
340.64 410 L
342.46 410 L
344.28 410 L
346.1 410 L
347.92 410 L
349.74 410 L
351.56 410 L
353.38 410 L
355.2 410 L
357.02 410 L
358.84 410 L
360.66 410 L
362.48 410 L
364.3 410 L
366.12 410 L
367.94 410 L
369.76 410 L
371.58 410 L
373.4 410 L
375.22 410 L
377.04 410 L
378.86 410 L
380.68 410 L
382.5 410 L
384.32 410 L
386.14 410 L
387.96 410 L
389.78 410 L
391.6 410 L
393.42 410 L
395.24 410 L
397.06 410 L
398.88 410 L
400.7 410 L
402.52 410 L
404.34 410 L
406.16 410 L
407.98 410 L
409.8 410 L
411.62 410 L
413.44 410 L
415.26 410 L
417.08 410 L
418.9 410 L
420.72 410 L
422.54 410 L
424.36 410 L
426.18 410 L
428 410 L
428.043 410 L
S
GR
GS
[0.60127 0 0 0.60127 0 0.20001] CT
0.929 0.694 0.125 RC
1 LJ
2.5 LW
N
63.957 410 M
64 410 L
65.82 410 L
67.64 410 L
69.46 410 L
71.28 410 L
73.1 410 L
74.92 410 L
76.74 410 L
78.56 410 L
80.38 410 L
82.2 410 L
84.02 410 L
85.84 410 L
87.66 410 L
89.48 410 L
91.3 410 L
93.12 410 L
94.94 410 L
96.76 410 L
98.58 410 L
100.4 410 L
102.22 410 L
104.04 410 L
105.86 410 L
107.68 410 L
109.5 410 L
111.32 410 L
113.14 410 L
114.96 410 L
116.78 410 L
118.6 410 L
120.42 410 L
122.24 410 L
124.06 410 L
125.88 410 L
127.7 410 L
129.52 410 L
131.34 410 L
133.16 410 L
134.98 410 L
136.8 410 L
138.62 410 L
140.44 410 L
142.26 410 L
144.08 410 L
145.9 410 L
147.72 410 L
149.54 410 L
151.36 410 L
153.18 410 L
155 410 L
156.82 410 L
158.64 410 L
160.46 410 L
162.28 410 L
164.1 410 L
165.92 410 L
167.74 410 L
169.56 410 L
171.38 410 L
173.2 410 L
175.02 410 L
176.84 410 L
178.66 410 L
180.48 410 L
182.3 410 L
184.12 410 L
185.94 410 L
187.76 410 L
189.58 410 L
191.4 410 L
193.22 410 L
195.04 410 L
196.86 410 L
198.68 410 L
200.5 410 L
202.32 410 L
204.14 410 L
205.96 410 L
207.78 410 L
209.6 410 L
211.42 410 L
213.24 410 L
215.06 410 L
216.88 410 L
218.7 410 L
220.52 410 L
222.34 410 L
224.16 410 L
225.98 410 L
227.8 410 L
229.62 410 L
231.44 410 L
233.26 397.236 L
235.08 360.433 L
236.9 328.389 L
238.72 300.616 L
240.54 276.759 L
242.36 256.518 L
244.18 239.59 L
246 225.651 L
247.82 239.59 L
249.64 256.518 L
251.46 276.759 L
253.28 300.616 L
255.1 328.389 L
256.92 360.433 L
258.74 397.236 L
260.56 410 L
262.38 410 L
264.2 410 L
266.02 410 L
267.84 410 L
269.66 410 L
271.48 410 L
273.3 410 L
275.12 410 L
276.94 410 L
278.76 410 L
280.58 410 L
282.4 410 L
284.22 410 L
286.04 410 L
287.86 410 L
289.68 410 L
291.5 410 L
293.32 410 L
295.14 410 L
296.96 410 L
298.78 410 L
300.6 410 L
302.42 410 L
304.24 410 L
306.06 410 L
307.88 410 L
309.7 410 L
311.52 410 L
313.34 410 L
315.16 410 L
316.98 410 L
318.8 410 L
320.62 410 L
322.44 410 L
324.26 410 L
326.08 410 L
327.9 410 L
329.72 410 L
331.54 410 L
333.36 410 L
335.18 410 L
337 410 L
338.82 410 L
340.64 410 L
342.46 410 L
344.28 410 L
346.1 410 L
347.92 410 L
349.74 410 L
351.56 410 L
353.38 410 L
355.2 410 L
357.02 410 L
358.84 410 L
360.66 410 L
362.48 410 L
364.3 410 L
366.12 410 L
367.94 410 L
369.76 410 L
371.58 410 L
373.4 410 L
375.22 410 L
377.04 410 L
378.86 410 L
380.68 410 L
382.5 410 L
384.32 410 L
386.14 410 L
387.96 410 L
389.78 410 L
391.6 410 L
393.42 410 L
395.24 410 L
397.06 410 L
398.88 410 L
400.7 410 L
402.52 410 L
404.34 410 L
406.16 410 L
407.98 410 L
409.8 410 L
411.62 410 L
413.44 410 L
415.26 410 L
417.08 410 L
418.9 410 L
420.72 410 L
422.54 410 L
424.36 410 L
426.18 410 L
428 410 L
428.043 410 L
S
GR
GS
[0.60127 0 0 0.60127 0 0.20001] CT
0.494 0.184 0.557 RC
1 LJ
2.5 LW
N
63.957 410 M
64 410 L
65.82 410 L
67.64 410 L
69.46 410 L
71.28 410 L
73.1 410 L
74.92 410 L
76.74 410 L
78.56 410 L
80.38 410 L
82.2 410 L
84.02 410 L
85.84 410 L
87.66 410 L
89.48 410 L
91.3 410 L
93.12 410 L
94.94 410 L
96.76 410 L
98.58 410 L
100.4 410 L
102.22 410 L
104.04 410 L
105.86 410 L
107.68 410 L
109.5 410 L
111.32 410 L
113.14 410 L
114.96 410 L
116.78 410 L
118.6 410 L
120.42 410 L
122.24 410 L
124.06 410 L
125.88 410 L
127.7 410 L
129.52 410 L
131.34 410 L
133.16 410 L
134.98 410 L
136.8 410 L
138.62 410 L
140.44 410 L
142.26 410 L
144.08 410 L
145.9 410 L
147.72 410 L
149.54 410 L
151.36 410 L
153.18 410 L
155 410 L
156.82 410 L
158.64 410 L
160.46 410 L
162.28 410 L
164.1 410 L
165.92 410 L
167.74 410 L
169.56 410 L
171.38 410 L
173.2 410 L
175.02 410 L
176.84 410 L
178.66 410 L
180.48 410 L
182.3 410 L
184.12 410 L
185.94 410 L
187.76 410 L
189.58 410 L
191.4 410 L
193.22 410 L
195.04 410 L
196.86 410 L
198.68 410 L
200.5 410 L
202.32 410 L
204.14 410 L
205.96 410 L
207.78 410 L
209.6 410 L
211.42 410 L
213.24 410 L
215.06 410 L
216.88 410 L
218.7 410 L
220.52 410 L
222.34 410 L
224.16 410 L
225.98 410 L
227.8 410 L
229.62 410 L
231.44 410 L
233.26 397.032 L
235.08 359.201 L
236.9 325.32 L
238.72 294.628 L
240.54 266.548 L
242.36 240.651 L
244.18 216.612 L
246 194.184 L
247.82 216.612 L
249.64 240.651 L
251.46 266.548 L
253.28 294.628 L
255.1 325.32 L
256.92 359.201 L
258.74 397.032 L
260.56 410 L
262.38 410 L
264.2 410 L
266.02 410 L
267.84 410 L
269.66 410 L
271.48 410 L
273.3 410 L
275.12 410 L
276.94 410 L
278.76 410 L
280.58 410 L
282.4 410 L
284.22 410 L
286.04 410 L
287.86 410 L
289.68 410 L
291.5 410 L
293.32 410 L
295.14 410 L
296.96 410 L
298.78 410 L
300.6 410 L
302.42 410 L
304.24 410 L
306.06 410 L
307.88 410 L
309.7 410 L
311.52 410 L
313.34 410 L
315.16 410 L
316.98 410 L
318.8 410 L
320.62 410 L
322.44 410 L
324.26 410 L
326.08 410 L
327.9 410 L
329.72 410 L
331.54 410 L
333.36 410 L
335.18 410 L
337 410 L
338.82 410 L
340.64 410 L
342.46 410 L
344.28 410 L
346.1 410 L
347.92 410 L
349.74 410 L
351.56 410 L
353.38 410 L
355.2 410 L
357.02 410 L
358.84 410 L
360.66 410 L
362.48 410 L
364.3 410 L
366.12 410 L
367.94 410 L
369.76 410 L
371.58 410 L
373.4 410 L
375.22 410 L
377.04 410 L
378.86 410 L
380.68 410 L
382.5 410 L
384.32 410 L
386.14 410 L
387.96 410 L
389.78 410 L
391.6 410 L
393.42 410 L
395.24 410 L
397.06 410 L
398.88 410 L
400.7 410 L
402.52 410 L
404.34 410 L
406.16 410 L
407.98 410 L
409.8 410 L
411.62 410 L
413.44 410 L
415.26 410 L
417.08 410 L
418.9 410 L
420.72 410 L
422.54 410 L
424.36 410 L
426.18 410 L
428 410 L
428.043 410 L
S
GR
GS
[0.60127 0 0 0.60127 0 0.20001] CT
1 LJ
2.5 LW
N
63.957 410 M
64 410 L
65.82 410 L
67.64 410 L
69.46 410 L
71.28 410 L
73.1 410 L
74.92 410 L
76.74 410 L
78.56 410 L
80.38 410 L
82.2 410 L
84.02 410 L
85.84 410 L
87.66 410 L
89.48 410 L
91.3 410 L
93.12 410 L
94.94 410 L
96.76 410 L
98.58 410 L
100.4 410 L
102.22 410 L
104.04 410 L
105.86 410 L
107.68 410 L
109.5 410 L
111.32 410 L
113.14 410 L
114.96 410 L
116.78 410 L
118.6 410 L
120.42 410 L
122.24 410 L
124.06 410 L
125.88 410 L
127.7 410 L
129.52 410 L
131.34 410 L
133.16 410 L
134.98 410 L
136.8 410 L
138.62 410 L
140.44 410 L
142.26 410 L
144.08 410 L
145.9 410 L
147.72 410 L
149.54 410 L
151.36 410 L
153.18 410 L
155 410 L
156.82 410 L
158.64 410 L
160.46 410 L
162.28 410 L
164.1 410 L
165.92 410 L
167.74 410 L
169.56 410 L
171.38 410 L
173.2 410 L
175.02 410 L
176.84 410 L
178.66 410 L
180.48 410 L
182.3 410 L
184.12 410 L
185.94 410 L
187.76 410 L
189.58 410 L
191.4 410 L
193.22 410 L
195.04 410 L
196.86 410 L
198.68 410 L
200.5 410 L
202.32 410 L
204.14 410 L
205.96 410 L
207.78 410 L
209.6 410 L
211.42 410 L
213.24 410 L
215.06 410 L
216.88 410 L
218.7 410 L
220.52 410 L
222.34 410 L
224.16 410 L
225.98 410 L
227.8 410 L
229.62 410 L
231.44 410 L
233.26 390.788 L
235.08 332.729 L
236.9 278.311 L
238.72 227.227 L
240.54 179.172 L
242.36 133.867 L
244.18 91.053 L
246 50.501 L
247.82 91.053 L
249.64 133.867 L
251.46 179.172 L
253.28 227.227 L
255.1 278.311 L
256.92 332.729 L
258.74 390.788 L
260.56 410 L
262.38 410 L
264.2 410 L
266.02 410 L
267.84 410 L
269.66 410 L
271.48 410 L
273.3 410 L
275.12 410 L
276.94 410 L
278.76 410 L
280.58 410 L
282.4 410 L
284.22 410 L
286.04 410 L
287.86 410 L
289.68 410 L
291.5 410 L
293.32 410 L
295.14 410 L
296.96 410 L
298.78 410 L
300.6 410 L
302.42 410 L
304.24 410 L
306.06 410 L
307.88 410 L
309.7 410 L
311.52 410 L
313.34 410 L
315.16 410 L
316.98 410 L
318.8 410 L
320.62 410 L
322.44 410 L
324.26 410 L
326.08 410 L
327.9 410 L
329.72 410 L
331.54 410 L
333.36 410 L
335.18 410 L
337 410 L
338.82 410 L
340.64 410 L
342.46 410 L
344.28 410 L
346.1 410 L
347.92 410 L
349.74 410 L
351.56 410 L
353.38 410 L
355.2 410 L
357.02 410 L
358.84 410 L
360.66 410 L
362.48 410 L
364.3 410 L
366.12 410 L
367.94 410 L
369.76 410 L
371.58 410 L
373.4 410 L
375.22 410 L
377.04 410 L
378.86 410 L
380.68 410 L
382.5 410 L
384.32 410 L
386.14 410 L
387.96 410 L
389.78 410 L
391.6 410 L
393.42 410 L
395.24 410 L
397.06 410 L
398.88 410 L
400.7 410 L
402.52 410 L
404.34 410 L
406.16 410 L
407.98 410 L
409.8 410 L
411.62 410 L
413.44 410 L
415.26 410 L
417.08 410 L
418.9 410 L
420.72 410 L
422.54 410 L
424.36 410 L
426.18 410 L
428 410 L
428.043 410 L
S
GR
GS
[0.60127 0 0 0.60127 0 0.20001] CT
1 GC
N
263 200 M
263 63 L
411 63 L
411 200 L
cp
f
GR
GS
[0.60127 0 0 0.60127 193.2809 47.36591] CT
/Helvetica 20 F
GS
[1 0 0 1 0 0] CT
0 8 moveto 
1 -1 scale
(M = 2) t 
GR
GR
GS
[0.60127 0 0 0.60127 0 0.20001] CT
0 0.447 0.741 RC
1 LJ
2.5 LW
N
267.975 78.444 M
317.723 78.444 L
S
GR
GS
[0.60127 0 0 0.60127 193.2809 63.31654] CT
/Helvetica 20 F
GS
[1 0 0 1 0 0] CT
0 8 moveto 
1 -1 scale
(M = 4) t 
GR
GR
GS
[0.60127 0 0 0.60127 0 0.20001] CT
0.851 0.325 0.098 RC
1 LJ
2.5 LW
N
267.975 104.972 M
317.723 104.972 L
S
GR
GS
[0.60127 0 0 0.60127 193.2809 79.26717] CT
/Helvetica 20 F
GS
[1 0 0 1 0 0] CT
0 8 moveto 
1 -1 scale
(M = 8) t 
GR
GR
GS
[0.60127 0 0 0.60127 0 0.20001] CT
0.929 0.694 0.125 RC
1 LJ
2.5 LW
N
267.975 131.5 M
317.723 131.5 L
S
GR
GS
[0.60127 0 0 0.60127 193.2809 95.2178] CT
/Helvetica 20 F
GS
[1 0 0 1 0 0] CT
0 8 moveto 
1 -1 scale
(M = 16) t 
GR
GR
GS
[0.60127 0 0 0.60127 0 0.20001] CT
0.494 0.184 0.557 RC
1 LJ
2.5 LW
N
267.975 158.028 M
317.723 158.028 L
S
GR
GS
[0.60127 0 0 0.60127 193.2809 111.16843] CT
/Helvetica 20 F
GS
[1 0 0 1 0 0] CT
0 8 moveto 
1 -1 scale
(Gaussian) t 
GR
GR
GS
[0.60127 0 0 0.60127 0 0.20001] CT
1 LJ
2.5 LW
N
267.975 184.556 M
317.723 184.556 L
S
GR
GS
[0.60127 0 0 0.60127 0 0.20001] CT
0.149 GC
10.0 ML
0.833 LW
N
263 200 M
263 63 L
411 63 L
411 200 L
cp
S
GR
%%Trailer
%%Pages: 1
%%EOF
