%!PS-Adobe-3.0 EPSF-3.0
%%Creator: (MATLAB, The Mathworks, Inc. Version 9.2.0.538062 \(R2017a\). Operating System: Windows 8)
%%Title: (C:/Users/chees/Google Drive/TesiMagistrale/latex/figures/CsDegradSmallRectPsk.eps)
%%CreationDate: 2017-06-11T18:15:57
%%Pages: (atend)
%%BoundingBox: 0 0 420 315
%%LanguageLevel: 3
%%EndComments
%%BeginProlog
%%BeginResource: procset (Apache XML Graphics Std ProcSet) 1.2 0
%%Version: 1.2 0
%%Copyright: (Copyright 2001-2003,2010 The Apache Software Foundation. License terms: http://www.apache.org/licenses/LICENSE-2.0)
/bd{bind def}bind def
/ld{load def}bd
/GR/grestore ld
/M/moveto ld
/LJ/setlinejoin ld
/C/curveto ld
/f/fill ld
/LW/setlinewidth ld
/GC/setgray ld
/t/show ld
/N/newpath ld
/CT/concat ld
/cp/closepath ld
/S/stroke ld
/L/lineto ld
/CC/setcmykcolor ld
/A/ashow ld
/GS/gsave ld
/RC/setrgbcolor ld
/RM/rmoveto ld
/ML/setmiterlimit ld
/re {4 2 roll M
1 index 0 rlineto
0 exch rlineto
neg 0 rlineto
cp } bd
/_ctm matrix def
/_tm matrix def
/BT { _ctm currentmatrix pop matrix _tm copy pop 0 0 moveto } bd
/ET { _ctm setmatrix } bd
/iTm { _ctm setmatrix _tm concat } bd
/Tm { _tm astore pop iTm 0 0 moveto } bd
/ux 0.0 def
/uy 0.0 def
/F {
  /Tp exch def
  /Tf exch def
  Tf findfont Tp scalefont setfont
  /cf Tf def  /cs Tp def
} bd
/ULS {currentpoint /uy exch def /ux exch def} bd
/ULE {
  /Tcx currentpoint pop def
  gsave
  newpath
  cf findfont cs scalefont dup
  /FontMatrix get 0 get /Ts exch def /FontInfo get dup
  /UnderlinePosition get Ts mul /To exch def
  /UnderlineThickness get Ts mul /Tt exch def
  ux uy To add moveto  Tcx uy To add lineto
  Tt setlinewidth stroke
  grestore
} bd
/OLE {
  /Tcx currentpoint pop def
  gsave
  newpath
  cf findfont cs scalefont dup
  /FontMatrix get 0 get /Ts exch def /FontInfo get dup
  /UnderlinePosition get Ts mul /To exch def
  /UnderlineThickness get Ts mul /Tt exch def
  ux uy To add cs add moveto Tcx uy To add cs add lineto
  Tt setlinewidth stroke
  grestore
} bd
/SOE {
  /Tcx currentpoint pop def
  gsave
  newpath
  cf findfont cs scalefont dup
  /FontMatrix get 0 get /Ts exch def /FontInfo get dup
  /UnderlinePosition get Ts mul /To exch def
  /UnderlineThickness get Ts mul /Tt exch def
  ux uy To add cs 10 mul 26 idiv add moveto Tcx uy To add cs 10 mul 26 idiv add lineto
  Tt setlinewidth stroke
  grestore
} bd
/QT {
/Y22 exch store
/X22 exch store
/Y21 exch store
/X21 exch store
currentpoint
/Y21 load 2 mul add 3 div exch
/X21 load 2 mul add 3 div exch
/X21 load 2 mul /X22 load add 3 div
/Y21 load 2 mul /Y22 load add 3 div
/X22 load /Y22 load curveto
} bd
/SSPD {
dup length /d exch dict def
{
/v exch def
/k exch def
currentpagedevice k known {
/cpdv currentpagedevice k get def
v cpdv ne {
/upd false def
/nullv v type /nulltype eq def
/nullcpdv cpdv type /nulltype eq def
nullv nullcpdv or
{
/upd true def
} {
/sametype v type cpdv type eq def
sametype {
v type /arraytype eq {
/vlen v length def
/cpdvlen cpdv length def
vlen cpdvlen eq {
0 1 vlen 1 sub {
/i exch def
/obj v i get def
/cpdobj cpdv i get def
obj cpdobj ne {
/upd true def
exit
} if
} for
} {
/upd true def
} ifelse
} {
v type /dicttype eq {
v {
/dv exch def
/dk exch def
/cpddv cpdv dk get def
dv cpddv ne {
/upd true def
exit
} if
} forall
} {
/upd true def
} ifelse
} ifelse
} if
} ifelse
upd true eq {
d k v put
} if
} if
} if
} forall
d length 0 gt {
d setpagedevice
} if
} bd
/RE { % /NewFontName [NewEncodingArray] /FontName RE -
  findfont dup length dict begin
  {
    1 index /FID ne
    {def} {pop pop} ifelse
  } forall
  /Encoding exch def
  /FontName 1 index def
  currentdict definefont pop
  end
} bind def
%%EndResource
%%BeginResource: procset (Apache XML Graphics EPS ProcSet) 1.0 0
%%Version: 1.0 0
%%Copyright: (Copyright 2002-2003 The Apache Software Foundation. License terms: http://www.apache.org/licenses/LICENSE-2.0)
/BeginEPSF { %def
/b4_Inc_state save def         % Save state for cleanup
/dict_count countdictstack def % Count objects on dict stack
/op_count count 1 sub def      % Count objects on operand stack
userdict begin                 % Push userdict on dict stack
/showpage { } def              % Redefine showpage, { } = null proc
0 setgray 0 setlinecap         % Prepare graphics state
1 setlinewidth 0 setlinejoin
10 setmiterlimit [ ] 0 setdash newpath
/languagelevel where           % If level not equal to 1 then
{pop languagelevel             % set strokeadjust and
1 ne                           % overprint to their defaults.
{false setstrokeadjust false setoverprint
} if
} if
} bd
/EndEPSF { %def
count op_count sub {pop} repeat            % Clean up stacks
countdictstack dict_count sub {end} repeat
b4_Inc_state restore
} bd
%%EndResource
%FOPBeginFontDict
%%IncludeResource: font Courier-Bold
%%IncludeResource: font Helvetica
%%IncludeResource: font Courier-BoldOblique
%%IncludeResource: font Courier-Oblique
%%IncludeResource: font Times-Roman
%%IncludeResource: font Helvetica-BoldOblique
%%IncludeResource: font Helvetica-Bold
%%IncludeResource: font Helvetica-Oblique
%%IncludeResource: font Times-BoldItalic
%%IncludeResource: font Courier
%%IncludeResource: font Times-Italic
%%IncludeResource: font Times-Bold
%%IncludeResource: font Symbol
%%IncludeResource: font ZapfDingbats
%FOPEndFontDict
%%BeginResource: encoding WinAnsiEncoding
/WinAnsiEncoding [
/.notdef /.notdef /.notdef /.notdef /.notdef
/.notdef /.notdef /.notdef /.notdef /.notdef
/.notdef /.notdef /.notdef /.notdef /.notdef
/.notdef /.notdef /.notdef /.notdef /.notdef
/.notdef /.notdef /.notdef /.notdef /.notdef
/.notdef /.notdef /.notdef /.notdef /.notdef
/.notdef /.notdef /space /exclam /quotedbl
/numbersign /dollar /percent /ampersand /quotesingle
/parenleft /parenright /asterisk /plus /comma
/hyphen /period /slash /zero /one
/two /three /four /five /six
/seven /eight /nine /colon /semicolon
/less /equal /greater /question /at
/A /B /C /D /E
/F /G /H /I /J
/K /L /M /N /O
/P /Q /R /S /T
/U /V /W /X /Y
/Z /bracketleft /backslash /bracketright /asciicircum
/underscore /quoteleft /a /b /c
/d /e /f /g /h
/i /j /k /l /m
/n /o /p /q /r
/s /t /u /v /w
/x /y /z /braceleft /bar
/braceright /asciitilde /bullet /Euro /bullet
/quotesinglbase /florin /quotedblbase /ellipsis /dagger
/daggerdbl /circumflex /perthousand /Scaron /guilsinglleft
/OE /bullet /Zcaron /bullet /bullet
/quoteleft /quoteright /quotedblleft /quotedblright /bullet
/endash /emdash /asciitilde /trademark /scaron
/guilsinglright /oe /bullet /zcaron /Ydieresis
/space /exclamdown /cent /sterling /currency
/yen /brokenbar /section /dieresis /copyright
/ordfeminine /guillemotleft /logicalnot /sfthyphen /registered
/macron /degree /plusminus /twosuperior /threesuperior
/acute /mu /paragraph /middot /cedilla
/onesuperior /ordmasculine /guillemotright /onequarter /onehalf
/threequarters /questiondown /Agrave /Aacute /Acircumflex
/Atilde /Adieresis /Aring /AE /Ccedilla
/Egrave /Eacute /Ecircumflex /Edieresis /Igrave
/Iacute /Icircumflex /Idieresis /Eth /Ntilde
/Ograve /Oacute /Ocircumflex /Otilde /Odieresis
/multiply /Oslash /Ugrave /Uacute /Ucircumflex
/Udieresis /Yacute /Thorn /germandbls /agrave
/aacute /acircumflex /atilde /adieresis /aring
/ae /ccedilla /egrave /eacute /ecircumflex
/edieresis /igrave /iacute /icircumflex /idieresis
/eth /ntilde /ograve /oacute /ocircumflex
/otilde /odieresis /divide /oslash /ugrave
/uacute /ucircumflex /udieresis /yacute /thorn
/ydieresis
] def
%%EndResource
%FOPBeginFontReencode
/Courier-Bold findfont
dup length dict begin
  {1 index /FID ne {def} {pop pop} ifelse} forall
  /Encoding WinAnsiEncoding def
  currentdict
end
/Courier-Bold exch definefont pop
/Helvetica findfont
dup length dict begin
  {1 index /FID ne {def} {pop pop} ifelse} forall
  /Encoding WinAnsiEncoding def
  currentdict
end
/Helvetica exch definefont pop
/Courier-BoldOblique findfont
dup length dict begin
  {1 index /FID ne {def} {pop pop} ifelse} forall
  /Encoding WinAnsiEncoding def
  currentdict
end
/Courier-BoldOblique exch definefont pop
/Courier-Oblique findfont
dup length dict begin
  {1 index /FID ne {def} {pop pop} ifelse} forall
  /Encoding WinAnsiEncoding def
  currentdict
end
/Courier-Oblique exch definefont pop
/Times-Roman findfont
dup length dict begin
  {1 index /FID ne {def} {pop pop} ifelse} forall
  /Encoding WinAnsiEncoding def
  currentdict
end
/Times-Roman exch definefont pop
/Helvetica-BoldOblique findfont
dup length dict begin
  {1 index /FID ne {def} {pop pop} ifelse} forall
  /Encoding WinAnsiEncoding def
  currentdict
end
/Helvetica-BoldOblique exch definefont pop
/Helvetica-Bold findfont
dup length dict begin
  {1 index /FID ne {def} {pop pop} ifelse} forall
  /Encoding WinAnsiEncoding def
  currentdict
end
/Helvetica-Bold exch definefont pop
/Helvetica-Oblique findfont
dup length dict begin
  {1 index /FID ne {def} {pop pop} ifelse} forall
  /Encoding WinAnsiEncoding def
  currentdict
end
/Helvetica-Oblique exch definefont pop
/Times-BoldItalic findfont
dup length dict begin
  {1 index /FID ne {def} {pop pop} ifelse} forall
  /Encoding WinAnsiEncoding def
  currentdict
end
/Times-BoldItalic exch definefont pop
/Courier findfont
dup length dict begin
  {1 index /FID ne {def} {pop pop} ifelse} forall
  /Encoding WinAnsiEncoding def
  currentdict
end
/Courier exch definefont pop
/Times-Italic findfont
dup length dict begin
  {1 index /FID ne {def} {pop pop} ifelse} forall
  /Encoding WinAnsiEncoding def
  currentdict
end
/Times-Italic exch definefont pop
/Times-Bold findfont
dup length dict begin
  {1 index /FID ne {def} {pop pop} ifelse} forall
  /Encoding WinAnsiEncoding def
  currentdict
end
/Times-Bold exch definefont pop
%FOPEndFontReencode
%%EndProlog
%%Page: 1 1
%%PageBoundingBox: 0 0 420 315
%%BeginPageSetup
[1 0 0 -1 0 315] CT
%%EndPageSetup
GS
[0.6 0 0 0.6 0 0] CT
1 GC
N
0 0 700 525 re
f
GR
GS
[0.6 0 0 0.6 0 0] CT
1 GC
N
0 0 700 525 re
f
GR
GS
[0.6 0 0 0.6 0 0] CT
1 GC
N
91 467 M
634 467 L
634 39 L
91 39 L
cp
f
GR
GS
[0.6 0 0 0.6 0 0] CT
0.873 GC
1 LJ
0.833 LW
N
91 467 M
91 39 L
S
GR
GS
[0.6 0 0 0.6 0 0] CT
0.873 GC
1 LJ
0.833 LW
N
145.3 467 M
145.3 39 L
S
GR
GS
[0.6 0 0 0.6 0 0] CT
0.873 GC
1 LJ
0.833 LW
N
199.6 467 M
199.6 39 L
S
GR
GS
[0.6 0 0 0.6 0 0] CT
0.873 GC
1 LJ
0.833 LW
N
253.9 467 M
253.9 39 L
S
GR
GS
[0.6 0 0 0.6 0 0] CT
0.873 GC
1 LJ
0.833 LW
N
308.2 467 M
308.2 39 L
S
GR
GS
[0.6 0 0 0.6 0 0] CT
0.873 GC
1 LJ
0.833 LW
N
362.5 467 M
362.5 39 L
S
GR
GS
[0.6 0 0 0.6 0 0] CT
0.873 GC
1 LJ
0.833 LW
N
416.8 467 M
416.8 39 L
S
GR
GS
[0.6 0 0 0.6 0 0] CT
0.873 GC
1 LJ
0.833 LW
N
471.1 467 M
471.1 39 L
S
GR
GS
[0.6 0 0 0.6 0 0] CT
0.873 GC
1 LJ
0.833 LW
N
525.4 467 M
525.4 39 L
S
GR
GS
[0.6 0 0 0.6 0 0] CT
0.873 GC
1 LJ
0.833 LW
N
579.7 467 M
579.7 39 L
S
GR
GS
[0.6 0 0 0.6 0 0] CT
0.873 GC
1 LJ
0.833 LW
N
634 467 M
634 39 L
S
GR
GS
[0.6 0 0 0.6 0 0] CT
0.873 GC
1 LJ
0.833 LW
N
634 467 M
91 467 L
S
GR
GS
[0.6 0 0 0.6 0 0] CT
0.873 GC
1 LJ
0.833 LW
N
634 419.444 M
91 419.444 L
S
GR
GS
[0.6 0 0 0.6 0 0] CT
0.873 GC
1 LJ
0.833 LW
N
634 371.889 M
91 371.889 L
S
GR
GS
[0.6 0 0 0.6 0 0] CT
0.873 GC
1 LJ
0.833 LW
N
634 324.333 M
91 324.333 L
S
GR
GS
[0.6 0 0 0.6 0 0] CT
0.873 GC
1 LJ
0.833 LW
N
634 276.778 M
91 276.778 L
S
GR
GS
[0.6 0 0 0.6 0 0] CT
0.873 GC
1 LJ
0.833 LW
N
634 229.222 M
91 229.222 L
S
GR
GS
[0.6 0 0 0.6 0 0] CT
0.873 GC
1 LJ
0.833 LW
N
634 181.667 M
91 181.667 L
S
GR
GS
[0.6 0 0 0.6 0 0] CT
0.873 GC
1 LJ
0.833 LW
N
634 134.111 M
91 134.111 L
S
GR
GS
[0.6 0 0 0.6 0 0] CT
0.873 GC
1 LJ
0.833 LW
N
634 86.556 M
91 86.556 L
S
GR
GS
[0.6 0 0 0.6 0 0] CT
0.873 GC
1 LJ
0.833 LW
N
634 39 M
91 39 L
S
GR
GS
[0.6 0 0 0.6 0 0] CT
0.149 GC
2 setlinecap
1 LJ
0.833 LW
N
91 467 M
634 467 L
S
GR
GS
[0.6 0 0 0.6 0 0] CT
0.149 GC
2 setlinecap
1 LJ
0.833 LW
N
91 467 M
91 461.57 L
S
GR
GS
[0.6 0 0 0.6 0 0] CT
0.149 GC
2 setlinecap
1 LJ
0.833 LW
N
145.3 467 M
145.3 461.57 L
S
GR
GS
[0.6 0 0 0.6 0 0] CT
0.149 GC
2 setlinecap
1 LJ
0.833 LW
N
199.6 467 M
199.6 461.57 L
S
GR
GS
[0.6 0 0 0.6 0 0] CT
0.149 GC
2 setlinecap
1 LJ
0.833 LW
N
253.9 467 M
253.9 461.57 L
S
GR
GS
[0.6 0 0 0.6 0 0] CT
0.149 GC
2 setlinecap
1 LJ
0.833 LW
N
308.2 467 M
308.2 461.57 L
S
GR
GS
[0.6 0 0 0.6 0 0] CT
0.149 GC
2 setlinecap
1 LJ
0.833 LW
N
362.5 467 M
362.5 461.57 L
S
GR
GS
[0.6 0 0 0.6 0 0] CT
0.149 GC
2 setlinecap
1 LJ
0.833 LW
N
416.8 467 M
416.8 461.57 L
S
GR
GS
[0.6 0 0 0.6 0 0] CT
0.149 GC
2 setlinecap
1 LJ
0.833 LW
N
471.1 467 M
471.1 461.57 L
S
GR
GS
[0.6 0 0 0.6 0 0] CT
0.149 GC
2 setlinecap
1 LJ
0.833 LW
N
525.4 467 M
525.4 461.57 L
S
GR
GS
[0.6 0 0 0.6 0 0] CT
0.149 GC
2 setlinecap
1 LJ
0.833 LW
N
579.7 467 M
579.7 461.57 L
S
GR
GS
[0.6 0 0 0.6 0 0] CT
0.149 GC
2 setlinecap
1 LJ
0.833 LW
N
634 467 M
634 461.57 L
S
GR
GS
[0.6 0 0 0.6 54.6 284.19999] CT
0.149 GC
/Helvetica 16.667 F
GS
[1 0 0 1 0 0] CT
-8 18 moveto 
1 -1 scale
(-1) t 
GR
GR
GS
[0.6 0 0 0.6 87.18 284.19999] CT
0.149 GC
/Helvetica 16.667 F
GS
[1 0 0 1 0 0] CT
-15 18 moveto 
1 -1 scale
(-0.8) t 
GR
GR
GS
[0.6 0 0 0.6 119.75999 284.19999] CT
0.149 GC
/Helvetica 16.667 F
GS
[1 0 0 1 0 0] CT
-15 18 moveto 
1 -1 scale
(-0.6) t 
GR
GR
GS
[0.6 0 0 0.6 152.34 284.19999] CT
0.149 GC
/Helvetica 16.667 F
GS
[1 0 0 1 0 0] CT
-15 18 moveto 
1 -1 scale
(-0.4) t 
GR
GR
GS
[0.6 0 0 0.6 184.92001 284.19999] CT
0.149 GC
/Helvetica 16.667 F
GS
[1 0 0 1 0 0] CT
-15 18 moveto 
1 -1 scale
(-0.2) t 
GR
GR
GS
[0.6 0 0 0.6 217.5 284.19999] CT
0.149 GC
/Helvetica 16.667 F
GS
[1 0 0 1 0 0] CT
-5 18 moveto 
1 -1 scale
(0) t 
GR
GR
GS
[0.6 0 0 0.6 250.07999 284.19999] CT
0.149 GC
/Helvetica 16.667 F
GS
[1 0 0 1 0 0] CT
-12 18 moveto 
1 -1 scale
(0.2) t 
GR
GR
GS
[0.6 0 0 0.6 282.66 284.19999] CT
0.149 GC
/Helvetica 16.667 F
GS
[1 0 0 1 0 0] CT
-12 18 moveto 
1 -1 scale
(0.4) t 
GR
GR
GS
[0.6 0 0 0.6 315.24001 284.19999] CT
0.149 GC
/Helvetica 16.667 F
GS
[1 0 0 1 0 0] CT
-12 18 moveto 
1 -1 scale
(0.6) t 
GR
GR
GS
[0.6 0 0 0.6 347.82001 284.19999] CT
0.149 GC
/Helvetica 16.667 F
GS
[1 0 0 1 0 0] CT
-12 18 moveto 
1 -1 scale
(0.8) t 
GR
GR
GS
[0.6 0 0 0.6 380.4 284.19999] CT
0.149 GC
/Helvetica 16.667 F
GS
[1 0 0 1 0 0] CT
-5 18 moveto 
1 -1 scale
(1) t 
GR
GR
GS
[0.6 0 0 0.6 217.50015 298.40001] CT
0.149 GC
N
-18.676 16.35 M
-18.676 17.131 -18.395 17.795 QT
-18.113 18.459 -17.543 18.858 QT
-16.973 19.256 -16.207 19.256 QT
-15.692 19.256 -15.113 19.03 QT
-14.535 18.803 -14.035 18.53 QT
-13.535 18.256 -13.52 18.256 QT
-13.395 18.256 -13.324 18.397 QT
-13.254 18.537 -13.254 18.678 QT
-13.254 18.803 -13.317 18.834 QT
-14.754 19.866 -16.238 19.866 QT
-17.457 19.866 -18.434 19.295 QT
-19.41 18.725 -19.942 17.717 QT
-20.473 16.709 -20.473 15.506 QT
-20.473 14.303 -19.988 13.233 QT
-19.504 12.162 -18.653 11.366 QT
-17.801 10.569 -16.723 10.123 QT
-15.645 9.678 -14.457 9.678 QT
-13.16 9.678 L
-12.817 9.678 -12.817 10.037 QT
-12.817 10.225 -12.942 10.358 QT
-13.067 10.491 -13.254 10.491 QT
-14.504 10.491 L
-15.426 10.491 -16.176 10.897 QT
-16.926 11.303 -17.426 12.022 QT
-17.926 12.741 -18.207 13.647 QT
-14.145 13.647 L
-13.988 13.647 -13.895 13.741 QT
-13.801 13.834 -13.801 13.991 QT
-13.801 14.178 -13.926 14.311 QT
-14.051 14.444 -14.238 14.444 QT
-18.426 14.444 L
-18.676 15.631 -18.676 16.35 QT
cp
f
GR
GS
[0.6 0 0 0.6 217.50015 298.40001] CT
0.149 GC
N
-10.736 24.897 M
-10.736 24.819 -10.72 24.803 QT
-2.72 2.631 L
-2.674 2.491 -2.564 2.42 QT
-2.455 2.35 -2.314 2.35 QT
-2.111 2.35 -1.978 2.475 QT
-1.845 2.6 -1.845 2.803 QT
-1.845 2.897 L
-9.845 25.069 L
-9.97 25.35 -10.283 25.35 QT
-10.47 25.35 -10.603 25.217 QT
-10.736 25.084 -10.736 24.897 QT
cp
f
GR
GS
[0.6 0 0 0.6 217.50015 298.40001] CT
0.149 GC
N
0.696 19.303 M
0.696 19.241 0.735 19.092 QT
0.774 18.944 0.837 18.866 QT
0.899 18.787 1.009 18.787 QT
2.993 18.787 3.634 18.678 QT
4.243 18.522 4.368 18.022 QT
7.524 5.381 L
7.618 5.1 7.618 4.881 QT
7.618 4.694 6.806 4.694 QT
5.477 4.694 L
3.931 4.694 3.095 5.17 QT
2.259 5.647 1.868 6.42 QT
1.477 7.194 0.852 8.959 QT
0.774 9.162 0.618 9.162 QT
0.415 9.162 L
0.181 9.162 0.181 8.866 QT
1.821 4.1 L
1.868 3.881 2.056 3.881 QT
15.634 3.881 L
15.868 3.881 15.868 4.194 QT
15.102 8.959 L
15.102 9.022 15.024 9.092 QT
14.946 9.162 14.884 9.162 QT
14.665 9.162 L
14.446 9.162 14.446 8.866 QT
14.696 7.241 14.696 6.569 QT
14.696 5.756 14.36 5.342 QT
14.024 4.928 13.485 4.811 QT
12.946 4.694 12.071 4.694 QT
10.712 4.694 L
10.102 4.694 9.892 4.811 QT
9.681 4.928 9.524 5.491 QT
6.368 18.1 L
6.368 18.147 6.36 18.194 QT
6.352 18.241 6.321 18.303 QT
6.321 18.6 6.681 18.678 QT
7.274 18.787 9.227 18.787 QT
9.446 18.787 9.446 19.1 QT
9.368 19.412 9.321 19.506 QT
9.274 19.6 9.071 19.6 QT
0.931 19.6 L
0.696 19.6 0.696 19.303 QT
cp
f
GR
GS
[0.6 0 0 0.6 217.50015 298.40001] CT
0.149 GC
N
15.144 21.194 M
15.144 21.881 15.503 22.366 QT
15.863 22.85 16.519 22.85 QT
17.472 22.85 18.355 22.412 QT
19.238 21.975 19.785 21.209 QT
19.832 21.162 19.91 21.162 QT
19.988 21.162 20.074 21.248 QT
20.16 21.334 20.16 21.412 QT
20.16 21.475 20.128 21.506 QT
19.535 22.334 18.543 22.811 QT
17.55 23.287 16.488 23.287 QT
15.722 23.287 15.136 22.92 QT
14.55 22.553 14.23 21.944 QT
13.91 21.334 13.91 20.569 QT
13.91 19.491 14.511 18.428 QT
15.113 17.366 16.113 16.694 QT
17.113 16.022 18.222 16.022 QT
18.941 16.022 19.511 16.373 QT
20.082 16.725 20.082 17.397 QT
20.082 17.834 19.832 18.147 QT
19.582 18.459 19.144 18.459 QT
18.894 18.459 18.714 18.295 QT
18.535 18.131 18.535 17.881 QT
18.535 17.506 18.808 17.241 QT
19.082 16.975 19.457 16.975 QT
19.488 16.975 L
19.3 16.694 18.941 16.569 QT
18.582 16.444 18.207 16.444 QT
17.269 16.444 16.566 17.241 QT
15.863 18.037 15.503 19.155 QT
15.144 20.272 15.144 21.194 QT
cp
f
GR
GS
[0.6 0 0 0.6 0 0] CT
0.149 GC
2 setlinecap
1 LJ
0.833 LW
N
91 467 M
91 39 L
S
GR
GS
[0.6 0 0 0.6 0 0] CT
0.149 GC
2 setlinecap
1 LJ
0.833 LW
N
91 467 M
96.43 467 L
S
GR
GS
[0.6 0 0 0.6 0 0] CT
0.149 GC
2 setlinecap
1 LJ
0.833 LW
N
91 419.444 M
96.43 419.444 L
S
GR
GS
[0.6 0 0 0.6 0 0] CT
0.149 GC
2 setlinecap
1 LJ
0.833 LW
N
91 371.889 M
96.43 371.889 L
S
GR
GS
[0.6 0 0 0.6 0 0] CT
0.149 GC
2 setlinecap
1 LJ
0.833 LW
N
91 324.333 M
96.43 324.333 L
S
GR
GS
[0.6 0 0 0.6 0 0] CT
0.149 GC
2 setlinecap
1 LJ
0.833 LW
N
91 276.778 M
96.43 276.778 L
S
GR
GS
[0.6 0 0 0.6 0 0] CT
0.149 GC
2 setlinecap
1 LJ
0.833 LW
N
91 229.222 M
96.43 229.222 L
S
GR
GS
[0.6 0 0 0.6 0 0] CT
0.149 GC
2 setlinecap
1 LJ
0.833 LW
N
91 181.667 M
96.43 181.667 L
S
GR
GS
[0.6 0 0 0.6 0 0] CT
0.149 GC
2 setlinecap
1 LJ
0.833 LW
N
91 134.111 M
96.43 134.111 L
S
GR
GS
[0.6 0 0 0.6 0 0] CT
0.149 GC
2 setlinecap
1 LJ
0.833 LW
N
91 86.556 M
96.43 86.556 L
S
GR
GS
[0.6 0 0 0.6 0 0] CT
0.149 GC
2 setlinecap
1 LJ
0.833 LW
N
91 39 M
96.43 39 L
S
GR
GS
[0.6 0 0 0.6 50.6 280.2] CT
0.149 GC
/Helvetica 16.667 F
GS
[1 0 0 1 0 0] CT
-10 7 moveto 
1 -1 scale
(0) t 
GR
GR
GS
[0.6 0 0 0.6 50.6 251.66667] CT
0.149 GC
/Helvetica 16.667 F
GS
[1 0 0 1 0 0] CT
-24 7 moveto 
1 -1 scale
(0.1) t 
GR
GR
GS
[0.6 0 0 0.6 50.6 223.13333] CT
0.149 GC
/Helvetica 16.667 F
GS
[1 0 0 1 0 0] CT
-24 7 moveto 
1 -1 scale
(0.2) t 
GR
GR
GS
[0.6 0 0 0.6 50.6 194.59999] CT
0.149 GC
/Helvetica 16.667 F
GS
[1 0 0 1 0 0] CT
-24 7 moveto 
1 -1 scale
(0.3) t 
GR
GR
GS
[0.6 0 0 0.6 50.6 166.06666] CT
0.149 GC
/Helvetica 16.667 F
GS
[1 0 0 1 0 0] CT
-24 7 moveto 
1 -1 scale
(0.4) t 
GR
GR
GS
[0.6 0 0 0.6 50.6 137.53334] CT
0.149 GC
/Helvetica 16.667 F
GS
[1 0 0 1 0 0] CT
-24 7 moveto 
1 -1 scale
(0.5) t 
GR
GR
GS
[0.6 0 0 0.6 50.6 108.99999] CT
0.149 GC
/Helvetica 16.667 F
GS
[1 0 0 1 0 0] CT
-24 7 moveto 
1 -1 scale
(0.6) t 
GR
GR
GS
[0.6 0 0 0.6 50.6 80.46667] CT
0.149 GC
/Helvetica 16.667 F
GS
[1 0 0 1 0 0] CT
-24 7 moveto 
1 -1 scale
(0.7) t 
GR
GR
GS
[0.6 0 0 0.6 50.6 51.93333] CT
0.149 GC
/Helvetica 16.667 F
GS
[1 0 0 1 0 0] CT
-24 7 moveto 
1 -1 scale
(0.8) t 
GR
GR
GS
[0.6 0 0 0.6 50.6 23.40001] CT
0.149 GC
/Helvetica 16.667 F
GS
[1 0 0 1 0 0] CT
-24 7 moveto 
1 -1 scale
(0.9) t 
GR
GR
GS
[0 -0.6 0.6 0 33.19999 151.79988] CT
0.149 GC
N
-66.72 -13.369 M
-66.72 -11.978 -66.189 -10.931 QT
-65.658 -9.884 -64.642 -9.291 QT
-63.626 -8.697 -62.236 -8.697 QT
-60.798 -8.697 -59.454 -9.439 QT
-58.111 -10.181 -57.158 -11.424 QT
-56.204 -12.666 -55.861 -14.056 QT
-55.814 -14.197 -55.689 -14.197 QT
-55.408 -14.197 L
-55.314 -14.197 -55.259 -14.134 QT
-55.204 -14.072 -55.204 -13.994 QT
-55.204 -13.978 -55.22 -13.931 QT
-55.611 -12.338 -56.743 -10.939 QT
-57.876 -9.541 -59.447 -8.72 QT
-61.017 -7.9 -62.673 -7.9 QT
-64.47 -7.9 -65.9 -8.705 QT
-67.329 -9.509 -68.118 -10.947 QT
-68.908 -12.384 -68.908 -14.197 QT
-68.908 -16.134 -68.048 -18.025 QT
-67.189 -19.916 -65.728 -21.392 QT
-64.267 -22.869 -62.392 -23.744 QT
-60.517 -24.619 -58.595 -24.619 QT
-57.845 -24.619 -57.142 -24.384 QT
-56.439 -24.15 -55.845 -23.681 QT
-55.251 -23.213 -54.876 -22.603 QT
-53.048 -24.572 L
-53.048 -24.619 -52.939 -24.619 QT
-52.814 -24.619 L
-52.72 -24.619 -52.665 -24.541 QT
-52.611 -24.463 -52.611 -24.384 QT
-54.173 -18.166 L
-54.173 -18.009 -54.345 -18.009 QT
-54.767 -18.009 L
-54.939 -18.009 -54.939 -18.275 QT
-54.845 -18.775 -54.845 -19.478 QT
-54.845 -20.603 -55.228 -21.603 QT
-55.611 -22.603 -56.415 -23.205 QT
-57.22 -23.806 -58.376 -23.806 QT
-60.251 -23.806 -61.814 -22.861 QT
-63.376 -21.916 -64.462 -20.384 QT
-65.548 -18.853 -66.134 -16.986 QT
-66.72 -15.119 -66.72 -13.369 QT
cp
f
GR
GS
[0 -0.6 0.6 0 33.19999 151.79988] CT
0.149 GC
N
-52.012 -5.884 M
-51.574 -5.15 -50.278 -5.15 QT
-49.715 -5.15 -49.207 -5.338 QT
-48.699 -5.525 -48.371 -5.908 QT
-48.043 -6.291 -48.043 -6.838 QT
-48.043 -7.259 -48.34 -7.525 QT
-48.637 -7.791 -49.059 -7.884 QT
-49.934 -8.056 L
-50.528 -8.197 -50.91 -8.603 QT
-51.293 -9.009 -51.293 -9.588 QT
-51.293 -10.306 -50.903 -10.853 QT
-50.512 -11.4 -49.879 -11.689 QT
-49.246 -11.978 -48.574 -11.978 QT
-47.84 -11.978 -47.27 -11.627 QT
-46.699 -11.275 -46.699 -10.603 QT
-46.699 -10.228 -46.903 -9.947 QT
-47.106 -9.666 -47.481 -9.666 QT
-47.684 -9.666 -47.84 -9.806 QT
-47.996 -9.947 -47.996 -10.15 QT
-47.996 -10.338 -47.887 -10.517 QT
-47.778 -10.697 -47.606 -10.799 QT
-47.434 -10.9 -47.246 -10.9 QT
-47.387 -11.244 -47.77 -11.4 QT
-48.153 -11.556 -48.606 -11.556 QT
-49.012 -11.556 -49.418 -11.392 QT
-49.824 -11.228 -50.067 -10.916 QT
-50.309 -10.603 -50.309 -10.166 QT
-50.309 -9.884 -50.106 -9.666 QT
-49.903 -9.447 -49.606 -9.353 QT
-48.684 -9.166 L
-48.231 -9.072 -47.863 -8.83 QT
-47.496 -8.588 -47.278 -8.228 QT
-47.059 -7.869 -47.059 -7.4 QT
-47.059 -6.806 -47.395 -6.228 QT
-47.731 -5.65 -48.215 -5.306 QT
-49.059 -4.713 -50.293 -4.713 QT
-51.153 -4.713 -51.863 -5.111 QT
-52.574 -5.509 -52.574 -6.275 QT
-52.574 -6.713 -52.317 -7.041 QT
-52.059 -7.369 -51.621 -7.369 QT
-51.371 -7.369 -51.192 -7.213 QT
-51.012 -7.056 -51.012 -6.791 QT
-51.012 -6.431 -51.285 -6.158 QT
-51.559 -5.884 -51.934 -5.884 QT
-52.012 -5.884 L
cp
f
GR
GS
[0 -0.6 0.6 0 33.19999 151.79988] CT
0.149 GC
N
-34.083 -2.65 M
-34.083 -25.65 L
-30.942 -25.65 L
-30.942 -24.728 L
-33.161 -24.728 L
-33.161 -3.572 L
-30.942 -3.572 L
-30.942 -2.65 L
-34.083 -2.65 L
cp
f
GR
GS
[0 -0.6 0.6 0 33.19999 151.79988] CT
0.149 GC
N
-26.352 -8.134 M
-27.742 -8.134 -28.516 -9.228 QT
-29.289 -10.322 -29.289 -11.775 QT
-29.289 -11.994 -29.18 -12.619 QT
-29.07 -13.244 -29.07 -13.384 QT
-26.852 -22.322 L
-26.758 -22.713 -26.742 -22.931 QT
-26.742 -23.306 -28.227 -23.306 QT
-28.461 -23.306 -28.461 -23.603 QT
-28.445 -23.666 -28.406 -23.806 QT
-28.367 -23.947 -28.305 -24.033 QT
-28.242 -24.119 -28.133 -24.119 QT
-25.023 -24.353 L
-24.742 -24.353 -24.742 -24.072 QT
-26.461 -17.291 L
-25.148 -18.556 -23.836 -18.556 QT
-22.852 -18.556 -22.148 -18.041 QT
-21.445 -17.525 -21.102 -16.689 QT
-20.758 -15.853 -20.758 -14.884 QT
-20.758 -13.775 -21.188 -12.595 QT
-21.617 -11.416 -22.383 -10.4 QT
-23.148 -9.384 -24.172 -8.759 QT
-25.195 -8.134 -26.352 -8.134 QT
cp
-26.305 -8.744 M
-25.508 -8.744 -24.828 -9.4 QT
-24.148 -10.056 -23.711 -10.884 QT
-23.258 -11.806 -22.859 -13.384 QT
-22.461 -14.963 -22.461 -15.9 QT
-22.461 -16.728 -22.805 -17.345 QT
-23.148 -17.963 -23.883 -17.963 QT
-24.711 -17.963 -25.469 -17.353 QT
-26.227 -16.744 -26.805 -15.9 QT
-27.445 -13.291 L
-27.82 -11.853 -27.836 -10.978 QT
-27.836 -10.103 -27.461 -9.424 QT
-27.086 -8.744 -26.305 -8.744 QT
cp
f
GR
GS
[0 -0.6 0.6 0 33.19999 151.79988] CT
0.149 GC
N
-18.51 -10.056 M
-18.51 -10.478 -18.322 -10.947 QT
-16.463 -15.9 L
-16.166 -16.744 -16.166 -17.291 QT
-16.166 -17.963 -16.666 -17.963 QT
-17.572 -17.963 -18.166 -17.025 QT
-18.76 -16.088 -19.041 -14.931 QT
-19.088 -14.791 -19.228 -14.791 QT
-19.494 -14.791 L
-19.682 -14.791 -19.682 -15.009 QT
-19.682 -15.072 L
-19.322 -16.447 -18.557 -17.502 QT
-17.791 -18.556 -16.619 -18.556 QT
-15.807 -18.556 -15.236 -18.017 QT
-14.666 -17.478 -14.666 -16.65 QT
-14.666 -16.228 -14.853 -15.759 QT
-16.728 -10.822 L
-17.041 -10.056 -17.041 -9.431 QT
-17.041 -8.744 -16.51 -8.744 QT
-15.619 -8.744 -15.017 -9.705 QT
-14.416 -10.666 -14.166 -11.775 QT
-14.119 -11.916 -13.978 -11.916 QT
-13.697 -11.916 L
-13.619 -11.916 -13.557 -11.853 QT
-13.494 -11.791 -13.494 -11.713 QT
-13.494 -11.697 -13.525 -11.65 QT
-13.838 -10.338 -14.619 -9.236 QT
-15.4 -8.134 -16.557 -8.134 QT
-17.369 -8.134 -17.939 -8.697 QT
-18.51 -9.259 -18.51 -10.056 QT
cp
-15.916 -22.338 M
-15.916 -22.822 -15.51 -23.213 QT
-15.103 -23.603 -14.619 -23.603 QT
-14.228 -23.603 -13.978 -23.361 QT
-13.728 -23.119 -13.728 -22.759 QT
-13.728 -22.244 -14.135 -21.853 QT
-14.541 -21.463 -15.041 -21.463 QT
-15.416 -21.463 -15.666 -21.713 QT
-15.916 -21.963 -15.916 -22.338 QT
cp
f
GR
GS
[0 -0.6 0.6 0 33.19999 151.79988] CT
0.149 GC
N
-10.846 -10.259 M
-10.846 -10.603 -10.768 -10.9 QT
-9.112 -17.509 L
-11.533 -17.509 L
-11.768 -17.509 -11.768 -17.806 QT
-11.674 -18.322 -11.455 -18.322 QT
-8.908 -18.322 L
-7.987 -22.072 L
-7.893 -22.369 -7.627 -22.58 QT
-7.362 -22.791 -7.018 -22.791 QT
-6.737 -22.791 -6.533 -22.619 QT
-6.33 -22.447 -6.33 -22.15 QT
-6.33 -22.088 -6.338 -22.049 QT
-6.346 -22.009 -6.362 -21.963 QT
-7.283 -18.322 L
-4.908 -18.322 L
-4.674 -18.322 -4.674 -18.009 QT
-4.69 -17.963 -4.721 -17.822 QT
-4.752 -17.681 -4.807 -17.595 QT
-4.862 -17.509 -4.987 -17.509 QT
-7.487 -17.509 L
-9.127 -10.853 L
-9.299 -10.213 -9.299 -9.744 QT
-9.299 -8.744 -8.627 -8.744 QT
-7.612 -8.744 -6.838 -9.697 QT
-6.065 -10.65 -5.643 -11.775 QT
-5.549 -11.916 -5.455 -11.916 QT
-5.174 -11.916 L
-5.096 -11.916 -5.041 -11.853 QT
-4.987 -11.791 -4.987 -11.713 QT
-4.987 -11.666 -5.002 -11.65 QT
-5.502 -10.259 -6.471 -9.197 QT
-7.44 -8.134 -8.69 -8.134 QT
-9.596 -8.134 -10.221 -8.736 QT
-10.846 -9.338 -10.846 -10.259 QT
cp
f
GR
GS
[0 -0.6 0.6 0 33.19999 151.79988] CT
0.149 GC
N
-2.545 -3.103 M
-2.545 -3.181 -2.529 -3.197 QT
5.471 -25.369 L
5.517 -25.509 5.627 -25.58 QT
5.736 -25.65 5.877 -25.65 QT
6.08 -25.65 6.213 -25.525 QT
6.346 -25.4 6.346 -25.197 QT
6.346 -25.103 L
-1.654 -2.931 L
-1.779 -2.65 -2.092 -2.65 QT
-2.279 -2.65 -2.412 -2.783 QT
-2.545 -2.916 -2.545 -3.103 QT
cp
f
GR
GS
[0 -0.6 0.6 0 33.19999 151.79988] CT
0.149 GC
N
9.825 -9.806 M
10.434 -8.744 12.309 -8.744 QT
13.122 -8.744 13.848 -9.025 QT
14.575 -9.306 15.051 -9.853 QT
15.528 -10.4 15.528 -11.181 QT
15.528 -11.775 15.098 -12.158 QT
14.669 -12.541 14.059 -12.681 QT
12.809 -12.931 L
11.965 -13.134 11.411 -13.72 QT
10.856 -14.306 10.856 -15.134 QT
10.856 -16.166 11.411 -16.947 QT
11.965 -17.728 12.879 -18.142 QT
13.794 -18.556 14.762 -18.556 QT
15.809 -18.556 16.637 -18.064 QT
17.465 -17.572 17.465 -16.588 QT
17.465 -16.056 17.169 -15.65 QT
16.872 -15.244 16.34 -15.244 QT
16.028 -15.244 15.809 -15.447 QT
15.59 -15.65 15.59 -15.947 QT
15.59 -16.213 15.747 -16.47 QT
15.903 -16.728 16.153 -16.877 QT
16.403 -17.025 16.669 -17.025 QT
16.465 -17.525 15.911 -17.744 QT
15.356 -17.963 14.715 -17.963 QT
14.137 -17.963 13.551 -17.728 QT
12.965 -17.494 12.614 -17.041 QT
12.262 -16.588 12.262 -15.963 QT
12.262 -15.556 12.551 -15.244 QT
12.84 -14.931 13.278 -14.791 QT
14.606 -14.525 L
15.247 -14.384 15.778 -14.041 QT
16.309 -13.697 16.622 -13.174 QT
16.934 -12.65 16.934 -11.978 QT
16.934 -11.134 16.458 -10.299 QT
15.981 -9.463 15.278 -8.978 QT
14.059 -8.134 12.278 -8.134 QT
11.059 -8.134 10.036 -8.697 QT
9.012 -9.259 9.012 -10.384 QT
9.012 -11.009 9.379 -11.47 QT
9.747 -11.931 10.372 -11.931 QT
10.747 -11.931 10.997 -11.713 QT
11.247 -11.494 11.247 -11.119 QT
11.247 -10.588 10.856 -10.197 QT
10.465 -9.806 9.934 -9.806 QT
9.825 -9.806 L
cp
f
GR
GS
[0 -0.6 0.6 0 33.19999 151.79988] CT
0.149 GC
N
20.059 -3.103 M
20.059 -3.181 20.075 -3.197 QT
28.075 -25.369 L
28.122 -25.509 28.231 -25.58 QT
28.34 -25.65 28.481 -25.65 QT
28.684 -25.65 28.817 -25.525 QT
28.95 -25.4 28.95 -25.197 QT
28.95 -25.103 L
20.95 -2.931 L
20.825 -2.65 20.512 -2.65 QT
20.325 -2.65 20.192 -2.783 QT
20.059 -2.916 20.059 -3.103 QT
cp
f
GR
GS
[0 -0.6 0.6 0 33.19999 151.79988] CT
0.149 GC
N
31.507 -8.4 M
31.288 -8.4 31.288 -8.697 QT
31.288 -8.759 31.327 -8.9 QT
31.366 -9.041 31.429 -9.127 QT
31.491 -9.213 31.57 -9.213 QT
32.976 -9.213 33.523 -9.369 QT
33.835 -9.463 33.96 -9.978 QT
37.116 -22.619 L
37.163 -22.838 37.163 -22.931 QT
37.163 -23.181 36.882 -23.213 QT
36.46 -23.306 35.241 -23.306 QT
35.007 -23.306 35.007 -23.603 QT
35.085 -23.9 35.132 -24.009 QT
35.179 -24.119 35.398 -24.119 QT
41.585 -24.119 L
41.82 -24.119 41.82 -23.806 QT
41.804 -23.759 41.773 -23.619 QT
41.741 -23.478 41.687 -23.392 QT
41.632 -23.306 41.507 -23.306 QT
40.116 -23.306 39.554 -23.15 QT
39.257 -23.041 39.116 -22.509 QT
37.741 -16.978 L
44.648 -16.978 L
46.054 -22.619 L
46.101 -22.838 46.101 -22.931 QT
46.101 -23.181 45.82 -23.213 QT
45.382 -23.306 44.163 -23.306 QT
43.929 -23.306 43.929 -23.603 QT
44.007 -23.9 44.054 -24.009 QT
44.101 -24.119 44.32 -24.119 QT
50.507 -24.119 L
50.741 -24.119 50.741 -23.806 QT
50.726 -23.759 50.687 -23.619 QT
50.648 -23.478 50.593 -23.392 QT
50.538 -23.306 50.445 -23.306 QT
49.038 -23.306 48.491 -23.15 QT
48.179 -23.041 48.054 -22.509 QT
44.898 -9.9 L
44.851 -9.666 44.851 -9.572 QT
44.851 -9.338 45.132 -9.306 QT
45.57 -9.213 46.788 -9.213 QT
47.023 -9.213 47.023 -8.9 QT
46.945 -8.634 46.882 -8.517 QT
46.82 -8.4 46.616 -8.4 QT
40.429 -8.4 L
40.195 -8.4 40.195 -8.697 QT
40.241 -8.869 40.265 -8.947 QT
40.288 -9.025 40.351 -9.119 QT
40.413 -9.213 40.507 -9.213 QT
41.913 -9.213 42.46 -9.369 QT
42.757 -9.463 42.898 -9.978 QT
44.429 -16.166 L
37.538 -16.166 L
35.976 -9.9 L
35.913 -9.619 35.913 -9.572 QT
35.913 -9.338 36.195 -9.306 QT
36.632 -9.213 37.866 -9.213 QT
38.085 -9.213 38.085 -8.9 QT
38.007 -8.603 37.96 -8.502 QT
37.913 -8.4 37.695 -8.4 QT
31.507 -8.4 L
cp
f
GR
GS
[0 -0.6 0.6 0 33.19999 151.79988] CT
0.149 GC
N
52.846 -8.134 M
52.658 -8.134 52.658 -8.353 QT
52.658 -8.463 52.705 -8.509 QT
53.33 -9.572 54.197 -10.549 QT
55.064 -11.525 56.174 -12.517 QT
57.283 -13.509 58.4 -14.509 QT
59.517 -15.509 60.205 -16.291 QT
60.127 -16.291 L
59.611 -16.291 58.635 -16.611 QT
57.658 -16.931 57.096 -16.931 QT
56.486 -16.931 55.916 -16.666 QT
55.346 -16.4 55.189 -15.853 QT
55.158 -15.681 55.017 -15.681 QT
54.736 -15.681 L
54.549 -15.681 54.549 -15.931 QT
54.549 -15.994 L
54.736 -16.666 55.142 -17.252 QT
55.549 -17.838 56.15 -18.197 QT
56.752 -18.556 57.408 -18.556 QT
57.861 -18.556 58.166 -18.353 QT
58.471 -18.15 58.877 -17.713 QT
59.283 -17.275 59.533 -17.08 QT
59.783 -16.884 60.174 -16.884 QT
60.674 -16.884 61.072 -17.345 QT
61.471 -17.806 61.861 -18.494 QT
61.924 -18.556 62.033 -18.556 QT
62.299 -18.556 L
62.377 -18.556 62.431 -18.502 QT
62.486 -18.447 62.486 -18.369 QT
62.486 -18.291 62.439 -18.213 QT
61.814 -17.15 60.994 -16.22 QT
60.174 -15.291 58.838 -14.095 QT
57.502 -12.9 56.588 -12.08 QT
55.674 -11.259 54.877 -10.384 QT
55.049 -10.416 55.361 -10.416 QT
55.924 -10.416 56.892 -10.095 QT
57.861 -9.775 58.392 -9.775 QT
58.971 -9.775 59.549 -10.025 QT
60.127 -10.275 60.556 -10.728 QT
60.986 -11.181 61.127 -11.759 QT
61.189 -11.916 61.314 -11.916 QT
61.596 -11.916 L
61.689 -11.916 61.744 -11.845 QT
61.799 -11.775 61.799 -11.697 QT
61.799 -11.666 61.767 -11.619 QT
61.564 -10.744 61.033 -9.955 QT
60.502 -9.166 59.736 -8.65 QT
58.971 -8.134 58.096 -8.134 QT
57.658 -8.134 57.353 -8.338 QT
57.049 -8.541 56.635 -8.986 QT
56.221 -9.431 55.963 -9.627 QT
55.705 -9.822 55.33 -9.822 QT
54.189 -9.822 53.283 -8.213 QT
53.205 -8.134 53.127 -8.134 QT
52.846 -8.134 L
cp
f
GR
GS
[0 -0.6 0.6 0 33.19999 151.79988] CT
0.149 GC
N
64.098 -2.65 M
64.098 -3.572 L
66.332 -3.572 L
66.332 -24.728 L
64.098 -24.728 L
64.098 -25.65 L
67.254 -25.65 L
67.254 -2.65 L
64.098 -2.65 L
cp
f
GR
GS
[0.6 0 0 0.6 0 0] CT
0 0.447 0.741 RC
1 LJ
2.5 LW
N
91 467 M
93.715 467 L
96.43 467 L
99.145 467 L
101.86 467 L
104.575 467 L
107.29 467 L
110.005 467 L
112.72 467 L
115.435 467 L
118.15 467 L
120.865 467 L
123.58 467 L
126.295 467 L
129.01 467 L
131.725 467 L
134.44 467 L
137.155 467 L
139.87 467 L
142.585 467 L
145.3 467 L
148.015 467 L
150.73 467 L
153.445 467 L
156.16 467 L
158.875 467 L
161.59 467 L
164.305 467 L
167.02 467 L
169.735 467 L
172.45 467 L
175.165 467 L
177.88 467 L
180.595 467 L
183.31 467 L
186.025 467 L
188.74 467 L
191.455 467 L
194.17 467 L
196.885 467 L
199.6 467 L
202.315 467 L
205.03 467 L
207.745 467 L
210.46 467 L
213.175 467 L
215.89 467 L
218.605 467 L
221.32 467 L
224.035 467 L
226.75 467 L
229.465 467 L
232.18 467 L
234.895 467 L
237.61 467 L
240.325 467 L
243.04 467 L
245.755 467 L
248.47 467 L
251.185 467 L
253.9 467 L
256.615 467 L
259.33 467 L
262.045 467 L
264.76 467 L
267.475 467 L
270.19 467 L
272.905 467 L
275.62 467 L
278.335 467 L
281.05 467 L
283.765 467 L
286.48 467 L
289.195 467 L
291.91 467 L
294.625 467 L
297.34 467 L
300.055 467 L
302.77 467 L
305.485 467 L
308.2 467 L
310.915 467 L
313.63 467 L
316.345 467 L
319.06 467 L
321.775 467 L
324.49 467 L
327.205 467 L
329.92 467 L
332.635 467 L
335.35 467 L
338.065 467 L
340.78 467 L
343.495 467 L
346.21 466.852 L
348.925 464.73 L
351.64 463.565 L
354.355 462.951 L
357.07 462.642 L
359.785 462.492 L
362.5 462.423 L
365.215 462.423 L
367.93 462.423 L
370.645 462.423 L
373.36 462.423 L
376.075 462.423 L
378.79 462.423 L
381.505 462.423 L
384.22 462.423 L
386.935 462.423 L
389.65 462.423 L
392.365 462.423 L
395.08 462.423 L
397.795 462.423 L
400.51 462.423 L
403.225 462.423 L
405.94 462.423 L
408.655 462.423 L
411.37 462.423 L
414.085 462.423 L
416.8 462.423 L
419.515 462.423 L
422.23 462.423 L
424.945 462.423 L
427.66 462.423 L
430.375 462.423 L
433.09 462.423 L
435.805 462.423 L
438.52 462.423 L
441.235 462.423 L
443.95 462.423 L
446.665 462.423 L
449.38 462.423 L
452.095 462.423 L
454.81 462.423 L
457.525 462.423 L
460.24 462.423 L
462.955 462.423 L
465.67 462.423 L
468.385 462.423 L
471.1 462.423 L
473.815 462.423 L
476.53 462.423 L
479.245 462.423 L
481.96 462.423 L
484.675 462.423 L
487.39 462.423 L
490.105 462.423 L
492.82 462.423 L
495.535 462.423 L
498.25 462.423 L
500.965 462.423 L
503.68 462.423 L
506.395 462.423 L
509.11 462.423 L
511.825 462.423 L
514.54 462.423 L
517.255 462.423 L
519.97 462.423 L
522.685 462.423 L
525.4 462.423 L
528.115 462.423 L
530.83 462.423 L
533.545 462.423 L
536.26 462.423 L
538.975 462.423 L
541.69 462.423 L
544.405 462.423 L
547.12 462.423 L
549.835 462.423 L
552.55 462.423 L
555.265 462.423 L
557.98 462.423 L
560.695 462.423 L
563.41 462.423 L
566.125 462.423 L
568.84 462.423 L
571.555 462.423 L
574.27 462.423 L
576.985 462.423 L
579.7 462.423 L
582.415 462.492 L
585.13 462.642 L
587.845 462.951 L
590.56 463.565 L
593.275 464.73 L
595.99 466.852 L
598.705 467 L
601.42 467 L
604.135 467 L
606.85 467 L
609.565 467 L
612.28 467 L
614.995 467 L
617.71 467 L
620.425 467 L
623.14 467 L
625.855 467 L
628.57 467 L
631.285 467 L
634 467 L
S
GR
GS
[0.6 0 0 0.6 0 0] CT
0.851 0.325 0.098 RC
1 LJ
2.5 LW
N
91 467 M
93.715 467 L
96.43 467 L
99.145 467 L
101.86 467 L
104.575 467 L
107.29 467 L
110.005 467 L
112.72 467 L
115.435 467 L
118.15 467 L
120.865 467 L
123.58 467 L
126.295 467 L
129.01 467 L
131.725 467 L
134.44 467 L
137.155 467 L
139.87 467 L
142.585 467 L
145.3 467 L
148.015 467 L
150.73 467 L
153.445 467 L
156.16 467 L
158.875 467 L
161.59 467 L
164.305 467 L
167.02 467 L
169.735 467 L
172.45 467 L
175.165 467 L
177.88 467 L
180.595 467 L
183.31 467 L
186.025 467 L
188.74 467 L
191.455 467 L
194.17 467 L
196.885 467 L
199.6 467 L
202.315 467 L
205.03 467 L
207.745 467 L
210.46 467 L
213.175 467 L
215.89 467 L
218.605 467 L
221.32 467 L
224.035 467 L
226.75 467 L
229.465 467 L
232.18 467 L
234.895 467 L
237.61 467 L
240.325 467 L
243.04 467 L
245.755 467 L
248.47 467 L
251.185 467 L
253.9 467 L
256.615 467 L
259.33 467 L
262.045 467 L
264.76 467 L
267.475 467 L
270.19 467 L
272.905 467 L
275.62 467 L
278.335 467 L
281.05 467 L
283.765 467 L
286.48 467 L
289.195 467 L
291.91 467 L
294.625 467 L
297.34 467 L
300.055 467 L
302.77 467 L
305.485 467 L
308.2 467 L
310.915 467 L
313.63 467 L
316.345 467 L
319.06 467 L
321.775 467 L
324.49 467 L
327.205 467 L
329.92 467 L
332.635 467 L
335.35 467 L
338.065 467 L
340.78 467 L
343.495 467 L
346.21 465.588 L
348.925 442.133 L
351.64 424.527 L
354.355 411.613 L
357.07 402.352 L
359.785 395.856 L
362.5 391.399 L
365.215 391.399 L
367.93 391.399 L
370.645 391.399 L
373.36 391.399 L
376.075 391.399 L
378.79 391.399 L
381.505 391.399 L
384.22 391.399 L
386.935 391.399 L
389.65 391.399 L
392.365 391.399 L
395.08 391.399 L
397.795 391.399 L
400.51 391.399 L
403.225 391.399 L
405.94 391.399 L
408.655 391.399 L
411.37 391.399 L
414.085 391.399 L
416.8 391.399 L
419.515 391.399 L
422.23 391.399 L
424.945 391.399 L
427.66 391.399 L
430.375 391.399 L
433.09 391.399 L
435.805 391.399 L
438.52 391.399 L
441.235 391.399 L
443.95 391.399 L
446.665 391.399 L
449.38 391.399 L
452.095 391.399 L
454.81 391.399 L
457.525 391.399 L
460.24 391.399 L
462.955 391.399 L
465.67 391.399 L
468.385 391.399 L
471.1 391.399 L
473.815 391.399 L
476.53 391.399 L
479.245 391.399 L
481.96 391.399 L
484.675 391.399 L
487.39 391.399 L
490.105 391.399 L
492.82 391.399 L
495.535 391.399 L
498.25 391.399 L
500.965 391.399 L
503.68 391.399 L
506.395 391.399 L
509.11 391.399 L
511.825 391.399 L
514.54 391.399 L
517.255 391.399 L
519.97 391.399 L
522.685 391.399 L
525.4 391.399 L
528.115 391.399 L
530.83 391.399 L
533.545 391.399 L
536.26 391.399 L
538.975 391.399 L
541.69 391.399 L
544.405 391.399 L
547.12 391.399 L
549.835 391.399 L
552.55 391.399 L
555.265 391.399 L
557.98 391.399 L
560.695 391.399 L
563.41 391.399 L
566.125 391.399 L
568.84 391.399 L
571.555 391.399 L
574.27 391.399 L
576.985 391.399 L
579.7 391.399 L
582.415 395.856 L
585.13 402.352 L
587.845 411.613 L
590.56 424.527 L
593.275 442.133 L
595.99 465.588 L
598.705 467 L
601.42 467 L
604.135 467 L
606.85 467 L
609.565 467 L
612.28 467 L
614.995 467 L
617.71 467 L
620.425 467 L
623.14 467 L
625.855 467 L
628.57 467 L
631.285 467 L
634 467 L
S
GR
GS
[0.6 0 0 0.6 0 0] CT
0.929 0.694 0.125 RC
1 LJ
2.5 LW
N
91 467 M
93.715 467 L
96.43 467 L
99.145 467 L
101.86 467 L
104.575 467 L
107.29 467 L
110.005 467 L
112.72 467 L
115.435 467 L
118.15 467 L
120.865 467 L
123.58 467 L
126.295 467 L
129.01 467 L
131.725 467 L
134.44 467 L
137.155 467 L
139.87 467 L
142.585 467 L
145.3 467 L
148.015 467 L
150.73 467 L
153.445 467 L
156.16 467 L
158.875 467 L
161.59 467 L
164.305 467 L
167.02 467 L
169.735 467 L
172.45 467 L
175.165 467 L
177.88 467 L
180.595 467 L
183.31 467 L
186.025 467 L
188.74 467 L
191.455 467 L
194.17 467 L
196.885 467 L
199.6 467 L
202.315 467 L
205.03 467 L
207.745 467 L
210.46 467 L
213.175 467 L
215.89 467 L
218.605 467 L
221.32 467 L
224.035 467 L
226.75 467 L
229.465 467 L
232.18 467 L
234.895 467 L
237.61 467 L
240.325 467 L
243.04 467 L
245.755 467 L
248.47 467 L
251.185 467 L
253.9 467 L
256.615 467 L
259.33 467 L
262.045 467 L
264.76 467 L
267.475 467 L
270.19 467 L
272.905 467 L
275.62 467 L
278.335 467 L
281.05 467 L
283.765 467 L
286.48 467 L
289.195 467 L
291.91 467 L
294.625 467 L
297.34 467 L
300.055 467 L
302.77 467 L
305.485 467 L
308.2 467 L
310.915 467 L
313.63 467 L
316.345 467 L
319.06 467 L
321.775 467 L
324.49 467 L
327.205 467 L
329.92 467 L
332.635 467 L
335.35 467 L
338.065 467 L
340.78 467 L
343.495 467 L
346.21 464.241 L
348.925 413.973 L
351.64 368.037 L
354.355 326.08 L
357.07 287.821 L
359.785 253.04 L
362.5 221.551 L
365.215 221.551 L
367.93 221.551 L
370.645 221.551 L
373.36 221.551 L
376.075 221.551 L
378.79 221.551 L
381.505 221.551 L
384.22 221.551 L
386.935 221.551 L
389.65 221.551 L
392.365 221.551 L
395.08 221.551 L
397.795 221.551 L
400.51 221.551 L
403.225 221.551 L
405.94 221.551 L
408.655 221.551 L
411.37 221.551 L
414.085 221.551 L
416.8 221.551 L
419.515 221.551 L
422.23 221.551 L
424.945 221.551 L
427.66 221.551 L
430.375 221.551 L
433.09 221.551 L
435.805 221.551 L
438.52 221.551 L
441.235 221.551 L
443.95 221.551 L
446.665 221.551 L
449.38 221.551 L
452.095 221.551 L
454.81 221.551 L
457.525 221.551 L
460.24 221.551 L
462.955 221.551 L
465.67 221.551 L
468.385 221.551 L
471.1 221.551 L
473.815 221.551 L
476.53 221.551 L
479.245 221.551 L
481.96 221.551 L
484.675 221.551 L
487.39 221.551 L
490.105 221.551 L
492.82 221.551 L
495.535 221.551 L
498.25 221.551 L
500.965 221.551 L
503.68 221.551 L
506.395 221.551 L
509.11 221.551 L
511.825 221.551 L
514.54 221.551 L
517.255 221.551 L
519.97 221.551 L
522.685 221.551 L
525.4 221.551 L
528.115 221.551 L
530.83 221.551 L
533.545 221.551 L
536.26 221.551 L
538.975 221.551 L
541.69 221.551 L
544.405 221.551 L
547.12 221.551 L
549.835 221.551 L
552.55 221.551 L
555.265 221.551 L
557.98 221.551 L
560.695 221.551 L
563.41 221.551 L
566.125 221.551 L
568.84 221.551 L
571.555 221.551 L
574.27 221.551 L
576.985 221.551 L
579.7 221.551 L
582.415 253.04 L
585.13 287.821 L
587.845 326.08 L
590.56 368.037 L
593.275 413.973 L
595.99 464.241 L
598.705 467 L
601.42 467 L
604.135 467 L
606.85 467 L
609.565 467 L
612.28 467 L
614.995 467 L
617.71 467 L
620.425 467 L
623.14 467 L
625.855 467 L
628.57 467 L
631.285 467 L
634 467 L
S
GR
GS
[0.6 0 0 0.6 0 0] CT
0.494 0.184 0.557 RC
1 LJ
2.5 LW
N
91 467 M
93.715 467 L
96.43 467 L
99.145 467 L
101.86 467 L
104.575 467 L
107.29 467 L
110.005 467 L
112.72 467 L
115.435 467 L
118.15 467 L
120.865 467 L
123.58 467 L
126.295 467 L
129.01 467 L
131.725 467 L
134.44 467 L
137.155 467 L
139.87 467 L
142.585 467 L
145.3 467 L
148.015 467 L
150.73 467 L
153.445 467 L
156.16 467 L
158.875 467 L
161.59 467 L
164.305 467 L
167.02 467 L
169.735 467 L
172.45 467 L
175.165 467 L
177.88 467 L
180.595 467 L
183.31 467 L
186.025 467 L
188.74 467 L
191.455 467 L
194.17 467 L
196.885 467 L
199.6 467 L
202.315 467 L
205.03 467 L
207.745 467 L
210.46 467 L
213.175 467 L
215.89 467 L
218.605 467 L
221.32 467 L
224.035 467 L
226.75 467 L
229.465 467 L
232.18 467 L
234.895 467 L
237.61 467 L
240.325 467 L
243.04 467 L
245.755 467 L
248.47 467 L
251.185 467 L
253.9 467 L
256.615 467 L
259.33 467 L
262.045 467 L
264.76 467 L
267.475 467 L
270.19 467 L
272.905 467 L
275.62 467 L
278.335 467 L
281.05 467 L
283.765 467 L
286.48 467 L
289.195 467 L
291.91 467 L
294.625 467 L
297.34 467 L
300.055 467 L
302.77 467 L
305.485 467 L
308.2 467 L
310.915 467 L
313.63 467 L
316.345 467 L
319.06 467 L
321.775 467 L
324.49 467 L
327.205 467 L
329.92 467 L
332.635 467 L
335.35 467 L
338.065 467 L
340.78 467 L
343.495 467 L
346.21 464.203 L
348.925 412.973 L
351.64 365.548 L
354.355 321.415 L
357.07 280.14 L
359.785 241.36 L
362.5 204.773 L
365.215 204.773 L
367.93 204.773 L
370.645 204.773 L
373.36 204.773 L
376.075 204.773 L
378.79 204.773 L
381.505 204.773 L
384.22 204.773 L
386.935 204.773 L
389.65 204.773 L
392.365 204.773 L
395.08 204.773 L
397.795 204.773 L
400.51 204.773 L
403.225 204.773 L
405.94 204.773 L
408.655 204.773 L
411.37 204.773 L
414.085 204.773 L
416.8 204.773 L
419.515 204.773 L
422.23 204.773 L
424.945 204.773 L
427.66 204.773 L
430.375 204.773 L
433.09 204.773 L
435.805 204.773 L
438.52 204.773 L
441.235 204.773 L
443.95 204.773 L
446.665 204.773 L
449.38 204.773 L
452.095 204.773 L
454.81 204.773 L
457.525 204.773 L
460.24 204.773 L
462.955 204.773 L
465.67 204.773 L
468.385 204.773 L
471.1 204.773 L
473.815 204.773 L
476.53 204.773 L
479.245 204.773 L
481.96 204.773 L
484.675 204.773 L
487.39 204.773 L
490.105 204.773 L
492.82 204.773 L
495.535 204.773 L
498.25 204.773 L
500.965 204.773 L
503.68 204.773 L
506.395 204.773 L
509.11 204.773 L
511.825 204.773 L
514.54 204.773 L
517.255 204.773 L
519.97 204.773 L
522.685 204.773 L
525.4 204.773 L
528.115 204.773 L
530.83 204.773 L
533.545 204.773 L
536.26 204.773 L
538.975 204.773 L
541.69 204.773 L
544.405 204.773 L
547.12 204.773 L
549.835 204.773 L
552.55 204.773 L
555.265 204.773 L
557.98 204.773 L
560.695 204.773 L
563.41 204.773 L
566.125 204.773 L
568.84 204.773 L
571.555 204.773 L
574.27 204.773 L
576.985 204.773 L
579.7 204.773 L
582.415 241.36 L
585.13 280.14 L
587.845 321.415 L
590.56 365.548 L
593.275 412.973 L
595.99 464.203 L
598.705 467 L
601.42 467 L
604.135 467 L
606.85 467 L
609.565 467 L
612.28 467 L
614.995 467 L
617.71 467 L
620.425 467 L
623.14 467 L
625.855 467 L
628.57 467 L
631.285 467 L
634 467 L
S
GR
GS
[0.6 0 0 0.6 0 0] CT
1 LJ
2.5 LW
N
91 467 M
93.715 467 L
96.43 467 L
99.145 467 L
101.86 467 L
104.575 467 L
107.29 467 L
110.005 467 L
112.72 467 L
115.435 467 L
118.15 467 L
120.865 467 L
123.58 467 L
126.295 467 L
129.01 467 L
131.725 467 L
134.44 467 L
137.155 467 L
139.87 467 L
142.585 467 L
145.3 467 L
148.015 467 L
150.73 467 L
153.445 467 L
156.16 467 L
158.875 467 L
161.59 467 L
164.305 467 L
167.02 467 L
169.735 467 L
172.45 467 L
175.165 467 L
177.88 467 L
180.595 467 L
183.31 467 L
186.025 467 L
188.74 467 L
191.455 467 L
194.17 467 L
196.885 467 L
199.6 467 L
202.315 467 L
205.03 467 L
207.745 467 L
210.46 467 L
213.175 467 L
215.89 467 L
218.605 467 L
221.32 467 L
224.035 467 L
226.75 467 L
229.465 467 L
232.18 467 L
234.895 467 L
237.61 467 L
240.325 467 L
243.04 467 L
245.755 467 L
248.47 467 L
251.185 467 L
253.9 467 L
256.615 467 L
259.33 467 L
262.045 467 L
264.76 467 L
267.475 467 L
270.19 467 L
272.905 467 L
275.62 467 L
278.335 467 L
281.05 467 L
283.765 467 L
286.48 467 L
289.195 467 L
291.91 467 L
294.625 467 L
297.34 467 L
300.055 467 L
302.77 467 L
305.485 467 L
308.2 467 L
310.915 467 L
313.63 467 L
316.345 467 L
319.06 467 L
321.775 467 L
324.49 467 L
327.205 467 L
329.92 467 L
332.635 467 L
335.35 467 L
338.065 467 L
340.78 467 L
343.495 467 L
346.21 462.89 L
348.925 386.125 L
351.64 312.578 L
354.355 242.086 L
357.07 174.479 L
359.785 109.587 L
362.5 47.243 L
365.215 47.243 L
367.93 47.243 L
370.645 47.243 L
373.36 47.243 L
376.075 47.243 L
378.79 47.243 L
381.505 47.243 L
384.22 47.243 L
386.935 47.243 L
389.65 47.243 L
392.365 47.243 L
395.08 47.243 L
397.795 47.243 L
400.51 47.243 L
403.225 47.243 L
405.94 47.243 L
408.655 47.243 L
411.37 47.243 L
414.085 47.243 L
416.8 47.243 L
419.515 47.243 L
422.23 47.243 L
424.945 47.243 L
427.66 47.243 L
430.375 47.243 L
433.09 47.243 L
435.805 47.243 L
438.52 47.243 L
441.235 47.243 L
443.95 47.243 L
446.665 47.243 L
449.38 47.243 L
452.095 47.243 L
454.81 47.243 L
457.525 47.243 L
460.24 47.243 L
462.955 47.243 L
465.67 47.243 L
468.385 47.243 L
471.1 47.243 L
473.815 47.243 L
476.53 47.243 L
479.245 47.243 L
481.96 47.243 L
484.675 47.243 L
487.39 47.243 L
490.105 47.243 L
492.82 47.243 L
495.535 47.243 L
498.25 47.243 L
500.965 47.243 L
503.68 47.243 L
506.395 47.243 L
509.11 47.243 L
511.825 47.243 L
514.54 47.243 L
517.255 47.243 L
519.97 47.243 L
522.685 47.243 L
525.4 47.243 L
528.115 47.243 L
530.83 47.243 L
533.545 47.243 L
536.26 47.243 L
538.975 47.243 L
541.69 47.243 L
544.405 47.243 L
547.12 47.243 L
549.835 47.243 L
552.55 47.243 L
555.265 47.243 L
557.98 47.243 L
560.695 47.243 L
563.41 47.243 L
566.125 47.243 L
568.84 47.243 L
571.555 47.243 L
574.27 47.243 L
576.985 47.243 L
579.7 47.243 L
582.415 109.587 L
585.13 174.479 L
587.845 242.086 L
590.56 312.578 L
593.275 386.125 L
595.99 462.89 L
598.705 467 L
601.42 467 L
604.135 467 L
606.85 467 L
609.565 467 L
612.28 467 L
614.995 467 L
617.71 467 L
620.425 467 L
623.14 467 L
625.855 467 L
628.57 467 L
631.285 467 L
634 467 L
S
GR
GS
[0.6 0 0 0.6 0 0] CT
1 GC
N
125 221 M
125 64 L
286 64 L
286 221 L
cp
f
GR
GS
[0.6 0 0 0.6 110.08655 48.86667] CT
/Helvetica 23.333 F
GS
[1 0 0 1 0 0] CT
0 9 moveto 
1 -1 scale
(M = 2) t 
GR
GR
GS
[0.6 0 0 0.6 0 0] CT
0 0.447 0.741 RC
1 LJ
2.5 LW
N
129.977 81.444 M
179.745 81.444 L
S
GR
GS
[0.6 0 0 0.6 110.08655 67.18334] CT
/Helvetica 23.333 F
GS
[1 0 0 1 0 0] CT
0 9 moveto 
1 -1 scale
(M = 4) t 
GR
GR
GS
[0.6 0 0 0.6 0 0] CT
0.851 0.325 0.098 RC
1 LJ
2.5 LW
N
129.977 111.972 M
179.745 111.972 L
S
GR
GS
[0.6 0 0 0.6 110.08655 85.5] CT
/Helvetica 23.333 F
GS
[1 0 0 1 0 0] CT
0 9 moveto 
1 -1 scale
(M = 8) t 
GR
GR
GS
[0.6 0 0 0.6 0 0] CT
0.929 0.694 0.125 RC
1 LJ
2.5 LW
N
129.977 142.5 M
179.745 142.5 L
S
GR
GS
[0.6 0 0 0.6 110.08655 103.81666] CT
/Helvetica 23.333 F
GS
[1 0 0 1 0 0] CT
0 9 moveto 
1 -1 scale
(M = 16) t 
GR
GR
GS
[0.6 0 0 0.6 0 0] CT
0.494 0.184 0.557 RC
1 LJ
2.5 LW
N
129.977 173.028 M
179.745 173.028 L
S
GR
GS
[0.6 0 0 0.6 110.08655 122.13333] CT
/Helvetica 23.333 F
GS
[1 0 0 1 0 0] CT
0 9 moveto 
1 -1 scale
(Gaussian) t 
GR
GR
GS
[0.6 0 0 0.6 0 0] CT
1 LJ
2.5 LW
N
129.977 203.556 M
179.745 203.556 L
S
GR
GS
[0.6 0 0 0.6 0 0] CT
0.149 GC
10.0 ML
0.833 LW
N
125 221 M
125 64 L
286 64 L
286 221 L
cp
S
GR
%%Trailer
%%Pages: 1
%%EOF
