%!PS-Adobe-3.0 EPSF-3.0
%%Creator: (MATLAB, The Mathworks, Inc. Version 9.2.0.538062 \(R2017a\). Operating System: Windows 8)
%%Title: (C:/Users/chees/Google Drive/TesiMagistrale/latex/figures/CsDegradation.eps)
%%CreationDate: 2017-07-13T15:30:56
%%Pages: (atend)
%%BoundingBox: 0 0 420 315
%%LanguageLevel: 3
%%EndComments
%%BeginProlog
%%BeginResource: procset (Apache XML Graphics Std ProcSet) 1.2 0
%%Version: 1.2 0
%%Copyright: (Copyright 2001-2003,2010 The Apache Software Foundation. License terms: http://www.apache.org/licenses/LICENSE-2.0)
/bd{bind def}bind def
/ld{load def}bd
/GR/grestore ld
/M/moveto ld
/LJ/setlinejoin ld
/C/curveto ld
/f/fill ld
/LW/setlinewidth ld
/GC/setgray ld
/t/show ld
/N/newpath ld
/CT/concat ld
/cp/closepath ld
/S/stroke ld
/L/lineto ld
/CC/setcmykcolor ld
/A/ashow ld
/GS/gsave ld
/RC/setrgbcolor ld
/RM/rmoveto ld
/ML/setmiterlimit ld
/re {4 2 roll M
1 index 0 rlineto
0 exch rlineto
neg 0 rlineto
cp } bd
/_ctm matrix def
/_tm matrix def
/BT { _ctm currentmatrix pop matrix _tm copy pop 0 0 moveto } bd
/ET { _ctm setmatrix } bd
/iTm { _ctm setmatrix _tm concat } bd
/Tm { _tm astore pop iTm 0 0 moveto } bd
/ux 0.0 def
/uy 0.0 def
/F {
  /Tp exch def
  /Tf exch def
  Tf findfont Tp scalefont setfont
  /cf Tf def  /cs Tp def
} bd
/ULS {currentpoint /uy exch def /ux exch def} bd
/ULE {
  /Tcx currentpoint pop def
  gsave
  newpath
  cf findfont cs scalefont dup
  /FontMatrix get 0 get /Ts exch def /FontInfo get dup
  /UnderlinePosition get Ts mul /To exch def
  /UnderlineThickness get Ts mul /Tt exch def
  ux uy To add moveto  Tcx uy To add lineto
  Tt setlinewidth stroke
  grestore
} bd
/OLE {
  /Tcx currentpoint pop def
  gsave
  newpath
  cf findfont cs scalefont dup
  /FontMatrix get 0 get /Ts exch def /FontInfo get dup
  /UnderlinePosition get Ts mul /To exch def
  /UnderlineThickness get Ts mul /Tt exch def
  ux uy To add cs add moveto Tcx uy To add cs add lineto
  Tt setlinewidth stroke
  grestore
} bd
/SOE {
  /Tcx currentpoint pop def
  gsave
  newpath
  cf findfont cs scalefont dup
  /FontMatrix get 0 get /Ts exch def /FontInfo get dup
  /UnderlinePosition get Ts mul /To exch def
  /UnderlineThickness get Ts mul /Tt exch def
  ux uy To add cs 10 mul 26 idiv add moveto Tcx uy To add cs 10 mul 26 idiv add lineto
  Tt setlinewidth stroke
  grestore
} bd
/QT {
/Y22 exch store
/X22 exch store
/Y21 exch store
/X21 exch store
currentpoint
/Y21 load 2 mul add 3 div exch
/X21 load 2 mul add 3 div exch
/X21 load 2 mul /X22 load add 3 div
/Y21 load 2 mul /Y22 load add 3 div
/X22 load /Y22 load curveto
} bd
/SSPD {
dup length /d exch dict def
{
/v exch def
/k exch def
currentpagedevice k known {
/cpdv currentpagedevice k get def
v cpdv ne {
/upd false def
/nullv v type /nulltype eq def
/nullcpdv cpdv type /nulltype eq def
nullv nullcpdv or
{
/upd true def
} {
/sametype v type cpdv type eq def
sametype {
v type /arraytype eq {
/vlen v length def
/cpdvlen cpdv length def
vlen cpdvlen eq {
0 1 vlen 1 sub {
/i exch def
/obj v i get def
/cpdobj cpdv i get def
obj cpdobj ne {
/upd true def
exit
} if
} for
} {
/upd true def
} ifelse
} {
v type /dicttype eq {
v {
/dv exch def
/dk exch def
/cpddv cpdv dk get def
dv cpddv ne {
/upd true def
exit
} if
} forall
} {
/upd true def
} ifelse
} ifelse
} if
} ifelse
upd true eq {
d k v put
} if
} if
} if
} forall
d length 0 gt {
d setpagedevice
} if
} bd
/RE { % /NewFontName [NewEncodingArray] /FontName RE -
  findfont dup length dict begin
  {
    1 index /FID ne
    {def} {pop pop} ifelse
  } forall
  /Encoding exch def
  /FontName 1 index def
  currentdict definefont pop
  end
} bind def
%%EndResource
%%BeginResource: procset (Apache XML Graphics EPS ProcSet) 1.0 0
%%Version: 1.0 0
%%Copyright: (Copyright 2002-2003 The Apache Software Foundation. License terms: http://www.apache.org/licenses/LICENSE-2.0)
/BeginEPSF { %def
/b4_Inc_state save def         % Save state for cleanup
/dict_count countdictstack def % Count objects on dict stack
/op_count count 1 sub def      % Count objects on operand stack
userdict begin                 % Push userdict on dict stack
/showpage { } def              % Redefine showpage, { } = null proc
0 setgray 0 setlinecap         % Prepare graphics state
1 setlinewidth 0 setlinejoin
10 setmiterlimit [ ] 0 setdash newpath
/languagelevel where           % If level not equal to 1 then
{pop languagelevel             % set strokeadjust and
1 ne                           % overprint to their defaults.
{false setstrokeadjust false setoverprint
} if
} if
} bd
/EndEPSF { %def
count op_count sub {pop} repeat            % Clean up stacks
countdictstack dict_count sub {end} repeat
b4_Inc_state restore
} bd
%%EndResource
%FOPBeginFontDict
%%IncludeResource: font Courier-Bold
%%IncludeResource: font Helvetica
%%IncludeResource: font Courier-BoldOblique
%%IncludeResource: font Courier-Oblique
%%IncludeResource: font Times-Roman
%%IncludeResource: font Helvetica-BoldOblique
%%IncludeResource: font Helvetica-Bold
%%IncludeResource: font Helvetica-Oblique
%%IncludeResource: font Times-BoldItalic
%%IncludeResource: font Courier
%%IncludeResource: font Times-Italic
%%IncludeResource: font Times-Bold
%%IncludeResource: font Symbol
%%IncludeResource: font ZapfDingbats
%FOPEndFontDict
%%BeginResource: encoding WinAnsiEncoding
/WinAnsiEncoding [
/.notdef /.notdef /.notdef /.notdef /.notdef
/.notdef /.notdef /.notdef /.notdef /.notdef
/.notdef /.notdef /.notdef /.notdef /.notdef
/.notdef /.notdef /.notdef /.notdef /.notdef
/.notdef /.notdef /.notdef /.notdef /.notdef
/.notdef /.notdef /.notdef /.notdef /.notdef
/.notdef /.notdef /space /exclam /quotedbl
/numbersign /dollar /percent /ampersand /quotesingle
/parenleft /parenright /asterisk /plus /comma
/hyphen /period /slash /zero /one
/two /three /four /five /six
/seven /eight /nine /colon /semicolon
/less /equal /greater /question /at
/A /B /C /D /E
/F /G /H /I /J
/K /L /M /N /O
/P /Q /R /S /T
/U /V /W /X /Y
/Z /bracketleft /backslash /bracketright /asciicircum
/underscore /quoteleft /a /b /c
/d /e /f /g /h
/i /j /k /l /m
/n /o /p /q /r
/s /t /u /v /w
/x /y /z /braceleft /bar
/braceright /asciitilde /bullet /Euro /bullet
/quotesinglbase /florin /quotedblbase /ellipsis /dagger
/daggerdbl /circumflex /perthousand /Scaron /guilsinglleft
/OE /bullet /Zcaron /bullet /bullet
/quoteleft /quoteright /quotedblleft /quotedblright /bullet
/endash /emdash /asciitilde /trademark /scaron
/guilsinglright /oe /bullet /zcaron /Ydieresis
/space /exclamdown /cent /sterling /currency
/yen /brokenbar /section /dieresis /copyright
/ordfeminine /guillemotleft /logicalnot /sfthyphen /registered
/macron /degree /plusminus /twosuperior /threesuperior
/acute /mu /paragraph /middot /cedilla
/onesuperior /ordmasculine /guillemotright /onequarter /onehalf
/threequarters /questiondown /Agrave /Aacute /Acircumflex
/Atilde /Adieresis /Aring /AE /Ccedilla
/Egrave /Eacute /Ecircumflex /Edieresis /Igrave
/Iacute /Icircumflex /Idieresis /Eth /Ntilde
/Ograve /Oacute /Ocircumflex /Otilde /Odieresis
/multiply /Oslash /Ugrave /Uacute /Ucircumflex
/Udieresis /Yacute /Thorn /germandbls /agrave
/aacute /acircumflex /atilde /adieresis /aring
/ae /ccedilla /egrave /eacute /ecircumflex
/edieresis /igrave /iacute /icircumflex /idieresis
/eth /ntilde /ograve /oacute /ocircumflex
/otilde /odieresis /divide /oslash /ugrave
/uacute /ucircumflex /udieresis /yacute /thorn
/ydieresis
] def
%%EndResource
%FOPBeginFontReencode
/Courier-Bold findfont
dup length dict begin
  {1 index /FID ne {def} {pop pop} ifelse} forall
  /Encoding WinAnsiEncoding def
  currentdict
end
/Courier-Bold exch definefont pop
/Helvetica findfont
dup length dict begin
  {1 index /FID ne {def} {pop pop} ifelse} forall
  /Encoding WinAnsiEncoding def
  currentdict
end
/Helvetica exch definefont pop
/Courier-BoldOblique findfont
dup length dict begin
  {1 index /FID ne {def} {pop pop} ifelse} forall
  /Encoding WinAnsiEncoding def
  currentdict
end
/Courier-BoldOblique exch definefont pop
/Courier-Oblique findfont
dup length dict begin
  {1 index /FID ne {def} {pop pop} ifelse} forall
  /Encoding WinAnsiEncoding def
  currentdict
end
/Courier-Oblique exch definefont pop
/Times-Roman findfont
dup length dict begin
  {1 index /FID ne {def} {pop pop} ifelse} forall
  /Encoding WinAnsiEncoding def
  currentdict
end
/Times-Roman exch definefont pop
/Helvetica-BoldOblique findfont
dup length dict begin
  {1 index /FID ne {def} {pop pop} ifelse} forall
  /Encoding WinAnsiEncoding def
  currentdict
end
/Helvetica-BoldOblique exch definefont pop
/Helvetica-Bold findfont
dup length dict begin
  {1 index /FID ne {def} {pop pop} ifelse} forall
  /Encoding WinAnsiEncoding def
  currentdict
end
/Helvetica-Bold exch definefont pop
/Helvetica-Oblique findfont
dup length dict begin
  {1 index /FID ne {def} {pop pop} ifelse} forall
  /Encoding WinAnsiEncoding def
  currentdict
end
/Helvetica-Oblique exch definefont pop
/Times-BoldItalic findfont
dup length dict begin
  {1 index /FID ne {def} {pop pop} ifelse} forall
  /Encoding WinAnsiEncoding def
  currentdict
end
/Times-BoldItalic exch definefont pop
/Courier findfont
dup length dict begin
  {1 index /FID ne {def} {pop pop} ifelse} forall
  /Encoding WinAnsiEncoding def
  currentdict
end
/Courier exch definefont pop
/Times-Italic findfont
dup length dict begin
  {1 index /FID ne {def} {pop pop} ifelse} forall
  /Encoding WinAnsiEncoding def
  currentdict
end
/Times-Italic exch definefont pop
/Times-Bold findfont
dup length dict begin
  {1 index /FID ne {def} {pop pop} ifelse} forall
  /Encoding WinAnsiEncoding def
  currentdict
end
/Times-Bold exch definefont pop
%FOPEndFontReencode
%%EndProlog
%%Page: 1 1
%%PageBoundingBox: 0 0 420 315
%%BeginPageSetup
[1 0 0 -1 0 315] CT
%%EndPageSetup
GS
[0.6 0 0 0.6 0 0] CT
1 GC
N
0 0 700 525 re
f
GR
GS
[0.6 0 0 0.6 0 0] CT
1 GC
N
0 0 700 525 re
f
GR
GS
[0.6 0 0 0.6 0 0] CT
1 GC
N
91 466 M
634 466 L
634 39 L
91 39 L
cp
f
GR
GS
[0.6 0 0 0.6 0 0] CT
0.873 GC
1 LJ
0.833 LW
N
91 466 M
91 39 L
S
GR
GS
[0.6 0 0 0.6 0 0] CT
0.873 GC
1 LJ
0.833 LW
N
226.75 466 M
226.75 39 L
S
GR
GS
[0.6 0 0 0.6 0 0] CT
0.873 GC
1 LJ
0.833 LW
N
362.5 466 M
362.5 39 L
S
GR
GS
[0.6 0 0 0.6 0 0] CT
0.873 GC
1 LJ
0.833 LW
N
498.25 466 M
498.25 39 L
S
GR
GS
[0.6 0 0 0.6 0 0] CT
0.873 GC
1 LJ
0.833 LW
N
634 466 M
634 39 L
S
GR
GS
[0.6 0 0 0.6 0 0] CT
0.873 GC
1 LJ
0.833 LW
N
634 466 M
91 466 L
S
GR
GS
[0.6 0 0 0.6 0 0] CT
0.873 GC
1 LJ
0.833 LW
N
634 412.625 M
91 412.625 L
S
GR
GS
[0.6 0 0 0.6 0 0] CT
0.873 GC
1 LJ
0.833 LW
N
634 359.25 M
91 359.25 L
S
GR
GS
[0.6 0 0 0.6 0 0] CT
0.873 GC
1 LJ
0.833 LW
N
634 305.875 M
91 305.875 L
S
GR
GS
[0.6 0 0 0.6 0 0] CT
0.873 GC
1 LJ
0.833 LW
N
634 252.5 M
91 252.5 L
S
GR
GS
[0.6 0 0 0.6 0 0] CT
0.873 GC
1 LJ
0.833 LW
N
634 199.125 M
91 199.125 L
S
GR
GS
[0.6 0 0 0.6 0 0] CT
0.873 GC
1 LJ
0.833 LW
N
634 145.75 M
91 145.75 L
S
GR
GS
[0.6 0 0 0.6 0 0] CT
0.873 GC
1 LJ
0.833 LW
N
634 92.375 M
91 92.375 L
S
GR
GS
[0.6 0 0 0.6 0 0] CT
0.873 GC
1 LJ
0.833 LW
N
634 39 M
91 39 L
S
GR
GS
[0.6 0 0 0.6 0 0] CT
0.149 GC
2 setlinecap
1 LJ
0.833 LW
N
91 466 M
634 466 L
S
GR
GS
[0.6 0 0 0.6 0 0] CT
0.149 GC
2 setlinecap
1 LJ
0.833 LW
N
91 39 M
634 39 L
S
GR
GS
[0.6 0 0 0.6 0 0] CT
0.149 GC
2 setlinecap
1 LJ
0.833 LW
N
91 466 M
91 460.57 L
S
GR
GS
[0.6 0 0 0.6 0 0] CT
0.149 GC
2 setlinecap
1 LJ
0.833 LW
N
226.75 466 M
226.75 460.57 L
S
GR
GS
[0.6 0 0 0.6 0 0] CT
0.149 GC
2 setlinecap
1 LJ
0.833 LW
N
362.5 466 M
362.5 460.57 L
S
GR
GS
[0.6 0 0 0.6 0 0] CT
0.149 GC
2 setlinecap
1 LJ
0.833 LW
N
498.25 466 M
498.25 460.57 L
S
GR
GS
[0.6 0 0 0.6 0 0] CT
0.149 GC
2 setlinecap
1 LJ
0.833 LW
N
634 466 M
634 460.57 L
S
GR
GS
[0.6 0 0 0.6 0 0] CT
0.149 GC
2 setlinecap
1 LJ
0.833 LW
N
91 39 M
91 44.43 L
S
GR
GS
[0.6 0 0 0.6 0 0] CT
0.149 GC
2 setlinecap
1 LJ
0.833 LW
N
226.75 39 M
226.75 44.43 L
S
GR
GS
[0.6 0 0 0.6 0 0] CT
0.149 GC
2 setlinecap
1 LJ
0.833 LW
N
362.5 39 M
362.5 44.43 L
S
GR
GS
[0.6 0 0 0.6 0 0] CT
0.149 GC
2 setlinecap
1 LJ
0.833 LW
N
498.25 39 M
498.25 44.43 L
S
GR
GS
[0.6 0 0 0.6 0 0] CT
0.149 GC
2 setlinecap
1 LJ
0.833 LW
N
634 39 M
634 44.43 L
S
GR
GS
[0.6 0 0 0.6 54.6 284.00001] CT
0.149 GC
/Helvetica 20 F
GS
[1 0 0 1 0 0] CT
-9 21 moveto 
1 -1 scale
(-1) t 
GR
GR
GS
[0.6 0 0 0.6 136.05 284.00001] CT
0.149 GC
/Helvetica 20 F
GS
[1 0 0 1 0 0] CT
-17.5 21 moveto 
1 -1 scale
(-0.5) t 
GR
GR
GS
[0.6 0 0 0.6 217.5 284.00001] CT
0.149 GC
/Helvetica 20 F
GS
[1 0 0 1 0 0] CT
-6 21 moveto 
1 -1 scale
(0) t 
GR
GR
GS
[0.6 0 0 0.6 298.95 284.00001] CT
0.149 GC
/Helvetica 20 F
GS
[1 0 0 1 0 0] CT
-14 21 moveto 
1 -1 scale
(0.5) t 
GR
GR
GS
[0.6 0 0 0.6 380.4 284.00001] CT
0.149 GC
/Helvetica 20 F
GS
[1 0 0 1 0 0] CT
-6 21 moveto 
1 -1 scale
(1) t 
GR
GR
GS
[0.6 0 0 0.6 217.50015 300.6] CT
0.149 GC
N
-15.963 13.972 M
-15.963 14.644 -15.721 15.222 QT
-15.479 15.8 -14.987 16.151 QT
-14.495 16.503 -13.838 16.503 QT
-13.385 16.503 -12.877 16.308 QT
-12.37 16.112 -11.932 15.878 QT
-11.495 15.644 -11.495 15.644 QT
-11.385 15.644 -11.323 15.761 QT
-11.26 15.878 -11.26 16.003 QT
-11.26 16.112 -11.307 16.128 QT
-12.557 17.019 -13.854 17.019 QT
-14.901 17.019 -15.752 16.526 QT
-16.604 16.034 -17.065 15.159 QT
-17.526 14.284 -17.526 13.237 QT
-17.526 12.206 -17.112 11.269 QT
-16.698 10.331 -15.956 9.636 QT
-15.213 8.941 -14.276 8.558 QT
-13.338 8.175 -12.307 8.175 QT
-11.182 8.175 L
-10.87 8.175 -10.87 8.472 QT
-10.87 8.644 -10.987 8.761 QT
-11.104 8.878 -11.26 8.878 QT
-12.354 8.878 L
-13.151 8.878 -13.799 9.23 QT
-14.448 9.581 -14.885 10.206 QT
-15.323 10.831 -15.573 11.628 QT
-12.041 11.628 L
-11.901 11.628 -11.815 11.706 QT
-11.729 11.784 -11.729 11.909 QT
-11.729 12.081 -11.838 12.198 QT
-11.948 12.316 -12.12 12.316 QT
-15.76 12.316 L
-15.963 13.347 -15.963 13.972 QT
cp
f
GR
GS
[0.6 0 0 0.6 217.50015 300.6] CT
0.149 GC
N
-9.189 21.394 M
-9.189 21.347 -9.173 21.316 QT
-2.22 2.05 L
-2.173 1.925 -2.08 1.862 QT
-1.986 1.8 -1.861 1.8 QT
-1.673 1.8 -1.564 1.909 QT
-1.455 2.019 -1.455 2.206 QT
-1.455 2.284 L
-8.408 21.55 L
-8.533 21.8 -8.783 21.8 QT
-8.955 21.8 -9.072 21.683 QT
-9.189 21.566 -9.189 21.394 QT
cp
f
GR
GS
[0.6 0 0 0.6 217.50015 300.6] CT
0.149 GC
N
0.608 16.534 M
0.608 16.487 0.647 16.362 QT
0.686 16.237 0.741 16.167 QT
0.795 16.097 0.889 16.097 QT
2.608 16.097 3.17 16.003 QT
3.702 15.862 3.811 15.425 QT
6.545 4.441 L
6.624 4.191 6.624 4.003 QT
6.624 3.847 5.92 3.847 QT
4.764 3.847 L
3.42 3.847 2.694 4.253 QT
1.967 4.659 1.631 5.331 QT
1.295 6.003 0.749 7.534 QT
0.686 7.722 0.545 7.722 QT
0.374 7.722 L
0.17 7.722 0.17 7.456 QT
1.592 3.316 L
1.624 3.144 1.78 3.144 QT
13.608 3.144 L
13.811 3.144 13.811 3.394 QT
13.139 7.534 L
13.139 7.597 13.077 7.659 QT
13.014 7.722 12.952 7.722 QT
12.764 7.722 L
12.561 7.722 12.561 7.456 QT
12.78 6.05 12.78 5.456 QT
12.78 4.753 12.491 4.394 QT
12.202 4.034 11.733 3.941 QT
11.264 3.847 10.514 3.847 QT
9.327 3.847 L
8.795 3.847 8.608 3.941 QT
8.42 4.034 8.295 4.519 QT
5.545 15.503 L
5.53 15.534 5.53 15.573 QT
5.53 15.612 5.514 15.675 QT
5.514 15.925 5.811 16.003 QT
6.327 16.097 8.03 16.097 QT
8.217 16.097 8.217 16.362 QT
8.155 16.644 8.116 16.722 QT
8.077 16.8 7.889 16.8 QT
0.811 16.8 L
0.608 16.8 0.608 16.534 QT
cp
f
GR
GS
[0.6 0 0 0.6 217.50015 300.6] CT
0.149 GC
N
13.014 18.128 M
13.014 18.737 13.327 19.159 QT
13.639 19.581 14.217 19.581 QT
15.045 19.581 15.819 19.198 QT
16.592 18.816 17.077 18.144 QT
17.124 18.097 17.186 18.097 QT
17.249 18.097 17.319 18.183 QT
17.389 18.269 17.389 18.331 QT
17.389 18.378 17.374 18.409 QT
16.858 19.128 15.991 19.542 QT
15.124 19.956 14.186 19.956 QT
13.514 19.956 13.006 19.636 QT
12.499 19.316 12.217 18.784 QT
11.936 18.253 11.936 17.581 QT
11.936 16.644 12.459 15.714 QT
12.983 14.784 13.858 14.198 QT
14.733 13.612 15.702 13.612 QT
16.327 13.612 16.834 13.917 QT
17.342 14.222 17.342 14.816 QT
17.342 15.206 17.116 15.472 QT
16.889 15.737 16.514 15.737 QT
16.295 15.737 16.139 15.597 QT
15.983 15.456 15.983 15.237 QT
15.983 14.909 16.225 14.675 QT
16.467 14.441 16.78 14.441 QT
16.811 14.441 L
16.639 14.206 16.334 14.089 QT
16.03 13.972 15.686 13.972 QT
14.874 13.972 14.256 14.675 QT
13.639 15.378 13.327 16.355 QT
13.014 17.331 13.014 18.128 QT
cp
f
GR
GS
[0.6 0 0 0.6 0 0] CT
0.149 GC
2 setlinecap
1 LJ
0.833 LW
N
91 466 M
91 39 L
S
GR
GS
[0.6 0 0 0.6 0 0] CT
0.149 GC
2 setlinecap
1 LJ
0.833 LW
N
634 466 M
634 39 L
S
GR
GS
[0.6 0 0 0.6 0 0] CT
0.149 GC
2 setlinecap
1 LJ
0.833 LW
N
91 466 M
96.43 466 L
S
GR
GS
[0.6 0 0 0.6 0 0] CT
0.149 GC
2 setlinecap
1 LJ
0.833 LW
N
91 412.625 M
96.43 412.625 L
S
GR
GS
[0.6 0 0 0.6 0 0] CT
0.149 GC
2 setlinecap
1 LJ
0.833 LW
N
91 359.25 M
96.43 359.25 L
S
GR
GS
[0.6 0 0 0.6 0 0] CT
0.149 GC
2 setlinecap
1 LJ
0.833 LW
N
91 305.875 M
96.43 305.875 L
S
GR
GS
[0.6 0 0 0.6 0 0] CT
0.149 GC
2 setlinecap
1 LJ
0.833 LW
N
91 252.5 M
96.43 252.5 L
S
GR
GS
[0.6 0 0 0.6 0 0] CT
0.149 GC
2 setlinecap
1 LJ
0.833 LW
N
91 199.125 M
96.43 199.125 L
S
GR
GS
[0.6 0 0 0.6 0 0] CT
0.149 GC
2 setlinecap
1 LJ
0.833 LW
N
91 145.75 M
96.43 145.75 L
S
GR
GS
[0.6 0 0 0.6 0 0] CT
0.149 GC
2 setlinecap
1 LJ
0.833 LW
N
91 92.375 M
96.43 92.375 L
S
GR
GS
[0.6 0 0 0.6 0 0] CT
0.149 GC
2 setlinecap
1 LJ
0.833 LW
N
91 39 M
96.43 39 L
S
GR
GS
[0.6 0 0 0.6 0 0] CT
0.149 GC
2 setlinecap
1 LJ
0.833 LW
N
634 466 M
628.57 466 L
S
GR
GS
[0.6 0 0 0.6 0 0] CT
0.149 GC
2 setlinecap
1 LJ
0.833 LW
N
634 412.625 M
628.57 412.625 L
S
GR
GS
[0.6 0 0 0.6 0 0] CT
0.149 GC
2 setlinecap
1 LJ
0.833 LW
N
634 359.25 M
628.57 359.25 L
S
GR
GS
[0.6 0 0 0.6 0 0] CT
0.149 GC
2 setlinecap
1 LJ
0.833 LW
N
634 305.875 M
628.57 305.875 L
S
GR
GS
[0.6 0 0 0.6 0 0] CT
0.149 GC
2 setlinecap
1 LJ
0.833 LW
N
634 252.5 M
628.57 252.5 L
S
GR
GS
[0.6 0 0 0.6 0 0] CT
0.149 GC
2 setlinecap
1 LJ
0.833 LW
N
634 199.125 M
628.57 199.125 L
S
GR
GS
[0.6 0 0 0.6 0 0] CT
0.149 GC
2 setlinecap
1 LJ
0.833 LW
N
634 145.75 M
628.57 145.75 L
S
GR
GS
[0.6 0 0 0.6 0 0] CT
0.149 GC
2 setlinecap
1 LJ
0.833 LW
N
634 92.375 M
628.57 92.375 L
S
GR
GS
[0.6 0 0 0.6 0 0] CT
0.149 GC
2 setlinecap
1 LJ
0.833 LW
N
634 39 M
628.57 39 L
S
GR
GS
[0.6 0 0 0.6 50.2 279.6] CT
0.149 GC
/Helvetica 20 F
GS
[1 0 0 1 0 0] CT
-12 8 moveto 
1 -1 scale
(0) t 
GR
GR
GS
[0.6 0 0 0.6 50.2 247.575] CT
0.149 GC
/Helvetica 20 F
GS
[1 0 0 1 0 0] CT
-28 8 moveto 
1 -1 scale
(0.2) t 
GR
GR
GS
[0.6 0 0 0.6 50.2 215.55] CT
0.149 GC
/Helvetica 20 F
GS
[1 0 0 1 0 0] CT
-28 8 moveto 
1 -1 scale
(0.4) t 
GR
GR
GS
[0.6 0 0 0.6 50.2 183.525] CT
0.149 GC
/Helvetica 20 F
GS
[1 0 0 1 0 0] CT
-28 8 moveto 
1 -1 scale
(0.6) t 
GR
GR
GS
[0.6 0 0 0.6 50.2 151.5] CT
0.149 GC
/Helvetica 20 F
GS
[1 0 0 1 0 0] CT
-28 8 moveto 
1 -1 scale
(0.8) t 
GR
GR
GS
[0.6 0 0 0.6 50.2 119.475] CT
0.149 GC
/Helvetica 20 F
GS
[1 0 0 1 0 0] CT
-12 8 moveto 
1 -1 scale
(1) t 
GR
GR
GS
[0.6 0 0 0.6 50.2 87.44999] CT
0.149 GC
/Helvetica 20 F
GS
[1 0 0 1 0 0] CT
-28 8 moveto 
1 -1 scale
(1.2) t 
GR
GR
GS
[0.6 0 0 0.6 50.2 55.425] CT
0.149 GC
/Helvetica 20 F
GS
[1 0 0 1 0 0] CT
-28 8 moveto 
1 -1 scale
(1.4) t 
GR
GR
GS
[0.6 0 0 0.6 50.2 23.4] CT
0.149 GC
/Helvetica 20 F
GS
[1 0 0 1 0 0] CT
-28 8 moveto 
1 -1 scale
(1.6) t 
GR
GR
GS
[0 -0.6 0.6 0 30.4 151.49987] CT
0.149 GC
N
-55.007 -11.513 M
-55.007 -10.309 -54.546 -9.403 QT
-54.085 -8.497 -53.202 -7.981 QT
-52.319 -7.466 -51.116 -7.466 QT
-49.85 -7.466 -48.686 -8.106 QT
-47.522 -8.747 -46.694 -9.833 QT
-45.866 -10.919 -45.569 -12.122 QT
-45.522 -12.247 -45.413 -12.247 QT
-45.163 -12.247 L
-45.085 -12.247 -45.038 -12.192 QT
-44.991 -12.138 -44.991 -12.059 QT
-44.991 -12.044 -45.007 -12.013 QT
-45.35 -10.622 -46.335 -9.403 QT
-47.319 -8.184 -48.686 -7.474 QT
-50.054 -6.763 -51.491 -6.763 QT
-53.054 -6.763 -54.296 -7.466 QT
-55.538 -8.169 -56.225 -9.419 QT
-56.913 -10.669 -56.913 -12.247 QT
-56.913 -13.919 -56.163 -15.567 QT
-55.413 -17.216 -54.139 -18.497 QT
-52.866 -19.778 -51.241 -20.544 QT
-49.616 -21.309 -47.944 -21.309 QT
-47.288 -21.309 -46.679 -21.106 QT
-46.069 -20.903 -45.554 -20.489 QT
-45.038 -20.075 -44.71 -19.544 QT
-43.116 -21.263 L
-43.116 -21.309 -43.022 -21.309 QT
-42.913 -21.309 L
-42.835 -21.309 -42.78 -21.239 QT
-42.725 -21.169 -42.725 -21.091 QT
-44.085 -15.7 L
-44.085 -15.559 -44.241 -15.559 QT
-44.6 -15.559 L
-44.757 -15.559 -44.757 -15.778 QT
-44.679 -16.231 -44.679 -16.841 QT
-44.679 -17.809 -45.014 -18.677 QT
-45.35 -19.544 -46.046 -20.075 QT
-46.741 -20.606 -47.757 -20.606 QT
-49.382 -20.606 -50.741 -19.786 QT
-52.1 -18.966 -53.038 -17.63 QT
-53.975 -16.294 -54.491 -14.669 QT
-55.007 -13.044 -55.007 -11.513 QT
cp
f
GR
GS
[0 -0.6 0.6 0 30.4 151.49987] CT
0.149 GC
N
-42.415 -5.059 M
-42.04 -4.419 -40.9 -4.419 QT
-40.415 -4.419 -39.97 -4.583 QT
-39.525 -4.747 -39.236 -5.083 QT
-38.947 -5.419 -38.947 -5.903 QT
-38.947 -6.263 -39.204 -6.489 QT
-39.462 -6.716 -39.837 -6.809 QT
-40.603 -6.95 L
-41.118 -7.091 -41.454 -7.442 QT
-41.79 -7.794 -41.79 -8.309 QT
-41.79 -8.919 -41.454 -9.403 QT
-41.118 -9.888 -40.564 -10.138 QT
-40.009 -10.388 -39.415 -10.388 QT
-38.775 -10.388 -38.275 -10.083 QT
-37.775 -9.778 -37.775 -9.184 QT
-37.775 -8.856 -37.954 -8.614 QT
-38.134 -8.372 -38.447 -8.372 QT
-38.634 -8.372 -38.767 -8.489 QT
-38.9 -8.606 -38.9 -8.794 QT
-38.9 -8.966 -38.806 -9.114 QT
-38.712 -9.263 -38.564 -9.356 QT
-38.415 -9.45 -38.243 -9.45 QT
-38.368 -9.747 -38.704 -9.888 QT
-39.04 -10.028 -39.431 -10.028 QT
-39.79 -10.028 -40.15 -9.88 QT
-40.509 -9.731 -40.72 -9.458 QT
-40.931 -9.184 -40.931 -8.809 QT
-40.931 -8.559 -40.751 -8.364 QT
-40.572 -8.169 -40.322 -8.091 QT
-39.509 -7.919 L
-39.118 -7.841 -38.79 -7.638 QT
-38.462 -7.434 -38.275 -7.114 QT
-38.087 -6.794 -38.087 -6.388 QT
-38.087 -5.856 -38.376 -5.356 QT
-38.665 -4.856 -39.087 -4.544 QT
-39.837 -4.044 -40.915 -4.044 QT
-41.665 -4.044 -42.29 -4.388 QT
-42.915 -4.731 -42.915 -5.403 QT
-42.915 -5.794 -42.689 -6.075 QT
-42.462 -6.356 -42.087 -6.356 QT
-41.853 -6.356 -41.704 -6.216 QT
-41.556 -6.075 -41.556 -5.856 QT
-41.556 -5.528 -41.79 -5.294 QT
-42.025 -5.059 -42.353 -5.059 QT
-42.415 -5.059 L
cp
f
GR
GS
[0 -0.6 0.6 0 30.4 151.49987] CT
0.149 GC
N
-27.046 -2.2 M
-27.046 -22.2 L
-24.311 -22.2 L
-24.311 -21.403 L
-26.233 -21.403 L
-26.233 -2.997 L
-24.311 -2.997 L
-24.311 -2.2 L
-27.046 -2.2 L
cp
f
GR
GS
[0 -0.6 0.6 0 30.4 151.49987] CT
0.149 GC
N
-21.771 -7.2 M
-21.771 -19.044 L
-21.771 -19.575 -21.928 -19.817 QT
-22.084 -20.059 -22.388 -20.106 QT
-22.693 -20.153 -23.334 -20.153 QT
-23.334 -20.856 L
-20.365 -21.075 L
-20.365 -14.825 L
-20.037 -15.184 -19.592 -15.466 QT
-19.146 -15.747 -18.638 -15.895 QT
-18.131 -16.044 -17.615 -16.044 QT
-16.709 -16.044 -15.943 -15.677 QT
-15.178 -15.309 -14.607 -14.677 QT
-14.037 -14.044 -13.724 -13.224 QT
-13.412 -12.403 -13.412 -11.513 QT
-13.412 -10.309 -13.998 -9.263 QT
-14.584 -8.216 -15.607 -7.599 QT
-16.631 -6.981 -17.849 -6.981 QT
-18.615 -6.981 -19.326 -7.372 QT
-20.037 -7.763 -20.506 -8.403 QT
-21.193 -7.2 L
-21.771 -7.2 L
cp
-20.318 -9.169 M
-19.974 -8.434 -19.349 -7.966 QT
-18.724 -7.497 -17.974 -7.497 QT
-16.928 -7.497 -16.295 -8.099 QT
-15.662 -8.7 -15.404 -9.606 QT
-15.146 -10.513 -15.146 -11.513 QT
-15.146 -13.2 -15.584 -14.091 QT
-15.787 -14.481 -16.123 -14.809 QT
-16.459 -15.138 -16.873 -15.333 QT
-17.287 -15.528 -17.74 -15.528 QT
-18.553 -15.528 -19.232 -15.099 QT
-19.912 -14.669 -20.318 -13.966 QT
-20.318 -9.169 L
cp
f
GR
GS
[0 -0.6 0.6 0 30.4 151.49987] CT
0.149 GC
N
-12.129 -7.2 M
-12.129 -7.903 L
-11.441 -7.903 -11.004 -8.013 QT
-10.566 -8.122 -10.566 -8.544 QT
-10.566 -13.997 L
-10.566 -14.763 -10.863 -14.942 QT
-11.16 -15.122 -12.035 -15.122 QT
-12.035 -15.825 L
-9.16 -16.044 L
-9.16 -8.544 L
-9.16 -8.122 -8.777 -8.013 QT
-8.395 -7.903 -7.754 -7.903 QT
-7.754 -7.2 L
-12.129 -7.2 L
cp
-11.27 -19.481 M
-11.27 -19.919 -10.941 -20.247 QT
-10.613 -20.575 -10.176 -20.575 QT
-9.895 -20.575 -9.629 -20.434 QT
-9.363 -20.294 -9.223 -20.028 QT
-9.082 -19.763 -9.082 -19.481 QT
-9.082 -19.044 -9.41 -18.716 QT
-9.738 -18.388 -10.176 -18.388 QT
-10.613 -18.388 -10.941 -18.716 QT
-11.27 -19.044 -11.27 -19.481 QT
cp
f
GR
GS
[0 -0.6 0.6 0 30.4 151.49987] CT
0.149 GC
N
-5.136 -9.606 M
-5.136 -15.122 L
-6.808 -15.122 L
-6.808 -15.638 L
-5.495 -15.638 -4.878 -16.856 QT
-4.261 -18.075 -4.261 -19.513 QT
-3.683 -19.513 L
-3.683 -15.825 L
-0.87 -15.825 L
-0.87 -15.122 L
-3.683 -15.122 L
-3.683 -9.638 L
-3.683 -8.809 -3.409 -8.184 QT
-3.136 -7.559 -2.401 -7.559 QT
-1.73 -7.559 -1.425 -8.224 QT
-1.12 -8.888 -1.12 -9.638 QT
-1.12 -10.825 L
-0.542 -10.825 L
-0.542 -9.606 L
-0.542 -8.981 -0.769 -8.372 QT
-0.995 -7.763 -1.448 -7.372 QT
-1.901 -6.981 -2.542 -6.981 QT
-3.745 -6.981 -4.44 -7.7 QT
-5.136 -8.419 -5.136 -9.606 QT
cp
f
GR
GS
[0 -0.6 0.6 0 30.4 151.49987] CT
0.149 GC
N
1.72 -2.606 M
1.72 -2.653 1.736 -2.684 QT
8.689 -21.95 L
8.736 -22.075 8.829 -22.138 QT
8.923 -22.2 9.048 -22.2 QT
9.236 -22.2 9.345 -22.091 QT
9.454 -21.981 9.454 -21.794 QT
9.454 -21.716 L
2.501 -2.45 L
2.376 -2.2 2.126 -2.2 QT
1.954 -2.2 1.837 -2.317 QT
1.72 -2.434 1.72 -2.606 QT
cp
f
GR
GS
[0 -0.6 0.6 0 30.4 151.49987] CT
0.149 GC
N
11.267 -7.138 M
11.267 -10.403 L
11.267 -10.559 11.439 -10.559 QT
11.673 -10.559 L
11.798 -10.559 11.83 -10.403 QT
12.392 -7.497 14.533 -7.497 QT
15.486 -7.497 16.119 -7.927 QT
16.751 -8.356 16.751 -9.263 QT
16.751 -9.903 16.259 -10.356 QT
15.767 -10.809 15.08 -10.981 QT
13.736 -11.247 L
13.064 -11.388 12.517 -11.692 QT
11.97 -11.997 11.619 -12.497 QT
11.267 -12.997 11.267 -13.669 QT
11.267 -14.544 11.728 -15.106 QT
12.189 -15.669 12.931 -15.919 QT
13.673 -16.169 14.533 -16.169 QT
15.564 -16.169 16.314 -15.622 QT
16.892 -16.122 L
16.892 -16.169 16.986 -16.169 QT
17.142 -16.169 L
17.205 -16.169 17.251 -16.114 QT
17.298 -16.059 17.298 -15.997 QT
17.298 -13.388 L
17.298 -13.2 17.142 -13.2 QT
16.892 -13.2 L
16.72 -13.2 16.72 -13.388 QT
16.72 -14.434 16.142 -15.067 QT
15.564 -15.7 14.517 -15.7 QT
13.611 -15.7 12.955 -15.364 QT
12.298 -15.028 12.298 -14.216 QT
12.298 -13.669 12.767 -13.309 QT
13.236 -12.95 13.876 -12.794 QT
15.236 -12.544 L
15.923 -12.388 16.509 -12.013 QT
17.095 -11.638 17.447 -11.075 QT
17.798 -10.513 17.798 -9.794 QT
17.798 -9.075 17.548 -8.544 QT
17.298 -8.013 16.853 -7.661 QT
16.408 -7.309 15.798 -7.145 QT
15.189 -6.981 14.533 -6.981 QT
13.283 -6.981 12.392 -7.809 QT
11.658 -7.028 L
11.658 -6.981 11.548 -6.981 QT
11.439 -6.981 L
11.267 -6.981 11.267 -7.138 QT
cp
f
GR
GS
[0 -0.6 0.6 0 30.4 151.49987] CT
0.149 GC
N
19.609 -2.606 M
19.609 -2.653 19.625 -2.684 QT
26.578 -21.95 L
26.625 -22.075 26.718 -22.138 QT
26.812 -22.2 26.937 -22.2 QT
27.125 -22.2 27.234 -22.091 QT
27.343 -21.981 27.343 -21.794 QT
27.343 -21.716 L
20.39 -2.45 L
20.265 -2.2 20.015 -2.2 QT
19.843 -2.2 19.726 -2.317 QT
19.609 -2.434 19.609 -2.606 QT
cp
f
GR
GS
[0 -0.6 0.6 0 30.4 151.49987] CT
0.149 GC
N
29.093 -7.2 M
29.093 -7.903 L
31.156 -7.903 31.156 -8.544 QT
31.156 -19.528 L
31.156 -20.153 29.093 -20.153 QT
29.093 -20.856 L
35.093 -20.856 L
35.093 -20.153 L
33.031 -20.153 33.031 -19.528 QT
33.031 -14.669 L
38.922 -14.669 L
38.922 -19.528 L
38.922 -20.153 36.859 -20.153 QT
36.859 -20.856 L
42.843 -20.856 L
42.843 -20.153 L
40.797 -20.153 40.797 -19.528 QT
40.797 -8.544 L
40.797 -7.903 42.843 -7.903 QT
42.843 -7.2 L
36.859 -7.2 L
36.859 -7.903 L
38.922 -7.903 38.922 -8.544 QT
38.922 -13.966 L
33.031 -13.966 L
33.031 -8.544 L
33.031 -7.903 35.093 -7.903 QT
35.093 -7.2 L
29.093 -7.2 L
cp
f
GR
GS
[0 -0.6 0.6 0 30.4 151.49987] CT
0.149 GC
N
44.265 -7.2 M
44.047 -7.2 44.047 -7.419 QT
44.047 -7.575 L
44.047 -7.653 44.093 -7.716 QT
49.687 -15.294 L
47.89 -15.294 L
47.047 -15.294 46.492 -15.184 QT
45.937 -15.075 45.578 -14.778 QT
45.218 -14.481 45.062 -13.958 QT
44.906 -13.434 44.906 -12.528 QT
44.328 -12.528 L
44.547 -15.825 L
51.25 -15.825 L
51.343 -15.825 51.406 -15.763 QT
51.468 -15.7 51.468 -15.606 QT
51.468 -15.481 L
51.468 -15.419 51.422 -15.341 QT
45.828 -7.778 L
47.75 -7.778 L
48.609 -7.778 49.195 -7.888 QT
49.781 -7.997 50.187 -8.403 QT
50.562 -8.778 50.703 -9.427 QT
50.843 -10.075 50.922 -11.013 QT
51.5 -11.013 L
51.156 -7.2 L
44.265 -7.2 L
cp
f
GR
GS
[0 -0.6 0.6 0 30.4 151.49987] CT
0.149 GC
N
52.81 -2.2 M
52.81 -2.997 L
54.764 -2.997 L
54.764 -21.403 L
52.81 -21.403 L
52.81 -22.2 L
55.56 -22.2 L
55.56 -2.2 L
52.81 -2.2 L
cp
f
GR
GS
[0.6 0 0 0.6 0 0] CT
0 0.447 0.741 RC
1 LJ
2.5 LW
N
91 466 M
93.715 466 L
96.43 466 L
99.145 466 L
101.86 466 L
104.575 466 L
107.29 466 L
110.005 466 L
112.72 466 L
115.435 466 L
118.15 466 L
120.865 466 L
123.58 466 L
126.295 466 L
129.01 466 L
131.725 466 L
134.44 466 L
137.155 466 L
139.87 466 L
142.585 466 L
145.3 466 L
148.015 466 L
150.73 466 L
153.445 466 L
156.16 466 L
158.875 466 L
161.59 466 L
164.305 466 L
167.02 466 L
169.735 466 L
172.45 466 L
175.165 466 L
177.88 457.921 L
180.595 448.306 L
183.31 438.873 L
186.025 429.619 L
188.74 420.539 L
191.455 411.63 L
194.17 402.888 L
196.885 394.307 L
199.6 385.884 L
202.315 377.614 L
205.03 369.493 L
207.745 361.517 L
210.46 353.682 L
213.175 345.984 L
215.89 338.419 L
218.605 330.983 L
221.32 323.673 L
224.035 316.485 L
226.75 309.415 L
229.465 302.46 L
232.18 295.618 L
234.895 288.884 L
237.61 282.256 L
240.325 275.731 L
243.04 269.307 L
245.755 262.979 L
248.47 256.746 L
251.185 250.606 L
253.9 244.555 L
256.615 238.592 L
259.33 232.713 L
262.045 226.918 L
264.76 221.203 L
267.475 215.567 L
270.19 210.007 L
272.905 204.523 L
275.62 199.111 L
278.335 193.77 L
281.05 188.499 L
283.765 183.295 L
286.48 178.158 L
289.195 173.084 L
291.91 168.074 L
294.625 163.126 L
297.34 158.237 L
300.055 153.408 L
302.77 148.635 L
305.485 143.919 L
308.2 139.258 L
310.915 134.65 L
313.63 130.095 L
316.345 125.591 L
319.06 121.137 L
321.775 116.733 L
324.49 112.377 L
327.205 108.067 L
329.92 103.804 L
332.635 99.587 L
335.35 95.413 L
338.065 91.283 L
340.78 87.196 L
343.495 83.15 L
346.21 79.145 L
348.925 75.18 L
351.64 71.255 L
354.355 67.368 L
357.07 63.519 L
359.785 59.707 L
362.5 55.932 L
365.215 59.707 L
367.93 63.519 L
370.645 67.368 L
373.36 71.255 L
376.075 75.18 L
378.79 79.145 L
381.505 83.15 L
384.22 87.196 L
386.935 91.283 L
389.65 95.413 L
392.365 99.587 L
395.08 103.804 L
397.795 108.067 L
400.51 112.377 L
403.225 116.733 L
405.94 121.137 L
408.655 125.591 L
411.37 130.095 L
414.085 134.65 L
416.8 139.258 L
419.515 143.919 L
422.23 148.635 L
424.945 153.408 L
427.66 158.237 L
430.375 163.126 L
433.09 168.074 L
435.805 173.084 L
438.52 178.158 L
441.235 183.295 L
443.95 188.499 L
446.665 193.77 L
449.38 199.111 L
452.095 204.523 L
454.81 210.007 L
457.525 215.567 L
460.24 221.203 L
462.955 226.918 L
465.67 232.713 L
468.385 238.592 L
471.1 244.555 L
473.815 250.606 L
476.53 256.746 L
479.245 262.979 L
481.96 269.307 L
484.675 275.731 L
487.39 282.256 L
490.105 288.884 L
492.82 295.618 L
495.535 302.46 L
498.25 309.415 L
500.965 316.485 L
503.68 323.673 L
506.395 330.983 L
509.11 338.419 L
511.825 345.984 L
514.54 353.682 L
517.255 361.517 L
519.97 369.493 L
522.685 377.614 L
525.4 385.884 L
528.115 394.307 L
530.83 402.888 L
533.545 411.63 L
536.26 420.539 L
538.975 429.619 L
541.69 438.873 L
544.405 448.306 L
547.12 457.921 L
549.835 466 L
552.55 466 L
555.265 466 L
557.98 466 L
560.695 466 L
563.41 466 L
566.125 466 L
568.84 466 L
571.555 466 L
574.27 466 L
576.985 466 L
579.7 466 L
582.415 466 L
585.13 466 L
587.845 466 L
590.56 466 L
593.275 466 L
595.99 466 L
598.705 466 L
601.42 466 L
604.135 466 L
606.85 466 L
609.565 466 L
612.28 466 L
614.995 466 L
617.71 466 L
620.425 466 L
623.14 466 L
625.855 466 L
628.57 466 L
631.285 466 L
634 466 L
S
GR
%%Trailer
%%Pages: 1
%%EOF
