%!PS-Adobe-3.0 EPSF-3.0
%%Creator: (MATLAB, The Mathworks, Inc. Version 9.2.0.538062 \(R2017a\). Operating System: Windows 8)
%%Title: C:/Users/chees/Documents/DottoratoLoc/GNSS/authProtocol/latex/figures/CsDegStandard.eps
%%CreationDate: 2017-10-16T16:51:22
%%Pages: (atend)
%%BoundingBox: 0 0 284 284
%%LanguageLevel: 3
%%EndComments
%%BeginProlog
%%BeginResource: procset (Apache XML Graphics Std ProcSet) 1.2 0
%%Version: 1.2 0
%%Copyright: (Copyright 2001-2003,2010 The Apache Software Foundation. License terms: http://www.apache.org/licenses/LICENSE-2.0)
/bd{bind def}bind def
/ld{load def}bd
/GR/grestore ld
/M/moveto ld
/LJ/setlinejoin ld
/C/curveto ld
/f/fill ld
/LW/setlinewidth ld
/GC/setgray ld
/t/show ld
/N/newpath ld
/CT/concat ld
/cp/closepath ld
/S/stroke ld
/L/lineto ld
/CC/setcmykcolor ld
/A/ashow ld
/GS/gsave ld
/RC/setrgbcolor ld
/RM/rmoveto ld
/ML/setmiterlimit ld
/re {4 2 roll M
1 index 0 rlineto
0 exch rlineto
neg 0 rlineto
cp } bd
/_ctm matrix def
/_tm matrix def
/BT { _ctm currentmatrix pop matrix _tm copy pop 0 0 moveto } bd
/ET { _ctm setmatrix } bd
/iTm { _ctm setmatrix _tm concat } bd
/Tm { _tm astore pop iTm 0 0 moveto } bd
/ux 0.0 def
/uy 0.0 def
/F {
  /Tp exch def
  /Tf exch def
  Tf findfont Tp scalefont setfont
  /cf Tf def  /cs Tp def
} bd
/ULS {currentpoint /uy exch def /ux exch def} bd
/ULE {
  /Tcx currentpoint pop def
  gsave
  newpath
  cf findfont cs scalefont dup
  /FontMatrix get 0 get /Ts exch def /FontInfo get dup
  /UnderlinePosition get Ts mul /To exch def
  /UnderlineThickness get Ts mul /Tt exch def
  ux uy To add moveto  Tcx uy To add lineto
  Tt setlinewidth stroke
  grestore
} bd
/OLE {
  /Tcx currentpoint pop def
  gsave
  newpath
  cf findfont cs scalefont dup
  /FontMatrix get 0 get /Ts exch def /FontInfo get dup
  /UnderlinePosition get Ts mul /To exch def
  /UnderlineThickness get Ts mul /Tt exch def
  ux uy To add cs add moveto Tcx uy To add cs add lineto
  Tt setlinewidth stroke
  grestore
} bd
/SOE {
  /Tcx currentpoint pop def
  gsave
  newpath
  cf findfont cs scalefont dup
  /FontMatrix get 0 get /Ts exch def /FontInfo get dup
  /UnderlinePosition get Ts mul /To exch def
  /UnderlineThickness get Ts mul /Tt exch def
  ux uy To add cs 10 mul 26 idiv add moveto Tcx uy To add cs 10 mul 26 idiv add lineto
  Tt setlinewidth stroke
  grestore
} bd
/QT {
/Y22 exch store
/X22 exch store
/Y21 exch store
/X21 exch store
currentpoint
/Y21 load 2 mul add 3 div exch
/X21 load 2 mul add 3 div exch
/X21 load 2 mul /X22 load add 3 div
/Y21 load 2 mul /Y22 load add 3 div
/X22 load /Y22 load curveto
} bd
/SSPD {
dup length /d exch dict def
{
/v exch def
/k exch def
currentpagedevice k known {
/cpdv currentpagedevice k get def
v cpdv ne {
/upd false def
/nullv v type /nulltype eq def
/nullcpdv cpdv type /nulltype eq def
nullv nullcpdv or
{
/upd true def
} {
/sametype v type cpdv type eq def
sametype {
v type /arraytype eq {
/vlen v length def
/cpdvlen cpdv length def
vlen cpdvlen eq {
0 1 vlen 1 sub {
/i exch def
/obj v i get def
/cpdobj cpdv i get def
obj cpdobj ne {
/upd true def
exit
} if
} for
} {
/upd true def
} ifelse
} {
v type /dicttype eq {
v {
/dv exch def
/dk exch def
/cpddv cpdv dk get def
dv cpddv ne {
/upd true def
exit
} if
} forall
} {
/upd true def
} ifelse
} ifelse
} if
} ifelse
upd true eq {
d k v put
} if
} if
} if
} forall
d length 0 gt {
d setpagedevice
} if
} bd
/RE { % /NewFontName [NewEncodingArray] /FontName RE -
  findfont dup length dict begin
  {
    1 index /FID ne
    {def} {pop pop} ifelse
  } forall
  /Encoding exch def
  /FontName 1 index def
  currentdict definefont pop
  end
} bind def
%%EndResource
%%BeginResource: procset (Apache XML Graphics EPS ProcSet) 1.0 0
%%Version: 1.0 0
%%Copyright: (Copyright 2002-2003 The Apache Software Foundation. License terms: http://www.apache.org/licenses/LICENSE-2.0)
/BeginEPSF { %def
/b4_Inc_state save def         % Save state for cleanup
/dict_count countdictstack def % Count objects on dict stack
/op_count count 1 sub def      % Count objects on operand stack
userdict begin                 % Push userdict on dict stack
/showpage { } def              % Redefine showpage, { } = null proc
0 setgray 0 setlinecap         % Prepare graphics state
1 setlinewidth 0 setlinejoin
10 setmiterlimit [ ] 0 setdash newpath
/languagelevel where           % If level not equal to 1 then
{pop languagelevel             % set strokeadjust and
1 ne                           % overprint to their defaults.
{false setstrokeadjust false setoverprint
} if
} if
} bd
/EndEPSF { %def
count op_count sub {pop} repeat            % Clean up stacks
countdictstack dict_count sub {end} repeat
b4_Inc_state restore
} bd
%%EndResource
%FOPBeginFontDict
%%IncludeResource: font Courier-Bold
%%IncludeResource: font Helvetica
%%IncludeResource: font Courier-BoldOblique
%%IncludeResource: font Courier-Oblique
%%IncludeResource: font Times-Roman
%%IncludeResource: font Helvetica-BoldOblique
%%IncludeResource: font Helvetica-Bold
%%IncludeResource: font Helvetica-Oblique
%%IncludeResource: font Times-BoldItalic
%%IncludeResource: font Courier
%%IncludeResource: font Times-Italic
%%IncludeResource: font Times-Bold
%%IncludeResource: font Symbol
%%IncludeResource: font ZapfDingbats
%FOPEndFontDict
%%BeginResource: encoding WinAnsiEncoding
/WinAnsiEncoding [
/.notdef /.notdef /.notdef /.notdef /.notdef
/.notdef /.notdef /.notdef /.notdef /.notdef
/.notdef /.notdef /.notdef /.notdef /.notdef
/.notdef /.notdef /.notdef /.notdef /.notdef
/.notdef /.notdef /.notdef /.notdef /.notdef
/.notdef /.notdef /.notdef /.notdef /.notdef
/.notdef /.notdef /space /exclam /quotedbl
/numbersign /dollar /percent /ampersand /quotesingle
/parenleft /parenright /asterisk /plus /comma
/hyphen /period /slash /zero /one
/two /three /four /five /six
/seven /eight /nine /colon /semicolon
/less /equal /greater /question /at
/A /B /C /D /E
/F /G /H /I /J
/K /L /M /N /O
/P /Q /R /S /T
/U /V /W /X /Y
/Z /bracketleft /backslash /bracketright /asciicircum
/underscore /quoteleft /a /b /c
/d /e /f /g /h
/i /j /k /l /m
/n /o /p /q /r
/s /t /u /v /w
/x /y /z /braceleft /bar
/braceright /asciitilde /bullet /Euro /bullet
/quotesinglbase /florin /quotedblbase /ellipsis /dagger
/daggerdbl /circumflex /perthousand /Scaron /guilsinglleft
/OE /bullet /Zcaron /bullet /bullet
/quoteleft /quoteright /quotedblleft /quotedblright /bullet
/endash /emdash /asciitilde /trademark /scaron
/guilsinglright /oe /bullet /zcaron /Ydieresis
/space /exclamdown /cent /sterling /currency
/yen /brokenbar /section /dieresis /copyright
/ordfeminine /guillemotleft /logicalnot /sfthyphen /registered
/macron /degree /plusminus /twosuperior /threesuperior
/acute /mu /paragraph /middot /cedilla
/onesuperior /ordmasculine /guillemotright /onequarter /onehalf
/threequarters /questiondown /Agrave /Aacute /Acircumflex
/Atilde /Adieresis /Aring /AE /Ccedilla
/Egrave /Eacute /Ecircumflex /Edieresis /Igrave
/Iacute /Icircumflex /Idieresis /Eth /Ntilde
/Ograve /Oacute /Ocircumflex /Otilde /Odieresis
/multiply /Oslash /Ugrave /Uacute /Ucircumflex
/Udieresis /Yacute /Thorn /germandbls /agrave
/aacute /acircumflex /atilde /adieresis /aring
/ae /ccedilla /egrave /eacute /ecircumflex
/edieresis /igrave /iacute /icircumflex /idieresis
/eth /ntilde /ograve /oacute /ocircumflex
/otilde /odieresis /divide /oslash /ugrave
/uacute /ucircumflex /udieresis /yacute /thorn
/ydieresis
] def
%%EndResource
%FOPBeginFontReencode
/Courier-Bold findfont
dup length dict begin
  {1 index /FID ne {def} {pop pop} ifelse} forall
  /Encoding WinAnsiEncoding def
  currentdict
end
/Courier-Bold exch definefont pop
/Helvetica findfont
dup length dict begin
  {1 index /FID ne {def} {pop pop} ifelse} forall
  /Encoding WinAnsiEncoding def
  currentdict
end
/Helvetica exch definefont pop
/Courier-BoldOblique findfont
dup length dict begin
  {1 index /FID ne {def} {pop pop} ifelse} forall
  /Encoding WinAnsiEncoding def
  currentdict
end
/Courier-BoldOblique exch definefont pop
/Courier-Oblique findfont
dup length dict begin
  {1 index /FID ne {def} {pop pop} ifelse} forall
  /Encoding WinAnsiEncoding def
  currentdict
end
/Courier-Oblique exch definefont pop
/Times-Roman findfont
dup length dict begin
  {1 index /FID ne {def} {pop pop} ifelse} forall
  /Encoding WinAnsiEncoding def
  currentdict
end
/Times-Roman exch definefont pop
/Helvetica-BoldOblique findfont
dup length dict begin
  {1 index /FID ne {def} {pop pop} ifelse} forall
  /Encoding WinAnsiEncoding def
  currentdict
end
/Helvetica-BoldOblique exch definefont pop
/Helvetica-Bold findfont
dup length dict begin
  {1 index /FID ne {def} {pop pop} ifelse} forall
  /Encoding WinAnsiEncoding def
  currentdict
end
/Helvetica-Bold exch definefont pop
/Helvetica-Oblique findfont
dup length dict begin
  {1 index /FID ne {def} {pop pop} ifelse} forall
  /Encoding WinAnsiEncoding def
  currentdict
end
/Helvetica-Oblique exch definefont pop
/Times-BoldItalic findfont
dup length dict begin
  {1 index /FID ne {def} {pop pop} ifelse} forall
  /Encoding WinAnsiEncoding def
  currentdict
end
/Times-BoldItalic exch definefont pop
/Courier findfont
dup length dict begin
  {1 index /FID ne {def} {pop pop} ifelse} forall
  /Encoding WinAnsiEncoding def
  currentdict
end
/Courier exch definefont pop
/Times-Italic findfont
dup length dict begin
  {1 index /FID ne {def} {pop pop} ifelse} forall
  /Encoding WinAnsiEncoding def
  currentdict
end
/Times-Italic exch definefont pop
/Times-Bold findfont
dup length dict begin
  {1 index /FID ne {def} {pop pop} ifelse} forall
  /Encoding WinAnsiEncoding def
  currentdict
end
/Times-Bold exch definefont pop
%FOPEndFontReencode
%%EndProlog
%%Page: 1 1
%%PageBoundingBox: 0 0 284 284
%%BeginPageSetup
[1 0 0 -1 0 284] CT
%%EndPageSetup
GS
[0.60127 0 0 0.60127 0 0.20001] CT
N
0 0 M
472 0 L
472 472 L
0 472 L
0 0 L
cp
clip
1 GC
N
0 0 472 472 re
f
GR
GS
[0.60127 0 0 0.60127 0 0.20001] CT
1 GC
N
0 0 472 472 re
f
GR
GS
[0.60127 0 0 0.60127 0 0.20001] CT
1 GC
N
64 410 M
428 410 L
428 46 L
64 46 L
cp
f
GR
GS
[0.60127 0 0 0.60127 0 0.20001] CT
0.873 GC
1 LJ
0.833 LW
N
64 410 M
64 46 L
S
GR
GS
[0.60127 0 0 0.60127 0 0.20001] CT
0.873 GC
1 LJ
0.833 LW
N
155 410 M
155 46 L
S
GR
GS
[0.60127 0 0 0.60127 0 0.20001] CT
0.873 GC
1 LJ
0.833 LW
N
246 410 M
246 46 L
S
GR
GS
[0.60127 0 0 0.60127 0 0.20001] CT
0.873 GC
1 LJ
0.833 LW
N
337 410 M
337 46 L
S
GR
GS
[0.60127 0 0 0.60127 0 0.20001] CT
0.873 GC
1 LJ
0.833 LW
N
428 410 M
428 46 L
S
GR
GS
[0.60127 0 0 0.60127 0 0.20001] CT
0.873 GC
1 LJ
0.833 LW
N
428 410 M
64 410 L
S
GR
GS
[0.60127 0 0 0.60127 0 0.20001] CT
0.873 GC
1 LJ
0.833 LW
N
428 364.5 M
64 364.5 L
S
GR
GS
[0.60127 0 0 0.60127 0 0.20001] CT
0.873 GC
1 LJ
0.833 LW
N
428 319 M
64 319 L
S
GR
GS
[0.60127 0 0 0.60127 0 0.20001] CT
0.873 GC
1 LJ
0.833 LW
N
428 273.5 M
64 273.5 L
S
GR
GS
[0.60127 0 0 0.60127 0 0.20001] CT
0.873 GC
1 LJ
0.833 LW
N
428 228 M
64 228 L
S
GR
GS
[0.60127 0 0 0.60127 0 0.20001] CT
0.873 GC
1 LJ
0.833 LW
N
428 182.5 M
64 182.5 L
S
GR
GS
[0.60127 0 0 0.60127 0 0.20001] CT
0.873 GC
1 LJ
0.833 LW
N
428 137 M
64 137 L
S
GR
GS
[0.60127 0 0 0.60127 0 0.20001] CT
0.873 GC
1 LJ
0.833 LW
N
428 91.5 M
64 91.5 L
S
GR
GS
[0.60127 0 0 0.60127 0 0.20001] CT
0.873 GC
1 LJ
0.833 LW
N
428 46 M
64 46 L
S
GR
GS
[0.60127 0 0 0.60127 0 0.20001] CT
0.149 GC
2 setlinecap
1 LJ
0.833 LW
N
64 410 M
428 410 L
S
GR
GS
[0.60127 0 0 0.60127 0 0.20001] CT
0.149 GC
2 setlinecap
1 LJ
0.833 LW
N
64 46 M
428 46 L
S
GR
GS
[0.60127 0 0 0.60127 0 0.20001] CT
0.149 GC
2 setlinecap
1 LJ
0.833 LW
N
64 410 M
64 406.36 L
S
GR
GS
[0.60127 0 0 0.60127 0 0.20001] CT
0.149 GC
2 setlinecap
1 LJ
0.833 LW
N
155 410 M
155 406.36 L
S
GR
GS
[0.60127 0 0 0.60127 0 0.20001] CT
0.149 GC
2 setlinecap
1 LJ
0.833 LW
N
246 410 M
246 406.36 L
S
GR
GS
[0.60127 0 0 0.60127 0 0.20001] CT
0.149 GC
2 setlinecap
1 LJ
0.833 LW
N
337 410 M
337 406.36 L
S
GR
GS
[0.60127 0 0 0.60127 0 0.20001] CT
0.149 GC
2 setlinecap
1 LJ
0.833 LW
N
428 410 M
428 406.36 L
S
GR
GS
[0.60127 0 0 0.60127 0 0.20001] CT
0.149 GC
2 setlinecap
1 LJ
0.833 LW
N
64 46 M
64 49.64 L
S
GR
GS
[0.60127 0 0 0.60127 0 0.20001] CT
0.149 GC
2 setlinecap
1 LJ
0.833 LW
N
155 46 M
155 49.64 L
S
GR
GS
[0.60127 0 0 0.60127 0 0.20001] CT
0.149 GC
2 setlinecap
1 LJ
0.833 LW
N
246 46 M
246 49.64 L
S
GR
GS
[0.60127 0 0 0.60127 0 0.20001] CT
0.149 GC
2 setlinecap
1 LJ
0.833 LW
N
337 46 M
337 49.64 L
S
GR
GS
[0.60127 0 0 0.60127 0 0.20001] CT
0.149 GC
2 setlinecap
1 LJ
0.833 LW
N
428 46 M
428 49.64 L
S
GR
GS
[0.60127 0 0 0.60127 38.48135 250.72966] CT
0.149 GC
/Helvetica 16.667 F
GS
[1 0 0 1 0 0] CT
-8 18 moveto 
1 -1 scale
(-1) t 
GR
GR
GS
[0.60127 0 0 0.60127 93.19703 250.72966] CT
0.149 GC
/Helvetica 16.667 F
GS
[1 0 0 1 0 0] CT
-15 18 moveto 
1 -1 scale
(-0.5) t 
GR
GR
GS
[0.60127 0 0 0.60127 147.91271 250.72966] CT
0.149 GC
/Helvetica 16.667 F
GS
[1 0 0 1 0 0] CT
-5 18 moveto 
1 -1 scale
(0) t 
GR
GR
GS
[0.60127 0 0 0.60127 202.62838 250.72966] CT
0.149 GC
/Helvetica 16.667 F
GS
[1 0 0 1 0 0] CT
-12 18 moveto 
1 -1 scale
(0.5) t 
GR
GR
GS
[0.60127 0 0 0.60127 257.34406 250.72966] CT
0.149 GC
/Helvetica 16.667 F
GS
[1 0 0 1 0 0] CT
-5 18 moveto 
1 -1 scale
(1) t 
GR
GR
GS
[0.60127 0 0 0.60127 147.91281 264.95975] CT
0.149 GC
N
-18.676 16.35 M
-18.676 17.131 -18.395 17.795 QT
-18.113 18.459 -17.543 18.858 QT
-16.973 19.256 -16.207 19.256 QT
-15.692 19.256 -15.113 19.03 QT
-14.535 18.803 -14.035 18.53 QT
-13.535 18.256 -13.52 18.256 QT
-13.395 18.256 -13.324 18.397 QT
-13.254 18.537 -13.254 18.678 QT
-13.254 18.803 -13.317 18.834 QT
-14.754 19.866 -16.238 19.866 QT
-17.457 19.866 -18.434 19.295 QT
-19.41 18.725 -19.942 17.717 QT
-20.473 16.709 -20.473 15.506 QT
-20.473 14.303 -19.988 13.233 QT
-19.504 12.162 -18.653 11.366 QT
-17.801 10.569 -16.723 10.123 QT
-15.645 9.678 -14.457 9.678 QT
-13.16 9.678 L
-12.817 9.678 -12.817 10.037 QT
-12.817 10.225 -12.942 10.358 QT
-13.067 10.491 -13.254 10.491 QT
-14.504 10.491 L
-15.426 10.491 -16.176 10.897 QT
-16.926 11.303 -17.426 12.022 QT
-17.926 12.741 -18.207 13.647 QT
-14.145 13.647 L
-13.988 13.647 -13.895 13.741 QT
-13.801 13.834 -13.801 13.991 QT
-13.801 14.178 -13.926 14.311 QT
-14.051 14.444 -14.238 14.444 QT
-18.426 14.444 L
-18.676 15.631 -18.676 16.35 QT
cp
f
GR
GS
[0.60127 0 0 0.60127 147.91281 264.95975] CT
0.149 GC
N
-10.736 24.897 M
-10.736 24.819 -10.72 24.803 QT
-2.72 2.631 L
-2.674 2.491 -2.564 2.42 QT
-2.455 2.35 -2.314 2.35 QT
-2.111 2.35 -1.978 2.475 QT
-1.845 2.6 -1.845 2.803 QT
-1.845 2.897 L
-9.845 25.069 L
-9.97 25.35 -10.283 25.35 QT
-10.47 25.35 -10.603 25.217 QT
-10.736 25.084 -10.736 24.897 QT
cp
f
GR
GS
[0.60127 0 0 0.60127 147.91281 264.95975] CT
0.149 GC
N
0.696 19.303 M
0.696 19.241 0.735 19.092 QT
0.774 18.944 0.837 18.866 QT
0.899 18.787 1.009 18.787 QT
2.993 18.787 3.634 18.678 QT
4.243 18.522 4.368 18.022 QT
7.524 5.381 L
7.618 5.1 7.618 4.881 QT
7.618 4.694 6.806 4.694 QT
5.477 4.694 L
3.931 4.694 3.095 5.17 QT
2.259 5.647 1.868 6.42 QT
1.477 7.194 0.852 8.959 QT
0.774 9.162 0.618 9.162 QT
0.415 9.162 L
0.181 9.162 0.181 8.866 QT
1.821 4.1 L
1.868 3.881 2.056 3.881 QT
15.634 3.881 L
15.868 3.881 15.868 4.194 QT
15.102 8.959 L
15.102 9.022 15.024 9.092 QT
14.946 9.162 14.884 9.162 QT
14.665 9.162 L
14.446 9.162 14.446 8.866 QT
14.696 7.241 14.696 6.569 QT
14.696 5.756 14.36 5.342 QT
14.024 4.928 13.485 4.811 QT
12.946 4.694 12.071 4.694 QT
10.712 4.694 L
10.102 4.694 9.892 4.811 QT
9.681 4.928 9.524 5.491 QT
6.368 18.1 L
6.368 18.147 6.36 18.194 QT
6.352 18.241 6.321 18.303 QT
6.321 18.6 6.681 18.678 QT
7.274 18.787 9.227 18.787 QT
9.446 18.787 9.446 19.1 QT
9.368 19.412 9.321 19.506 QT
9.274 19.6 9.071 19.6 QT
0.931 19.6 L
0.696 19.6 0.696 19.303 QT
cp
f
GR
GS
[0.60127 0 0 0.60127 147.91281 264.95975] CT
0.149 GC
N
15.144 21.194 M
15.144 21.881 15.503 22.366 QT
15.863 22.85 16.519 22.85 QT
17.472 22.85 18.355 22.412 QT
19.238 21.975 19.785 21.209 QT
19.832 21.162 19.91 21.162 QT
19.988 21.162 20.074 21.248 QT
20.16 21.334 20.16 21.412 QT
20.16 21.475 20.128 21.506 QT
19.535 22.334 18.543 22.811 QT
17.55 23.287 16.488 23.287 QT
15.722 23.287 15.136 22.92 QT
14.55 22.553 14.23 21.944 QT
13.91 21.334 13.91 20.569 QT
13.91 19.491 14.511 18.428 QT
15.113 17.366 16.113 16.694 QT
17.113 16.022 18.222 16.022 QT
18.941 16.022 19.511 16.373 QT
20.082 16.725 20.082 17.397 QT
20.082 17.834 19.832 18.147 QT
19.582 18.459 19.144 18.459 QT
18.894 18.459 18.714 18.295 QT
18.535 18.131 18.535 17.881 QT
18.535 17.506 18.808 17.241 QT
19.082 16.975 19.457 16.975 QT
19.488 16.975 L
19.3 16.694 18.941 16.569 QT
18.582 16.444 18.207 16.444 QT
17.269 16.444 16.566 17.241 QT
15.863 18.037 15.503 19.155 QT
15.144 20.272 15.144 21.194 QT
cp
f
GR
GS
[0.60127 0 0 0.60127 0 0.20001] CT
0.149 GC
2 setlinecap
1 LJ
0.833 LW
N
64 410 M
64 46 L
S
GR
GS
[0.60127 0 0 0.60127 0 0.20001] CT
0.149 GC
2 setlinecap
1 LJ
0.833 LW
N
428 410 M
428 46 L
S
GR
GS
[0.60127 0 0 0.60127 0 0.20001] CT
0.149 GC
2 setlinecap
1 LJ
0.833 LW
N
64 410 M
67.64 410 L
S
GR
GS
[0.60127 0 0 0.60127 0 0.20001] CT
0.149 GC
2 setlinecap
1 LJ
0.833 LW
N
64 364.5 M
67.64 364.5 L
S
GR
GS
[0.60127 0 0 0.60127 0 0.20001] CT
0.149 GC
2 setlinecap
1 LJ
0.833 LW
N
64 319 M
67.64 319 L
S
GR
GS
[0.60127 0 0 0.60127 0 0.20001] CT
0.149 GC
2 setlinecap
1 LJ
0.833 LW
N
64 273.5 M
67.64 273.5 L
S
GR
GS
[0.60127 0 0 0.60127 0 0.20001] CT
0.149 GC
2 setlinecap
1 LJ
0.833 LW
N
64 228 M
67.64 228 L
S
GR
GS
[0.60127 0 0 0.60127 0 0.20001] CT
0.149 GC
2 setlinecap
1 LJ
0.833 LW
N
64 182.5 M
67.64 182.5 L
S
GR
GS
[0.60127 0 0 0.60127 0 0.20001] CT
0.149 GC
2 setlinecap
1 LJ
0.833 LW
N
64 137 M
67.64 137 L
S
GR
GS
[0.60127 0 0 0.60127 0 0.20001] CT
0.149 GC
2 setlinecap
1 LJ
0.833 LW
N
64 91.5 M
67.64 91.5 L
S
GR
GS
[0.60127 0 0 0.60127 0 0.20001] CT
0.149 GC
2 setlinecap
1 LJ
0.833 LW
N
64 46 M
67.64 46 L
S
GR
GS
[0.60127 0 0 0.60127 0 0.20001] CT
0.149 GC
2 setlinecap
1 LJ
0.833 LW
N
428 410 M
424.36 410 L
S
GR
GS
[0.60127 0 0 0.60127 0 0.20001] CT
0.149 GC
2 setlinecap
1 LJ
0.833 LW
N
428 364.5 M
424.36 364.5 L
S
GR
GS
[0.60127 0 0 0.60127 0 0.20001] CT
0.149 GC
2 setlinecap
1 LJ
0.833 LW
N
428 319 M
424.36 319 L
S
GR
GS
[0.60127 0 0 0.60127 0 0.20001] CT
0.149 GC
2 setlinecap
1 LJ
0.833 LW
N
428 273.5 M
424.36 273.5 L
S
GR
GS
[0.60127 0 0 0.60127 0 0.20001] CT
0.149 GC
2 setlinecap
1 LJ
0.833 LW
N
428 228 M
424.36 228 L
S
GR
GS
[0.60127 0 0 0.60127 0 0.20001] CT
0.149 GC
2 setlinecap
1 LJ
0.833 LW
N
428 182.5 M
424.36 182.5 L
S
GR
GS
[0.60127 0 0 0.60127 0 0.20001] CT
0.149 GC
2 setlinecap
1 LJ
0.833 LW
N
428 137 M
424.36 137 L
S
GR
GS
[0.60127 0 0 0.60127 0 0.20001] CT
0.149 GC
2 setlinecap
1 LJ
0.833 LW
N
428 91.5 M
424.36 91.5 L
S
GR
GS
[0.60127 0 0 0.60127 0 0.20001] CT
0.149 GC
2 setlinecap
1 LJ
0.833 LW
N
428 46 M
424.36 46 L
S
GR
GS
[0.60127 0 0 0.60127 34.47288 246.72119] CT
0.149 GC
/Helvetica 16.667 F
GS
[1 0 0 1 0 0] CT
-10 7 moveto 
1 -1 scale
(0) t 
GR
GR
GS
[0.60127 0 0 0.60127 34.47288 219.36335] CT
0.149 GC
/Helvetica 16.667 F
GS
[1 0 0 1 0 0] CT
-24 7 moveto 
1 -1 scale
(0.2) t 
GR
GR
GS
[0.60127 0 0 0.60127 34.47288 192.00551] CT
0.149 GC
/Helvetica 16.667 F
GS
[1 0 0 1 0 0] CT
-24 7 moveto 
1 -1 scale
(0.4) t 
GR
GR
GS
[0.60127 0 0 0.60127 34.47288 164.64767] CT
0.149 GC
/Helvetica 16.667 F
GS
[1 0 0 1 0 0] CT
-24 7 moveto 
1 -1 scale
(0.6) t 
GR
GR
GS
[0.60127 0 0 0.60127 34.47288 137.28984] CT
0.149 GC
/Helvetica 16.667 F
GS
[1 0 0 1 0 0] CT
-24 7 moveto 
1 -1 scale
(0.8) t 
GR
GR
GS
[0.60127 0 0 0.60127 34.47288 109.932] CT
0.149 GC
/Helvetica 16.667 F
GS
[1 0 0 1 0 0] CT
-10 7 moveto 
1 -1 scale
(1) t 
GR
GR
GS
[0.60127 0 0 0.60127 34.47288 82.57415] CT
0.149 GC
/Helvetica 16.667 F
GS
[1 0 0 1 0 0] CT
-24 7 moveto 
1 -1 scale
(1.2) t 
GR
GR
GS
[0.60127 0 0 0.60127 34.47288 55.21633] CT
0.149 GC
/Helvetica 16.667 F
GS
[1 0 0 1 0 0] CT
-24 7 moveto 
1 -1 scale
(1.4) t 
GR
GR
GS
[0.60127 0 0 0.60127 34.47288 27.85848] CT
0.149 GC
/Helvetica 16.667 F
GS
[1 0 0 1 0 0] CT
-24 7 moveto 
1 -1 scale
(1.6) t 
GR
GR
GS
[0 -0.60127 0.60127 0 17.03602 137.28973] CT
0.149 GC
N
-64.224 -13.369 M
-64.224 -11.978 -63.693 -10.931 QT
-63.161 -9.884 -62.146 -9.291 QT
-61.13 -8.697 -59.74 -8.697 QT
-58.302 -8.697 -56.958 -9.439 QT
-55.615 -10.181 -54.661 -11.424 QT
-53.708 -12.666 -53.365 -14.056 QT
-53.318 -14.197 -53.193 -14.197 QT
-52.911 -14.197 L
-52.818 -14.197 -52.763 -14.134 QT
-52.708 -14.072 -52.708 -13.994 QT
-52.708 -13.978 -52.724 -13.931 QT
-53.115 -12.338 -54.247 -10.939 QT
-55.38 -9.541 -56.951 -8.72 QT
-58.521 -7.9 -60.177 -7.9 QT
-61.974 -7.9 -63.404 -8.705 QT
-64.833 -9.509 -65.622 -10.947 QT
-66.411 -12.384 -66.411 -14.197 QT
-66.411 -16.134 -65.552 -18.025 QT
-64.693 -19.916 -63.232 -21.392 QT
-61.771 -22.869 -59.896 -23.744 QT
-58.021 -24.619 -56.099 -24.619 QT
-55.349 -24.619 -54.646 -24.384 QT
-53.943 -24.15 -53.349 -23.681 QT
-52.755 -23.213 -52.38 -22.603 QT
-50.552 -24.572 L
-50.552 -24.619 -50.443 -24.619 QT
-50.318 -24.619 L
-50.224 -24.619 -50.169 -24.541 QT
-50.115 -24.463 -50.115 -24.384 QT
-51.677 -18.166 L
-51.677 -18.009 -51.849 -18.009 QT
-52.271 -18.009 L
-52.443 -18.009 -52.443 -18.275 QT
-52.349 -18.775 -52.349 -19.478 QT
-52.349 -20.603 -52.732 -21.603 QT
-53.115 -22.603 -53.919 -23.205 QT
-54.724 -23.806 -55.88 -23.806 QT
-57.755 -23.806 -59.318 -22.861 QT
-60.88 -21.916 -61.966 -20.384 QT
-63.052 -18.853 -63.638 -16.986 QT
-64.224 -15.119 -64.224 -13.369 QT
cp
f
GR
GS
[0 -0.60127 0.60127 0 17.03602 137.28973] CT
0.149 GC
N
-49.516 -5.884 M
-49.078 -5.15 -47.781 -5.15 QT
-47.219 -5.15 -46.711 -5.338 QT
-46.203 -5.525 -45.875 -5.908 QT
-45.547 -6.291 -45.547 -6.838 QT
-45.547 -7.259 -45.844 -7.525 QT
-46.141 -7.791 -46.563 -7.884 QT
-47.438 -8.056 L
-48.031 -8.197 -48.414 -8.603 QT
-48.797 -9.009 -48.797 -9.588 QT
-48.797 -10.306 -48.406 -10.853 QT
-48.016 -11.4 -47.383 -11.689 QT
-46.75 -11.978 -46.078 -11.978 QT
-45.344 -11.978 -44.774 -11.627 QT
-44.203 -11.275 -44.203 -10.603 QT
-44.203 -10.228 -44.406 -9.947 QT
-44.61 -9.666 -44.985 -9.666 QT
-45.188 -9.666 -45.344 -9.806 QT
-45.5 -9.947 -45.5 -10.15 QT
-45.5 -10.338 -45.391 -10.517 QT
-45.281 -10.697 -45.11 -10.799 QT
-44.938 -10.9 -44.75 -10.9 QT
-44.891 -11.244 -45.274 -11.4 QT
-45.656 -11.556 -46.11 -11.556 QT
-46.516 -11.556 -46.922 -11.392 QT
-47.328 -11.228 -47.571 -10.916 QT
-47.813 -10.603 -47.813 -10.166 QT
-47.813 -9.884 -47.61 -9.666 QT
-47.406 -9.447 -47.11 -9.353 QT
-46.188 -9.166 L
-45.735 -9.072 -45.367 -8.83 QT
-45 -8.588 -44.781 -8.228 QT
-44.563 -7.869 -44.563 -7.4 QT
-44.563 -6.806 -44.899 -6.228 QT
-45.235 -5.65 -45.719 -5.306 QT
-46.563 -4.713 -47.797 -4.713 QT
-48.656 -4.713 -49.367 -5.111 QT
-50.078 -5.509 -50.078 -6.275 QT
-50.078 -6.713 -49.821 -7.041 QT
-49.563 -7.369 -49.125 -7.369 QT
-48.875 -7.369 -48.696 -7.213 QT
-48.516 -7.056 -48.516 -6.791 QT
-48.516 -6.431 -48.789 -6.158 QT
-49.063 -5.884 -49.438 -5.884 QT
-49.516 -5.884 L
cp
f
GR
GS
[0 -0.60127 0.60127 0 17.03602 137.28973] CT
0.149 GC
N
-31.587 -2.65 M
-31.587 -25.65 L
-28.446 -25.65 L
-28.446 -24.728 L
-30.665 -24.728 L
-30.665 -3.572 L
-28.446 -3.572 L
-28.446 -2.65 L
-31.587 -2.65 L
cp
f
GR
GS
[0 -0.60127 0.60127 0 17.03602 137.28973] CT
0.149 GC
N
-25.434 -8.4 M
-25.434 -22.009 L
-25.434 -22.634 -25.621 -22.908 QT
-25.809 -23.181 -26.152 -23.244 QT
-26.496 -23.306 -27.231 -23.306 QT
-27.231 -24.119 L
-23.824 -24.353 L
-23.824 -17.166 L
-23.449 -17.588 -22.934 -17.908 QT
-22.418 -18.228 -21.84 -18.392 QT
-21.262 -18.556 -20.652 -18.556 QT
-19.621 -18.556 -18.738 -18.142 QT
-17.856 -17.728 -17.199 -17.002 QT
-16.543 -16.275 -16.184 -15.322 QT
-15.824 -14.369 -15.824 -13.369 QT
-15.824 -11.978 -16.504 -10.775 QT
-17.184 -9.572 -18.356 -8.853 QT
-19.527 -8.134 -20.934 -8.134 QT
-21.809 -8.134 -22.629 -8.588 QT
-23.449 -9.041 -23.981 -9.775 QT
-24.762 -8.4 L
-25.434 -8.4 L
cp
-23.762 -10.65 M
-23.371 -9.822 -22.652 -9.283 QT
-21.934 -8.744 -21.059 -8.744 QT
-19.871 -8.744 -19.137 -9.431 QT
-18.402 -10.119 -18.113 -11.166 QT
-17.824 -12.213 -17.824 -13.369 QT
-17.824 -15.306 -18.324 -16.322 QT
-18.543 -16.759 -18.934 -17.142 QT
-19.324 -17.525 -19.801 -17.744 QT
-20.277 -17.963 -20.809 -17.963 QT
-21.731 -17.963 -22.512 -17.478 QT
-23.293 -16.994 -23.762 -16.166 QT
-23.762 -10.65 L
cp
f
GR
GS
[0 -0.60127 0.60127 0 17.03602 137.28973] CT
0.149 GC
N
-14.158 -8.4 M
-14.158 -9.213 L
-13.361 -9.213 -12.861 -9.338 QT
-12.361 -9.463 -12.361 -9.931 QT
-12.361 -16.213 L
-12.361 -17.103 -12.705 -17.306 QT
-13.049 -17.509 -14.049 -17.509 QT
-14.049 -18.322 L
-10.736 -18.556 L
-10.736 -9.931 L
-10.736 -9.463 -10.299 -9.338 QT
-9.861 -9.213 -9.127 -9.213 QT
-9.127 -8.4 L
-14.158 -8.4 L
cp
-13.174 -22.509 M
-13.174 -23.025 -12.791 -23.408 QT
-12.408 -23.791 -11.924 -23.791 QT
-11.596 -23.791 -11.291 -23.619 QT
-10.986 -23.447 -10.814 -23.142 QT
-10.643 -22.838 -10.643 -22.509 QT
-10.643 -22.025 -11.025 -21.642 QT
-11.408 -21.259 -11.924 -21.259 QT
-12.408 -21.259 -12.791 -21.642 QT
-13.174 -22.025 -13.174 -22.509 QT
cp
f
GR
GS
[0 -0.60127 0.60127 0 17.03602 137.28973] CT
0.149 GC
N
-6.036 -11.166 M
-6.036 -17.509 L
-7.942 -17.509 L
-7.942 -18.103 L
-6.442 -18.103 -5.731 -19.509 QT
-5.02 -20.916 -5.02 -22.556 QT
-4.364 -22.556 L
-4.364 -18.322 L
-1.114 -18.322 L
-1.114 -17.509 L
-4.364 -17.509 L
-4.364 -11.213 L
-4.364 -10.259 -4.044 -9.541 QT
-3.724 -8.822 -2.895 -8.822 QT
-2.099 -8.822 -1.755 -9.58 QT
-1.411 -10.338 -1.411 -11.213 QT
-1.411 -12.572 L
-0.739 -12.572 L
-0.739 -11.166 L
-0.739 -10.447 -1.005 -9.744 QT
-1.27 -9.041 -1.786 -8.588 QT
-2.302 -8.134 -3.052 -8.134 QT
-4.427 -8.134 -5.231 -8.963 QT
-6.036 -9.791 -6.036 -11.166 QT
cp
f
GR
GS
[0 -0.60127 0.60127 0 17.03602 137.28973] CT
0.149 GC
N
1.991 -3.103 M
1.991 -3.181 2.007 -3.197 QT
10.007 -25.369 L
10.054 -25.509 10.163 -25.58 QT
10.272 -25.65 10.413 -25.65 QT
10.616 -25.65 10.749 -25.525 QT
10.882 -25.4 10.882 -25.197 QT
10.882 -25.103 L
2.882 -2.931 L
2.757 -2.65 2.444 -2.65 QT
2.257 -2.65 2.124 -2.783 QT
1.991 -2.916 1.991 -3.103 QT
cp
f
GR
GS
[0 -0.60127 0.60127 0 17.03602 137.28973] CT
0.149 GC
N
13.127 -8.338 M
13.127 -12.088 L
13.127 -12.259 13.33 -12.259 QT
13.611 -12.259 L
13.736 -12.259 13.783 -12.088 QT
14.424 -8.744 16.892 -8.744 QT
17.97 -8.744 18.713 -9.244 QT
19.455 -9.744 19.455 -10.775 QT
19.455 -11.509 18.877 -12.033 QT
18.299 -12.556 17.517 -12.744 QT
15.97 -13.056 L
15.205 -13.213 14.572 -13.564 QT
13.939 -13.916 13.533 -14.494 QT
13.127 -15.072 13.127 -15.838 QT
13.127 -16.853 13.658 -17.494 QT
14.189 -18.134 15.041 -18.424 QT
15.892 -18.713 16.892 -18.713 QT
18.064 -18.713 18.939 -18.088 QT
19.611 -18.65 L
19.611 -18.713 19.72 -18.713 QT
19.892 -18.713 L
19.955 -18.713 20.009 -18.65 QT
20.064 -18.588 20.064 -18.525 QT
20.064 -15.509 L
20.064 -15.291 19.892 -15.291 QT
19.611 -15.291 L
19.408 -15.291 19.408 -15.509 QT
19.408 -16.713 18.736 -17.439 QT
18.064 -18.166 16.861 -18.166 QT
15.83 -18.166 15.072 -17.783 QT
14.314 -17.4 14.314 -16.478 QT
14.314 -15.838 14.861 -15.424 QT
15.408 -15.009 16.142 -14.838 QT
17.689 -14.541 L
18.486 -14.369 19.166 -13.939 QT
19.845 -13.509 20.244 -12.861 QT
20.642 -12.213 20.642 -11.384 QT
20.642 -10.556 20.353 -9.947 QT
20.064 -9.338 19.556 -8.931 QT
19.049 -8.525 18.353 -8.33 QT
17.658 -8.134 16.892 -8.134 QT
15.455 -8.134 14.424 -9.103 QT
13.58 -8.197 L
13.58 -8.134 13.455 -8.134 QT
13.33 -8.134 L
13.127 -8.134 13.127 -8.338 QT
cp
f
GR
GS
[0 -0.60127 0.60127 0 17.03602 137.28973] CT
0.149 GC
N
22.862 -3.103 M
22.862 -3.181 22.877 -3.197 QT
30.877 -25.369 L
30.924 -25.509 31.033 -25.58 QT
31.143 -25.65 31.283 -25.65 QT
31.487 -25.65 31.619 -25.525 QT
31.752 -25.4 31.752 -25.197 QT
31.752 -25.103 L
23.752 -2.931 L
23.627 -2.65 23.315 -2.65 QT
23.127 -2.65 22.994 -2.783 QT
22.862 -2.916 22.862 -3.103 QT
cp
f
GR
GS
[0 -0.60127 0.60127 0 17.03602 137.28973] CT
0.149 GC
N
33.935 -8.4 M
33.935 -9.213 L
36.31 -9.213 36.31 -9.931 QT
36.31 -22.572 L
36.31 -23.306 33.935 -23.306 QT
33.935 -24.119 L
40.825 -24.119 L
40.825 -23.306 L
38.45 -23.306 38.45 -22.572 QT
38.45 -16.978 L
45.231 -16.978 L
45.231 -22.572 L
45.231 -23.306 42.872 -23.306 QT
42.872 -24.119 L
49.747 -24.119 L
49.747 -23.306 L
47.388 -23.306 47.388 -22.572 QT
47.388 -9.931 L
47.388 -9.213 49.747 -9.213 QT
49.747 -8.4 L
42.872 -8.4 L
42.872 -9.213 L
45.231 -9.213 45.231 -9.931 QT
45.231 -16.166 L
38.45 -16.166 L
38.45 -9.931 L
38.45 -9.213 40.825 -9.213 QT
40.825 -8.4 L
33.935 -8.4 L
cp
f
GR
GS
[0 -0.60127 0.60127 0 17.03602 137.28973] CT
0.149 GC
N
51.638 -8.4 M
51.372 -8.4 51.372 -8.666 QT
51.372 -8.838 L
51.372 -8.931 51.435 -8.994 QT
57.856 -17.713 L
55.794 -17.713 L
54.825 -17.713 54.185 -17.588 QT
53.544 -17.463 53.138 -17.119 QT
52.731 -16.775 52.544 -16.174 QT
52.356 -15.572 52.356 -14.525 QT
51.7 -14.525 L
51.95 -18.322 L
59.653 -18.322 L
59.763 -18.322 59.833 -18.244 QT
59.903 -18.166 59.903 -18.056 QT
59.903 -17.931 L
59.903 -17.853 59.856 -17.759 QT
53.435 -9.056 L
55.622 -9.056 L
56.622 -9.056 57.294 -9.181 QT
57.966 -9.306 58.435 -9.775 QT
58.872 -10.213 59.036 -10.955 QT
59.2 -11.697 59.294 -12.791 QT
59.95 -12.791 L
59.56 -8.4 L
51.638 -8.4 L
cp
f
GR
GS
[0 -0.60127 0.60127 0 17.03602 137.28973] CT
0.149 GC
N
61.602 -2.65 M
61.602 -3.572 L
63.836 -3.572 L
63.836 -24.728 L
61.602 -24.728 L
61.602 -25.65 L
64.758 -25.65 L
64.758 -2.65 L
61.602 -2.65 L
cp
f
GR
GS
[0.60127 0 0 0.60127 0 0.20001] CT
0 0.447 0.741 RC
1 LJ
2.5 LW
N
63.957 410 M
64 410 L
65.82 410 L
67.64 410 L
69.46 410 L
71.28 410 L
73.1 410 L
74.92 410 L
76.74 410 L
78.56 410 L
80.38 410 L
82.2 410 L
84.02 410 L
85.84 410 L
87.66 410 L
89.48 410 L
91.3 410 L
93.12 410 L
94.94 410 L
96.76 410 L
98.58 410 L
100.4 410 L
102.22 410 L
104.04 410 L
105.86 410 L
107.68 410 L
109.5 410 L
111.32 410 L
113.14 410 L
114.96 410 L
116.78 410 L
118.6 410 L
120.42 410 L
122.24 410 L
124.06 410 L
125.88 410 L
127.7 410 L
129.52 394.351 L
131.34 376.323 L
133.16 359.059 L
134.98 342.514 L
136.8 326.646 L
138.62 311.413 L
140.44 303.825 L
142.26 308.075 L
144.08 312.374 L
145.9 316.723 L
147.72 321.123 L
149.54 325.574 L
151.36 330.079 L
153.18 334.637 L
155 339.25 L
156.82 354.327 L
158.64 370.003 L
160.46 386.313 L
162.28 403.289 L
164.1 410 L
165.92 410 L
167.74 410 L
169.56 410 L
171.38 410 L
173.2 410 L
175.02 410 L
176.84 410 L
178.66 410 L
180.48 410 L
182.3 410 L
184.12 410 L
185.94 410 L
187.76 410 L
189.58 410 L
191.4 410 L
193.22 410 L
195.04 410 L
196.86 410 L
198.68 410 L
200.5 410 L
202.32 410 L
204.14 410 L
205.96 401.02 L
207.78 370.622 L
209.6 342.348 L
211.42 315.995 L
213.24 291.366 L
215.06 268.281 L
216.88 256.424 L
218.7 248.736 L
220.52 241.211 L
222.34 233.841 L
224.16 226.621 L
225.98 219.546 L
227.8 212.61 L
229.62 205.809 L
231.44 195.843 L
233.26 176.455 L
235.08 158.097 L
236.9 140.67 L
238.72 124.087 L
240.54 108.274 L
242.36 93.166 L
244.18 78.703 L
246 64.835 L
247.82 78.703 L
249.64 93.166 L
251.46 108.274 L
253.28 124.087 L
255.1 140.67 L
256.92 158.097 L
258.74 176.455 L
260.56 195.843 L
262.38 205.809 L
264.2 212.61 L
266.02 219.546 L
267.84 226.621 L
269.66 233.841 L
271.48 241.211 L
273.3 248.736 L
275.12 256.424 L
276.94 268.281 L
278.76 291.366 L
280.58 315.995 L
282.4 342.348 L
284.22 370.622 L
286.04 401.02 L
287.86 410 L
289.68 410 L
291.5 410 L
293.32 410 L
295.14 410 L
296.96 410 L
298.78 410 L
300.6 410 L
302.42 410 L
304.24 410 L
306.06 410 L
307.88 410 L
309.7 410 L
311.52 410 L
313.34 410 L
315.16 410 L
316.98 410 L
318.8 410 L
320.62 410 L
322.44 410 L
324.26 410 L
326.08 410 L
327.9 410 L
329.72 403.289 L
331.54 386.313 L
333.36 370.003 L
335.18 354.327 L
337 339.25 L
338.82 334.637 L
340.64 330.079 L
342.46 325.574 L
344.28 321.123 L
346.1 316.723 L
347.92 312.374 L
349.74 308.075 L
351.56 303.825 L
353.38 311.413 L
355.2 326.646 L
357.02 342.514 L
358.84 359.059 L
360.66 376.323 L
362.48 394.351 L
364.3 410 L
366.12 410 L
367.94 410 L
369.76 410 L
371.58 410 L
373.4 410 L
375.22 410 L
377.04 410 L
378.86 410 L
380.68 410 L
382.5 410 L
384.32 410 L
386.14 410 L
387.96 410 L
389.78 410 L
391.6 410 L
393.42 410 L
395.24 410 L
397.06 410 L
398.88 410 L
400.7 410 L
402.52 410 L
404.34 410 L
406.16 410 L
407.98 410 L
409.8 410 L
411.62 410 L
413.44 410 L
415.26 410 L
417.08 410 L
418.9 410 L
420.72 410 L
422.54 410 L
424.36 410 L
426.18 410 L
428 410 L
428.043 410 L
S
GR
%%Trailer
%%Pages: 1
%%EOF
