%!PS-Adobe-3.0 EPSF-3.0
%%Creator: (MATLAB, The Mathworks, Inc. Version 9.2.0.538062 \(R2017a\). Operating System: Windows 8)
%%Title: C:/Users/chees/Documents/DottoratoLoc/GNSS/authProtocol/latex/figures/feaBin.eps
%%CreationDate: 2017-11-20T08:17:04
%%Pages: (atend)
%%BoundingBox: 0 0 284 284
%%LanguageLevel: 3
%%EndComments
%%BeginProlog
%%BeginResource: procset (Apache XML Graphics Std ProcSet) 1.2 0
%%Version: 1.2 0
%%Copyright: (Copyright 2001-2003,2010 The Apache Software Foundation. License terms: http://www.apache.org/licenses/LICENSE-2.0)
/bd{bind def}bind def
/ld{load def}bd
/GR/grestore ld
/M/moveto ld
/LJ/setlinejoin ld
/C/curveto ld
/f/fill ld
/LW/setlinewidth ld
/GC/setgray ld
/t/show ld
/N/newpath ld
/CT/concat ld
/cp/closepath ld
/S/stroke ld
/L/lineto ld
/CC/setcmykcolor ld
/A/ashow ld
/GS/gsave ld
/RC/setrgbcolor ld
/RM/rmoveto ld
/ML/setmiterlimit ld
/re {4 2 roll M
1 index 0 rlineto
0 exch rlineto
neg 0 rlineto
cp } bd
/_ctm matrix def
/_tm matrix def
/BT { _ctm currentmatrix pop matrix _tm copy pop 0 0 moveto } bd
/ET { _ctm setmatrix } bd
/iTm { _ctm setmatrix _tm concat } bd
/Tm { _tm astore pop iTm 0 0 moveto } bd
/ux 0.0 def
/uy 0.0 def
/F {
  /Tp exch def
  /Tf exch def
  Tf findfont Tp scalefont setfont
  /cf Tf def  /cs Tp def
} bd
/ULS {currentpoint /uy exch def /ux exch def} bd
/ULE {
  /Tcx currentpoint pop def
  gsave
  newpath
  cf findfont cs scalefont dup
  /FontMatrix get 0 get /Ts exch def /FontInfo get dup
  /UnderlinePosition get Ts mul /To exch def
  /UnderlineThickness get Ts mul /Tt exch def
  ux uy To add moveto  Tcx uy To add lineto
  Tt setlinewidth stroke
  grestore
} bd
/OLE {
  /Tcx currentpoint pop def
  gsave
  newpath
  cf findfont cs scalefont dup
  /FontMatrix get 0 get /Ts exch def /FontInfo get dup
  /UnderlinePosition get Ts mul /To exch def
  /UnderlineThickness get Ts mul /Tt exch def
  ux uy To add cs add moveto Tcx uy To add cs add lineto
  Tt setlinewidth stroke
  grestore
} bd
/SOE {
  /Tcx currentpoint pop def
  gsave
  newpath
  cf findfont cs scalefont dup
  /FontMatrix get 0 get /Ts exch def /FontInfo get dup
  /UnderlinePosition get Ts mul /To exch def
  /UnderlineThickness get Ts mul /Tt exch def
  ux uy To add cs 10 mul 26 idiv add moveto Tcx uy To add cs 10 mul 26 idiv add lineto
  Tt setlinewidth stroke
  grestore
} bd
/QT {
/Y22 exch store
/X22 exch store
/Y21 exch store
/X21 exch store
currentpoint
/Y21 load 2 mul add 3 div exch
/X21 load 2 mul add 3 div exch
/X21 load 2 mul /X22 load add 3 div
/Y21 load 2 mul /Y22 load add 3 div
/X22 load /Y22 load curveto
} bd
/SSPD {
dup length /d exch dict def
{
/v exch def
/k exch def
currentpagedevice k known {
/cpdv currentpagedevice k get def
v cpdv ne {
/upd false def
/nullv v type /nulltype eq def
/nullcpdv cpdv type /nulltype eq def
nullv nullcpdv or
{
/upd true def
} {
/sametype v type cpdv type eq def
sametype {
v type /arraytype eq {
/vlen v length def
/cpdvlen cpdv length def
vlen cpdvlen eq {
0 1 vlen 1 sub {
/i exch def
/obj v i get def
/cpdobj cpdv i get def
obj cpdobj ne {
/upd true def
exit
} if
} for
} {
/upd true def
} ifelse
} {
v type /dicttype eq {
v {
/dv exch def
/dk exch def
/cpddv cpdv dk get def
dv cpddv ne {
/upd true def
exit
} if
} forall
} {
/upd true def
} ifelse
} ifelse
} if
} ifelse
upd true eq {
d k v put
} if
} if
} if
} forall
d length 0 gt {
d setpagedevice
} if
} bd
/RE { % /NewFontName [NewEncodingArray] /FontName RE -
  findfont dup length dict begin
  {
    1 index /FID ne
    {def} {pop pop} ifelse
  } forall
  /Encoding exch def
  /FontName 1 index def
  currentdict definefont pop
  end
} bind def
%%EndResource
%%BeginResource: procset (Apache XML Graphics EPS ProcSet) 1.0 0
%%Version: 1.0 0
%%Copyright: (Copyright 2002-2003 The Apache Software Foundation. License terms: http://www.apache.org/licenses/LICENSE-2.0)
/BeginEPSF { %def
/b4_Inc_state save def         % Save state for cleanup
/dict_count countdictstack def % Count objects on dict stack
/op_count count 1 sub def      % Count objects on operand stack
userdict begin                 % Push userdict on dict stack
/showpage { } def              % Redefine showpage, { } = null proc
0 setgray 0 setlinecap         % Prepare graphics state
1 setlinewidth 0 setlinejoin
10 setmiterlimit [ ] 0 setdash newpath
/languagelevel where           % If level not equal to 1 then
{pop languagelevel             % set strokeadjust and
1 ne                           % overprint to their defaults.
{false setstrokeadjust false setoverprint
} if
} if
} bd
/EndEPSF { %def
count op_count sub {pop} repeat            % Clean up stacks
countdictstack dict_count sub {end} repeat
b4_Inc_state restore
} bd
%%EndResource
%FOPBeginFontDict
%%IncludeResource: font Courier-Bold
%%IncludeResource: font Helvetica
%%IncludeResource: font Courier-BoldOblique
%%IncludeResource: font Courier-Oblique
%%IncludeResource: font Times-Roman
%%IncludeResource: font Helvetica-BoldOblique
%%IncludeResource: font Helvetica-Bold
%%IncludeResource: font Helvetica-Oblique
%%IncludeResource: font Times-BoldItalic
%%IncludeResource: font Courier
%%IncludeResource: font Times-Italic
%%IncludeResource: font Times-Bold
%%IncludeResource: font Symbol
%%IncludeResource: font ZapfDingbats
%FOPEndFontDict
%%BeginResource: encoding WinAnsiEncoding
/WinAnsiEncoding [
/.notdef /.notdef /.notdef /.notdef /.notdef
/.notdef /.notdef /.notdef /.notdef /.notdef
/.notdef /.notdef /.notdef /.notdef /.notdef
/.notdef /.notdef /.notdef /.notdef /.notdef
/.notdef /.notdef /.notdef /.notdef /.notdef
/.notdef /.notdef /.notdef /.notdef /.notdef
/.notdef /.notdef /space /exclam /quotedbl
/numbersign /dollar /percent /ampersand /quotesingle
/parenleft /parenright /asterisk /plus /comma
/hyphen /period /slash /zero /one
/two /three /four /five /six
/seven /eight /nine /colon /semicolon
/less /equal /greater /question /at
/A /B /C /D /E
/F /G /H /I /J
/K /L /M /N /O
/P /Q /R /S /T
/U /V /W /X /Y
/Z /bracketleft /backslash /bracketright /asciicircum
/underscore /quoteleft /a /b /c
/d /e /f /g /h
/i /j /k /l /m
/n /o /p /q /r
/s /t /u /v /w
/x /y /z /braceleft /bar
/braceright /asciitilde /bullet /Euro /bullet
/quotesinglbase /florin /quotedblbase /ellipsis /dagger
/daggerdbl /circumflex /perthousand /Scaron /guilsinglleft
/OE /bullet /Zcaron /bullet /bullet
/quoteleft /quoteright /quotedblleft /quotedblright /bullet
/endash /emdash /asciitilde /trademark /scaron
/guilsinglright /oe /bullet /zcaron /Ydieresis
/space /exclamdown /cent /sterling /currency
/yen /brokenbar /section /dieresis /copyright
/ordfeminine /guillemotleft /logicalnot /sfthyphen /registered
/macron /degree /plusminus /twosuperior /threesuperior
/acute /mu /paragraph /middot /cedilla
/onesuperior /ordmasculine /guillemotright /onequarter /onehalf
/threequarters /questiondown /Agrave /Aacute /Acircumflex
/Atilde /Adieresis /Aring /AE /Ccedilla
/Egrave /Eacute /Ecircumflex /Edieresis /Igrave
/Iacute /Icircumflex /Idieresis /Eth /Ntilde
/Ograve /Oacute /Ocircumflex /Otilde /Odieresis
/multiply /Oslash /Ugrave /Uacute /Ucircumflex
/Udieresis /Yacute /Thorn /germandbls /agrave
/aacute /acircumflex /atilde /adieresis /aring
/ae /ccedilla /egrave /eacute /ecircumflex
/edieresis /igrave /iacute /icircumflex /idieresis
/eth /ntilde /ograve /oacute /ocircumflex
/otilde /odieresis /divide /oslash /ugrave
/uacute /ucircumflex /udieresis /yacute /thorn
/ydieresis
] def
%%EndResource
%FOPBeginFontReencode
/Courier-Bold findfont
dup length dict begin
  {1 index /FID ne {def} {pop pop} ifelse} forall
  /Encoding WinAnsiEncoding def
  currentdict
end
/Courier-Bold exch definefont pop
/Helvetica findfont
dup length dict begin
  {1 index /FID ne {def} {pop pop} ifelse} forall
  /Encoding WinAnsiEncoding def
  currentdict
end
/Helvetica exch definefont pop
/Courier-BoldOblique findfont
dup length dict begin
  {1 index /FID ne {def} {pop pop} ifelse} forall
  /Encoding WinAnsiEncoding def
  currentdict
end
/Courier-BoldOblique exch definefont pop
/Courier-Oblique findfont
dup length dict begin
  {1 index /FID ne {def} {pop pop} ifelse} forall
  /Encoding WinAnsiEncoding def
  currentdict
end
/Courier-Oblique exch definefont pop
/Times-Roman findfont
dup length dict begin
  {1 index /FID ne {def} {pop pop} ifelse} forall
  /Encoding WinAnsiEncoding def
  currentdict
end
/Times-Roman exch definefont pop
/Helvetica-BoldOblique findfont
dup length dict begin
  {1 index /FID ne {def} {pop pop} ifelse} forall
  /Encoding WinAnsiEncoding def
  currentdict
end
/Helvetica-BoldOblique exch definefont pop
/Helvetica-Bold findfont
dup length dict begin
  {1 index /FID ne {def} {pop pop} ifelse} forall
  /Encoding WinAnsiEncoding def
  currentdict
end
/Helvetica-Bold exch definefont pop
/Helvetica-Oblique findfont
dup length dict begin
  {1 index /FID ne {def} {pop pop} ifelse} forall
  /Encoding WinAnsiEncoding def
  currentdict
end
/Helvetica-Oblique exch definefont pop
/Times-BoldItalic findfont
dup length dict begin
  {1 index /FID ne {def} {pop pop} ifelse} forall
  /Encoding WinAnsiEncoding def
  currentdict
end
/Times-BoldItalic exch definefont pop
/Courier findfont
dup length dict begin
  {1 index /FID ne {def} {pop pop} ifelse} forall
  /Encoding WinAnsiEncoding def
  currentdict
end
/Courier exch definefont pop
/Times-Italic findfont
dup length dict begin
  {1 index /FID ne {def} {pop pop} ifelse} forall
  /Encoding WinAnsiEncoding def
  currentdict
end
/Times-Italic exch definefont pop
/Times-Bold findfont
dup length dict begin
  {1 index /FID ne {def} {pop pop} ifelse} forall
  /Encoding WinAnsiEncoding def
  currentdict
end
/Times-Bold exch definefont pop
%FOPEndFontReencode
%%EndProlog
%%Page: 1 1
%%PageBoundingBox: 0 0 284 284
%%BeginPageSetup
[1 0 0 -1 0 284] CT
%%EndPageSetup
GS
[0.60127 0 0 0.60127 0 0.20001] CT
N
0 0 M
472 0 L
472 472 L
0 472 L
0 0 L
cp
clip
1 GC
N
0 0 472 472 re
f
GR
GS
[0.60127 0 0 0.60127 0 0.20001] CT
1 GC
N
0 0 472 472 re
f
GR
GS
[0.60127 0 0 0.60127 0 0.20001] CT
1 GC
N
78 415 M
428 415 L
428 35 L
78 35 L
cp
f
GR
GS
[0.60127 0 0 0.60127 0 0.20001] CT
0.873 GC
1 LJ
0.833 LW
N
78 415 M
78 35 L
S
GR
GS
[0.60127 0 0 0.60127 0 0.20001] CT
0.873 GC
1 LJ
0.833 LW
N
165.5 415 M
165.5 35 L
S
GR
GS
[0.60127 0 0 0.60127 0 0.20001] CT
0.873 GC
1 LJ
0.833 LW
N
253 415 M
253 35 L
S
GR
GS
[0.60127 0 0 0.60127 0 0.20001] CT
0.873 GC
1 LJ
0.833 LW
N
340.5 415 M
340.5 35 L
S
GR
GS
[0.60127 0 0 0.60127 0 0.20001] CT
0.873 GC
1 LJ
0.833 LW
N
428 415 M
428 35 L
S
GR
GS
[0.60127 0 0 0.60127 0 0.20001] CT
0.775 GC
[1 3] 0 setdash
2 LJ
0.833 LW
N
428 390.165 M
78 390.165 L
S
GR
GS
[0.60127 0 0 0.60127 0 0.20001] CT
0.775 GC
[1 3] 0 setdash
2 LJ
0.833 LW
N
428 365.33 M
78 365.33 L
S
GR
GS
[0.60127 0 0 0.60127 0 0.20001] CT
0.775 GC
[1 3] 0 setdash
2 LJ
0.833 LW
N
428 340.495 M
78 340.495 L
S
GR
GS
[0.60127 0 0 0.60127 0 0.20001] CT
0.775 GC
[1 3] 0 setdash
2 LJ
0.833 LW
N
428 315.66 M
78 315.66 L
S
GR
GS
[0.60127 0 0 0.60127 0 0.20001] CT
0.775 GC
[1 3] 0 setdash
2 LJ
0.833 LW
N
428 265.99 M
78 265.99 L
S
GR
GS
[0.60127 0 0 0.60127 0 0.20001] CT
0.775 GC
[1 3] 0 setdash
2 LJ
0.833 LW
N
428 241.155 M
78 241.155 L
S
GR
GS
[0.60127 0 0 0.60127 0 0.20001] CT
0.775 GC
[1 3] 0 setdash
2 LJ
0.833 LW
N
428 216.321 M
78 216.321 L
S
GR
GS
[0.60127 0 0 0.60127 0 0.20001] CT
0.775 GC
[1 3] 0 setdash
2 LJ
0.833 LW
N
428 191.486 M
78 191.486 L
S
GR
GS
[0.60127 0 0 0.60127 0 0.20001] CT
0.775 GC
[1 3] 0 setdash
2 LJ
0.833 LW
N
428 141.816 M
78 141.816 L
S
GR
GS
[0.60127 0 0 0.60127 0 0.20001] CT
0.775 GC
[1 3] 0 setdash
2 LJ
0.833 LW
N
428 116.981 M
78 116.981 L
S
GR
GS
[0.60127 0 0 0.60127 0 0.20001] CT
0.775 GC
[1 3] 0 setdash
2 LJ
0.833 LW
N
428 92.146 M
78 92.146 L
S
GR
GS
[0.60127 0 0 0.60127 0 0.20001] CT
0.775 GC
[1 3] 0 setdash
2 LJ
0.833 LW
N
428 67.311 M
78 67.311 L
S
GR
GS
[0.60127 0 0 0.60127 0 0.20001] CT
0.873 GC
1 LJ
0.833 LW
N
428 415 M
78 415 L
S
GR
GS
[0.60127 0 0 0.60127 0 0.20001] CT
0.873 GC
1 LJ
0.833 LW
N
428 290.825 M
78 290.825 L
S
GR
GS
[0.60127 0 0 0.60127 0 0.20001] CT
0.873 GC
1 LJ
0.833 LW
N
428 166.651 M
78 166.651 L
S
GR
GS
[0.60127 0 0 0.60127 0 0.20001] CT
0.873 GC
1 LJ
0.833 LW
N
428 42.476 M
78 42.476 L
S
GR
GS
[0.60127 0 0 0.60127 0 0.20001] CT
0.149 GC
2 setlinecap
1 LJ
0.833 LW
N
78 415 M
428 415 L
S
GR
GS
[0.60127 0 0 0.60127 0 0.20001] CT
0.149 GC
2 setlinecap
1 LJ
0.833 LW
N
78 35 M
428 35 L
S
GR
GS
[0.60127 0 0 0.60127 0 0.20001] CT
0.149 GC
2 setlinecap
1 LJ
0.833 LW
N
78 415 M
78 411.2 L
S
GR
GS
[0.60127 0 0 0.60127 0 0.20001] CT
0.149 GC
2 setlinecap
1 LJ
0.833 LW
N
165.5 415 M
165.5 411.2 L
S
GR
GS
[0.60127 0 0 0.60127 0 0.20001] CT
0.149 GC
2 setlinecap
1 LJ
0.833 LW
N
253 415 M
253 411.2 L
S
GR
GS
[0.60127 0 0 0.60127 0 0.20001] CT
0.149 GC
2 setlinecap
1 LJ
0.833 LW
N
340.5 415 M
340.5 411.2 L
S
GR
GS
[0.60127 0 0 0.60127 0 0.20001] CT
0.149 GC
2 setlinecap
1 LJ
0.833 LW
N
428 415 M
428 411.2 L
S
GR
GS
[0.60127 0 0 0.60127 0 0.20001] CT
0.149 GC
2 setlinecap
1 LJ
0.833 LW
N
78 35 M
78 38.8 L
S
GR
GS
[0.60127 0 0 0.60127 0 0.20001] CT
0.149 GC
2 setlinecap
1 LJ
0.833 LW
N
165.5 35 M
165.5 38.8 L
S
GR
GS
[0.60127 0 0 0.60127 0 0.20001] CT
0.149 GC
2 setlinecap
1 LJ
0.833 LW
N
253 35 M
253 38.8 L
S
GR
GS
[0.60127 0 0 0.60127 0 0.20001] CT
0.149 GC
2 setlinecap
1 LJ
0.833 LW
N
340.5 35 M
340.5 38.8 L
S
GR
GS
[0.60127 0 0 0.60127 0 0.20001] CT
0.149 GC
2 setlinecap
1 LJ
0.833 LW
N
428 35 M
428 38.8 L
S
GR
GS
[0.60127 0 0 0.60127 46.89915 253.73601] CT
0.149 GC
/Helvetica 16.667 F
GS
[1 0 0 1 0 0] CT
-9.5 18 moveto 
1 -1 scale
(50) t 
GR
GR
GS
[0.60127 0 0 0.60127 99.51038 253.73601] CT
0.149 GC
/Helvetica 16.667 F
GS
[1 0 0 1 0 0] CT
-14.5 18 moveto 
1 -1 scale
(100) t 
GR
GR
GS
[0.60127 0 0 0.60127 152.1216 253.73601] CT
0.149 GC
/Helvetica 16.667 F
GS
[1 0 0 1 0 0] CT
-14.5 18 moveto 
1 -1 scale
(150) t 
GR
GR
GS
[0.60127 0 0 0.60127 204.73283 253.73601] CT
0.149 GC
/Helvetica 16.667 F
GS
[1 0 0 1 0 0] CT
-14.5 18 moveto 
1 -1 scale
(200) t 
GR
GR
GS
[0.60127 0 0 0.60127 257.34406 253.73601] CT
0.149 GC
/Helvetica 16.667 F
GS
[1 0 0 1 0 0] CT
-14.5 18 moveto 
1 -1 scale
(250) t 
GR
GR
GS
[0.60127 0 0 0.60127 152.1217 267.96611] CT
0.149 GC
N
-5.221 19.209 M
-5.221 19.069 -5.206 19.006 QT
-3.487 12.147 L
-3.315 11.506 -3.315 11.022 QT
-3.315 10.037 -3.987 10.037 QT
-4.706 10.037 -5.057 10.897 QT
-5.409 11.756 -5.737 13.069 QT
-5.737 13.131 -5.8 13.17 QT
-5.862 13.209 -5.925 13.209 QT
-6.19 13.209 L
-6.268 13.209 -6.323 13.123 QT
-6.378 13.037 -6.378 12.975 QT
-6.143 11.975 -5.909 11.28 QT
-5.675 10.584 -5.19 10.014 QT
-4.706 9.444 -3.971 9.444 QT
-3.112 9.444 -2.448 9.983 QT
-1.784 10.522 -1.784 11.366 QT
-1.096 10.475 -0.175 9.959 QT
0.747 9.444 1.779 9.444 QT
2.607 9.444 3.2 9.717 QT
3.794 9.991 4.122 10.561 QT
4.45 11.131 4.45 11.912 QT
4.45 12.866 4.029 14.201 QT
3.607 15.537 2.982 17.178 QT
2.654 17.944 2.654 18.569 QT
2.654 19.256 3.185 19.256 QT
4.075 19.256 4.677 18.287 QT
5.279 17.319 5.529 16.225 QT
5.575 16.084 5.716 16.084 QT
5.997 16.084 L
6.075 16.084 6.138 16.139 QT
6.2 16.194 6.2 16.287 QT
6.2 16.303 6.185 16.35 QT
5.872 17.662 5.091 18.764 QT
4.31 19.866 3.138 19.866 QT
2.325 19.866 1.755 19.303 QT
1.185 18.741 1.185 17.944 QT
1.185 17.522 1.357 17.053 QT
1.654 16.303 2.029 15.256 QT
2.404 14.209 2.646 13.256 QT
2.888 12.303 2.888 11.569 QT
2.888 10.928 2.622 10.483 QT
2.357 10.037 1.732 10.037 QT
0.888 10.037 0.185 10.405 QT
-0.518 10.772 -1.05 11.381 QT
-1.581 11.991 -2.018 12.834 QT
-3.581 19.1 L
-3.659 19.412 -3.932 19.639 QT
-4.206 19.866 -4.55 19.866 QT
-4.831 19.866 -5.026 19.686 QT
-5.221 19.506 -5.221 19.209 QT
cp
f
GR
GS
[0.60127 0 0 0.60127 0 0.20001] CT
0.149 GC
2 setlinecap
1 LJ
0.833 LW
N
78 415 M
78 35 L
S
GR
GS
[0.60127 0 0 0.60127 0 0.20001] CT
0.149 GC
2 setlinecap
1 LJ
0.833 LW
N
428 415 M
428 35 L
S
GR
GS
[0.60127 0 0 0.60127 0 0.20001] CT
0.149 GC
2 setlinecap
1 LJ
0.833 LW
N
78 415 M
81.8 415 L
S
GR
GS
[0.60127 0 0 0.60127 0 0.20001] CT
0.149 GC
2 setlinecap
1 LJ
0.833 LW
N
78 290.825 M
81.8 290.825 L
S
GR
GS
[0.60127 0 0 0.60127 0 0.20001] CT
0.149 GC
2 setlinecap
1 LJ
0.833 LW
N
78 166.651 M
81.8 166.651 L
S
GR
GS
[0.60127 0 0 0.60127 0 0.20001] CT
0.149 GC
2 setlinecap
1 LJ
0.833 LW
N
78 42.476 M
81.8 42.476 L
S
GR
GS
[0.60127 0 0 0.60127 0 0.20001] CT
0.149 GC
2 setlinecap
1 LJ
0.833 LW
N
428 415 M
424.2 415 L
S
GR
GS
[0.60127 0 0 0.60127 0 0.20001] CT
0.149 GC
2 setlinecap
1 LJ
0.833 LW
N
428 290.825 M
424.2 290.825 L
S
GR
GS
[0.60127 0 0 0.60127 0 0.20001] CT
0.149 GC
2 setlinecap
1 LJ
0.833 LW
N
428 166.651 M
424.2 166.651 L
S
GR
GS
[0.60127 0 0 0.60127 0 0.20001] CT
0.149 GC
2 setlinecap
1 LJ
0.833 LW
N
428 42.476 M
424.2 42.476 L
S
GR
GS
[0.60127 0 0 0.60127 0 0.20001] CT
0.149 GC
2 setlinecap
1 LJ
0.833 LW
N
78 415 M
79.9 415 L
S
GR
GS
[0.60127 0 0 0.60127 0 0.20001] CT
0.149 GC
2 setlinecap
1 LJ
0.833 LW
N
78 390.165 M
79.9 390.165 L
S
GR
GS
[0.60127 0 0 0.60127 0 0.20001] CT
0.149 GC
2 setlinecap
1 LJ
0.833 LW
N
78 365.33 M
79.9 365.33 L
S
GR
GS
[0.60127 0 0 0.60127 0 0.20001] CT
0.149 GC
2 setlinecap
1 LJ
0.833 LW
N
78 340.495 M
79.9 340.495 L
S
GR
GS
[0.60127 0 0 0.60127 0 0.20001] CT
0.149 GC
2 setlinecap
1 LJ
0.833 LW
N
78 315.66 M
79.9 315.66 L
S
GR
GS
[0.60127 0 0 0.60127 0 0.20001] CT
0.149 GC
2 setlinecap
1 LJ
0.833 LW
N
78 290.825 M
79.9 290.825 L
S
GR
GS
[0.60127 0 0 0.60127 0 0.20001] CT
0.149 GC
2 setlinecap
1 LJ
0.833 LW
N
78 265.99 M
79.9 265.99 L
S
GR
GS
[0.60127 0 0 0.60127 0 0.20001] CT
0.149 GC
2 setlinecap
1 LJ
0.833 LW
N
78 241.155 M
79.9 241.155 L
S
GR
GS
[0.60127 0 0 0.60127 0 0.20001] CT
0.149 GC
2 setlinecap
1 LJ
0.833 LW
N
78 216.321 M
79.9 216.321 L
S
GR
GS
[0.60127 0 0 0.60127 0 0.20001] CT
0.149 GC
2 setlinecap
1 LJ
0.833 LW
N
78 191.486 M
79.9 191.486 L
S
GR
GS
[0.60127 0 0 0.60127 0 0.20001] CT
0.149 GC
2 setlinecap
1 LJ
0.833 LW
N
78 166.651 M
79.9 166.651 L
S
GR
GS
[0.60127 0 0 0.60127 0 0.20001] CT
0.149 GC
2 setlinecap
1 LJ
0.833 LW
N
78 141.816 M
79.9 141.816 L
S
GR
GS
[0.60127 0 0 0.60127 0 0.20001] CT
0.149 GC
2 setlinecap
1 LJ
0.833 LW
N
78 116.981 M
79.9 116.981 L
S
GR
GS
[0.60127 0 0 0.60127 0 0.20001] CT
0.149 GC
2 setlinecap
1 LJ
0.833 LW
N
78 92.146 M
79.9 92.146 L
S
GR
GS
[0.60127 0 0 0.60127 0 0.20001] CT
0.149 GC
2 setlinecap
1 LJ
0.833 LW
N
78 67.311 M
79.9 67.311 L
S
GR
GS
[0.60127 0 0 0.60127 0 0.20001] CT
0.149 GC
2 setlinecap
1 LJ
0.833 LW
N
78 42.476 M
79.9 42.476 L
S
GR
GS
[0.60127 0 0 0.60127 0 0.20001] CT
0.149 GC
2 setlinecap
1 LJ
0.833 LW
N
428 415 M
426.1 415 L
S
GR
GS
[0.60127 0 0 0.60127 0 0.20001] CT
0.149 GC
2 setlinecap
1 LJ
0.833 LW
N
428 390.165 M
426.1 390.165 L
S
GR
GS
[0.60127 0 0 0.60127 0 0.20001] CT
0.149 GC
2 setlinecap
1 LJ
0.833 LW
N
428 365.33 M
426.1 365.33 L
S
GR
GS
[0.60127 0 0 0.60127 0 0.20001] CT
0.149 GC
2 setlinecap
1 LJ
0.833 LW
N
428 340.495 M
426.1 340.495 L
S
GR
GS
[0.60127 0 0 0.60127 0 0.20001] CT
0.149 GC
2 setlinecap
1 LJ
0.833 LW
N
428 315.66 M
426.1 315.66 L
S
GR
GS
[0.60127 0 0 0.60127 0 0.20001] CT
0.149 GC
2 setlinecap
1 LJ
0.833 LW
N
428 290.825 M
426.1 290.825 L
S
GR
GS
[0.60127 0 0 0.60127 0 0.20001] CT
0.149 GC
2 setlinecap
1 LJ
0.833 LW
N
428 265.99 M
426.1 265.99 L
S
GR
GS
[0.60127 0 0 0.60127 0 0.20001] CT
0.149 GC
2 setlinecap
1 LJ
0.833 LW
N
428 241.155 M
426.1 241.155 L
S
GR
GS
[0.60127 0 0 0.60127 0 0.20001] CT
0.149 GC
2 setlinecap
1 LJ
0.833 LW
N
428 216.321 M
426.1 216.321 L
S
GR
GS
[0.60127 0 0 0.60127 0 0.20001] CT
0.149 GC
2 setlinecap
1 LJ
0.833 LW
N
428 191.486 M
426.1 191.486 L
S
GR
GS
[0.60127 0 0 0.60127 0 0.20001] CT
0.149 GC
2 setlinecap
1 LJ
0.833 LW
N
428 166.651 M
426.1 166.651 L
S
GR
GS
[0.60127 0 0 0.60127 0 0.20001] CT
0.149 GC
2 setlinecap
1 LJ
0.833 LW
N
428 141.816 M
426.1 141.816 L
S
GR
GS
[0.60127 0 0 0.60127 0 0.20001] CT
0.149 GC
2 setlinecap
1 LJ
0.833 LW
N
428 116.981 M
426.1 116.981 L
S
GR
GS
[0.60127 0 0 0.60127 0 0.20001] CT
0.149 GC
2 setlinecap
1 LJ
0.833 LW
N
428 92.146 M
426.1 92.146 L
S
GR
GS
[0.60127 0 0 0.60127 0 0.20001] CT
0.149 GC
2 setlinecap
1 LJ
0.833 LW
N
428 67.311 M
426.1 67.311 L
S
GR
GS
[0.60127 0 0 0.60127 0 0.20001] CT
0.149 GC
2 setlinecap
1 LJ
0.833 LW
N
428 42.476 M
426.1 42.476 L
S
GR
GS
[0.60127 0 0 0.60127 19.84195 255.13898] CT
0.149 GC
/Helvetica 16.667 F
GS
[1 0 0 1 0 0] CT
0 0 moveto 
1 -1 scale
(10) t 
GR
GR
GS
[0.60127 0 0 0.60127 31.2661 250.32882] CT
0.149 GC
/Helvetica 13.333 F
GS
[1 0 0 1 0 0] CT
0 0 moveto 
1 -1 scale
(-15) t 
GR
GR
GS
[0.60127 0 0 0.60127 19.84195 180.58136] CT
0.149 GC
/Helvetica 16.667 F
GS
[1 0 0 1 0 0] CT
0 0 moveto 
1 -1 scale
(10) t 
GR
GR
GS
[0.60127 0 0 0.60127 31.2661 175.77119] CT
0.149 GC
/Helvetica 13.333 F
GS
[1 0 0 1 0 0] CT
0 0 moveto 
1 -1 scale
(-10) t 
GR
GR
GS
[0.60127 0 0 0.60127 24.05085 106.02374] CT
0.149 GC
/Helvetica 16.667 F
GS
[1 0 0 1 0 0] CT
0 0 moveto 
1 -1 scale
(10) t 
GR
GR
GS
[0.60127 0 0 0.60127 35.475 101.21357] CT
0.149 GC
/Helvetica 13.333 F
GS
[1 0 0 1 0 0] CT
0 0 moveto 
1 -1 scale
(-5) t 
GR
GR
GS
[0.60127 0 0 0.60127 26.45593 30.86484] CT
0.149 GC
/Helvetica 16.667 F
GS
[1 0 0 1 0 0] CT
0 0 moveto 
1 -1 scale
(10) t 
GR
GR
GS
[0.60127 0 0 0.60127 37.88008 26.05467] CT
0.149 GC
/Helvetica 13.333 F
GS
[1 0 0 1 0 0] CT
0 0 moveto 
1 -1 scale
(0) t 
GR
GR
GS
[0 -0.60127 0.60127 0 17.03601 135.48591] CT
0.149 GC
N
-22.52 -8.4 M
-22.739 -8.4 -22.739 -8.697 QT
-22.739 -8.759 -22.7 -8.9 QT
-22.661 -9.041 -22.606 -9.127 QT
-22.551 -9.213 -22.458 -9.213 QT
-21.051 -9.213 -20.489 -9.369 QT
-20.192 -9.463 -20.067 -9.978 QT
-16.911 -22.619 L
-16.864 -22.838 -16.864 -22.931 QT
-16.864 -23.181 -17.129 -23.213 QT
-17.567 -23.306 -18.786 -23.306 QT
-19.02 -23.306 -19.02 -23.603 QT
-19.004 -23.666 -18.973 -23.806 QT
-18.942 -23.947 -18.879 -24.033 QT
-18.817 -24.119 -18.723 -24.119 QT
-10.786 -24.119 L
-9.692 -24.119 -8.668 -23.728 QT
-7.645 -23.338 -6.997 -22.541 QT
-6.348 -21.744 -6.348 -20.603 QT
-6.348 -19.15 -7.379 -18.002 QT
-8.411 -16.853 -9.942 -16.213 QT
-11.473 -15.572 -12.911 -15.572 QT
-16.645 -15.572 L
-18.051 -9.9 L
-18.098 -9.666 -18.098 -9.572 QT
-18.098 -9.478 -18.067 -9.416 QT
-18.036 -9.353 -17.989 -9.338 QT
-17.942 -9.322 -17.833 -9.306 QT
-17.395 -9.213 -16.161 -9.213 QT
-15.942 -9.213 -15.942 -8.9 QT
-16.02 -8.588 -16.067 -8.494 QT
-16.114 -8.4 -16.333 -8.4 QT
-22.52 -8.4 L
cp
-16.536 -16.259 M
-13.317 -16.259 L
-11.083 -16.259 -9.911 -17.463 QT
-9.317 -18.056 -8.942 -19.181 QT
-8.567 -20.306 -8.567 -21.213 QT
-8.567 -22.353 -9.426 -22.83 QT
-10.286 -23.306 -11.567 -23.306 QT
-13.77 -23.306 L
-14.395 -23.306 -14.598 -23.197 QT
-14.801 -23.088 -14.973 -22.509 QT
-16.536 -16.259 L
cp
f
GR
GS
[0 -0.60127 0.60127 0 17.03601 135.48591] CT
0.149 GC
N
-7.274 -5.884 M
-6.837 -5.15 -5.54 -5.15 QT
-4.977 -5.15 -4.469 -5.338 QT
-3.962 -5.525 -3.633 -5.908 QT
-3.305 -6.291 -3.305 -6.838 QT
-3.305 -7.259 -3.602 -7.525 QT
-3.899 -7.791 -4.321 -7.884 QT
-5.196 -8.056 L
-5.79 -8.197 -6.173 -8.603 QT
-6.555 -9.009 -6.555 -9.588 QT
-6.555 -10.306 -6.165 -10.853 QT
-5.774 -11.4 -5.141 -11.689 QT
-4.508 -11.978 -3.837 -11.978 QT
-3.102 -11.978 -2.532 -11.627 QT
-1.962 -11.275 -1.962 -10.603 QT
-1.962 -10.228 -2.165 -9.947 QT
-2.368 -9.666 -2.743 -9.666 QT
-2.946 -9.666 -3.102 -9.806 QT
-3.258 -9.947 -3.258 -10.15 QT
-3.258 -10.338 -3.149 -10.517 QT
-3.04 -10.697 -2.868 -10.799 QT
-2.696 -10.9 -2.508 -10.9 QT
-2.649 -11.244 -3.032 -11.4 QT
-3.415 -11.556 -3.868 -11.556 QT
-4.274 -11.556 -4.68 -11.392 QT
-5.087 -11.228 -5.329 -10.916 QT
-5.571 -10.603 -5.571 -10.166 QT
-5.571 -9.884 -5.368 -9.666 QT
-5.165 -9.447 -4.868 -9.353 QT
-3.946 -9.166 L
-3.493 -9.072 -3.126 -8.83 QT
-2.758 -8.588 -2.54 -8.228 QT
-2.321 -7.869 -2.321 -7.4 QT
-2.321 -6.806 -2.657 -6.228 QT
-2.993 -5.65 -3.477 -5.306 QT
-4.321 -4.713 -5.555 -4.713 QT
-6.415 -4.713 -7.126 -5.111 QT
-7.837 -5.509 -7.837 -6.275 QT
-7.837 -6.713 -7.579 -7.041 QT
-7.321 -7.369 -6.883 -7.369 QT
-6.633 -7.369 -6.454 -7.213 QT
-6.274 -7.056 -6.274 -6.791 QT
-6.274 -6.431 -6.548 -6.158 QT
-6.821 -5.884 -7.196 -5.884 QT
-7.274 -5.884 L
cp
f
GR
GS
[0 -0.60127 0.60127 0 17.03601 135.48591] CT
0.149 GC
N
0.695 -6.65 M
0.695 -7.166 0.835 -7.72 QT
0.976 -8.275 1.226 -8.947 QT
1.476 -9.619 1.663 -10.119 QT
1.882 -10.713 1.882 -11.088 QT
1.882 -11.556 1.523 -11.556 QT
0.898 -11.556 0.484 -10.908 QT
0.07 -10.259 -0.118 -9.447 QT
-0.149 -9.353 -0.258 -9.353 QT
-0.446 -9.353 L
-0.571 -9.353 -0.571 -9.494 QT
-0.571 -9.541 L
-0.321 -10.494 0.21 -11.236 QT
0.742 -11.978 1.554 -11.978 QT
2.132 -11.978 2.523 -11.603 QT
2.913 -11.228 2.913 -10.65 QT
2.913 -10.353 2.788 -10.025 QT
2.71 -9.822 2.46 -9.166 QT
2.21 -8.509 2.077 -8.08 QT
1.945 -7.65 1.859 -7.236 QT
1.773 -6.822 1.773 -6.416 QT
1.773 -5.884 1.999 -5.517 QT
2.226 -5.15 2.742 -5.15 QT
3.757 -5.15 4.538 -6.416 QT
4.554 -6.478 4.562 -6.533 QT
4.57 -6.588 4.585 -6.65 QT
5.726 -11.291 L
5.788 -11.494 5.984 -11.65 QT
6.179 -11.806 6.398 -11.806 QT
6.601 -11.806 6.742 -11.681 QT
6.882 -11.556 6.882 -11.353 QT
6.882 -11.259 6.867 -11.228 QT
5.71 -6.619 L
5.601 -6.134 5.601 -5.838 QT
5.601 -5.15 6.07 -5.15 QT
6.585 -5.15 6.835 -5.783 QT
7.085 -6.416 7.273 -7.259 QT
7.304 -7.353 7.398 -7.353 QT
7.585 -7.353 L
7.648 -7.353 7.687 -7.299 QT
7.726 -7.244 7.726 -7.197 QT
7.554 -6.509 7.398 -6.017 QT
7.242 -5.525 6.898 -5.119 QT
6.554 -4.713 6.038 -4.713 QT
5.523 -4.713 5.124 -4.994 QT
4.726 -5.275 4.585 -5.759 QT
4.21 -5.291 3.726 -5.002 QT
3.242 -4.713 2.71 -4.713 QT
1.788 -4.713 1.242 -5.22 QT
0.695 -5.728 0.695 -6.65 QT
cp
f
GR
GS
[0 -0.60127 0.60127 0 17.03601 135.48591] CT
0.149 GC
N
10.217 -6.806 M
10.217 -6.119 10.576 -5.634 QT
10.935 -5.15 11.592 -5.15 QT
12.545 -5.15 13.428 -5.588 QT
14.31 -6.025 14.857 -6.791 QT
14.904 -6.838 14.982 -6.838 QT
15.06 -6.838 15.146 -6.752 QT
15.232 -6.666 15.232 -6.588 QT
15.232 -6.525 15.201 -6.494 QT
14.607 -5.666 13.615 -5.189 QT
12.623 -4.713 11.56 -4.713 QT
10.795 -4.713 10.209 -5.08 QT
9.623 -5.447 9.303 -6.056 QT
8.982 -6.666 8.982 -7.431 QT
8.982 -8.509 9.584 -9.572 QT
10.185 -10.634 11.185 -11.306 QT
12.185 -11.978 13.295 -11.978 QT
14.014 -11.978 14.584 -11.627 QT
15.154 -11.275 15.154 -10.603 QT
15.154 -10.166 14.904 -9.853 QT
14.654 -9.541 14.217 -9.541 QT
13.967 -9.541 13.787 -9.705 QT
13.607 -9.869 13.607 -10.119 QT
13.607 -10.494 13.881 -10.759 QT
14.154 -11.025 14.529 -11.025 QT
14.56 -11.025 L
14.373 -11.306 14.014 -11.431 QT
13.654 -11.556 13.279 -11.556 QT
12.342 -11.556 11.639 -10.759 QT
10.935 -9.963 10.576 -8.845 QT
10.217 -7.728 10.217 -6.806 QT
cp
f
GR
GS
[0 -0.60127 0.60127 0 17.03601 135.48591] CT
0.149 GC
N
17.285 -6.806 M
17.285 -6.119 17.644 -5.634 QT
18.004 -5.15 18.66 -5.15 QT
19.613 -5.15 20.496 -5.588 QT
21.379 -6.025 21.926 -6.791 QT
21.973 -6.838 22.051 -6.838 QT
22.129 -6.838 22.215 -6.752 QT
22.301 -6.666 22.301 -6.588 QT
22.301 -6.525 22.269 -6.494 QT
21.676 -5.666 20.683 -5.189 QT
19.691 -4.713 18.629 -4.713 QT
17.863 -4.713 17.277 -5.08 QT
16.691 -5.447 16.371 -6.056 QT
16.051 -6.666 16.051 -7.431 QT
16.051 -8.509 16.652 -9.572 QT
17.254 -10.634 18.254 -11.306 QT
19.254 -11.978 20.363 -11.978 QT
21.082 -11.978 21.652 -11.627 QT
22.223 -11.275 22.223 -10.603 QT
22.223 -10.166 21.973 -9.853 QT
21.723 -9.541 21.285 -9.541 QT
21.035 -9.541 20.855 -9.705 QT
20.676 -9.869 20.676 -10.119 QT
20.676 -10.494 20.949 -10.759 QT
21.223 -11.025 21.598 -11.025 QT
21.629 -11.025 L
21.441 -11.306 21.082 -11.431 QT
20.723 -11.556 20.348 -11.556 QT
19.41 -11.556 18.707 -10.759 QT
18.004 -9.963 17.644 -8.845 QT
17.285 -7.728 17.285 -6.806 QT
cp
f
GR
GS
[0.60127 0 0 0.60127 0 0.20001] CT
1 LJ
2.5 LW
N
205.74 415.045 M
205.75 415.009 L
207.5 410.243 L
209.25 404.889 L
211 399.761 L
212.75 394.913 L
214.5 390.055 L
216.25 385.255 L
218 380.582 L
219.75 375.998 L
221.5 371.486 L
223.25 367.049 L
225 362.676 L
226.75 358.378 L
228.5 354.148 L
230.25 349.99 L
232 345.896 L
233.75 341.87 L
235.5 337.909 L
237.25 334.009 L
239 330.172 L
240.75 326.395 L
242.5 322.676 L
244.25 319.016 L
246 315.412 L
247.75 311.863 L
249.5 308.369 L
251.25 304.928 L
253 301.539 L
254.75 298.201 L
256.5 294.913 L
258.25 291.675 L
260 288.484 L
261.75 285.34 L
263.5 282.243 L
265.25 279.191 L
267 276.184 L
268.75 273.22 L
270.5 270.299 L
272.25 267.42 L
274 264.582 L
275.75 261.785 L
277.5 259.027 L
279.25 256.309 L
281 253.628 L
282.75 250.985 L
284.5 248.379 L
286.25 245.81 L
288 243.276 L
289.75 240.777 L
291.5 238.312 L
293.25 235.881 L
295 233.483 L
296.75 231.118 L
298.5 228.784 L
300.25 226.483 L
302 224.212 L
303.75 221.971 L
305.5 219.761 L
307.25 217.58 L
309 215.427 L
310.75 213.303 L
312.5 211.208 L
314.25 209.139 L
316 207.098 L
317.75 205.083 L
319.5 203.095 L
321.25 201.132 L
323 199.194 L
324.75 197.282 L
326.5 195.394 L
328.25 193.53 L
330 191.69 L
331.75 189.874 L
333.5 188.08 L
335.25 186.309 L
337 184.561 L
338.75 182.834 L
340.5 181.129 L
342.25 179.446 L
344 177.784 L
345.75 176.142 L
347.5 174.52 L
349.25 172.919 L
351 171.338 L
352.75 169.776 L
354.5 168.233 L
356.25 166.709 L
358 165.204 L
359.75 163.717 L
361.5 162.248 L
363.25 160.798 L
365 159.364 L
366.75 157.949 L
368.5 156.55 L
370.25 155.168 L
372 153.803 L
373.75 152.454 L
375.5 151.121 L
377.25 149.805 L
379 148.504 L
380.75 147.218 L
382.5 145.948 L
384.25 144.693 L
386 143.453 L
387.75 142.227 L
389.5 141.016 L
391.25 139.82 L
393 138.637 L
394.75 137.468 L
396.5 136.313 L
398.25 135.172 L
400 134.044 L
401.75 132.929 L
403.5 131.827 L
405.25 130.738 L
407 129.662 L
408.75 128.598 L
410.5 127.547 L
412.25 126.508 L
414 125.481 L
415.75 124.465 L
417.5 123.462 L
419.25 122.47 L
421 121.489 L
422.75 120.52 L
424.5 119.562 L
426.25 118.615 L
428 117.679 L
S
GR
GS
[0.60127 0 0 0.60127 0 0.20001] CT
[8 2 4 2] 0 setdash
2 LJ
2.5 LW
N
113.993 415.045 M
114.75 410.243 L
116.5 400.057 L
118.25 390.294 L
120 380.882 L
121.75 371.743 L
123.5 362.875 L
125.25 354.268 L
127 345.922 L
128.75 337.823 L
130.5 329.96 L
132.25 322.327 L
134 314.914 L
135.75 307.713 L
137.5 300.717 L
139.25 293.918 L
141 287.31 L
142.75 280.885 L
144.5 274.638 L
146.25 268.562 L
148 262.651 L
149.75 256.901 L
151.5 251.306 L
153.25 245.86 L
155 240.559 L
156.75 235.398 L
158.5 230.374 L
160.25 225.481 L
162 220.715 L
163.75 216.073 L
165.5 211.55 L
167.25 207.144 L
169 202.851 L
170.75 198.667 L
172.5 194.589 L
174.25 190.614 L
176 186.739 L
177.75 182.962 L
179.5 179.279 L
181.25 175.688 L
183 172.186 L
184.75 168.771 L
186.5 165.44 L
188.25 162.192 L
190 159.023 L
191.75 155.933 L
193.5 152.918 L
195.25 149.976 L
197 147.107 L
198.75 144.307 L
200.5 141.576 L
202.25 138.911 L
204 136.311 L
205.75 133.774 L
207.5 131.298 L
209.25 128.883 L
211 126.526 L
212.75 124.226 L
214.5 121.981 L
216.25 119.791 L
218 117.654 L
219.75 115.569 L
221.5 113.534 L
223.25 111.548 L
225 109.611 L
226.75 107.721 L
228.5 105.876 L
230.25 104.077 L
232 102.321 L
233.75 100.608 L
235.5 98.937 L
237.25 97.307 L
239 95.716 L
240.75 94.165 L
242.5 92.652 L
244.25 91.177 L
246 89.737 L
247.75 88.334 L
249.5 86.965 L
251.25 85.631 L
253 84.33 L
254.75 83.062 L
256.5 81.825 L
258.25 80.62 L
260 79.445 L
261.75 78.3 L
263.5 77.185 L
265.25 76.098 L
267 75.039 L
268.75 74.007 L
270.5 73.003 L
272.25 72.024 L
274 71.071 L
275.75 70.144 L
277.5 69.241 L
279.25 68.361 L
281 67.506 L
282.75 66.673 L
284.5 65.863 L
286.25 65.075 L
288 64.309 L
289.75 63.564 L
291.5 62.839 L
293.25 62.134 L
295 61.45 L
296.75 60.784 L
298.5 60.138 L
300.25 59.51 L
302 58.9 L
303.75 58.308 L
305.5 57.733 L
307.25 57.175 L
309 56.633 L
310.75 56.108 L
312.5 55.598 L
314.25 55.104 L
316 54.625 L
317.75 54.161 L
319.5 53.711 L
321.25 53.275 L
323 52.853 L
324.75 52.444 L
326.5 52.049 L
328.25 51.666 L
330 51.296 L
331.75 50.937 L
333.5 50.591 L
335.25 50.256 L
337 49.933 L
338.75 49.621 L
340.5 49.319 L
342.25 49.028 L
344 48.747 L
345.75 48.476 L
347.5 48.214 L
349.25 47.962 L
351 47.72 L
352.75 47.486 L
354.5 47.26 L
356.25 47.043 L
358 46.835 L
359.75 46.634 L
361.5 46.441 L
363.25 46.255 L
365 46.077 L
366.75 45.906 L
368.5 45.741 L
370.25 45.584 L
372 45.432 L
373.75 45.287 L
375.5 45.148 L
377.25 45.015 L
379 44.887 L
380.75 44.765 L
382.5 44.649 L
384.25 44.537 L
386 44.43 L
387.75 44.328 L
389.5 44.23 L
391.25 44.137 L
393 44.049 L
394.75 43.964 L
396.5 43.883 L
398.25 43.806 L
400 43.733 L
401.75 43.663 L
403.5 43.597 L
405.25 43.534 L
407 43.474 L
408.75 43.417 L
410.5 43.363 L
412.25 43.311 L
414 43.262 L
415.75 43.216 L
417.5 43.172 L
419.25 43.131 L
421 43.092 L
422.75 43.054 L
424.5 43.019 L
426.25 42.986 L
428 42.954 L
S
GR
GS
[0.60127 0 0 0.60127 0 0.20001] CT
[8 8] 0 setdash
2 LJ
2.5 LW
N
102.682 415.045 M
104.25 404.43 L
106 392.731 L
107.75 381.779 L
109.5 371.091 L
111.25 360.791 L
113 350.843 L
114.75 341.224 L
116.5 331.925 L
118.25 322.933 L
120 314.236 L
121.75 305.82 L
123.5 297.675 L
125.25 289.79 L
127 282.155 L
128.75 274.761 L
130.5 267.598 L
132.25 260.658 L
134 253.932 L
135.75 247.413 L
137.5 241.093 L
139.25 234.965 L
141 229.022 L
142.75 223.258 L
144.5 217.666 L
146.25 212.241 L
148 206.976 L
149.75 201.868 L
151.5 196.909 L
153.25 192.096 L
155 187.424 L
156.75 182.888 L
158.5 178.484 L
160.25 174.207 L
162 170.054 L
163.75 166.021 L
165.5 162.104 L
167.25 158.3 L
169 154.604 L
170.75 151.015 L
172.5 147.528 L
174.25 144.142 L
176 140.852 L
177.75 137.655 L
179.5 134.551 L
181.25 131.535 L
183 128.605 L
184.75 125.759 L
186.5 122.994 L
188.25 120.308 L
190 117.7 L
191.75 115.166 L
193.5 112.705 L
195.25 110.315 L
197 107.994 L
198.75 105.739 L
200.5 103.551 L
202.25 101.425 L
204 99.362 L
205.75 97.359 L
207.5 95.415 L
209.25 93.527 L
211 91.696 L
212.75 89.918 L
214.5 88.194 L
216.25 86.521 L
218 84.898 L
219.75 83.325 L
221.5 81.798 L
223.25 80.319 L
225 78.884 L
226.75 77.494 L
228.5 76.147 L
230.25 74.842 L
232 73.577 L
233.75 72.353 L
235.5 71.167 L
237.25 70.02 L
239 68.909 L
240.75 67.834 L
242.5 66.794 L
244.25 65.789 L
246 64.817 L
247.75 63.877 L
249.5 62.969 L
251.25 62.092 L
253 61.245 L
254.75 60.427 L
256.5 59.638 L
258.25 58.876 L
260 58.142 L
261.75 57.434 L
263.5 56.751 L
265.25 56.094 L
267 55.46 L
268.75 54.851 L
270.5 54.264 L
272.25 53.7 L
274 53.158 L
275.75 52.636 L
277.5 52.135 L
279.25 51.654 L
281 51.193 L
282.75 50.75 L
284.5 50.325 L
286.25 49.919 L
288 49.529 L
289.75 49.156 L
291.5 48.799 L
293.25 48.457 L
295 48.131 L
296.75 47.819 L
298.5 47.522 L
300.25 47.238 L
302 46.967 L
303.75 46.709 L
305.5 46.464 L
307.25 46.23 L
309 46.007 L
310.75 45.796 L
312.5 45.595 L
314.25 45.405 L
316 45.224 L
317.75 45.052 L
319.5 44.89 L
321.25 44.736 L
323 44.591 L
324.75 44.454 L
326.5 44.324 L
328.25 44.202 L
330 44.086 L
331.75 43.977 L
333.5 43.875 L
335.25 43.778 L
337 43.688 L
338.75 43.603 L
340.5 43.523 L
342.25 43.448 L
344 43.377 L
345.75 43.312 L
347.5 43.25 L
349.25 43.193 L
351 43.139 L
352.75 43.089 L
354.5 43.042 L
356.25 42.998 L
358 42.958 L
359.75 42.92 L
361.5 42.885 L
363.25 42.852 L
365 42.822 L
366.75 42.794 L
368.5 42.768 L
370.25 42.744 L
372 42.722 L
373.75 42.701 L
375.5 42.682 L
377.25 42.665 L
379 42.649 L
380.75 42.634 L
382.5 42.62 L
384.25 42.607 L
386 42.596 L
387.75 42.585 L
389.5 42.575 L
391.25 42.566 L
393 42.558 L
394.75 42.551 L
396.5 42.544 L
398.25 42.538 L
400 42.532 L
401.75 42.527 L
403.5 42.522 L
405.25 42.518 L
407 42.514 L
408.75 42.51 L
410.5 42.507 L
412.25 42.504 L
414 42.501 L
415.75 42.499 L
417.5 42.496 L
419.25 42.494 L
421 42.493 L
422.75 42.491 L
424.5 42.489 L
426.25 42.488 L
428 42.487 L
S
GR
GS
[0.60127 0 0 0.60127 0 0.20001] CT
[2 2] 0 setdash
2 LJ
2.5 LW
N
89.404 415.045 M
90.25 403.989 L
92 381.615 L
93.75 360.299 L
95.5 340.103 L
97.25 320.96 L
99 302.819 L
100.75 285.631 L
102.5 269.352 L
104.25 253.937 L
106 239.347 L
107.75 225.543 L
109.5 212.489 L
111.25 200.152 L
113 188.499 L
114.75 177.501 L
116.5 167.128 L
118.25 157.353 L
120 148.151 L
121.75 139.497 L
123.5 131.368 L
125.25 123.74 L
127 116.594 L
128.75 109.908 L
130.5 103.663 L
132.25 97.84 L
134 92.421 L
135.75 87.388 L
137.5 82.726 L
139.25 78.416 L
141 74.443 L
142.75 70.792 L
144.5 67.448 L
146.25 64.395 L
148 61.619 L
149.75 59.104 L
151.5 56.838 L
153.25 54.805 L
155 52.992 L
156.75 51.383 L
158.5 49.965 L
160.25 48.725 L
162 47.647 L
163.75 46.718 L
165.5 45.924 L
167.25 45.252 L
169 44.689 L
170.75 44.222 L
172.5 43.838 L
174.25 43.528 L
176 43.278 L
177.75 43.081 L
179.5 42.927 L
181.25 42.808 L
183 42.718 L
184.75 42.65 L
186.5 42.599 L
188.25 42.562 L
190 42.536 L
191.75 42.517 L
193.5 42.504 L
195.25 42.495 L
197 42.488 L
198.75 42.484 L
200.5 42.481 L
202.25 42.479 L
204 42.478 L
205.75 42.477 L
207.5 42.477 L
209.25 42.477 L
211 42.476 L
212.75 42.476 L
214.5 42.476 L
216.25 42.476 L
218 42.476 L
219.75 42.476 L
221.5 42.476 L
223.25 42.476 L
225 42.476 L
226.75 42.476 L
228.5 42.476 L
230.25 42.476 L
232 42.476 L
233.75 42.476 L
235.5 42.476 L
237.25 42.476 L
239 42.476 L
240.75 42.476 L
242.5 42.476 L
244.25 42.476 L
246 42.476 L
247.75 42.476 L
249.5 42.476 L
251.25 42.476 L
253 42.476 L
254.75 42.476 L
256.5 42.476 L
258.25 42.476 L
260 42.476 L
261.75 42.476 L
263.5 42.476 L
265.25 42.476 L
267 42.476 L
268.75 42.476 L
270.5 42.476 L
272.25 42.476 L
274 42.476 L
275.75 42.476 L
277.5 42.476 L
279.25 42.476 L
281 42.476 L
282.75 42.476 L
284.5 42.476 L
286.25 42.476 L
288 42.476 L
289.75 42.476 L
291.5 42.476 L
293.25 42.476 L
295 42.476 L
296.75 42.476 L
298.5 42.476 L
300.25 42.476 L
302 42.476 L
303.75 42.476 L
305.5 42.476 L
307.25 42.476 L
309 42.476 L
310.75 42.476 L
312.5 42.476 L
314.25 42.476 L
316 42.476 L
317.75 42.476 L
319.5 42.476 L
321.25 42.476 L
323 42.476 L
324.75 42.476 L
326.5 42.476 L
328.25 42.476 L
330 42.476 L
331.75 42.476 L
333.5 42.476 L
335.25 42.476 L
337 42.476 L
338.75 42.476 L
340.5 42.476 L
342.25 42.476 L
344 42.476 L
345.75 42.476 L
347.5 42.476 L
349.25 42.476 L
351 42.476 L
352.75 42.476 L
354.5 42.476 L
356.25 42.476 L
358 42.476 L
359.75 42.476 L
361.5 42.476 L
363.25 42.476 L
365 42.476 L
366.75 42.476 L
368.5 42.476 L
370.25 42.476 L
372 42.476 L
373.75 42.476 L
375.5 42.476 L
377.25 42.476 L
379 42.476 L
380.75 42.476 L
382.5 42.476 L
384.25 42.476 L
386 42.476 L
387.75 42.476 L
389.5 42.476 L
391.25 42.476 L
393 42.476 L
394.75 42.476 L
396.5 42.476 L
398.25 42.476 L
400 42.476 L
401.75 42.476 L
403.5 42.476 L
405.25 42.476 L
407 42.476 L
408.75 42.476 L
410.5 42.476 L
412.25 42.476 L
414 42.476 L
415.75 42.476 L
417.5 42.476 L
419.25 42.476 L
421 42.476 L
422.75 42.476 L
424.5 42.476 L
426.25 42.476 L
428 42.476 L
S
GR
GS
[0.60127 0 0 0.60127 0 0.20001] CT
1 GC
N
260 400 M
260 297 L
418 297 L
418 400 L
cp
f
GR
GS
[0.60127 0 0 0.60127 191.62973 187.50657] CT
N
0.609 4.8 M
0.609 4.097 L
2.672 4.097 2.672 3.456 QT
2.672 -7.528 L
2.672 -8.153 0.609 -8.153 QT
0.609 -8.856 L
11.078 -8.856 L
11.641 -4.278 L
11.063 -4.278 L
10.922 -5.559 10.727 -6.247 QT
10.531 -6.934 10.141 -7.364 QT
9.75 -7.794 9.047 -7.974 QT
8.344 -8.153 7.094 -8.153 QT
5.563 -8.153 L
5.203 -8.153 5 -8.13 QT
4.797 -8.106 4.672 -7.966 QT
4.547 -7.825 4.547 -7.528 QT
4.547 3.456 L
4.547 4.097 7.094 4.097 QT
7.094 4.8 L
0.609 4.8 L
cp
f
GR
GS
[0.60127 0 0 0.60127 191.62973 187.50657] CT
N
13.156 7.8 M
13.016 7.8 13.016 7.612 QT
13.031 7.581 13.047 7.495 QT
13.063 7.409 13.102 7.355 QT
13.141 7.3 13.203 7.3 QT
14.047 7.3 14.391 7.206 QT
14.578 7.144 14.656 6.831 QT
16.578 -0.856 L
16.609 -0.997 16.609 -1.044 QT
16.609 -1.2 16.438 -1.216 QT
16.172 -1.278 15.422 -1.278 QT
15.297 -1.278 15.297 -1.45 QT
15.297 -1.497 15.32 -1.583 QT
15.344 -1.669 15.375 -1.716 QT
15.406 -1.763 15.469 -1.763 QT
23.063 -1.763 L
23.203 -1.763 23.203 -1.575 QT
22.859 1.316 L
22.859 1.347 22.813 1.394 QT
22.766 1.441 22.719 1.441 QT
22.594 1.441 L
22.453 1.441 22.453 1.269 QT
22.531 0.581 22.531 0.253 QT
22.531 -0.309 22.344 -0.622 QT
22.156 -0.934 21.836 -1.067 QT
21.516 -1.2 21.133 -1.239 QT
20.75 -1.278 20.109 -1.278 QT
18.516 -1.278 L
18.141 -1.278 18.016 -1.208 QT
17.891 -1.138 17.797 -0.794 QT
16.953 2.597 L
18.047 2.597 L
18.75 2.597 19.117 2.495 QT
19.484 2.394 19.695 2.081 QT
19.906 1.769 20.078 1.081 QT
20.094 1.034 20.125 0.995 QT
20.156 0.956 20.219 0.956 QT
20.344 0.956 L
20.484 0.956 20.484 1.128 QT
19.609 4.597 L
19.578 4.722 19.469 4.722 QT
19.344 4.722 L
19.203 4.722 19.203 4.534 QT
19.344 3.972 19.344 3.706 QT
19.344 3.3 18.977 3.191 QT
18.609 3.081 17.984 3.081 QT
16.828 3.081 L
15.875 6.894 L
15.813 7.066 15.813 7.191 QT
15.813 7.3 16.297 7.3 QT
17.984 7.3 L
19 7.3 19.633 7.144 QT
20.266 6.987 20.68 6.644 QT
21.094 6.3 21.391 5.769 QT
21.688 5.237 22.125 4.222 QT
22.141 4.128 22.234 4.128 QT
22.375 4.128 L
22.422 4.128 22.469 4.175 QT
22.516 4.222 22.516 4.284 QT
22.516 4.316 22.5 4.347 QT
21.047 7.722 L
21.031 7.8 20.938 7.8 QT
13.156 7.8 L
cp
f
GR
GS
[0.60127 0 0 0.60127 191.62973 187.50657] CT
N
31.697 2.144 M
31.541 2.144 31.431 2.019 QT
31.322 1.894 31.322 1.737 QT
31.322 1.581 31.431 1.464 QT
31.541 1.347 31.697 1.347 QT
44.26 1.347 L
44.4 1.347 44.51 1.464 QT
44.619 1.581 44.619 1.737 QT
44.619 1.894 44.51 2.019 QT
44.4 2.144 44.26 2.144 QT
31.697 2.144 L
cp
31.697 -1.747 M
31.541 -1.747 31.431 -1.864 QT
31.322 -1.981 31.322 -2.138 QT
31.322 -2.294 31.431 -2.419 QT
31.541 -2.544 31.697 -2.544 QT
44.26 -2.544 L
44.4 -2.544 44.51 -2.419 QT
44.619 -2.294 44.619 -2.138 QT
44.619 -1.981 44.51 -1.864 QT
44.4 -1.747 44.26 -1.747 QT
31.697 -1.747 L
cp
f
GR
GS
[0.60127 0 0 0.60127 191.62973 187.50657] CT
N
45.971 1.097 M
45.971 -0.138 L
51.268 -0.138 L
51.268 1.097 L
45.971 1.097 L
cp
f
GR
GS
[0.60127 0 0 0.60127 191.62973 187.50657] CT
N
54.154 2.519 M
54.357 3.112 54.787 3.589 QT
55.216 4.066 55.794 4.331 QT
56.372 4.597 56.997 4.597 QT
58.451 4.597 58.997 3.48 QT
59.544 2.362 59.544 0.753 QT
59.544 0.066 59.521 -0.411 QT
59.497 -0.888 59.388 -1.325 QT
59.201 -2.028 58.732 -2.552 QT
58.263 -3.075 57.591 -3.075 QT
56.919 -3.075 56.435 -2.872 QT
55.951 -2.669 55.654 -2.395 QT
55.357 -2.122 55.122 -1.817 QT
54.888 -1.513 54.826 -1.497 QT
54.591 -1.497 L
54.544 -1.497 54.474 -1.559 QT
54.404 -1.622 54.404 -1.684 QT
54.404 -8.372 L
54.404 -8.419 54.466 -8.474 QT
54.529 -8.528 54.591 -8.528 QT
54.654 -8.528 L
55.997 -7.872 57.513 -7.872 QT
58.997 -7.872 60.372 -8.528 QT
60.435 -8.528 L
60.513 -8.528 60.568 -8.474 QT
60.622 -8.419 60.622 -8.372 QT
60.622 -8.184 L
60.622 -8.075 60.591 -8.075 QT
59.904 -7.169 58.872 -6.661 QT
57.841 -6.153 56.732 -6.153 QT
55.935 -6.153 55.091 -6.388 QT
55.091 -2.606 L
55.763 -3.138 56.287 -3.372 QT
56.81 -3.606 57.622 -3.606 QT
58.716 -3.606 59.591 -2.966 QT
60.466 -2.325 60.935 -1.309 QT
61.404 -0.294 61.404 0.769 QT
61.404 1.972 60.81 3.003 QT
60.216 4.034 59.201 4.636 QT
58.185 5.237 56.997 5.237 QT
56.013 5.237 55.185 4.73 QT
54.357 4.222 53.888 3.362 QT
53.419 2.503 53.419 1.534 QT
53.419 1.081 53.708 0.8 QT
53.997 0.519 54.435 0.519 QT
54.888 0.519 55.185 0.808 QT
55.482 1.097 55.482 1.534 QT
55.482 1.972 55.185 2.269 QT
54.888 2.566 54.435 2.566 QT
54.372 2.566 54.287 2.55 QT
54.201 2.534 54.154 2.519 QT
cp
f
GR
GS
[0.60127 0 0 0.60127 191.62973 187.50657] CT
N
73.977 5.019 M
72.789 5.019 71.813 4.378 QT
70.836 3.737 70.297 2.698 QT
69.758 1.659 69.758 0.487 QT
69.758 -0.731 70.344 -1.77 QT
70.93 -2.809 71.945 -3.427 QT
72.961 -4.044 74.18 -4.044 QT
74.914 -4.044 75.57 -3.731 QT
76.227 -3.419 76.711 -2.872 QT
76.711 -7.044 L
76.711 -7.575 76.547 -7.817 QT
76.383 -8.059 76.086 -8.106 QT
75.789 -8.153 75.149 -8.153 QT
75.149 -8.856 L
78.117 -9.075 L
78.117 2.987 L
78.117 3.503 78.274 3.745 QT
78.43 3.987 78.727 4.042 QT
79.024 4.097 79.664 4.097 QT
79.664 4.8 L
76.649 5.019 L
76.649 3.769 L
76.133 4.362 75.414 4.691 QT
74.695 5.019 73.977 5.019 QT
cp
71.93 3.066 M
72.274 3.722 72.844 4.112 QT
73.414 4.503 74.086 4.503 QT
74.914 4.503 75.609 4.019 QT
76.305 3.534 76.649 2.784 QT
76.649 -2.013 L
76.414 -2.45 76.055 -2.802 QT
75.695 -3.153 75.25 -3.341 QT
74.805 -3.528 74.305 -3.528 QT
73.274 -3.528 72.633 -2.934 QT
71.992 -2.341 71.742 -1.419 QT
71.492 -0.497 71.492 0.503 QT
71.492 1.3 71.57 1.894 QT
71.649 2.487 71.93 3.066 QT
cp
f
GR
GS
[0.60127 0 0 0.60127 191.62973 187.50657] CT
N
80.885 4.8 M
80.885 4.097 L
82.947 4.097 82.947 3.456 QT
82.947 -7.528 L
82.947 -8.153 80.885 -8.153 QT
80.885 -8.856 L
88.228 -8.856 L
89.244 -8.856 90.283 -8.466 QT
91.322 -8.075 92.002 -7.294 QT
92.682 -6.513 92.682 -5.466 QT
92.682 -4.247 91.682 -3.419 QT
90.682 -2.591 89.338 -2.341 QT
90.213 -2.341 91.127 -1.864 QT
92.041 -1.388 92.627 -0.583 QT
93.213 0.222 93.213 1.112 QT
93.213 2.206 92.564 3.05 QT
91.916 3.894 90.885 4.347 QT
89.853 4.8 88.807 4.8 QT
80.885 4.8 L
cp
84.682 3.456 M
84.682 3.894 84.924 3.995 QT
85.166 4.097 85.697 4.097 QT
88.228 4.097 L
89.01 4.097 89.682 3.683 QT
90.353 3.269 90.744 2.581 QT
91.135 1.894 91.135 1.112 QT
91.135 0.362 90.814 -0.372 QT
90.494 -1.106 89.892 -1.575 QT
89.291 -2.044 88.525 -2.044 QT
84.682 -2.044 L
84.682 3.456 L
cp
84.682 -2.559 M
87.682 -2.559 L
88.291 -2.559 88.822 -2.778 QT
89.353 -2.997 89.775 -3.419 QT
90.197 -3.841 90.424 -4.356 QT
90.65 -4.872 90.65 -5.466 QT
90.65 -5.981 90.486 -6.458 QT
90.322 -6.934 89.986 -7.325 QT
89.65 -7.716 89.205 -7.934 QT
88.76 -8.153 88.228 -8.153 QT
85.697 -8.153 L
85.338 -8.153 85.135 -8.13 QT
84.932 -8.106 84.807 -7.966 QT
84.682 -7.825 84.682 -7.528 QT
84.682 -2.559 L
cp
f
GR
GS
[0.60127 0 0 0.60127 0 0.20001] CT
1 LJ
2.5 LW
N
264.996 311.518 M
314.96 311.518 L
S
GR
GS
[0.60127 0 0 0.60127 191.62973 202.33087] CT
N
/f971893044{0.609 4.8 M
0.609 4.097 L
2.672 4.097 2.672 3.456 QT
2.672 -7.528 L
2.672 -8.153 0.609 -8.153 QT
0.609 -8.856 L
11.078 -8.856 L
11.641 -4.278 L
11.063 -4.278 L
10.922 -5.559 10.727 -6.247 QT
10.531 -6.934 10.141 -7.364 QT
9.75 -7.794 9.047 -7.974 QT
8.344 -8.153 7.094 -8.153 QT
5.563 -8.153 L
5.203 -8.153 5 -8.13 QT
4.797 -8.106 4.672 -7.966 QT
4.547 -7.825 4.547 -7.528 QT
4.547 3.456 L
4.547 4.097 7.094 4.097 QT
7.094 4.8 L
0.609 4.8 L
cp}def
f971893044
f
GR
GS
[0.60127 0 0 0.60127 191.62973 202.33087] CT
N
/f745021100{13.156 7.8 M
13.016 7.8 13.016 7.612 QT
13.031 7.581 13.047 7.495 QT
13.063 7.409 13.102 7.355 QT
13.141 7.3 13.203 7.3 QT
14.047 7.3 14.391 7.206 QT
14.578 7.144 14.656 6.831 QT
16.578 -0.856 L
16.609 -0.997 16.609 -1.044 QT
16.609 -1.2 16.438 -1.216 QT
16.172 -1.278 15.422 -1.278 QT
15.297 -1.278 15.297 -1.45 QT
15.297 -1.497 15.32 -1.583 QT
15.344 -1.669 15.375 -1.716 QT
15.406 -1.763 15.469 -1.763 QT
23.063 -1.763 L
23.203 -1.763 23.203 -1.575 QT
22.859 1.316 L
22.859 1.347 22.813 1.394 QT
22.766 1.441 22.719 1.441 QT
22.594 1.441 L
22.453 1.441 22.453 1.269 QT
22.531 0.581 22.531 0.253 QT
22.531 -0.309 22.344 -0.622 QT
22.156 -0.934 21.836 -1.067 QT
21.516 -1.2 21.133 -1.239 QT
20.75 -1.278 20.109 -1.278 QT
18.516 -1.278 L
18.141 -1.278 18.016 -1.208 QT
17.891 -1.138 17.797 -0.794 QT
16.953 2.597 L
18.047 2.597 L
18.75 2.597 19.117 2.495 QT
19.484 2.394 19.695 2.081 QT
19.906 1.769 20.078 1.081 QT
20.094 1.034 20.125 0.995 QT
20.156 0.956 20.219 0.956 QT
20.344 0.956 L
20.484 0.956 20.484 1.128 QT
19.609 4.597 L
19.578 4.722 19.469 4.722 QT
19.344 4.722 L
19.203 4.722 19.203 4.534 QT
19.344 3.972 19.344 3.706 QT
19.344 3.3 18.977 3.191 QT
18.609 3.081 17.984 3.081 QT
16.828 3.081 L
15.875 6.894 L
15.813 7.066 15.813 7.191 QT
15.813 7.3 16.297 7.3 QT
17.984 7.3 L
19 7.3 19.633 7.144 QT
20.266 6.987 20.68 6.644 QT
21.094 6.3 21.391 5.769 QT
21.688 5.237 22.125 4.222 QT
22.141 4.128 22.234 4.128 QT
22.375 4.128 L
22.422 4.128 22.469 4.175 QT
22.516 4.222 22.516 4.284 QT
22.516 4.316 22.5 4.347 QT
21.047 7.722 L
21.031 7.8 20.938 7.8 QT
13.156 7.8 L
cp}def
f745021100
f
GR
GS
[0.60127 0 0 0.60127 191.62973 202.33087] CT
N
/f-10812567{31.697 2.144 M
31.541 2.144 31.431 2.019 QT
31.322 1.894 31.322 1.737 QT
31.322 1.581 31.431 1.464 QT
31.541 1.347 31.697 1.347 QT
44.26 1.347 L
44.4 1.347 44.51 1.464 QT
44.619 1.581 44.619 1.737 QT
44.619 1.894 44.51 2.019 QT
44.4 2.144 44.26 2.144 QT
31.697 2.144 L
cp
31.697 -1.747 M
31.541 -1.747 31.431 -1.864 QT
31.322 -1.981 31.322 -2.138 QT
31.322 -2.294 31.431 -2.419 QT
31.541 -2.544 31.697 -2.544 QT
44.26 -2.544 L
44.4 -2.544 44.51 -2.419 QT
44.619 -2.294 44.619 -2.138 QT
44.619 -1.981 44.51 -1.864 QT
44.4 -1.747 44.26 -1.747 QT
31.697 -1.747 L
cp}def
f-10812567
f
GR
GS
[0.60127 0 0 0.60127 191.62973 202.33087] CT
N
/f-1740747459{45.971 1.097 M
45.971 -0.138 L
51.268 -0.138 L
51.268 1.097 L
45.971 1.097 L
cp}def
f-1740747459
f
GR
GS
[0.60127 0 0 0.60127 191.62973 202.33087] CT
N
/f-929678413{54.279 4.8 M
54.279 4.097 L
56.779 4.097 56.779 3.456 QT
56.779 -7.044 L
55.747 -6.544 54.154 -6.544 QT
54.154 -7.247 L
56.607 -7.247 57.857 -8.528 QT
58.138 -8.528 L
58.216 -8.528 58.279 -8.474 QT
58.341 -8.419 58.341 -8.341 QT
58.341 3.456 L
58.341 4.097 60.841 4.097 QT
60.841 4.8 L
54.279 4.8 L
cp}def
f-929678413
f
GR
GS
[0.60127 0 0 0.60127 191.62973 202.33087] CT
N
/f205909148{73.977 5.019 M
72.789 5.019 71.813 4.378 QT
70.836 3.737 70.297 2.698 QT
69.758 1.659 69.758 0.487 QT
69.758 -0.731 70.344 -1.77 QT
70.93 -2.809 71.945 -3.427 QT
72.961 -4.044 74.18 -4.044 QT
74.914 -4.044 75.57 -3.731 QT
76.227 -3.419 76.711 -2.872 QT
76.711 -7.044 L
76.711 -7.575 76.547 -7.817 QT
76.383 -8.059 76.086 -8.106 QT
75.789 -8.153 75.149 -8.153 QT
75.149 -8.856 L
78.117 -9.075 L
78.117 2.987 L
78.117 3.503 78.274 3.745 QT
78.43 3.987 78.727 4.042 QT
79.024 4.097 79.664 4.097 QT
79.664 4.8 L
76.649 5.019 L
76.649 3.769 L
76.133 4.362 75.414 4.691 QT
74.695 5.019 73.977 5.019 QT
cp
71.93 3.066 M
72.274 3.722 72.844 4.112 QT
73.414 4.503 74.086 4.503 QT
74.914 4.503 75.609 4.019 QT
76.305 3.534 76.649 2.784 QT
76.649 -2.013 L
76.414 -2.45 76.055 -2.802 QT
75.695 -3.153 75.25 -3.341 QT
74.805 -3.528 74.305 -3.528 QT
73.274 -3.528 72.633 -2.934 QT
71.992 -2.341 71.742 -1.419 QT
71.492 -0.497 71.492 0.503 QT
71.492 1.3 71.57 1.894 QT
71.649 2.487 71.93 3.066 QT
cp}def
f205909148
f
GR
GS
[0.60127 0 0 0.60127 191.62973 202.33087] CT
N
/f-1213894361{80.885 4.8 M
80.885 4.097 L
82.947 4.097 82.947 3.456 QT
82.947 -7.528 L
82.947 -8.153 80.885 -8.153 QT
80.885 -8.856 L
88.228 -8.856 L
89.244 -8.856 90.283 -8.466 QT
91.322 -8.075 92.002 -7.294 QT
92.682 -6.513 92.682 -5.466 QT
92.682 -4.247 91.682 -3.419 QT
90.682 -2.591 89.338 -2.341 QT
90.213 -2.341 91.127 -1.864 QT
92.041 -1.388 92.627 -0.583 QT
93.213 0.222 93.213 1.112 QT
93.213 2.206 92.564 3.05 QT
91.916 3.894 90.885 4.347 QT
89.853 4.8 88.807 4.8 QT
80.885 4.8 L
cp
84.682 3.456 M
84.682 3.894 84.924 3.995 QT
85.166 4.097 85.697 4.097 QT
88.228 4.097 L
89.01 4.097 89.682 3.683 QT
90.353 3.269 90.744 2.581 QT
91.135 1.894 91.135 1.112 QT
91.135 0.362 90.814 -0.372 QT
90.494 -1.106 89.892 -1.575 QT
89.291 -2.044 88.525 -2.044 QT
84.682 -2.044 L
84.682 3.456 L
cp
84.682 -2.559 M
87.682 -2.559 L
88.291 -2.559 88.822 -2.778 QT
89.353 -2.997 89.775 -3.419 QT
90.197 -3.841 90.424 -4.356 QT
90.65 -4.872 90.65 -5.466 QT
90.65 -5.981 90.486 -6.458 QT
90.322 -6.934 89.986 -7.325 QT
89.65 -7.716 89.205 -7.934 QT
88.76 -8.153 88.228 -8.153 QT
85.697 -8.153 L
85.338 -8.153 85.135 -8.13 QT
84.932 -8.106 84.807 -7.966 QT
84.682 -7.825 84.682 -7.528 QT
84.682 -2.559 L
cp}def
f-1213894361
f
GR
GS
[0.60127 0 0 0.60127 0 0.20001] CT
[8 2 4 2] 0 setdash
2 LJ
2.5 LW
N
264.996 336.173 M
314.96 336.173 L
S
GR
GS
[0.60127 0 0 0.60127 191.62973 217.15515] CT
N
f971893044
f
GR
GS
[0.60127 0 0 0.60127 191.62973 217.15515] CT
N
f745021100
f
GR
GS
[0.60127 0 0 0.60127 191.62973 217.15515] CT
N
f-10812567
f
GR
GS
[0.60127 0 0 0.60127 191.62973 217.15515] CT
N
/f698100045{50.753 5.237 M
48.3 5.237 47.417 3.222 QT
46.534 1.206 46.534 -1.575 QT
46.534 -3.309 46.854 -4.849 QT
47.175 -6.388 48.112 -7.458 QT
49.05 -8.528 50.753 -8.528 QT
52.065 -8.528 52.909 -7.88 QT
53.753 -7.231 54.19 -6.208 QT
54.628 -5.184 54.792 -4.02 QT
54.956 -2.856 54.956 -1.575 QT
54.956 0.144 54.635 1.644 QT
54.315 3.144 53.385 4.191 QT
52.456 5.237 50.753 5.237 QT
cp
50.753 4.722 M
51.862 4.722 52.409 3.581 QT
52.956 2.441 53.089 1.05 QT
53.221 -0.341 53.221 -1.903 QT
53.221 -3.403 53.089 -4.677 QT
52.956 -5.95 52.417 -6.974 QT
51.878 -7.997 50.753 -7.997 QT
49.628 -7.997 49.081 -6.966 QT
48.534 -5.934 48.401 -4.669 QT
48.268 -3.403 48.268 -1.903 QT
48.268 -0.794 48.323 0.198 QT
48.378 1.191 48.612 2.237 QT
48.846 3.284 49.37 4.003 QT
49.893 4.722 50.753 4.722 QT
cp}def
f698100045
f
GR
GS
[0.60127 0 0 0.60127 191.62973 217.15515] CT
N
/f13838597{67.31 5.019 M
66.122 5.019 65.146 4.378 QT
64.169 3.737 63.63 2.698 QT
63.091 1.659 63.091 0.487 QT
63.091 -0.731 63.677 -1.77 QT
64.263 -2.809 65.279 -3.427 QT
66.294 -4.044 67.513 -4.044 QT
68.247 -4.044 68.904 -3.731 QT
69.56 -3.419 70.044 -2.872 QT
70.044 -7.044 L
70.044 -7.575 69.88 -7.817 QT
69.716 -8.059 69.419 -8.106 QT
69.122 -8.153 68.482 -8.153 QT
68.482 -8.856 L
71.451 -9.075 L
71.451 2.987 L
71.451 3.503 71.607 3.745 QT
71.763 3.987 72.06 4.042 QT
72.357 4.097 72.997 4.097 QT
72.997 4.8 L
69.982 5.019 L
69.982 3.769 L
69.466 4.362 68.747 4.691 QT
68.029 5.019 67.31 5.019 QT
cp
65.263 3.066 M
65.607 3.722 66.177 4.112 QT
66.747 4.503 67.419 4.503 QT
68.247 4.503 68.943 4.019 QT
69.638 3.534 69.982 2.784 QT
69.982 -2.013 L
69.747 -2.45 69.388 -2.802 QT
69.029 -3.153 68.583 -3.341 QT
68.138 -3.528 67.638 -3.528 QT
66.607 -3.528 65.966 -2.934 QT
65.326 -2.341 65.076 -1.419 QT
64.826 -0.497 64.826 0.503 QT
64.826 1.3 64.904 1.894 QT
64.982 2.487 65.263 3.066 QT
cp}def
f13838597
f
GR
GS
[0.60127 0 0 0.60127 191.62973 217.15515] CT
N
/f1852015947{74.218 4.8 M
74.218 4.097 L
76.281 4.097 76.281 3.456 QT
76.281 -7.528 L
76.281 -8.153 74.218 -8.153 QT
74.218 -8.856 L
81.562 -8.856 L
82.577 -8.856 83.616 -8.466 QT
84.656 -8.075 85.335 -7.294 QT
86.015 -6.513 86.015 -5.466 QT
86.015 -4.247 85.015 -3.419 QT
84.015 -2.591 82.671 -2.341 QT
83.546 -2.341 84.46 -1.864 QT
85.374 -1.388 85.96 -0.583 QT
86.546 0.222 86.546 1.112 QT
86.546 2.206 85.898 3.05 QT
85.249 3.894 84.218 4.347 QT
83.187 4.8 82.14 4.8 QT
74.218 4.8 L
cp
78.015 3.456 M
78.015 3.894 78.257 3.995 QT
78.499 4.097 79.031 4.097 QT
81.562 4.097 L
82.343 4.097 83.015 3.683 QT
83.687 3.269 84.077 2.581 QT
84.468 1.894 84.468 1.112 QT
84.468 0.362 84.148 -0.372 QT
83.827 -1.106 83.226 -1.575 QT
82.624 -2.044 81.859 -2.044 QT
78.015 -2.044 L
78.015 3.456 L
cp
78.015 -2.559 M
81.015 -2.559 L
81.624 -2.559 82.156 -2.778 QT
82.687 -2.997 83.109 -3.419 QT
83.531 -3.841 83.757 -4.356 QT
83.984 -4.872 83.984 -5.466 QT
83.984 -5.981 83.82 -6.458 QT
83.656 -6.934 83.32 -7.325 QT
82.984 -7.716 82.538 -7.934 QT
82.093 -8.153 81.562 -8.153 QT
79.031 -8.153 L
78.671 -8.153 78.468 -8.13 QT
78.265 -8.106 78.14 -7.966 QT
78.015 -7.825 78.015 -7.528 QT
78.015 -2.559 L
cp}def
f1852015947
f
GR
GS
[0.60127 0 0 0.60127 0 0.20001] CT
[8 8] 0 setdash
2 LJ
2.5 LW
N
264.996 360.827 M
314.96 360.827 L
S
GR
GS
[0.60127 0 0 0.60127 191.62973 231.97946] CT
N
f971893044
f
GR
GS
[0.60127 0 0 0.60127 191.62973 231.97946] CT
N
f745021100
f
GR
GS
[0.60127 0 0 0.60127 191.62973 231.97946] CT
N
f-10812567
f
GR
GS
[0.60127 0 0 0.60127 191.62973 231.97946] CT
N
/f841011835{47.487 2.519 M
47.69 3.112 48.12 3.589 QT
48.55 4.066 49.128 4.331 QT
49.706 4.597 50.331 4.597 QT
51.784 4.597 52.331 3.48 QT
52.878 2.362 52.878 0.753 QT
52.878 0.066 52.854 -0.411 QT
52.831 -0.888 52.721 -1.325 QT
52.534 -2.028 52.065 -2.552 QT
51.596 -3.075 50.925 -3.075 QT
50.253 -3.075 49.768 -2.872 QT
49.284 -2.669 48.987 -2.395 QT
48.69 -2.122 48.456 -1.817 QT
48.221 -1.513 48.159 -1.497 QT
47.925 -1.497 L
47.878 -1.497 47.807 -1.559 QT
47.737 -1.622 47.737 -1.684 QT
47.737 -8.372 L
47.737 -8.419 47.8 -8.474 QT
47.862 -8.528 47.925 -8.528 QT
47.987 -8.528 L
49.331 -7.872 50.846 -7.872 QT
52.331 -7.872 53.706 -8.528 QT
53.768 -8.528 L
53.846 -8.528 53.901 -8.474 QT
53.956 -8.419 53.956 -8.372 QT
53.956 -8.184 L
53.956 -8.075 53.925 -8.075 QT
53.237 -7.169 52.206 -6.661 QT
51.175 -6.153 50.065 -6.153 QT
49.268 -6.153 48.425 -6.388 QT
48.425 -2.606 L
49.096 -3.138 49.62 -3.372 QT
50.143 -3.606 50.956 -3.606 QT
52.05 -3.606 52.925 -2.966 QT
53.8 -2.325 54.268 -1.309 QT
54.737 -0.294 54.737 0.769 QT
54.737 1.972 54.143 3.003 QT
53.55 4.034 52.534 4.636 QT
51.518 5.237 50.331 5.237 QT
49.346 5.237 48.518 4.73 QT
47.69 4.222 47.221 3.362 QT
46.753 2.503 46.753 1.534 QT
46.753 1.081 47.042 0.8 QT
47.331 0.519 47.768 0.519 QT
48.221 0.519 48.518 0.808 QT
48.815 1.097 48.815 1.534 QT
48.815 1.972 48.518 2.269 QT
48.221 2.566 47.768 2.566 QT
47.706 2.566 47.62 2.55 QT
47.534 2.534 47.487 2.519 QT
cp}def
f841011835
f
GR
GS
[0.60127 0 0 0.60127 191.62973 231.97946] CT
N
f13838597
f
GR
GS
[0.60127 0 0 0.60127 191.62973 231.97946] CT
N
f1852015947
f
GR
GS
[0.60127 0 0 0.60127 0 0.20001] CT
[2 2] 0 setdash
2 LJ
2.5 LW
N
264.996 385.482 M
314.96 385.482 L
S
GR
GS
[0.60127 0 0 0.60127 0 0.20001] CT
0.149 GC
10.0 ML
0.833 LW
N
260 400 M
260 297 L
418 297 L
418 400 L
cp
S
GR
%%Trailer
%%Pages: 1
%%EOF
