%!PS-Adobe-3.0 EPSF-3.0
%%Creator: (MATLAB, The Mathworks, Inc. Version 9.2.0.538062 \(R2017a\). Operating System: Windows 8)
%%Title: C:/Users/chees/Documents/DottoratoLoc/GNSS/authProtocol/latex/figures/FEAcomp.eps
%%CreationDate: 2017-10-12T14:38:05
%%Pages: (atend)
%%BoundingBox: 0 0 490 320
%%LanguageLevel: 3
%%EndComments
%%BeginProlog
%%BeginResource: procset (Apache XML Graphics Std ProcSet) 1.2 0
%%Version: 1.2 0
%%Copyright: (Copyright 2001-2003,2010 The Apache Software Foundation. License terms: http://www.apache.org/licenses/LICENSE-2.0)
/bd{bind def}bind def
/ld{load def}bd
/GR/grestore ld
/M/moveto ld
/LJ/setlinejoin ld
/C/curveto ld
/f/fill ld
/LW/setlinewidth ld
/GC/setgray ld
/t/show ld
/N/newpath ld
/CT/concat ld
/cp/closepath ld
/S/stroke ld
/L/lineto ld
/CC/setcmykcolor ld
/A/ashow ld
/GS/gsave ld
/RC/setrgbcolor ld
/RM/rmoveto ld
/ML/setmiterlimit ld
/re {4 2 roll M
1 index 0 rlineto
0 exch rlineto
neg 0 rlineto
cp } bd
/_ctm matrix def
/_tm matrix def
/BT { _ctm currentmatrix pop matrix _tm copy pop 0 0 moveto } bd
/ET { _ctm setmatrix } bd
/iTm { _ctm setmatrix _tm concat } bd
/Tm { _tm astore pop iTm 0 0 moveto } bd
/ux 0.0 def
/uy 0.0 def
/F {
  /Tp exch def
  /Tf exch def
  Tf findfont Tp scalefont setfont
  /cf Tf def  /cs Tp def
} bd
/ULS {currentpoint /uy exch def /ux exch def} bd
/ULE {
  /Tcx currentpoint pop def
  gsave
  newpath
  cf findfont cs scalefont dup
  /FontMatrix get 0 get /Ts exch def /FontInfo get dup
  /UnderlinePosition get Ts mul /To exch def
  /UnderlineThickness get Ts mul /Tt exch def
  ux uy To add moveto  Tcx uy To add lineto
  Tt setlinewidth stroke
  grestore
} bd
/OLE {
  /Tcx currentpoint pop def
  gsave
  newpath
  cf findfont cs scalefont dup
  /FontMatrix get 0 get /Ts exch def /FontInfo get dup
  /UnderlinePosition get Ts mul /To exch def
  /UnderlineThickness get Ts mul /Tt exch def
  ux uy To add cs add moveto Tcx uy To add cs add lineto
  Tt setlinewidth stroke
  grestore
} bd
/SOE {
  /Tcx currentpoint pop def
  gsave
  newpath
  cf findfont cs scalefont dup
  /FontMatrix get 0 get /Ts exch def /FontInfo get dup
  /UnderlinePosition get Ts mul /To exch def
  /UnderlineThickness get Ts mul /Tt exch def
  ux uy To add cs 10 mul 26 idiv add moveto Tcx uy To add cs 10 mul 26 idiv add lineto
  Tt setlinewidth stroke
  grestore
} bd
/QT {
/Y22 exch store
/X22 exch store
/Y21 exch store
/X21 exch store
currentpoint
/Y21 load 2 mul add 3 div exch
/X21 load 2 mul add 3 div exch
/X21 load 2 mul /X22 load add 3 div
/Y21 load 2 mul /Y22 load add 3 div
/X22 load /Y22 load curveto
} bd
/SSPD {
dup length /d exch dict def
{
/v exch def
/k exch def
currentpagedevice k known {
/cpdv currentpagedevice k get def
v cpdv ne {
/upd false def
/nullv v type /nulltype eq def
/nullcpdv cpdv type /nulltype eq def
nullv nullcpdv or
{
/upd true def
} {
/sametype v type cpdv type eq def
sametype {
v type /arraytype eq {
/vlen v length def
/cpdvlen cpdv length def
vlen cpdvlen eq {
0 1 vlen 1 sub {
/i exch def
/obj v i get def
/cpdobj cpdv i get def
obj cpdobj ne {
/upd true def
exit
} if
} for
} {
/upd true def
} ifelse
} {
v type /dicttype eq {
v {
/dv exch def
/dk exch def
/cpddv cpdv dk get def
dv cpddv ne {
/upd true def
exit
} if
} forall
} {
/upd true def
} ifelse
} ifelse
} if
} ifelse
upd true eq {
d k v put
} if
} if
} if
} forall
d length 0 gt {
d setpagedevice
} if
} bd
/RE { % /NewFontName [NewEncodingArray] /FontName RE -
  findfont dup length dict begin
  {
    1 index /FID ne
    {def} {pop pop} ifelse
  } forall
  /Encoding exch def
  /FontName 1 index def
  currentdict definefont pop
  end
} bind def
%%EndResource
%%BeginResource: procset (Apache XML Graphics EPS ProcSet) 1.0 0
%%Version: 1.0 0
%%Copyright: (Copyright 2002-2003 The Apache Software Foundation. License terms: http://www.apache.org/licenses/LICENSE-2.0)
/BeginEPSF { %def
/b4_Inc_state save def         % Save state for cleanup
/dict_count countdictstack def % Count objects on dict stack
/op_count count 1 sub def      % Count objects on operand stack
userdict begin                 % Push userdict on dict stack
/showpage { } def              % Redefine showpage, { } = null proc
0 setgray 0 setlinecap         % Prepare graphics state
1 setlinewidth 0 setlinejoin
10 setmiterlimit [ ] 0 setdash newpath
/languagelevel where           % If level not equal to 1 then
{pop languagelevel             % set strokeadjust and
1 ne                           % overprint to their defaults.
{false setstrokeadjust false setoverprint
} if
} if
} bd
/EndEPSF { %def
count op_count sub {pop} repeat            % Clean up stacks
countdictstack dict_count sub {end} repeat
b4_Inc_state restore
} bd
%%EndResource
%FOPBeginFontDict
%%IncludeResource: font Courier-Bold
%%IncludeResource: font Helvetica
%%IncludeResource: font Courier-BoldOblique
%%IncludeResource: font Courier-Oblique
%%IncludeResource: font Times-Roman
%%IncludeResource: font Helvetica-BoldOblique
%%IncludeResource: font Helvetica-Bold
%%IncludeResource: font Helvetica-Oblique
%%IncludeResource: font Times-BoldItalic
%%IncludeResource: font Courier
%%IncludeResource: font Times-Italic
%%IncludeResource: font Times-Bold
%%IncludeResource: font Symbol
%%IncludeResource: font ZapfDingbats
%FOPEndFontDict
%%BeginResource: encoding WinAnsiEncoding
/WinAnsiEncoding [
/.notdef /.notdef /.notdef /.notdef /.notdef
/.notdef /.notdef /.notdef /.notdef /.notdef
/.notdef /.notdef /.notdef /.notdef /.notdef
/.notdef /.notdef /.notdef /.notdef /.notdef
/.notdef /.notdef /.notdef /.notdef /.notdef
/.notdef /.notdef /.notdef /.notdef /.notdef
/.notdef /.notdef /space /exclam /quotedbl
/numbersign /dollar /percent /ampersand /quotesingle
/parenleft /parenright /asterisk /plus /comma
/hyphen /period /slash /zero /one
/two /three /four /five /six
/seven /eight /nine /colon /semicolon
/less /equal /greater /question /at
/A /B /C /D /E
/F /G /H /I /J
/K /L /M /N /O
/P /Q /R /S /T
/U /V /W /X /Y
/Z /bracketleft /backslash /bracketright /asciicircum
/underscore /quoteleft /a /b /c
/d /e /f /g /h
/i /j /k /l /m
/n /o /p /q /r
/s /t /u /v /w
/x /y /z /braceleft /bar
/braceright /asciitilde /bullet /Euro /bullet
/quotesinglbase /florin /quotedblbase /ellipsis /dagger
/daggerdbl /circumflex /perthousand /Scaron /guilsinglleft
/OE /bullet /Zcaron /bullet /bullet
/quoteleft /quoteright /quotedblleft /quotedblright /bullet
/endash /emdash /asciitilde /trademark /scaron
/guilsinglright /oe /bullet /zcaron /Ydieresis
/space /exclamdown /cent /sterling /currency
/yen /brokenbar /section /dieresis /copyright
/ordfeminine /guillemotleft /logicalnot /sfthyphen /registered
/macron /degree /plusminus /twosuperior /threesuperior
/acute /mu /paragraph /middot /cedilla
/onesuperior /ordmasculine /guillemotright /onequarter /onehalf
/threequarters /questiondown /Agrave /Aacute /Acircumflex
/Atilde /Adieresis /Aring /AE /Ccedilla
/Egrave /Eacute /Ecircumflex /Edieresis /Igrave
/Iacute /Icircumflex /Idieresis /Eth /Ntilde
/Ograve /Oacute /Ocircumflex /Otilde /Odieresis
/multiply /Oslash /Ugrave /Uacute /Ucircumflex
/Udieresis /Yacute /Thorn /germandbls /agrave
/aacute /acircumflex /atilde /adieresis /aring
/ae /ccedilla /egrave /eacute /ecircumflex
/edieresis /igrave /iacute /icircumflex /idieresis
/eth /ntilde /ograve /oacute /ocircumflex
/otilde /odieresis /divide /oslash /ugrave
/uacute /ucircumflex /udieresis /yacute /thorn
/ydieresis
] def
%%EndResource
%FOPBeginFontReencode
/Courier-Bold findfont
dup length dict begin
  {1 index /FID ne {def} {pop pop} ifelse} forall
  /Encoding WinAnsiEncoding def
  currentdict
end
/Courier-Bold exch definefont pop
/Helvetica findfont
dup length dict begin
  {1 index /FID ne {def} {pop pop} ifelse} forall
  /Encoding WinAnsiEncoding def
  currentdict
end
/Helvetica exch definefont pop
/Courier-BoldOblique findfont
dup length dict begin
  {1 index /FID ne {def} {pop pop} ifelse} forall
  /Encoding WinAnsiEncoding def
  currentdict
end
/Courier-BoldOblique exch definefont pop
/Courier-Oblique findfont
dup length dict begin
  {1 index /FID ne {def} {pop pop} ifelse} forall
  /Encoding WinAnsiEncoding def
  currentdict
end
/Courier-Oblique exch definefont pop
/Times-Roman findfont
dup length dict begin
  {1 index /FID ne {def} {pop pop} ifelse} forall
  /Encoding WinAnsiEncoding def
  currentdict
end
/Times-Roman exch definefont pop
/Helvetica-BoldOblique findfont
dup length dict begin
  {1 index /FID ne {def} {pop pop} ifelse} forall
  /Encoding WinAnsiEncoding def
  currentdict
end
/Helvetica-BoldOblique exch definefont pop
/Helvetica-Bold findfont
dup length dict begin
  {1 index /FID ne {def} {pop pop} ifelse} forall
  /Encoding WinAnsiEncoding def
  currentdict
end
/Helvetica-Bold exch definefont pop
/Helvetica-Oblique findfont
dup length dict begin
  {1 index /FID ne {def} {pop pop} ifelse} forall
  /Encoding WinAnsiEncoding def
  currentdict
end
/Helvetica-Oblique exch definefont pop
/Times-BoldItalic findfont
dup length dict begin
  {1 index /FID ne {def} {pop pop} ifelse} forall
  /Encoding WinAnsiEncoding def
  currentdict
end
/Times-BoldItalic exch definefont pop
/Courier findfont
dup length dict begin
  {1 index /FID ne {def} {pop pop} ifelse} forall
  /Encoding WinAnsiEncoding def
  currentdict
end
/Courier exch definefont pop
/Times-Italic findfont
dup length dict begin
  {1 index /FID ne {def} {pop pop} ifelse} forall
  /Encoding WinAnsiEncoding def
  currentdict
end
/Times-Italic exch definefont pop
/Times-Bold findfont
dup length dict begin
  {1 index /FID ne {def} {pop pop} ifelse} forall
  /Encoding WinAnsiEncoding def
  currentdict
end
/Times-Bold exch definefont pop
%FOPEndFontReencode
%%EndProlog
%%Page: 1 1
%%PageBoundingBox: 0 0 490 320
%%BeginPageSetup
[1 0 0 -1 0 320] CT
%%EndPageSetup
GS
[0.6 0 0 0.60113 0 -0.39999] CT
1 GC
N
0 0 816 533 re
f
GR
GS
[0.6 0 0 0.60113 0 -0.39999] CT
1 GC
N
0 0 816 533 re
f
GR
GS
[0.6 0 0 0.60113 0 -0.39999] CT
1 GC
N
106 471 M
738 471 L
738 40 L
106 40 L
cp
f
GR
GS
[0.6 0 0 0.60113 0 -0.39999] CT
0.873 GC
1 LJ
0.833 LW
N
106 471 M
106 40 L
S
GR
GS
[0.6 0 0 0.60113 0 -0.39999] CT
0.873 GC
1 LJ
0.833 LW
N
232.4 471 M
232.4 40 L
S
GR
GS
[0.6 0 0 0.60113 0 -0.39999] CT
0.873 GC
1 LJ
0.833 LW
N
358.8 471 M
358.8 40 L
S
GR
GS
[0.6 0 0 0.60113 0 -0.39999] CT
0.873 GC
1 LJ
0.833 LW
N
485.2 471 M
485.2 40 L
S
GR
GS
[0.6 0 0 0.60113 0 -0.39999] CT
0.873 GC
1 LJ
0.833 LW
N
611.6 471 M
611.6 40 L
S
GR
GS
[0.6 0 0 0.60113 0 -0.39999] CT
0.873 GC
1 LJ
0.833 LW
N
738 471 M
738 40 L
S
GR
GS
[0.6 0 0 0.60113 0 -0.39999] CT
0.775 GC
[1 3] 0 setdash
2 LJ
0.833 LW
N
738 442.267 M
106 442.267 L
S
GR
GS
[0.6 0 0 0.60113 0 -0.39999] CT
0.775 GC
[1 3] 0 setdash
2 LJ
0.833 LW
N
738 413.533 M
106 413.533 L
S
GR
GS
[0.6 0 0 0.60113 0 -0.39999] CT
0.775 GC
[1 3] 0 setdash
2 LJ
0.833 LW
N
738 384.8 M
106 384.8 L
S
GR
GS
[0.6 0 0 0.60113 0 -0.39999] CT
0.775 GC
[1 3] 0 setdash
2 LJ
0.833 LW
N
738 356.067 M
106 356.067 L
S
GR
GS
[0.6 0 0 0.60113 0 -0.39999] CT
0.775 GC
[1 3] 0 setdash
2 LJ
0.833 LW
N
738 298.6 M
106 298.6 L
S
GR
GS
[0.6 0 0 0.60113 0 -0.39999] CT
0.775 GC
[1 3] 0 setdash
2 LJ
0.833 LW
N
738 269.867 M
106 269.867 L
S
GR
GS
[0.6 0 0 0.60113 0 -0.39999] CT
0.775 GC
[1 3] 0 setdash
2 LJ
0.833 LW
N
738 241.133 M
106 241.133 L
S
GR
GS
[0.6 0 0 0.60113 0 -0.39999] CT
0.775 GC
[1 3] 0 setdash
2 LJ
0.833 LW
N
738 212.4 M
106 212.4 L
S
GR
GS
[0.6 0 0 0.60113 0 -0.39999] CT
0.775 GC
[1 3] 0 setdash
2 LJ
0.833 LW
N
738 154.933 M
106 154.933 L
S
GR
GS
[0.6 0 0 0.60113 0 -0.39999] CT
0.775 GC
[1 3] 0 setdash
2 LJ
0.833 LW
N
738 126.2 M
106 126.2 L
S
GR
GS
[0.6 0 0 0.60113 0 -0.39999] CT
0.775 GC
[1 3] 0 setdash
2 LJ
0.833 LW
N
738 97.467 M
106 97.467 L
S
GR
GS
[0.6 0 0 0.60113 0 -0.39999] CT
0.775 GC
[1 3] 0 setdash
2 LJ
0.833 LW
N
738 68.733 M
106 68.733 L
S
GR
GS
[0.6 0 0 0.60113 0 -0.39999] CT
0.873 GC
1 LJ
0.833 LW
N
738 471 M
106 471 L
S
GR
GS
[0.6 0 0 0.60113 0 -0.39999] CT
0.873 GC
1 LJ
0.833 LW
N
738 327.333 M
106 327.333 L
S
GR
GS
[0.6 0 0 0.60113 0 -0.39999] CT
0.873 GC
1 LJ
0.833 LW
N
738 183.667 M
106 183.667 L
S
GR
GS
[0.6 0 0 0.60113 0 -0.39999] CT
0.873 GC
1 LJ
0.833 LW
N
738 40 M
106 40 L
S
GR
GS
[0.6 0 0 0.60113 0 -0.39999] CT
0.149 GC
2 setlinecap
1 LJ
0.833 LW
N
106 471 M
738 471 L
S
GR
GS
[0.6 0 0 0.60113 0 -0.39999] CT
0.149 GC
2 setlinecap
1 LJ
0.833 LW
N
106 40 M
738 40 L
S
GR
GS
[0.6 0 0 0.60113 0 -0.39999] CT
0.149 GC
2 setlinecap
1 LJ
0.833 LW
N
106 471 M
106 464.68 L
S
GR
GS
[0.6 0 0 0.60113 0 -0.39999] CT
0.149 GC
2 setlinecap
1 LJ
0.833 LW
N
232.4 471 M
232.4 464.68 L
S
GR
GS
[0.6 0 0 0.60113 0 -0.39999] CT
0.149 GC
2 setlinecap
1 LJ
0.833 LW
N
358.8 471 M
358.8 464.68 L
S
GR
GS
[0.6 0 0 0.60113 0 -0.39999] CT
0.149 GC
2 setlinecap
1 LJ
0.833 LW
N
485.2 471 M
485.2 464.68 L
S
GR
GS
[0.6 0 0 0.60113 0 -0.39999] CT
0.149 GC
2 setlinecap
1 LJ
0.833 LW
N
611.6 471 M
611.6 464.68 L
S
GR
GS
[0.6 0 0 0.60113 0 -0.39999] CT
0.149 GC
2 setlinecap
1 LJ
0.833 LW
N
738 471 M
738 464.68 L
S
GR
GS
[0.6 0 0 0.60113 0 -0.39999] CT
0.149 GC
2 setlinecap
1 LJ
0.833 LW
N
106 40 M
106 46.32 L
S
GR
GS
[0.6 0 0 0.60113 0 -0.39999] CT
0.149 GC
2 setlinecap
1 LJ
0.833 LW
N
232.4 40 M
232.4 46.32 L
S
GR
GS
[0.6 0 0 0.60113 0 -0.39999] CT
0.149 GC
2 setlinecap
1 LJ
0.833 LW
N
358.8 40 M
358.8 46.32 L
S
GR
GS
[0.6 0 0 0.60113 0 -0.39999] CT
0.149 GC
2 setlinecap
1 LJ
0.833 LW
N
485.2 40 M
485.2 46.32 L
S
GR
GS
[0.6 0 0 0.60113 0 -0.39999] CT
0.149 GC
2 setlinecap
1 LJ
0.833 LW
N
611.6 40 M
611.6 46.32 L
S
GR
GS
[0.6 0 0 0.60113 0 -0.39999] CT
0.149 GC
2 setlinecap
1 LJ
0.833 LW
N
738 40 M
738 46.32 L
S
GR
GS
[0.6 0 0 0.60113 63.6 287.13847] CT
0.149 GC
/Helvetica 20 F
GS
[1 0 0 1 0 0] CT
-6 21 moveto 
1 -1 scale
(0) t 
GR
GR
GS
[0.6 0 0 0.60113 139.44001 287.13847] CT
0.149 GC
/Helvetica 20 F
GS
[1 0 0 1 0 0] CT
-11.5 21 moveto 
1 -1 scale
(20) t 
GR
GR
GS
[0.6 0 0 0.60113 215.28001 287.13847] CT
0.149 GC
/Helvetica 20 F
GS
[1 0 0 1 0 0] CT
-11.5 21 moveto 
1 -1 scale
(40) t 
GR
GR
GS
[0.6 0 0 0.60113 291.12001 287.13847] CT
0.149 GC
/Helvetica 20 F
GS
[1 0 0 1 0 0] CT
-11.5 21 moveto 
1 -1 scale
(60) t 
GR
GR
GS
[0.6 0 0 0.60113 366.96003 287.13847] CT
0.149 GC
/Helvetica 20 F
GS
[1 0 0 1 0 0] CT
-11.5 21 moveto 
1 -1 scale
(80) t 
GR
GR
GS
[0.6 0 0 0.60113 442.80001 287.13847] CT
0.149 GC
/Helvetica 20 F
GS
[1 0 0 1 0 0] CT
-17 21 moveto 
1 -1 scale
(100) t 
GR
GR
GS
[0.6 0 0 0.60113 253.20019 303.76961] CT
0.149 GC
N
-5.221 19.209 M
-5.221 19.069 -5.206 19.006 QT
-3.487 12.147 L
-3.315 11.506 -3.315 11.022 QT
-3.315 10.037 -3.987 10.037 QT
-4.706 10.037 -5.057 10.897 QT
-5.409 11.756 -5.737 13.069 QT
-5.737 13.131 -5.8 13.17 QT
-5.862 13.209 -5.925 13.209 QT
-6.19 13.209 L
-6.268 13.209 -6.323 13.123 QT
-6.378 13.037 -6.378 12.975 QT
-6.143 11.975 -5.909 11.28 QT
-5.675 10.584 -5.19 10.014 QT
-4.706 9.444 -3.971 9.444 QT
-3.112 9.444 -2.448 9.983 QT
-1.784 10.522 -1.784 11.366 QT
-1.096 10.475 -0.175 9.959 QT
0.747 9.444 1.779 9.444 QT
2.607 9.444 3.2 9.717 QT
3.794 9.991 4.122 10.561 QT
4.45 11.131 4.45 11.912 QT
4.45 12.866 4.029 14.201 QT
3.607 15.537 2.982 17.178 QT
2.654 17.944 2.654 18.569 QT
2.654 19.256 3.185 19.256 QT
4.075 19.256 4.677 18.287 QT
5.279 17.319 5.529 16.225 QT
5.575 16.084 5.716 16.084 QT
5.997 16.084 L
6.075 16.084 6.138 16.139 QT
6.2 16.194 6.2 16.287 QT
6.2 16.303 6.185 16.35 QT
5.872 17.662 5.091 18.764 QT
4.31 19.866 3.138 19.866 QT
2.325 19.866 1.755 19.303 QT
1.185 18.741 1.185 17.944 QT
1.185 17.522 1.357 17.053 QT
1.654 16.303 2.029 15.256 QT
2.404 14.209 2.646 13.256 QT
2.888 12.303 2.888 11.569 QT
2.888 10.928 2.622 10.483 QT
2.357 10.037 1.732 10.037 QT
0.888 10.037 0.185 10.405 QT
-0.518 10.772 -1.05 11.381 QT
-1.581 11.991 -2.018 12.834 QT
-3.581 19.1 L
-3.659 19.412 -3.932 19.639 QT
-4.206 19.866 -4.55 19.866 QT
-4.831 19.866 -5.026 19.686 QT
-5.221 19.506 -5.221 19.209 QT
cp
f
GR
GS
[0.6 0 0 0.60113 0 -0.39999] CT
0.149 GC
2 setlinecap
1 LJ
0.833 LW
N
106 471 M
106 40 L
S
GR
GS
[0.6 0 0 0.60113 0 -0.39999] CT
0.149 GC
2 setlinecap
1 LJ
0.833 LW
N
738 471 M
738 40 L
S
GR
GS
[0.6 0 0 0.60113 0 -0.39999] CT
0.149 GC
2 setlinecap
1 LJ
0.833 LW
N
106 471 M
112.32 471 L
S
GR
GS
[0.6 0 0 0.60113 0 -0.39999] CT
0.149 GC
2 setlinecap
1 LJ
0.833 LW
N
106 327.333 M
112.32 327.333 L
S
GR
GS
[0.6 0 0 0.60113 0 -0.39999] CT
0.149 GC
2 setlinecap
1 LJ
0.833 LW
N
106 183.667 M
112.32 183.667 L
S
GR
GS
[0.6 0 0 0.60113 0 -0.39999] CT
0.149 GC
2 setlinecap
1 LJ
0.833 LW
N
106 40 M
112.32 40 L
S
GR
GS
[0.6 0 0 0.60113 0 -0.39999] CT
0.149 GC
2 setlinecap
1 LJ
0.833 LW
N
738 471 M
731.68 471 L
S
GR
GS
[0.6 0 0 0.60113 0 -0.39999] CT
0.149 GC
2 setlinecap
1 LJ
0.833 LW
N
738 327.333 M
731.68 327.333 L
S
GR
GS
[0.6 0 0 0.60113 0 -0.39999] CT
0.149 GC
2 setlinecap
1 LJ
0.833 LW
N
738 183.667 M
731.68 183.667 L
S
GR
GS
[0.6 0 0 0.60113 0 -0.39999] CT
0.149 GC
2 setlinecap
1 LJ
0.833 LW
N
738 40 M
731.68 40 L
S
GR
GS
[0.6 0 0 0.60113 0 -0.39999] CT
0.149 GC
2 setlinecap
1 LJ
0.833 LW
N
106 471 M
109.16 471 L
S
GR
GS
[0.6 0 0 0.60113 0 -0.39999] CT
0.149 GC
2 setlinecap
1 LJ
0.833 LW
N
106 442.267 M
109.16 442.267 L
S
GR
GS
[0.6 0 0 0.60113 0 -0.39999] CT
0.149 GC
2 setlinecap
1 LJ
0.833 LW
N
106 413.533 M
109.16 413.533 L
S
GR
GS
[0.6 0 0 0.60113 0 -0.39999] CT
0.149 GC
2 setlinecap
1 LJ
0.833 LW
N
106 384.8 M
109.16 384.8 L
S
GR
GS
[0.6 0 0 0.60113 0 -0.39999] CT
0.149 GC
2 setlinecap
1 LJ
0.833 LW
N
106 356.067 M
109.16 356.067 L
S
GR
GS
[0.6 0 0 0.60113 0 -0.39999] CT
0.149 GC
2 setlinecap
1 LJ
0.833 LW
N
106 327.333 M
109.16 327.333 L
S
GR
GS
[0.6 0 0 0.60113 0 -0.39999] CT
0.149 GC
2 setlinecap
1 LJ
0.833 LW
N
106 298.6 M
109.16 298.6 L
S
GR
GS
[0.6 0 0 0.60113 0 -0.39999] CT
0.149 GC
2 setlinecap
1 LJ
0.833 LW
N
106 269.867 M
109.16 269.867 L
S
GR
GS
[0.6 0 0 0.60113 0 -0.39999] CT
0.149 GC
2 setlinecap
1 LJ
0.833 LW
N
106 241.133 M
109.16 241.133 L
S
GR
GS
[0.6 0 0 0.60113 0 -0.39999] CT
0.149 GC
2 setlinecap
1 LJ
0.833 LW
N
106 212.4 M
109.16 212.4 L
S
GR
GS
[0.6 0 0 0.60113 0 -0.39999] CT
0.149 GC
2 setlinecap
1 LJ
0.833 LW
N
106 183.667 M
109.16 183.667 L
S
GR
GS
[0.6 0 0 0.60113 0 -0.39999] CT
0.149 GC
2 setlinecap
1 LJ
0.833 LW
N
106 154.933 M
109.16 154.933 L
S
GR
GS
[0.6 0 0 0.60113 0 -0.39999] CT
0.149 GC
2 setlinecap
1 LJ
0.833 LW
N
106 126.2 M
109.16 126.2 L
S
GR
GS
[0.6 0 0 0.60113 0 -0.39999] CT
0.149 GC
2 setlinecap
1 LJ
0.833 LW
N
106 97.467 M
109.16 97.467 L
S
GR
GS
[0.6 0 0 0.60113 0 -0.39999] CT
0.149 GC
2 setlinecap
1 LJ
0.833 LW
N
106 68.733 M
109.16 68.733 L
S
GR
GS
[0.6 0 0 0.60113 0 -0.39999] CT
0.149 GC
2 setlinecap
1 LJ
0.833 LW
N
106 40 M
109.16 40 L
S
GR
GS
[0.6 0 0 0.60113 0 -0.39999] CT
0.149 GC
2 setlinecap
1 LJ
0.833 LW
N
738 471 M
734.84 471 L
S
GR
GS
[0.6 0 0 0.60113 0 -0.39999] CT
0.149 GC
2 setlinecap
1 LJ
0.833 LW
N
738 442.267 M
734.84 442.267 L
S
GR
GS
[0.6 0 0 0.60113 0 -0.39999] CT
0.149 GC
2 setlinecap
1 LJ
0.833 LW
N
738 413.533 M
734.84 413.533 L
S
GR
GS
[0.6 0 0 0.60113 0 -0.39999] CT
0.149 GC
2 setlinecap
1 LJ
0.833 LW
N
738 384.8 M
734.84 384.8 L
S
GR
GS
[0.6 0 0 0.60113 0 -0.39999] CT
0.149 GC
2 setlinecap
1 LJ
0.833 LW
N
738 356.067 M
734.84 356.067 L
S
GR
GS
[0.6 0 0 0.60113 0 -0.39999] CT
0.149 GC
2 setlinecap
1 LJ
0.833 LW
N
738 327.333 M
734.84 327.333 L
S
GR
GS
[0.6 0 0 0.60113 0 -0.39999] CT
0.149 GC
2 setlinecap
1 LJ
0.833 LW
N
738 298.6 M
734.84 298.6 L
S
GR
GS
[0.6 0 0 0.60113 0 -0.39999] CT
0.149 GC
2 setlinecap
1 LJ
0.833 LW
N
738 269.867 M
734.84 269.867 L
S
GR
GS
[0.6 0 0 0.60113 0 -0.39999] CT
0.149 GC
2 setlinecap
1 LJ
0.833 LW
N
738 241.133 M
734.84 241.133 L
S
GR
GS
[0.6 0 0 0.60113 0 -0.39999] CT
0.149 GC
2 setlinecap
1 LJ
0.833 LW
N
738 212.4 M
734.84 212.4 L
S
GR
GS
[0.6 0 0 0.60113 0 -0.39999] CT
0.149 GC
2 setlinecap
1 LJ
0.833 LW
N
738 183.667 M
734.84 183.667 L
S
GR
GS
[0.6 0 0 0.60113 0 -0.39999] CT
0.149 GC
2 setlinecap
1 LJ
0.833 LW
N
738 154.933 M
734.84 154.933 L
S
GR
GS
[0.6 0 0 0.60113 0 -0.39999] CT
0.149 GC
2 setlinecap
1 LJ
0.833 LW
N
738 126.2 M
734.84 126.2 L
S
GR
GS
[0.6 0 0 0.60113 0 -0.39999] CT
0.149 GC
2 setlinecap
1 LJ
0.833 LW
N
738 97.467 M
734.84 97.467 L
S
GR
GS
[0.6 0 0 0.60113 0 -0.39999] CT
0.149 GC
2 setlinecap
1 LJ
0.833 LW
N
738 68.733 M
734.84 68.733 L
S
GR
GS
[0.6 0 0 0.60113 0 -0.39999] CT
0.149 GC
2 setlinecap
1 LJ
0.833 LW
N
738 40 M
734.84 40 L
S
GR
GS
[0.6 0 0 0.60113 31.2 289.34259] CT
0.149 GC
/Helvetica 20 F
GS
[1 0 0 1 0 0] CT
0 0 moveto 
1 -1 scale
(10) t 
GR
GR
GS
[0.6 0 0 0.60113 45 283.93246] CT
0.149 GC
/Helvetica 16 F
GS
[1 0 0 1 0 0] CT
0 0 moveto 
1 -1 scale
(-15) t 
GR
GR
GS
[0.6 0 0 0.60113 31.2 202.78049] CT
0.149 GC
/Helvetica 20 F
GS
[1 0 0 1 0 0] CT
0 0 moveto 
1 -1 scale
(10) t 
GR
GR
GS
[0.6 0 0 0.60113 45 197.37036] CT
0.149 GC
/Helvetica 16 F
GS
[1 0 0 1 0 0] CT
0 0 moveto 
1 -1 scale
(-10) t 
GR
GR
GS
[0.6 0 0 0.60113 36.6 116.81952] CT
0.149 GC
/Helvetica 20 F
GS
[1 0 0 1 0 0] CT
0 0 moveto 
1 -1 scale
(10) t 
GR
GR
GS
[0.6 0 0 0.60113 50.4 111.40938] CT
0.149 GC
/Helvetica 16 F
GS
[1 0 0 1 0 0] CT
0 0 moveto 
1 -1 scale
(-5) t 
GR
GR
GS
[0.6 0 0 0.60113 40.2 30.25742] CT
0.149 GC
/Helvetica 20 F
GS
[1 0 0 1 0 0] CT
0 0 moveto 
1 -1 scale
(10) t 
GR
GR
GS
[0.6 0 0 0.60113 54 24.84729] CT
0.149 GC
/Helvetica 16 F
GS
[1 0 0 1 0 0] CT
0 0 moveto 
1 -1 scale
(0) t 
GR
GR
GS
[0 -0.60113 0.6 0 28 153.1875] CT
0.149 GC
N
-22.52 -8.4 M
-22.739 -8.4 -22.739 -8.697 QT
-22.739 -8.759 -22.7 -8.9 QT
-22.661 -9.041 -22.606 -9.127 QT
-22.551 -9.213 -22.458 -9.213 QT
-21.051 -9.213 -20.489 -9.369 QT
-20.192 -9.463 -20.067 -9.978 QT
-16.911 -22.619 L
-16.864 -22.838 -16.864 -22.931 QT
-16.864 -23.181 -17.129 -23.213 QT
-17.567 -23.306 -18.786 -23.306 QT
-19.02 -23.306 -19.02 -23.603 QT
-19.004 -23.666 -18.973 -23.806 QT
-18.942 -23.947 -18.879 -24.033 QT
-18.817 -24.119 -18.723 -24.119 QT
-10.786 -24.119 L
-9.692 -24.119 -8.668 -23.728 QT
-7.645 -23.338 -6.997 -22.541 QT
-6.348 -21.744 -6.348 -20.603 QT
-6.348 -19.15 -7.379 -18.002 QT
-8.411 -16.853 -9.942 -16.213 QT
-11.473 -15.572 -12.911 -15.572 QT
-16.645 -15.572 L
-18.051 -9.9 L
-18.098 -9.666 -18.098 -9.572 QT
-18.098 -9.478 -18.067 -9.416 QT
-18.036 -9.353 -17.989 -9.338 QT
-17.942 -9.322 -17.833 -9.306 QT
-17.395 -9.213 -16.161 -9.213 QT
-15.942 -9.213 -15.942 -8.9 QT
-16.02 -8.588 -16.067 -8.494 QT
-16.114 -8.4 -16.333 -8.4 QT
-22.52 -8.4 L
cp
-16.536 -16.259 M
-13.317 -16.259 L
-11.083 -16.259 -9.911 -17.463 QT
-9.317 -18.056 -8.942 -19.181 QT
-8.567 -20.306 -8.567 -21.213 QT
-8.567 -22.353 -9.426 -22.83 QT
-10.286 -23.306 -11.567 -23.306 QT
-13.77 -23.306 L
-14.395 -23.306 -14.598 -23.197 QT
-14.801 -23.088 -14.973 -22.509 QT
-16.536 -16.259 L
cp
f
GR
GS
[0 -0.60113 0.6 0 28 153.1875] CT
0.149 GC
N
-7.274 -5.884 M
-6.837 -5.15 -5.54 -5.15 QT
-4.977 -5.15 -4.469 -5.338 QT
-3.962 -5.525 -3.633 -5.908 QT
-3.305 -6.291 -3.305 -6.838 QT
-3.305 -7.259 -3.602 -7.525 QT
-3.899 -7.791 -4.321 -7.884 QT
-5.196 -8.056 L
-5.79 -8.197 -6.173 -8.603 QT
-6.555 -9.009 -6.555 -9.588 QT
-6.555 -10.306 -6.165 -10.853 QT
-5.774 -11.4 -5.141 -11.689 QT
-4.508 -11.978 -3.837 -11.978 QT
-3.102 -11.978 -2.532 -11.627 QT
-1.962 -11.275 -1.962 -10.603 QT
-1.962 -10.228 -2.165 -9.947 QT
-2.368 -9.666 -2.743 -9.666 QT
-2.946 -9.666 -3.102 -9.806 QT
-3.258 -9.947 -3.258 -10.15 QT
-3.258 -10.338 -3.149 -10.517 QT
-3.04 -10.697 -2.868 -10.799 QT
-2.696 -10.9 -2.508 -10.9 QT
-2.649 -11.244 -3.032 -11.4 QT
-3.415 -11.556 -3.868 -11.556 QT
-4.274 -11.556 -4.68 -11.392 QT
-5.087 -11.228 -5.329 -10.916 QT
-5.571 -10.603 -5.571 -10.166 QT
-5.571 -9.884 -5.368 -9.666 QT
-5.165 -9.447 -4.868 -9.353 QT
-3.946 -9.166 L
-3.493 -9.072 -3.126 -8.83 QT
-2.758 -8.588 -2.54 -8.228 QT
-2.321 -7.869 -2.321 -7.4 QT
-2.321 -6.806 -2.657 -6.228 QT
-2.993 -5.65 -3.477 -5.306 QT
-4.321 -4.713 -5.555 -4.713 QT
-6.415 -4.713 -7.126 -5.111 QT
-7.837 -5.509 -7.837 -6.275 QT
-7.837 -6.713 -7.579 -7.041 QT
-7.321 -7.369 -6.883 -7.369 QT
-6.633 -7.369 -6.454 -7.213 QT
-6.274 -7.056 -6.274 -6.791 QT
-6.274 -6.431 -6.548 -6.158 QT
-6.821 -5.884 -7.196 -5.884 QT
-7.274 -5.884 L
cp
f
GR
GS
[0 -0.60113 0.6 0 28 153.1875] CT
0.149 GC
N
0.695 -6.65 M
0.695 -7.166 0.835 -7.72 QT
0.976 -8.275 1.226 -8.947 QT
1.476 -9.619 1.663 -10.119 QT
1.882 -10.713 1.882 -11.088 QT
1.882 -11.556 1.523 -11.556 QT
0.898 -11.556 0.484 -10.908 QT
0.07 -10.259 -0.118 -9.447 QT
-0.149 -9.353 -0.258 -9.353 QT
-0.446 -9.353 L
-0.571 -9.353 -0.571 -9.494 QT
-0.571 -9.541 L
-0.321 -10.494 0.21 -11.236 QT
0.742 -11.978 1.554 -11.978 QT
2.132 -11.978 2.523 -11.603 QT
2.913 -11.228 2.913 -10.65 QT
2.913 -10.353 2.788 -10.025 QT
2.71 -9.822 2.46 -9.166 QT
2.21 -8.509 2.077 -8.08 QT
1.945 -7.65 1.859 -7.236 QT
1.773 -6.822 1.773 -6.416 QT
1.773 -5.884 1.999 -5.517 QT
2.226 -5.15 2.742 -5.15 QT
3.757 -5.15 4.538 -6.416 QT
4.554 -6.478 4.562 -6.533 QT
4.57 -6.588 4.585 -6.65 QT
5.726 -11.291 L
5.788 -11.494 5.984 -11.65 QT
6.179 -11.806 6.398 -11.806 QT
6.601 -11.806 6.742 -11.681 QT
6.882 -11.556 6.882 -11.353 QT
6.882 -11.259 6.867 -11.228 QT
5.71 -6.619 L
5.601 -6.134 5.601 -5.838 QT
5.601 -5.15 6.07 -5.15 QT
6.585 -5.15 6.835 -5.783 QT
7.085 -6.416 7.273 -7.259 QT
7.304 -7.353 7.398 -7.353 QT
7.585 -7.353 L
7.648 -7.353 7.687 -7.299 QT
7.726 -7.244 7.726 -7.197 QT
7.554 -6.509 7.398 -6.017 QT
7.242 -5.525 6.898 -5.119 QT
6.554 -4.713 6.038 -4.713 QT
5.523 -4.713 5.124 -4.994 QT
4.726 -5.275 4.585 -5.759 QT
4.21 -5.291 3.726 -5.002 QT
3.242 -4.713 2.71 -4.713 QT
1.788 -4.713 1.242 -5.22 QT
0.695 -5.728 0.695 -6.65 QT
cp
f
GR
GS
[0 -0.60113 0.6 0 28 153.1875] CT
0.149 GC
N
10.217 -6.806 M
10.217 -6.119 10.576 -5.634 QT
10.935 -5.15 11.592 -5.15 QT
12.545 -5.15 13.428 -5.588 QT
14.31 -6.025 14.857 -6.791 QT
14.904 -6.838 14.982 -6.838 QT
15.06 -6.838 15.146 -6.752 QT
15.232 -6.666 15.232 -6.588 QT
15.232 -6.525 15.201 -6.494 QT
14.607 -5.666 13.615 -5.189 QT
12.623 -4.713 11.56 -4.713 QT
10.795 -4.713 10.209 -5.08 QT
9.623 -5.447 9.303 -6.056 QT
8.982 -6.666 8.982 -7.431 QT
8.982 -8.509 9.584 -9.572 QT
10.185 -10.634 11.185 -11.306 QT
12.185 -11.978 13.295 -11.978 QT
14.014 -11.978 14.584 -11.627 QT
15.154 -11.275 15.154 -10.603 QT
15.154 -10.166 14.904 -9.853 QT
14.654 -9.541 14.217 -9.541 QT
13.967 -9.541 13.787 -9.705 QT
13.607 -9.869 13.607 -10.119 QT
13.607 -10.494 13.881 -10.759 QT
14.154 -11.025 14.529 -11.025 QT
14.56 -11.025 L
14.373 -11.306 14.014 -11.431 QT
13.654 -11.556 13.279 -11.556 QT
12.342 -11.556 11.639 -10.759 QT
10.935 -9.963 10.576 -8.845 QT
10.217 -7.728 10.217 -6.806 QT
cp
f
GR
GS
[0 -0.60113 0.6 0 28 153.1875] CT
0.149 GC
N
17.285 -6.806 M
17.285 -6.119 17.644 -5.634 QT
18.004 -5.15 18.66 -5.15 QT
19.613 -5.15 20.496 -5.588 QT
21.379 -6.025 21.926 -6.791 QT
21.973 -6.838 22.051 -6.838 QT
22.129 -6.838 22.215 -6.752 QT
22.301 -6.666 22.301 -6.588 QT
22.301 -6.525 22.269 -6.494 QT
21.676 -5.666 20.683 -5.189 QT
19.691 -4.713 18.629 -4.713 QT
17.863 -4.713 17.277 -5.08 QT
16.691 -5.447 16.371 -6.056 QT
16.051 -6.666 16.051 -7.431 QT
16.051 -8.509 16.652 -9.572 QT
17.254 -10.634 18.254 -11.306 QT
19.254 -11.978 20.363 -11.978 QT
21.082 -11.978 21.652 -11.627 QT
22.223 -11.275 22.223 -10.603 QT
22.223 -10.166 21.973 -9.853 QT
21.723 -9.541 21.285 -9.541 QT
21.035 -9.541 20.855 -9.705 QT
20.676 -9.869 20.676 -10.119 QT
20.676 -10.494 20.949 -10.759 QT
21.223 -11.025 21.598 -11.025 QT
21.629 -11.025 L
21.441 -11.306 21.082 -11.431 QT
20.723 -11.556 20.348 -11.556 QT
19.41 -11.556 18.707 -10.759 QT
18.004 -9.963 17.644 -8.845 QT
17.285 -7.728 17.285 -6.806 QT
cp
f
GR
GS
[0.6 0 0 0.60113 0 -0.39999] CT
0 0.447 0.741 RC
1 LJ
2.5 LW
N
112.32 460.322 M
118.64 460.322 L
124.96 460.322 L
131.28 460.322 L
137.6 460.322 L
143.92 460.322 L
150.24 460.322 L
156.56 460.322 L
162.88 460.322 L
169.2 460.322 L
175.52 460.322 L
181.84 460.322 L
188.16 460.322 L
194.48 460.322 L
200.8 460.322 L
207.12 460.322 L
213.44 460.322 L
219.76 460.322 L
226.08 460.322 L
232.4 460.322 L
238.72 460.322 L
245.04 460.322 L
251.36 460.322 L
257.68 460.322 L
264 460.322 L
270.32 460.322 L
276.64 460.322 L
282.96 460.322 L
289.28 460.322 L
295.6 460.322 L
301.92 460.322 L
308.24 460.322 L
314.56 460.322 L
320.88 460.322 L
327.2 460.322 L
333.52 460.322 L
339.84 460.322 L
346.16 460.322 L
352.48 460.322 L
358.8 460.322 L
365.12 460.322 L
371.44 460.322 L
377.76 460.322 L
384.08 460.322 L
390.4 460.322 L
396.72 460.322 L
403.04 460.322 L
409.36 460.322 L
415.68 460.322 L
422 460.322 L
428.32 460.322 L
434.64 460.322 L
440.96 460.322 L
447.28 459.747 L
453.6 459.197 L
459.92 457.679 L
466.24 455.105 L
472.56 450.332 L
478.88 443.716 L
485.2 435.803 L
491.52 427.328 L
497.84 418.62 L
504.16 409.993 L
510.48 401.544 L
516.8 393.316 L
523.12 385.323 L
529.44 377.572 L
535.76 370.057 L
542.08 362.771 L
548.4 355.704 L
554.72 348.849 L
561.04 342.197 L
567.36 335.74 L
573.68 329.469 L
580 323.378 L
586.32 317.459 L
592.64 311.705 L
598.96 306.111 L
605.28 300.669 L
611.6 295.375 L
617.92 290.222 L
624.24 285.206 L
630.56 280.321 L
636.88 275.563 L
643.2 270.927 L
649.52 266.409 L
655.84 262.005 L
662.16 257.71 L
668.48 253.522 L
674.8 249.436 L
681.12 245.449 L
687.44 241.558 L
693.76 237.759 L
700.08 234.051 L
706.4 230.429 L
712.72 226.891 L
719.04 223.435 L
725.36 220.057 L
731.68 216.756 L
738 213.53 L
S
GR
GS
[0.6 0 0 0.60113 67.392 276.3114] CT
0 0.447 0.741 RC
10.0 ML
2.5 LW
N
-5 0 M
0 6.65 L
5 0 L
0 -6.65 L
cp
S
GR
GS
[0.6 0 0 0.60113 86.352 276.3114] CT
0 0.447 0.741 RC
10.0 ML
2.5 LW
N
-5 0 M
0 6.65 L
5 0 L
0 -6.65 L
cp
S
GR
GS
[0.6 0 0 0.60113 105.312 276.3114] CT
0 0.447 0.741 RC
10.0 ML
2.5 LW
N
-5 0 M
0 6.65 L
5 0 L
0 -6.65 L
cp
S
GR
GS
[0.6 0 0 0.60113 124.272 276.3114] CT
0 0.447 0.741 RC
10.0 ML
2.5 LW
N
-5 0 M
0 6.65 L
5 0 L
0 -6.65 L
cp
S
GR
GS
[0.6 0 0 0.60113 143.232 276.3114] CT
0 0.447 0.741 RC
10.0 ML
2.5 LW
N
-5 0 M
0 6.65 L
5 0 L
0 -6.65 L
cp
S
GR
GS
[0.6 0 0 0.60113 162.19201 276.3114] CT
0 0.447 0.741 RC
10.0 ML
2.5 LW
N
-5 0 M
0 6.65 L
5 0 L
0 -6.65 L
cp
S
GR
GS
[0.6 0 0 0.60113 181.15201 276.3114] CT
0 0.447 0.741 RC
10.0 ML
2.5 LW
N
-5 0 M
0 6.65 L
5 0 L
0 -6.65 L
cp
S
GR
GS
[0.6 0 0 0.60113 200.11201 276.3114] CT
0 0.447 0.741 RC
10.0 ML
2.5 LW
N
-5 0 M
0 6.65 L
5 0 L
0 -6.65 L
cp
S
GR
GS
[0.6 0 0 0.60113 219.072 276.3114] CT
0 0.447 0.741 RC
10.0 ML
2.5 LW
N
-5 0 M
0 6.65 L
5 0 L
0 -6.65 L
cp
S
GR
GS
[0.6 0 0 0.60113 238.032 276.3114] CT
0 0.447 0.741 RC
10.0 ML
2.5 LW
N
-5 0 M
0 6.65 L
5 0 L
0 -6.65 L
cp
S
GR
GS
[0.6 0 0 0.60113 256.99201 276.3114] CT
0 0.447 0.741 RC
10.0 ML
2.5 LW
N
-5 0 M
0 6.65 L
5 0 L
0 -6.65 L
cp
S
GR
GS
[0.6 0 0 0.60113 275.95201 274.72253] CT
0 0.447 0.741 RC
10.0 ML
2.5 LW
N
-5 0 M
0 6.65 L
5 0 L
0 -6.65 L
cp
S
GR
GS
[0.6 0 0 0.60113 294.91202 256.47781] CT
0 0.447 0.741 RC
10.0 ML
2.5 LW
N
-5 0 M
0 6.65 L
5 0 L
0 -6.65 L
cp
S
GR
GS
[0.6 0 0 0.60113 313.872 231.22782] CT
0 0.447 0.741 RC
10.0 ML
2.5 LW
N
-5 0 M
0 6.65 L
5 0 L
0 -6.65 L
cp
S
GR
GS
[0.6 0 0 0.60113 332.83199 209.30225] CT
0 0.447 0.741 RC
10.0 ML
2.5 LW
N
-5 0 M
0 6.65 L
5 0 L
0 -6.65 L
cp
S
GR
GS
[0.6 0 0 0.60113 351.79201 190.43261] CT
0 0.447 0.741 RC
10.0 ML
2.5 LW
N
-5 0 M
0 6.65 L
5 0 L
0 -6.65 L
cp
S
GR
GS
[0.6 0 0 0.60113 370.75199 174.06004] CT
0 0.447 0.741 RC
10.0 ML
2.5 LW
N
-5 0 M
0 6.65 L
5 0 L
0 -6.65 L
cp
S
GR
GS
[0.6 0 0 0.60113 389.71202 159.74524] CT
0 0.447 0.741 RC
10.0 ML
2.5 LW
N
-5 0 M
0 6.65 L
5 0 L
0 -6.65 L
cp
S
GR
GS
[0.6 0 0 0.60113 408.672 147.14554] CT
0 0.447 0.741 RC
10.0 ML
2.5 LW
N
-5 0 M
0 6.65 L
5 0 L
0 -6.65 L
cp
S
GR
GS
[0.6 0 0 0.60113 427.63199 135.99007] CT
0 0.447 0.741 RC
10.0 ML
2.5 LW
N
-5 0 M
0 6.65 L
5 0 L
0 -6.65 L
cp
S
GR
GS
[0.6 0 0 0.60113 0 -0.39999] CT
0.851 0.325 0.098 RC
1 LJ
2.5 LW
N
112.32 460.322 M
118.64 460.322 L
124.96 460.322 L
131.28 460.322 L
137.6 460.322 L
143.92 460.322 L
150.24 460.322 L
156.56 460.322 L
162.88 460.322 L
169.2 460.322 L
175.52 460.322 L
181.84 460.322 L
188.16 460.322 L
194.48 460.322 L
200.8 460.322 L
207.12 460.322 L
213.44 460.322 L
219.76 460.322 L
226.08 460.322 L
232.4 460.322 L
238.72 460.322 L
245.04 460.322 L
251.36 460.322 L
257.68 460.322 L
264 460.322 L
270.32 459.197 L
276.64 452.029 L
282.96 433.965 L
289.28 411.785 L
295.6 390.183 L
301.92 369.96 L
308.24 351.121 L
314.56 333.559 L
320.88 317.164 L
327.2 301.836 L
333.52 287.486 L
339.84 274.031 L
346.16 261.402 L
352.48 249.533 L
358.8 238.366 L
365.12 227.85 L
371.44 217.937 L
377.76 208.585 L
384.08 199.754 L
390.4 191.409 L
396.72 183.518 L
403.04 176.052 L
409.36 168.982 L
415.68 162.284 L
422 155.936 L
428.32 149.916 L
434.64 144.205 L
440.96 138.785 L
447.28 133.639 L
453.6 128.752 L
459.92 124.109 L
466.24 119.697 L
472.56 115.504 L
478.88 111.518 L
485.2 107.727 L
491.52 104.123 L
497.84 100.696 L
504.16 97.436 L
510.48 94.335 L
516.8 91.386 L
523.12 88.581 L
529.44 85.914 L
535.76 83.376 L
542.08 80.964 L
548.4 78.67 L
554.72 76.489 L
561.04 74.416 L
567.36 72.445 L
573.68 70.573 L
580 68.795 L
586.32 67.107 L
592.64 65.503 L
598.96 63.982 L
605.28 62.538 L
611.6 61.169 L
617.92 59.871 L
624.24 58.642 L
630.56 57.477 L
636.88 56.374 L
643.2 55.331 L
649.52 54.344 L
655.84 53.411 L
662.16 52.53 L
668.48 51.698 L
674.8 50.913 L
681.12 50.173 L
687.44 49.475 L
693.76 48.819 L
700.08 48.201 L
706.4 47.62 L
712.72 47.074 L
719.04 46.562 L
725.36 46.081 L
731.68 45.631 L
738 45.209 L
S
GR
GS
[0.6 0 0 0.60113 67.392 276.3114] CT
0.851 0.325 0.098 RC
10.0 ML
2.5 LW
N
0 -5 M
0 5 L
-5 0 M
5 0 L
-3.536 -3.536 M
3.536 3.536 L
-3.536 3.536 M
3.536 -3.536 L
S
GR
GS
[0.6 0 0 0.60113 78.768 276.3114] CT
0.851 0.325 0.098 RC
10.0 ML
2.5 LW
N
0 -5 M
0 5 L
-5 0 M
5 0 L
-3.536 -3.536 M
3.536 3.536 L
-3.536 3.536 M
3.536 -3.536 L
S
GR
GS
[0.6 0 0 0.60113 90.144 276.3114] CT
0.851 0.325 0.098 RC
10.0 ML
2.5 LW
N
0 -5 M
0 5 L
-5 0 M
5 0 L
-3.536 -3.536 M
3.536 3.536 L
-3.536 3.536 M
3.536 -3.536 L
S
GR
GS
[0.6 0 0 0.60113 101.52 276.3114] CT
0.851 0.325 0.098 RC
10.0 ML
2.5 LW
N
0 -5 M
0 5 L
-5 0 M
5 0 L
-3.536 -3.536 M
3.536 3.536 L
-3.536 3.536 M
3.536 -3.536 L
S
GR
GS
[0.6 0 0 0.60113 112.896 276.3114] CT
0.851 0.325 0.098 RC
10.0 ML
2.5 LW
N
0 -5 M
0 5 L
-5 0 M
5 0 L
-3.536 -3.536 M
3.536 3.536 L
-3.536 3.536 M
3.536 -3.536 L
S
GR
GS
[0.6 0 0 0.60113 124.272 276.3114] CT
0.851 0.325 0.098 RC
10.0 ML
2.5 LW
N
0 -5 M
0 5 L
-5 0 M
5 0 L
-3.536 -3.536 M
3.536 3.536 L
-3.536 3.536 M
3.536 -3.536 L
S
GR
GS
[0.6 0 0 0.60113 135.648 276.3114] CT
0.851 0.325 0.098 RC
10.0 ML
2.5 LW
N
0 -5 M
0 5 L
-5 0 M
5 0 L
-3.536 -3.536 M
3.536 3.536 L
-3.536 3.536 M
3.536 -3.536 L
S
GR
GS
[0.6 0 0 0.60113 147.024 276.3114] CT
0.851 0.325 0.098 RC
10.0 ML
2.5 LW
N
0 -5 M
0 5 L
-5 0 M
5 0 L
-3.536 -3.536 M
3.536 3.536 L
-3.536 3.536 M
3.536 -3.536 L
S
GR
GS
[0.6 0 0 0.60113 158.4 276.3114] CT
0.851 0.325 0.098 RC
10.0 ML
2.5 LW
N
0 -5 M
0 5 L
-5 0 M
5 0 L
-3.536 -3.536 M
3.536 3.536 L
-3.536 3.536 M
3.536 -3.536 L
S
GR
GS
[0.6 0 0 0.60113 169.776 260.46737] CT
0.851 0.325 0.098 RC
10.0 ML
2.5 LW
N
0 -5 M
0 5 L
-5 0 M
5 0 L
-3.536 -3.536 M
3.536 3.536 L
-3.536 3.536 M
3.536 -3.536 L
S
GR
GS
[0.6 0 0 0.60113 181.15201 221.99254] CT
0.851 0.325 0.098 RC
10.0 ML
2.5 LW
N
0 -5 M
0 5 L
-5 0 M
5 0 L
-3.536 -3.536 M
3.536 3.536 L
-3.536 3.536 M
3.536 -3.536 L
S
GR
GS
[0.6 0 0 0.60113 192.52801 190.25564] CT
0.851 0.325 0.098 RC
10.0 ML
2.5 LW
N
0 -5 M
0 5 L
-5 0 M
5 0 L
-3.536 -3.536 M
3.536 3.536 L
-3.536 3.536 M
3.536 -3.536 L
S
GR
GS
[0.6 0 0 0.60113 203.904 164.32716] CT
0.851 0.325 0.098 RC
10.0 ML
2.5 LW
N
0 -5 M
0 5 L
-5 0 M
5 0 L
-3.536 -3.536 M
3.536 3.536 L
-3.536 3.536 M
3.536 -3.536 L
S
GR
GS
[0.6 0 0 0.60113 215.28001 142.88806] CT
0.851 0.325 0.098 RC
10.0 ML
2.5 LW
N
0 -5 M
0 5 L
-5 0 M
5 0 L
-3.536 -3.536 M
3.536 3.536 L
-3.536 3.536 M
3.536 -3.536 L
S
GR
GS
[0.6 0 0 0.60113 226.65601 124.98584] CT
0.851 0.325 0.098 RC
10.0 ML
2.5 LW
N
0 -5 M
0 5 L
-5 0 M
5 0 L
-3.536 -3.536 M
3.536 3.536 L
-3.536 3.536 M
3.536 -3.536 L
S
GR
GS
[0.6 0 0 0.60113 238.032 109.91761] CT
0.851 0.325 0.098 RC
10.0 ML
2.5 LW
N
0 -5 M
0 5 L
-5 0 M
5 0 L
-3.536 -3.536 M
3.536 3.536 L
-3.536 3.536 M
3.536 -3.536 L
S
GR
GS
[0.6 0 0 0.60113 249.408 97.1533] CT
0.851 0.325 0.098 RC
10.0 ML
2.5 LW
N
0 -5 M
0 5 L
-5 0 M
5 0 L
-3.536 -3.536 M
3.536 3.536 L
-3.536 3.536 M
3.536 -3.536 L
S
GR
GS
[0.6 0 0 0.60113 260.78399 86.28559] CT
0.851 0.325 0.098 RC
10.0 ML
2.5 LW
N
0 -5 M
0 5 L
-5 0 M
5 0 L
-3.536 -3.536 M
3.536 3.536 L
-3.536 3.536 M
3.536 -3.536 L
S
GR
GS
[0.6 0 0 0.60113 272.16001 76.99612] CT
0.851 0.325 0.098 RC
10.0 ML
2.5 LW
N
0 -5 M
0 5 L
-5 0 M
5 0 L
-3.536 -3.536 M
3.536 3.536 L
-3.536 3.536 M
3.536 -3.536 L
S
GR
GS
[0.6 0 0 0.60113 283.536 69.03235] CT
0.851 0.325 0.098 RC
10.0 ML
2.5 LW
N
0 -5 M
0 5 L
-5 0 M
5 0 L
-3.536 -3.536 M
3.536 3.536 L
-3.536 3.536 M
3.536 -3.536 L
S
GR
GS
[0.6 0 0 0.60113 294.91202 62.19121] CT
0.851 0.325 0.098 RC
10.0 ML
2.5 LW
N
0 -5 M
0 5 L
-5 0 M
5 0 L
-3.536 -3.536 M
3.536 3.536 L
-3.536 3.536 M
3.536 -3.536 L
S
GR
GS
[0.6 0 0 0.60113 306.28799 56.30741] CT
0.851 0.325 0.098 RC
10.0 ML
2.5 LW
N
0 -5 M
0 5 L
-5 0 M
5 0 L
-3.536 -3.536 M
3.536 3.536 L
-3.536 3.536 M
3.536 -3.536 L
S
GR
GS
[0.6 0 0 0.60113 317.66401 51.24487] CT
0.851 0.325 0.098 RC
10.0 ML
2.5 LW
N
0 -5 M
0 5 L
-5 0 M
5 0 L
-3.536 -3.536 M
3.536 3.536 L
-3.536 3.536 M
3.536 -3.536 L
S
GR
GS
[0.6 0 0 0.60113 329.03998 46.89036] CT
0.851 0.325 0.098 RC
10.0 ML
2.5 LW
N
0 -5 M
0 5 L
-5 0 M
5 0 L
-3.536 -3.536 M
3.536 3.536 L
-3.536 3.536 M
3.536 -3.536 L
S
GR
GS
[0.6 0 0 0.60113 340.416 43.14878] CT
0.851 0.325 0.098 RC
10.0 ML
2.5 LW
N
0 -5 M
0 5 L
-5 0 M
5 0 L
-3.536 -3.536 M
3.536 3.536 L
-3.536 3.536 M
3.536 -3.536 L
S
GR
GS
[0.6 0 0 0.60113 351.79201 39.93947] CT
0.851 0.325 0.098 RC
10.0 ML
2.5 LW
N
0 -5 M
0 5 L
-5 0 M
5 0 L
-3.536 -3.536 M
3.536 3.536 L
-3.536 3.536 M
3.536 -3.536 L
S
GR
GS
[0.6 0 0 0.60113 363.16802 37.19339] CT
0.851 0.325 0.098 RC
10.0 ML
2.5 LW
N
0 -5 M
0 5 L
-5 0 M
5 0 L
-3.536 -3.536 M
3.536 3.536 L
-3.536 3.536 M
3.536 -3.536 L
S
GR
GS
[0.6 0 0 0.60113 374.544 34.85103] CT
0.851 0.325 0.098 RC
10.0 ML
2.5 LW
N
0 -5 M
0 5 L
-5 0 M
5 0 L
-3.536 -3.536 M
3.536 3.536 L
-3.536 3.536 M
3.536 -3.536 L
S
GR
GS
[0.6 0 0 0.60113 385.92001 32.86064] CT
0.851 0.325 0.098 RC
10.0 ML
2.5 LW
N
0 -5 M
0 5 L
-5 0 M
5 0 L
-3.536 -3.536 M
3.536 3.536 L
-3.536 3.536 M
3.536 -3.536 L
S
GR
GS
[0.6 0 0 0.60113 397.29599 31.17695] CT
0.851 0.325 0.098 RC
10.0 ML
2.5 LW
N
0 -5 M
0 5 L
-5 0 M
5 0 L
-3.536 -3.536 M
3.536 3.536 L
-3.536 3.536 M
3.536 -3.536 L
S
GR
GS
[0.6 0 0 0.60113 408.672 29.76006] CT
0.851 0.325 0.098 RC
10.0 ML
2.5 LW
N
0 -5 M
0 5 L
-5 0 M
5 0 L
-3.536 -3.536 M
3.536 3.536 L
-3.536 3.536 M
3.536 -3.536 L
S
GR
GS
[0.6 0 0 0.60113 420.04802 28.57468] CT
0.851 0.325 0.098 RC
10.0 ML
2.5 LW
N
0 -5 M
0 5 L
-5 0 M
5 0 L
-3.536 -3.536 M
3.536 3.536 L
-3.536 3.536 M
3.536 -3.536 L
S
GR
GS
[0.6 0 0 0.60113 431.42403 27.58944] CT
0.851 0.325 0.098 RC
10.0 ML
2.5 LW
N
0 -5 M
0 5 L
-5 0 M
5 0 L
-3.536 -3.536 M
3.536 3.536 L
-3.536 3.536 M
3.536 -3.536 L
S
GR
GS
[0.6 0 0 0.60113 442.80001 26.77638] CT
0.851 0.325 0.098 RC
10.0 ML
2.5 LW
N
0 -5 M
0 5 L
-5 0 M
5 0 L
-3.536 -3.536 M
3.536 3.536 L
-3.536 3.536 M
3.536 -3.536 L
S
GR
GS
[0.6 0 0 0.60113 0 -0.39999] CT
0.929 0.694 0.125 RC
1 LJ
2.5 LW
N
112.32 460.322 M
118.64 460.322 L
124.96 460.322 L
131.28 460.322 L
137.6 460.322 L
143.92 460.322 L
150.24 460.322 L
156.56 460.322 L
162.88 460.322 L
169.2 460.322 L
175.52 460.322 L
181.84 460.322 L
188.16 460.322 L
194.48 460.322 L
200.8 460.322 L
207.12 460.322 L
213.44 460.322 L
219.76 460.322 L
226.08 460.322 L
232.4 460.322 L
238.72 460.322 L
245.04 460.322 L
251.36 460.322 L
257.68 460.322 L
264 460.322 L
270.32 459.747 L
276.64 444.192 L
282.96 407.093 L
289.28 370.133 L
295.6 336.442 L
301.92 305.831 L
308.24 278.011 L
314.56 252.723 L
320.88 229.737 L
327.2 208.849 L
333.52 189.878 L
339.84 172.662 L
346.16 157.057 L
352.48 142.93 L
358.8 130.164 L
365.12 118.651 L
371.44 108.295 L
377.76 99.004 L
384.08 90.696 L
390.4 83.296 L
396.72 76.733 L
403.04 70.941 L
409.36 65.858 L
415.68 61.424 L
422 57.586 L
428.32 54.289 L
434.64 51.483 L
440.96 49.118 L
447.28 47.148 L
453.6 45.527 L
459.92 44.211 L
466.24 43.159 L
472.56 42.331 L
478.88 41.691 L
485.2 41.205 L
491.52 40.843 L
497.84 40.579 L
504.16 40.39 L
510.48 40.258 L
516.8 40.168 L
523.12 40.107 L
529.44 40.067 L
535.76 40.041 L
542.08 40.025 L
548.4 40.015 L
554.72 40.009 L
561.04 40.005 L
567.36 40.003 L
573.68 40.002 L
580 40.001 L
586.32 40 L
592.64 40 L
598.96 40 L
605.28 40 L
611.6 40 L
617.92 40 L
624.24 40 L
630.56 40 L
636.88 40 L
643.2 40 L
649.52 40 L
655.84 40 L
662.16 40 L
668.48 40 L
674.8 40 L
681.12 40 L
687.44 40 L
693.76 40 L
700.08 40 L
706.4 40 L
712.72 40 L
719.04 40 L
725.36 40 L
731.68 40 L
738 40 L
S
GR
GS
[0.6 0 0 0.60113 67.392 276.3114] CT
0.929 0.694 0.125 RC
10.0 ML
2.5 LW
N
4.5 -0.5 M
4.5 -3.261 2.261 -5.5 -0.5 -5.5 C
-3.261 -5.5 -5.5 -3.261 -5.5 -0.5 C
-5.5 2.261 -3.261 4.5 -0.5 4.5 C
2.261 4.5 4.5 2.261 4.5 -0.5 C
S
GR
GS
[0.6 0 0 0.60113 78.768 276.3114] CT
0.929 0.694 0.125 RC
10.0 ML
2.5 LW
N
4.5 -0.5 M
4.5 -3.261 2.261 -5.5 -0.5 -5.5 C
-3.261 -5.5 -5.5 -3.261 -5.5 -0.5 C
-5.5 2.261 -3.261 4.5 -0.5 4.5 C
2.261 4.5 4.5 2.261 4.5 -0.5 C
S
GR
GS
[0.6 0 0 0.60113 90.144 276.3114] CT
0.929 0.694 0.125 RC
10.0 ML
2.5 LW
N
4.5 -0.5 M
4.5 -3.261 2.261 -5.5 -0.5 -5.5 C
-3.261 -5.5 -5.5 -3.261 -5.5 -0.5 C
-5.5 2.261 -3.261 4.5 -0.5 4.5 C
2.261 4.5 4.5 2.261 4.5 -0.5 C
S
GR
GS
[0.6 0 0 0.60113 101.52 276.3114] CT
0.929 0.694 0.125 RC
10.0 ML
2.5 LW
N
4.5 -0.5 M
4.5 -3.261 2.261 -5.5 -0.5 -5.5 C
-3.261 -5.5 -5.5 -3.261 -5.5 -0.5 C
-5.5 2.261 -3.261 4.5 -0.5 4.5 C
2.261 4.5 4.5 2.261 4.5 -0.5 C
S
GR
GS
[0.6 0 0 0.60113 112.896 276.3114] CT
0.929 0.694 0.125 RC
10.0 ML
2.5 LW
N
4.5 -0.5 M
4.5 -3.261 2.261 -5.5 -0.5 -5.5 C
-3.261 -5.5 -5.5 -3.261 -5.5 -0.5 C
-5.5 2.261 -3.261 4.5 -0.5 4.5 C
2.261 4.5 4.5 2.261 4.5 -0.5 C
S
GR
GS
[0.6 0 0 0.60113 124.272 276.3114] CT
0.929 0.694 0.125 RC
10.0 ML
2.5 LW
N
4.5 -0.5 M
4.5 -3.261 2.261 -5.5 -0.5 -5.5 C
-3.261 -5.5 -5.5 -3.261 -5.5 -0.5 C
-5.5 2.261 -3.261 4.5 -0.5 4.5 C
2.261 4.5 4.5 2.261 4.5 -0.5 C
S
GR
GS
[0.6 0 0 0.60113 135.648 276.3114] CT
0.929 0.694 0.125 RC
10.0 ML
2.5 LW
N
4.5 -0.5 M
4.5 -3.261 2.261 -5.5 -0.5 -5.5 C
-3.261 -5.5 -5.5 -3.261 -5.5 -0.5 C
-5.5 2.261 -3.261 4.5 -0.5 4.5 C
2.261 4.5 4.5 2.261 4.5 -0.5 C
S
GR
GS
[0.6 0 0 0.60113 147.024 276.3114] CT
0.929 0.694 0.125 RC
10.0 ML
2.5 LW
N
4.5 -0.5 M
4.5 -3.261 2.261 -5.5 -0.5 -5.5 C
-3.261 -5.5 -5.5 -3.261 -5.5 -0.5 C
-5.5 2.261 -3.261 4.5 -0.5 4.5 C
2.261 4.5 4.5 2.261 4.5 -0.5 C
S
GR
GS
[0.6 0 0 0.60113 158.4 276.3114] CT
0.929 0.694 0.125 RC
10.0 ML
2.5 LW
N
4.5 -0.5 M
4.5 -3.261 2.261 -5.5 -0.5 -5.5 C
-3.261 -5.5 -5.5 -3.261 -5.5 -0.5 C
-5.5 2.261 -3.261 4.5 -0.5 4.5 C
2.261 4.5 4.5 2.261 4.5 -0.5 C
S
GR
GS
[0.6 0 0 0.60113 169.776 244.31384] CT
0.929 0.694 0.125 RC
10.0 ML
2.5 LW
N
4.5 -0.5 M
4.5 -3.261 2.261 -5.5 -0.5 -5.5 C
-3.261 -5.5 -5.5 -3.261 -5.5 -0.5 C
-5.5 2.261 -3.261 4.5 -0.5 4.5 C
2.261 4.5 4.5 2.261 4.5 -0.5 C
S
GR
GS
[0.6 0 0 0.60113 181.15201 183.4426] CT
0.929 0.694 0.125 RC
10.0 ML
2.5 LW
N
4.5 -0.5 M
4.5 -3.261 2.261 -5.5 -0.5 -5.5 C
-3.261 -5.5 -5.5 -3.261 -5.5 -0.5 C
-5.5 2.261 -3.261 4.5 -0.5 4.5 C
2.261 4.5 4.5 2.261 4.5 -0.5 C
S
GR
GS
[0.6 0 0 0.60113 192.52801 137.70056] CT
0.929 0.694 0.125 RC
10.0 ML
2.5 LW
N
4.5 -0.5 M
4.5 -3.261 2.261 -5.5 -0.5 -5.5 C
-3.261 -5.5 -5.5 -3.261 -5.5 -0.5 C
-5.5 2.261 -3.261 4.5 -0.5 4.5 C
2.261 4.5 4.5 2.261 4.5 -0.5 C
S
GR
GS
[0.6 0 0 0.60113 203.904 103.39176] CT
0.929 0.694 0.125 RC
10.0 ML
2.5 LW
N
4.5 -0.5 M
4.5 -3.261 2.261 -5.5 -0.5 -5.5 C
-3.261 -5.5 -5.5 -3.261 -5.5 -0.5 C
-5.5 2.261 -3.261 4.5 -0.5 4.5 C
2.261 4.5 4.5 2.261 4.5 -0.5 C
S
GR
GS
[0.6 0 0 0.60113 215.28001 77.8449] CT
0.929 0.694 0.125 RC
10.0 ML
2.5 LW
N
4.5 -0.5 M
4.5 -3.261 2.261 -5.5 -0.5 -5.5 C
-3.261 -5.5 -5.5 -3.261 -5.5 -0.5 C
-5.5 2.261 -3.261 4.5 -0.5 4.5 C
2.261 4.5 4.5 2.261 4.5 -0.5 C
S
GR
GS
[0.6 0 0 0.60113 226.65601 59.11361] CT
0.929 0.694 0.125 RC
10.0 ML
2.5 LW
N
4.5 -0.5 M
4.5 -3.261 2.261 -5.5 -0.5 -5.5 C
-3.261 -5.5 -5.5 -3.261 -5.5 -0.5 C
-5.5 2.261 -3.261 4.5 -0.5 4.5 C
2.261 4.5 4.5 2.261 4.5 -0.5 C
S
GR
GS
[0.6 0 0 0.60113 238.032 45.72638] CT
0.929 0.694 0.125 RC
10.0 ML
2.5 LW
N
4.5 -0.5 M
4.5 -3.261 2.261 -5.5 -0.5 -5.5 C
-3.261 -5.5 -5.5 -3.261 -5.5 -0.5 C
-5.5 2.261 -3.261 4.5 -0.5 4.5 C
2.261 4.5 4.5 2.261 4.5 -0.5 C
S
GR
GS
[0.6 0 0 0.60113 249.408 36.52377] CT
0.929 0.694 0.125 RC
10.0 ML
2.5 LW
N
4.5 -0.5 M
4.5 -3.261 2.261 -5.5 -0.5 -5.5 C
-3.261 -5.5 -5.5 -3.261 -5.5 -0.5 C
-5.5 2.261 -3.261 4.5 -0.5 4.5 C
2.261 4.5 4.5 2.261 4.5 -0.5 C
S
GR
GS
[0.6 0 0 0.60113 260.78399 30.54751] CT
0.929 0.694 0.125 RC
10.0 ML
2.5 LW
N
4.5 -0.5 M
4.5 -3.261 2.261 -5.5 -0.5 -5.5 C
-3.261 -5.5 -5.5 -3.261 -5.5 -0.5 C
-5.5 2.261 -3.261 4.5 -0.5 4.5 C
2.261 4.5 4.5 2.261 4.5 -0.5 C
S
GR
GS
[0.6 0 0 0.60113 272.16001 26.9673] CT
0.929 0.694 0.125 RC
10.0 ML
2.5 LW
N
4.5 -0.5 M
4.5 -3.261 2.261 -5.5 -0.5 -5.5 C
-3.261 -5.5 -5.5 -3.261 -5.5 -0.5 C
-5.5 2.261 -3.261 4.5 -0.5 4.5 C
2.261 4.5 4.5 2.261 4.5 -0.5 C
S
GR
GS
[0.6 0 0 0.60113 283.536 25.04616] CT
0.929 0.694 0.125 RC
10.0 ML
2.5 LW
N
4.5 -0.5 M
4.5 -3.261 2.261 -5.5 -0.5 -5.5 C
-3.261 -5.5 -5.5 -3.261 -5.5 -0.5 C
-5.5 2.261 -3.261 4.5 -0.5 4.5 C
2.261 4.5 4.5 2.261 4.5 -0.5 C
S
GR
GS
[0.6 0 0 0.60113 294.91202 24.15177] CT
0.929 0.694 0.125 RC
10.0 ML
2.5 LW
N
4.5 -0.5 M
4.5 -3.261 2.261 -5.5 -0.5 -5.5 C
-3.261 -5.5 -5.5 -3.261 -5.5 -0.5 C
-5.5 2.261 -3.261 4.5 -0.5 4.5 C
2.261 4.5 4.5 2.261 4.5 -0.5 C
S
GR
GS
[0.6 0 0 0.60113 306.28799 23.80019] CT
0.929 0.694 0.125 RC
10.0 ML
2.5 LW
N
4.5 -0.5 M
4.5 -3.261 2.261 -5.5 -0.5 -5.5 C
-3.261 -5.5 -5.5 -3.261 -5.5 -0.5 C
-5.5 2.261 -3.261 4.5 -0.5 4.5 C
2.261 4.5 4.5 2.261 4.5 -0.5 C
S
GR
GS
[0.6 0 0 0.60113 317.66401 23.6852] CT
0.929 0.694 0.125 RC
10.0 ML
2.5 LW
N
4.5 -0.5 M
4.5 -3.261 2.261 -5.5 -0.5 -5.5 C
-3.261 -5.5 -5.5 -3.261 -5.5 -0.5 C
-5.5 2.261 -3.261 4.5 -0.5 4.5 C
2.261 4.5 4.5 2.261 4.5 -0.5 C
S
GR
GS
[0.6 0 0 0.60113 329.03998 23.6539] CT
0.929 0.694 0.125 RC
10.0 ML
2.5 LW
N
4.5 -0.5 M
4.5 -3.261 2.261 -5.5 -0.5 -5.5 C
-3.261 -5.5 -5.5 -3.261 -5.5 -0.5 C
-5.5 2.261 -3.261 4.5 -0.5 4.5 C
2.261 4.5 4.5 2.261 4.5 -0.5 C
S
GR
GS
[0.6 0 0 0.60113 340.416 23.64672] CT
0.929 0.694 0.125 RC
10.0 ML
2.5 LW
N
4.5 -0.5 M
4.5 -3.261 2.261 -5.5 -0.5 -5.5 C
-3.261 -5.5 -5.5 -3.261 -5.5 -0.5 C
-5.5 2.261 -3.261 4.5 -0.5 4.5 C
2.261 4.5 4.5 2.261 4.5 -0.5 C
S
GR
GS
[0.6 0 0 0.60113 351.79201 23.64531] CT
0.929 0.694 0.125 RC
10.0 ML
2.5 LW
N
4.5 -0.5 M
4.5 -3.261 2.261 -5.5 -0.5 -5.5 C
-3.261 -5.5 -5.5 -3.261 -5.5 -0.5 C
-5.5 2.261 -3.261 4.5 -0.5 4.5 C
2.261 4.5 4.5 2.261 4.5 -0.5 C
S
GR
GS
[0.6 0 0 0.60113 363.16802 23.64508] CT
0.929 0.694 0.125 RC
10.0 ML
2.5 LW
N
4.5 -0.5 M
4.5 -3.261 2.261 -5.5 -0.5 -5.5 C
-3.261 -5.5 -5.5 -3.261 -5.5 -0.5 C
-5.5 2.261 -3.261 4.5 -0.5 4.5 C
2.261 4.5 4.5 2.261 4.5 -0.5 C
S
GR
GS
[0.6 0 0 0.60113 374.544 23.64503] CT
0.929 0.694 0.125 RC
10.0 ML
2.5 LW
N
4.5 -0.5 M
4.5 -3.261 2.261 -5.5 -0.5 -5.5 C
-3.261 -5.5 -5.5 -3.261 -5.5 -0.5 C
-5.5 2.261 -3.261 4.5 -0.5 4.5 C
2.261 4.5 4.5 2.261 4.5 -0.5 C
S
GR
GS
[0.6 0 0 0.60113 385.92001 23.64503] CT
0.929 0.694 0.125 RC
10.0 ML
2.5 LW
N
4.5 -0.5 M
4.5 -3.261 2.261 -5.5 -0.5 -5.5 C
-3.261 -5.5 -5.5 -3.261 -5.5 -0.5 C
-5.5 2.261 -3.261 4.5 -0.5 4.5 C
2.261 4.5 4.5 2.261 4.5 -0.5 C
S
GR
GS
[0.6 0 0 0.60113 397.29599 23.64503] CT
0.929 0.694 0.125 RC
10.0 ML
2.5 LW
N
4.5 -0.5 M
4.5 -3.261 2.261 -5.5 -0.5 -5.5 C
-3.261 -5.5 -5.5 -3.261 -5.5 -0.5 C
-5.5 2.261 -3.261 4.5 -0.5 4.5 C
2.261 4.5 4.5 2.261 4.5 -0.5 C
S
GR
GS
[0.6 0 0 0.60113 408.672 23.64503] CT
0.929 0.694 0.125 RC
10.0 ML
2.5 LW
N
4.5 -0.5 M
4.5 -3.261 2.261 -5.5 -0.5 -5.5 C
-3.261 -5.5 -5.5 -3.261 -5.5 -0.5 C
-5.5 2.261 -3.261 4.5 -0.5 4.5 C
2.261 4.5 4.5 2.261 4.5 -0.5 C
S
GR
GS
[0.6 0 0 0.60113 420.04802 23.64503] CT
0.929 0.694 0.125 RC
10.0 ML
2.5 LW
N
4.5 -0.5 M
4.5 -3.261 2.261 -5.5 -0.5 -5.5 C
-3.261 -5.5 -5.5 -3.261 -5.5 -0.5 C
-5.5 2.261 -3.261 4.5 -0.5 4.5 C
2.261 4.5 4.5 2.261 4.5 -0.5 C
S
GR
GS
[0.6 0 0 0.60113 431.42403 23.64503] CT
0.929 0.694 0.125 RC
10.0 ML
2.5 LW
N
4.5 -0.5 M
4.5 -3.261 2.261 -5.5 -0.5 -5.5 C
-3.261 -5.5 -5.5 -3.261 -5.5 -0.5 C
-5.5 2.261 -3.261 4.5 -0.5 4.5 C
2.261 4.5 4.5 2.261 4.5 -0.5 C
S
GR
GS
[0.6 0 0 0.60113 442.80001 23.64503] CT
0.929 0.694 0.125 RC
10.0 ML
2.5 LW
N
4.5 -0.5 M
4.5 -3.261 2.261 -5.5 -0.5 -5.5 C
-3.261 -5.5 -5.5 -3.261 -5.5 -0.5 C
-5.5 2.261 -3.261 4.5 -0.5 4.5 C
2.261 4.5 4.5 2.261 4.5 -0.5 C
S
GR
GS
[0.6 0 0 0.60113 0 -0.39999] CT
1 GC
N
446 202 M
446 123 L
724 123 L
724 202 L
cp
f
GR
GS
[0.6 0 0 0.60113 302.82301 82.33833] CT
N
0.609 4.8 M
0.609 4.097 L
2.672 4.097 2.672 3.456 QT
2.672 -7.528 L
2.672 -8.153 0.609 -8.153 QT
0.609 -8.856 L
11.078 -8.856 L
11.641 -4.278 L
11.063 -4.278 L
10.922 -5.559 10.727 -6.247 QT
10.531 -6.934 10.141 -7.364 QT
9.75 -7.794 9.047 -7.974 QT
8.344 -8.153 7.094 -8.153 QT
5.563 -8.153 L
5.203 -8.153 5 -8.13 QT
4.797 -8.106 4.672 -7.966 QT
4.547 -7.825 4.547 -7.528 QT
4.547 3.456 L
4.547 4.097 7.094 4.097 QT
7.094 4.8 L
0.609 4.8 L
cp
f
GR
GS
[0.6 0 0 0.60113 302.82301 82.33833] CT
N
13.203 7.8 M
13.063 7.8 13.063 7.612 QT
13.063 7.581 13.086 7.495 QT
13.109 7.409 13.141 7.355 QT
13.172 7.3 13.25 7.3 QT
13.641 7.3 13.938 7.284 QT
14.234 7.269 14.438 7.206 QT
14.594 7.144 14.703 6.831 QT
16.609 -0.856 L
16.641 -0.997 16.641 -1.044 QT
16.641 -1.2 16.484 -1.216 QT
16.219 -1.278 15.469 -1.278 QT
15.328 -1.278 15.328 -1.45 QT
15.344 -1.497 15.359 -1.583 QT
15.375 -1.669 15.414 -1.716 QT
15.453 -1.763 15.516 -1.763 QT
20.531 -1.763 L
20.984 -1.763 21.43 -1.653 QT
21.875 -1.544 22.258 -1.294 QT
22.641 -1.044 22.859 -0.677 QT
23.078 -0.309 23.078 0.175 QT
23.078 0.691 22.813 1.144 QT
22.547 1.597 22.117 1.933 QT
21.688 2.269 21.195 2.487 QT
20.703 2.706 20.156 2.8 QT
20.547 2.8 20.938 2.948 QT
21.328 3.097 21.633 3.362 QT
21.938 3.628 22.125 3.987 QT
22.313 4.347 22.313 4.769 QT
22.313 5.612 21.727 6.308 QT
21.141 7.003 20.25 7.401 QT
19.359 7.8 18.516 7.8 QT
13.203 7.8 L
cp
15.781 7.191 M
15.781 7.3 16.25 7.3 QT
18.25 7.3 L
18.938 7.3 19.57 6.925 QT
20.203 6.55 20.578 5.917 QT
20.953 5.284 20.953 4.612 QT
20.953 4.191 20.781 3.816 QT
20.609 3.441 20.281 3.23 QT
19.953 3.019 19.531 3.019 QT
16.797 3.019 L
15.828 6.894 L
15.781 7.081 15.781 7.191 QT
cp
16.891 2.644 M
19.016 2.644 L
19.688 2.644 20.32 2.3 QT
20.953 1.956 21.352 1.37 QT
21.75 0.784 21.75 0.128 QT
21.75 -0.481 21.375 -0.88 QT
21 -1.278 20.391 -1.278 QT
18.469 -1.278 L
18.094 -1.278 17.969 -1.208 QT
17.844 -1.138 17.75 -0.794 QT
16.891 2.644 L
cp
f
GR
GS
[0.6 0 0 0.60113 302.82301 82.33833] CT
N
31.877 2.144 M
31.721 2.144 31.611 2.019 QT
31.502 1.894 31.502 1.737 QT
31.502 1.581 31.611 1.464 QT
31.721 1.347 31.877 1.347 QT
44.439 1.347 L
44.58 1.347 44.689 1.464 QT
44.799 1.581 44.799 1.737 QT
44.799 1.894 44.689 2.019 QT
44.58 2.144 44.439 2.144 QT
31.877 2.144 L
cp
31.877 -1.747 M
31.721 -1.747 31.611 -1.864 QT
31.502 -1.981 31.502 -2.138 QT
31.502 -2.294 31.611 -2.419 QT
31.721 -2.544 31.877 -2.544 QT
44.439 -2.544 L
44.58 -2.544 44.689 -2.419 QT
44.799 -2.294 44.799 -2.138 QT
44.799 -1.981 44.689 -1.864 QT
44.58 -1.747 44.439 -1.747 QT
31.877 -1.747 L
cp
f
GR
GS
[0.6 0 0 0.60113 302.82301 82.33833] CT
N
56.488 5.237 M
54.035 5.237 53.152 3.222 QT
52.269 1.206 52.269 -1.575 QT
52.269 -3.309 52.59 -4.849 QT
52.91 -6.388 53.847 -7.458 QT
54.785 -8.528 56.488 -8.528 QT
57.8 -8.528 58.644 -7.88 QT
59.488 -7.231 59.925 -6.208 QT
60.363 -5.184 60.527 -4.02 QT
60.691 -2.856 60.691 -1.575 QT
60.691 0.144 60.371 1.644 QT
60.05 3.144 59.121 4.191 QT
58.191 5.237 56.488 5.237 QT
cp
56.488 4.722 M
57.597 4.722 58.144 3.581 QT
58.691 2.441 58.824 1.05 QT
58.957 -0.341 58.957 -1.903 QT
58.957 -3.403 58.824 -4.677 QT
58.691 -5.95 58.152 -6.974 QT
57.613 -7.997 56.488 -7.997 QT
55.363 -7.997 54.816 -6.966 QT
54.269 -5.934 54.136 -4.669 QT
54.004 -3.403 54.004 -1.903 QT
54.004 -0.794 54.058 0.198 QT
54.113 1.191 54.347 2.237 QT
54.582 3.284 55.105 4.003 QT
55.629 4.722 56.488 4.722 QT
cp
f
GR
GS
[0.6 0 0 0.60113 302.82301 82.33833] CT
N
73.045 5.019 M
71.858 5.019 70.881 4.378 QT
69.905 3.737 69.366 2.698 QT
68.827 1.659 68.827 0.487 QT
68.827 -0.731 69.412 -1.77 QT
69.998 -2.809 71.014 -3.427 QT
72.03 -4.044 73.248 -4.044 QT
73.983 -4.044 74.639 -3.731 QT
75.295 -3.419 75.78 -2.872 QT
75.78 -7.044 L
75.78 -7.575 75.616 -7.817 QT
75.452 -8.059 75.155 -8.106 QT
74.858 -8.153 74.217 -8.153 QT
74.217 -8.856 L
77.186 -9.075 L
77.186 2.987 L
77.186 3.503 77.342 3.745 QT
77.498 3.987 77.795 4.042 QT
78.092 4.097 78.733 4.097 QT
78.733 4.8 L
75.717 5.019 L
75.717 3.769 L
75.202 4.362 74.483 4.691 QT
73.764 5.019 73.045 5.019 QT
cp
70.998 3.066 M
71.342 3.722 71.912 4.112 QT
72.483 4.503 73.155 4.503 QT
73.983 4.503 74.678 4.019 QT
75.373 3.534 75.717 2.784 QT
75.717 -2.013 L
75.483 -2.45 75.123 -2.802 QT
74.764 -3.153 74.319 -3.341 QT
73.873 -3.528 73.373 -3.528 QT
72.342 -3.528 71.702 -2.934 QT
71.061 -2.341 70.811 -1.419 QT
70.561 -0.497 70.561 0.503 QT
70.561 1.3 70.639 1.894 QT
70.717 2.487 70.998 3.066 QT
cp
f
GR
GS
[0.6 0 0 0.60113 302.82301 82.33833] CT
N
79.953 4.8 M
79.953 4.097 L
82.016 4.097 82.016 3.456 QT
82.016 -7.528 L
82.016 -8.153 79.953 -8.153 QT
79.953 -8.856 L
87.297 -8.856 L
88.313 -8.856 89.352 -8.466 QT
90.391 -8.075 91.07 -7.294 QT
91.75 -6.513 91.75 -5.466 QT
91.75 -4.247 90.75 -3.419 QT
89.75 -2.591 88.406 -2.341 QT
89.281 -2.341 90.195 -1.864 QT
91.11 -1.388 91.695 -0.583 QT
92.281 0.222 92.281 1.112 QT
92.281 2.206 91.633 3.05 QT
90.985 3.894 89.953 4.347 QT
88.922 4.8 87.875 4.8 QT
79.953 4.8 L
cp
83.75 3.456 M
83.75 3.894 83.992 3.995 QT
84.235 4.097 84.766 4.097 QT
87.297 4.097 L
88.078 4.097 88.75 3.683 QT
89.422 3.269 89.813 2.581 QT
90.203 1.894 90.203 1.112 QT
90.203 0.362 89.883 -0.372 QT
89.563 -1.106 88.961 -1.575 QT
88.36 -2.044 87.594 -2.044 QT
83.75 -2.044 L
83.75 3.456 L
cp
83.75 -2.559 M
86.75 -2.559 L
87.36 -2.559 87.891 -2.778 QT
88.422 -2.997 88.844 -3.419 QT
89.266 -3.841 89.492 -4.356 QT
89.719 -4.872 89.719 -5.466 QT
89.719 -5.981 89.555 -6.458 QT
89.391 -6.934 89.055 -7.325 QT
88.719 -7.716 88.274 -7.934 QT
87.828 -8.153 87.297 -8.153 QT
84.766 -8.153 L
84.406 -8.153 84.203 -8.13 QT
84 -8.106 83.875 -7.966 QT
83.75 -7.825 83.75 -7.528 QT
83.75 -2.559 L
cp
f
GR
GS
[0.6 0 0 0.60113 302.82301 82.33833] CT
N
95.417 8.409 M
95.417 8.316 95.495 8.237 QT
96.214 7.55 96.612 6.636 QT
97.011 5.722 97.011 4.722 QT
97.011 4.472 L
96.698 4.8 96.214 4.8 QT
95.761 4.8 95.44 4.48 QT
95.12 4.159 95.12 3.691 QT
95.12 3.222 95.44 2.909 QT
95.761 2.597 96.214 2.597 QT
96.933 2.597 97.237 3.261 QT
97.542 3.925 97.542 4.722 QT
97.542 5.831 97.097 6.831 QT
96.651 7.831 95.839 8.644 QT
95.761 8.675 95.714 8.675 QT
95.604 8.675 95.511 8.589 QT
95.417 8.503 95.417 8.409 QT
cp
f
GR
GS
[0.6 0 0 0.60113 302.82301 82.33833] CT
N
106.264 4.8 M
106.264 4.097 L
108.327 4.097 108.327 3.456 QT
108.327 -7.528 L
108.327 -8.153 106.264 -8.153 QT
106.264 -8.856 L
116.733 -8.856 L
117.295 -4.278 L
116.717 -4.278 L
116.577 -5.559 116.381 -6.247 QT
116.186 -6.934 115.795 -7.364 QT
115.405 -7.794 114.702 -7.974 QT
113.999 -8.153 112.749 -8.153 QT
111.217 -8.153 L
110.858 -8.153 110.655 -8.13 QT
110.452 -8.106 110.327 -7.966 QT
110.202 -7.825 110.202 -7.528 QT
110.202 3.456 L
110.202 4.097 112.749 4.097 QT
112.749 4.8 L
106.264 4.8 L
cp
f
GR
GS
[0.6 0 0 0.60113 302.82301 82.33833] CT
N
118.811 7.8 M
118.67 7.8 118.67 7.612 QT
118.686 7.581 118.702 7.495 QT
118.717 7.409 118.756 7.355 QT
118.795 7.3 118.858 7.3 QT
119.702 7.3 120.045 7.206 QT
120.233 7.144 120.311 6.831 QT
122.233 -0.856 L
122.264 -0.997 122.264 -1.044 QT
122.264 -1.2 122.092 -1.216 QT
121.827 -1.278 121.077 -1.278 QT
120.952 -1.278 120.952 -1.45 QT
120.952 -1.497 120.975 -1.583 QT
120.999 -1.669 121.03 -1.716 QT
121.061 -1.763 121.124 -1.763 QT
128.717 -1.763 L
128.858 -1.763 128.858 -1.575 QT
128.514 1.316 L
128.514 1.347 128.467 1.394 QT
128.42 1.441 128.374 1.441 QT
128.249 1.441 L
128.108 1.441 128.108 1.269 QT
128.186 0.581 128.186 0.253 QT
128.186 -0.309 127.999 -0.622 QT
127.811 -0.934 127.491 -1.067 QT
127.17 -1.2 126.788 -1.239 QT
126.405 -1.278 125.764 -1.278 QT
124.17 -1.278 L
123.795 -1.278 123.67 -1.208 QT
123.545 -1.138 123.452 -0.794 QT
122.608 2.597 L
123.702 2.597 L
124.405 2.597 124.772 2.495 QT
125.139 2.394 125.35 2.081 QT
125.561 1.769 125.733 1.081 QT
125.749 1.034 125.78 0.995 QT
125.811 0.956 125.874 0.956 QT
125.999 0.956 L
126.139 0.956 126.139 1.128 QT
125.264 4.597 L
125.233 4.722 125.124 4.722 QT
124.999 4.722 L
124.858 4.722 124.858 4.534 QT
124.999 3.972 124.999 3.706 QT
124.999 3.3 124.631 3.191 QT
124.264 3.081 123.639 3.081 QT
122.483 3.081 L
121.53 6.894 L
121.467 7.066 121.467 7.191 QT
121.467 7.3 121.952 7.3 QT
123.639 7.3 L
124.655 7.3 125.288 7.144 QT
125.92 6.987 126.334 6.644 QT
126.749 6.3 127.045 5.769 QT
127.342 5.237 127.78 4.222 QT
127.795 4.128 127.889 4.128 QT
128.03 4.128 L
128.077 4.128 128.124 4.175 QT
128.17 4.222 128.17 4.284 QT
128.17 4.316 128.155 4.347 QT
126.702 7.722 L
126.686 7.8 126.592 7.8 QT
118.811 7.8 L
cp
f
GR
GS
[0.6 0 0 0.60113 302.82301 82.33833] CT
N
137.352 2.144 M
137.196 2.144 137.086 2.019 QT
136.977 1.894 136.977 1.737 QT
136.977 1.581 137.086 1.464 QT
137.196 1.347 137.352 1.347 QT
149.914 1.347 L
150.055 1.347 150.164 1.464 QT
150.274 1.581 150.274 1.737 QT
150.274 1.894 150.164 2.019 QT
150.055 2.144 149.914 2.144 QT
137.352 2.144 L
cp
137.352 -1.747 M
137.196 -1.747 137.086 -1.864 QT
136.977 -1.981 136.977 -2.138 QT
136.977 -2.294 137.086 -2.419 QT
137.196 -2.544 137.352 -2.544 QT
149.914 -2.544 L
150.055 -2.544 150.164 -2.419 QT
150.274 -2.294 150.274 -2.138 QT
150.274 -1.981 150.164 -1.864 QT
150.055 -1.747 149.914 -1.747 QT
137.352 -1.747 L
cp
f
GR
GS
[0.6 0 0 0.60113 302.82301 82.33833] CT
N
159.01 0.206 M
158.838 0.206 158.728 0.073 QT
158.619 -0.059 158.619 -0.2 QT
158.619 -0.341 158.728 -0.474 QT
158.838 -0.606 159.01 -0.606 QT
170.478 -0.606 L
170.635 -0.606 170.736 -0.474 QT
170.838 -0.341 170.838 -0.2 QT
170.838 -0.059 170.736 0.073 QT
170.635 0.206 170.478 0.206 QT
159.01 0.206 L
cp
f
GR
GS
[0.6 0 0 0.60113 302.82301 82.33833] CT
N
177.518 5.237 M
176.284 5.237 175.448 4.581 QT
174.612 3.925 174.159 2.87 QT
173.706 1.816 173.534 0.667 QT
173.362 -0.481 173.362 -1.669 QT
173.362 -3.247 173.979 -4.841 QT
174.597 -6.434 175.792 -7.481 QT
176.987 -8.528 178.628 -8.528 QT
179.3 -8.528 179.893 -8.263 QT
180.487 -7.997 180.823 -7.497 QT
181.159 -6.997 181.159 -6.278 QT
181.159 -5.872 180.886 -5.599 QT
180.612 -5.325 180.19 -5.325 QT
179.8 -5.325 179.518 -5.606 QT
179.237 -5.888 179.237 -6.278 QT
179.237 -6.669 179.518 -6.958 QT
179.8 -7.247 180.19 -7.247 QT
180.3 -7.247 L
180.05 -7.606 179.589 -7.778 QT
179.128 -7.95 178.628 -7.95 QT
178.018 -7.95 177.503 -7.684 QT
176.987 -7.419 176.581 -6.966 QT
176.175 -6.513 175.901 -5.974 QT
175.628 -5.434 175.472 -4.739 QT
175.315 -4.044 175.276 -3.442 QT
175.237 -2.841 175.237 -1.919 QT
175.597 -2.747 176.237 -3.263 QT
176.878 -3.778 177.69 -3.778 QT
178.581 -3.778 179.315 -3.419 QT
180.05 -3.059 180.573 -2.419 QT
181.097 -1.778 181.378 -0.958 QT
181.659 -0.138 181.659 0.691 QT
181.659 1.862 181.136 2.925 QT
180.612 3.987 179.667 4.612 QT
178.722 5.237 177.518 5.237 QT
cp
177.518 4.597 M
178.284 4.597 178.753 4.245 QT
179.222 3.894 179.448 3.316 QT
179.675 2.737 179.722 2.144 QT
179.768 1.55 179.768 0.691 QT
179.768 -0.434 179.667 -1.239 QT
179.565 -2.044 179.081 -2.653 QT
178.597 -3.263 177.612 -3.263 QT
176.8 -3.263 176.284 -2.716 QT
175.768 -2.169 175.526 -1.333 QT
175.284 -0.497 175.284 0.284 QT
175.284 0.534 175.3 0.675 QT
175.3 0.706 175.3 0.73 QT
175.3 0.753 175.284 0.769 QT
175.284 1.628 175.456 2.511 QT
175.628 3.394 176.128 3.995 QT
176.628 4.597 177.518 4.597 QT
cp
f
GR
GS
[0.6 0 0 0.60113 302.82301 82.33833] CT
N
194.076 5.019 M
192.888 5.019 191.912 4.378 QT
190.935 3.737 190.396 2.698 QT
189.857 1.659 189.857 0.487 QT
189.857 -0.731 190.443 -1.77 QT
191.029 -2.809 192.045 -3.427 QT
193.06 -4.044 194.279 -4.044 QT
195.013 -4.044 195.67 -3.731 QT
196.326 -3.419 196.81 -2.872 QT
196.81 -7.044 L
196.81 -7.575 196.646 -7.817 QT
196.482 -8.059 196.185 -8.106 QT
195.888 -8.153 195.248 -8.153 QT
195.248 -8.856 L
198.216 -9.075 L
198.216 2.987 L
198.216 3.503 198.373 3.745 QT
198.529 3.987 198.826 4.042 QT
199.123 4.097 199.763 4.097 QT
199.763 4.8 L
196.748 5.019 L
196.748 3.769 L
196.232 4.362 195.513 4.691 QT
194.795 5.019 194.076 5.019 QT
cp
192.029 3.066 M
192.373 3.722 192.943 4.112 QT
193.513 4.503 194.185 4.503 QT
195.013 4.503 195.709 4.019 QT
196.404 3.534 196.748 2.784 QT
196.748 -2.013 L
196.513 -2.45 196.154 -2.802 QT
195.795 -3.153 195.349 -3.341 QT
194.904 -3.528 194.404 -3.528 QT
193.373 -3.528 192.732 -2.934 QT
192.091 -2.341 191.841 -1.419 QT
191.591 -0.497 191.591 0.503 QT
191.591 1.3 191.67 1.894 QT
191.748 2.487 192.029 3.066 QT
cp
f
GR
GS
[0.6 0 0 0.60113 302.82301 82.33833] CT
N
200.984 4.8 M
200.984 4.097 L
203.046 4.097 203.046 3.456 QT
203.046 -7.528 L
203.046 -8.153 200.984 -8.153 QT
200.984 -8.856 L
208.328 -8.856 L
209.343 -8.856 210.382 -8.466 QT
211.421 -8.075 212.101 -7.294 QT
212.781 -6.513 212.781 -5.466 QT
212.781 -4.247 211.781 -3.419 QT
210.781 -2.591 209.437 -2.341 QT
210.312 -2.341 211.226 -1.864 QT
212.14 -1.388 212.726 -0.583 QT
213.312 0.222 213.312 1.112 QT
213.312 2.206 212.663 3.05 QT
212.015 3.894 210.984 4.347 QT
209.953 4.8 208.906 4.8 QT
200.984 4.8 L
cp
204.781 3.456 M
204.781 3.894 205.023 3.995 QT
205.265 4.097 205.796 4.097 QT
208.328 4.097 L
209.109 4.097 209.781 3.683 QT
210.453 3.269 210.843 2.581 QT
211.234 1.894 211.234 1.112 QT
211.234 0.362 210.913 -0.372 QT
210.593 -1.106 209.992 -1.575 QT
209.39 -2.044 208.624 -2.044 QT
204.781 -2.044 L
204.781 3.456 L
cp
204.781 -2.559 M
207.781 -2.559 L
208.39 -2.559 208.921 -2.778 QT
209.453 -2.997 209.874 -3.419 QT
210.296 -3.841 210.523 -4.356 QT
210.749 -4.872 210.749 -5.466 QT
210.749 -5.981 210.585 -6.458 QT
210.421 -6.934 210.085 -7.325 QT
209.749 -7.716 209.304 -7.934 QT
208.859 -8.153 208.328 -8.153 QT
205.796 -8.153 L
205.437 -8.153 205.234 -8.13 QT
205.031 -8.106 204.906 -7.966 QT
204.781 -7.825 204.781 -7.528 QT
204.781 -2.559 L
cp
f
GR
GS
[0.6 0 0 0.60113 0 -0.39999] CT
0 0.447 0.741 RC
1 LJ
2.5 LW
N
450.996 137.639 M
500.958 137.639 L
S
GR
GS
[0.6 0 0 0.60113 285.58622 82.33833] CT
0 0.447 0.741 RC
10.0 ML
2.5 LW
N
-5 0 M
0 6.65 L
5 0 L
0 -6.65 L
cp
S
GR
GS
[0.6 0 0 0.60113 302.82301 97.28293] CT
N
/f971893044{0.609 4.8 M
0.609 4.097 L
2.672 4.097 2.672 3.456 QT
2.672 -7.528 L
2.672 -8.153 0.609 -8.153 QT
0.609 -8.856 L
11.078 -8.856 L
11.641 -4.278 L
11.063 -4.278 L
10.922 -5.559 10.727 -6.247 QT
10.531 -6.934 10.141 -7.364 QT
9.75 -7.794 9.047 -7.974 QT
8.344 -8.153 7.094 -8.153 QT
5.563 -8.153 L
5.203 -8.153 5 -8.13 QT
4.797 -8.106 4.672 -7.966 QT
4.547 -7.825 4.547 -7.528 QT
4.547 3.456 L
4.547 4.097 7.094 4.097 QT
7.094 4.8 L
0.609 4.8 L
cp}def
f971893044
f
GR
GS
[0.6 0 0 0.60113 302.82301 97.28293] CT
N
/f-1202328363{13.203 7.8 M
13.063 7.8 13.063 7.612 QT
13.063 7.581 13.086 7.495 QT
13.109 7.409 13.141 7.355 QT
13.172 7.3 13.25 7.3 QT
13.641 7.3 13.938 7.284 QT
14.234 7.269 14.438 7.206 QT
14.594 7.144 14.703 6.831 QT
16.609 -0.856 L
16.641 -0.997 16.641 -1.044 QT
16.641 -1.2 16.484 -1.216 QT
16.219 -1.278 15.469 -1.278 QT
15.328 -1.278 15.328 -1.45 QT
15.344 -1.497 15.359 -1.583 QT
15.375 -1.669 15.414 -1.716 QT
15.453 -1.763 15.516 -1.763 QT
20.531 -1.763 L
20.984 -1.763 21.43 -1.653 QT
21.875 -1.544 22.258 -1.294 QT
22.641 -1.044 22.859 -0.677 QT
23.078 -0.309 23.078 0.175 QT
23.078 0.691 22.813 1.144 QT
22.547 1.597 22.117 1.933 QT
21.688 2.269 21.195 2.487 QT
20.703 2.706 20.156 2.8 QT
20.547 2.8 20.938 2.948 QT
21.328 3.097 21.633 3.362 QT
21.938 3.628 22.125 3.987 QT
22.313 4.347 22.313 4.769 QT
22.313 5.612 21.727 6.308 QT
21.141 7.003 20.25 7.401 QT
19.359 7.8 18.516 7.8 QT
13.203 7.8 L
cp
15.781 7.191 M
15.781 7.3 16.25 7.3 QT
18.25 7.3 L
18.938 7.3 19.57 6.925 QT
20.203 6.55 20.578 5.917 QT
20.953 5.284 20.953 4.612 QT
20.953 4.191 20.781 3.816 QT
20.609 3.441 20.281 3.23 QT
19.953 3.019 19.531 3.019 QT
16.797 3.019 L
15.828 6.894 L
15.781 7.081 15.781 7.191 QT
cp
16.891 2.644 M
19.016 2.644 L
19.688 2.644 20.32 2.3 QT
20.953 1.956 21.352 1.37 QT
21.75 0.784 21.75 0.128 QT
21.75 -0.481 21.375 -0.88 QT
21 -1.278 20.391 -1.278 QT
18.469 -1.278 L
18.094 -1.278 17.969 -1.208 QT
17.844 -1.138 17.75 -0.794 QT
16.891 2.644 L
cp}def
f-1202328363
f
GR
GS
[0.6 0 0 0.60113 302.82301 97.28293] CT
N
/f-375580431{31.877 2.144 M
31.721 2.144 31.611 2.019 QT
31.502 1.894 31.502 1.737 QT
31.502 1.581 31.611 1.464 QT
31.721 1.347 31.877 1.347 QT
44.439 1.347 L
44.58 1.347 44.689 1.464 QT
44.799 1.581 44.799 1.737 QT
44.799 1.894 44.689 2.019 QT
44.58 2.144 44.439 2.144 QT
31.877 2.144 L
cp
31.877 -1.747 M
31.721 -1.747 31.611 -1.864 QT
31.502 -1.981 31.502 -2.138 QT
31.502 -2.294 31.611 -2.419 QT
31.721 -2.544 31.877 -2.544 QT
44.439 -2.544 L
44.58 -2.544 44.689 -2.419 QT
44.799 -2.294 44.799 -2.138 QT
44.799 -1.981 44.689 -1.864 QT
44.58 -1.747 44.439 -1.747 QT
31.877 -1.747 L
cp}def
f-375580431
f
GR
GS
[0.6 0 0 0.60113 302.82301 97.28293] CT
N
/f440654855{56.488 5.237 M
54.035 5.237 53.152 3.222 QT
52.269 1.206 52.269 -1.575 QT
52.269 -3.309 52.59 -4.849 QT
52.91 -6.388 53.847 -7.458 QT
54.785 -8.528 56.488 -8.528 QT
57.8 -8.528 58.644 -7.88 QT
59.488 -7.231 59.925 -6.208 QT
60.363 -5.184 60.527 -4.02 QT
60.691 -2.856 60.691 -1.575 QT
60.691 0.144 60.371 1.644 QT
60.05 3.144 59.121 4.191 QT
58.191 5.237 56.488 5.237 QT
cp
56.488 4.722 M
57.597 4.722 58.144 3.581 QT
58.691 2.441 58.824 1.05 QT
58.957 -0.341 58.957 -1.903 QT
58.957 -3.403 58.824 -4.677 QT
58.691 -5.95 58.152 -6.974 QT
57.613 -7.997 56.488 -7.997 QT
55.363 -7.997 54.816 -6.966 QT
54.269 -5.934 54.136 -4.669 QT
54.004 -3.403 54.004 -1.903 QT
54.004 -0.794 54.058 0.198 QT
54.113 1.191 54.347 2.237 QT
54.582 3.284 55.105 4.003 QT
55.629 4.722 56.488 4.722 QT
cp}def
f440654855
f
GR
GS
[0.6 0 0 0.60113 302.82301 97.28293] CT
N
/f-309366413{73.045 5.019 M
71.858 5.019 70.881 4.378 QT
69.905 3.737 69.366 2.698 QT
68.827 1.659 68.827 0.487 QT
68.827 -0.731 69.412 -1.77 QT
69.998 -2.809 71.014 -3.427 QT
72.03 -4.044 73.248 -4.044 QT
73.983 -4.044 74.639 -3.731 QT
75.295 -3.419 75.78 -2.872 QT
75.78 -7.044 L
75.78 -7.575 75.616 -7.817 QT
75.452 -8.059 75.155 -8.106 QT
74.858 -8.153 74.217 -8.153 QT
74.217 -8.856 L
77.186 -9.075 L
77.186 2.987 L
77.186 3.503 77.342 3.745 QT
77.498 3.987 77.795 4.042 QT
78.092 4.097 78.733 4.097 QT
78.733 4.8 L
75.717 5.019 L
75.717 3.769 L
75.202 4.362 74.483 4.691 QT
73.764 5.019 73.045 5.019 QT
cp
70.998 3.066 M
71.342 3.722 71.912 4.112 QT
72.483 4.503 73.155 4.503 QT
73.983 4.503 74.678 4.019 QT
75.373 3.534 75.717 2.784 QT
75.717 -2.013 L
75.483 -2.45 75.123 -2.802 QT
74.764 -3.153 74.319 -3.341 QT
73.873 -3.528 73.373 -3.528 QT
72.342 -3.528 71.702 -2.934 QT
71.061 -2.341 70.811 -1.419 QT
70.561 -0.497 70.561 0.503 QT
70.561 1.3 70.639 1.894 QT
70.717 2.487 70.998 3.066 QT
cp}def
f-309366413
f
GR
GS
[0.6 0 0 0.60113 302.82301 97.28293] CT
N
/f439055052{79.953 4.8 M
79.953 4.097 L
82.016 4.097 82.016 3.456 QT
82.016 -7.528 L
82.016 -8.153 79.953 -8.153 QT
79.953 -8.856 L
87.297 -8.856 L
88.313 -8.856 89.352 -8.466 QT
90.391 -8.075 91.07 -7.294 QT
91.75 -6.513 91.75 -5.466 QT
91.75 -4.247 90.75 -3.419 QT
89.75 -2.591 88.406 -2.341 QT
89.281 -2.341 90.195 -1.864 QT
91.11 -1.388 91.695 -0.583 QT
92.281 0.222 92.281 1.112 QT
92.281 2.206 91.633 3.05 QT
90.985 3.894 89.953 4.347 QT
88.922 4.8 87.875 4.8 QT
79.953 4.8 L
cp
83.75 3.456 M
83.75 3.894 83.992 3.995 QT
84.235 4.097 84.766 4.097 QT
87.297 4.097 L
88.078 4.097 88.75 3.683 QT
89.422 3.269 89.813 2.581 QT
90.203 1.894 90.203 1.112 QT
90.203 0.362 89.883 -0.372 QT
89.563 -1.106 88.961 -1.575 QT
88.36 -2.044 87.594 -2.044 QT
83.75 -2.044 L
83.75 3.456 L
cp
83.75 -2.559 M
86.75 -2.559 L
87.36 -2.559 87.891 -2.778 QT
88.422 -2.997 88.844 -3.419 QT
89.266 -3.841 89.492 -4.356 QT
89.719 -4.872 89.719 -5.466 QT
89.719 -5.981 89.555 -6.458 QT
89.391 -6.934 89.055 -7.325 QT
88.719 -7.716 88.274 -7.934 QT
87.828 -8.153 87.297 -8.153 QT
84.766 -8.153 L
84.406 -8.153 84.203 -8.13 QT
84 -8.106 83.875 -7.966 QT
83.75 -7.825 83.75 -7.528 QT
83.75 -2.559 L
cp}def
f439055052
f
GR
GS
[0.6 0 0 0.60113 302.82301 97.28293] CT
N
/f-1530088755{95.417 8.409 M
95.417 8.316 95.495 8.237 QT
96.214 7.55 96.612 6.636 QT
97.011 5.722 97.011 4.722 QT
97.011 4.472 L
96.698 4.8 96.214 4.8 QT
95.761 4.8 95.44 4.48 QT
95.12 4.159 95.12 3.691 QT
95.12 3.222 95.44 2.909 QT
95.761 2.597 96.214 2.597 QT
96.933 2.597 97.237 3.261 QT
97.542 3.925 97.542 4.722 QT
97.542 5.831 97.097 6.831 QT
96.651 7.831 95.839 8.644 QT
95.761 8.675 95.714 8.675 QT
95.604 8.675 95.511 8.589 QT
95.417 8.503 95.417 8.409 QT
cp}def
f-1530088755
f
GR
GS
[0.6 0 0 0.60113 302.82301 97.28293] CT
N
/f-2127231060{106.264 4.8 M
106.264 4.097 L
108.327 4.097 108.327 3.456 QT
108.327 -7.528 L
108.327 -8.153 106.264 -8.153 QT
106.264 -8.856 L
116.733 -8.856 L
117.295 -4.278 L
116.717 -4.278 L
116.577 -5.559 116.381 -6.247 QT
116.186 -6.934 115.795 -7.364 QT
115.405 -7.794 114.702 -7.974 QT
113.999 -8.153 112.749 -8.153 QT
111.217 -8.153 L
110.858 -8.153 110.655 -8.13 QT
110.452 -8.106 110.327 -7.966 QT
110.202 -7.825 110.202 -7.528 QT
110.202 3.456 L
110.202 4.097 112.749 4.097 QT
112.749 4.8 L
106.264 4.8 L
cp}def
f-2127231060
f
GR
GS
[0.6 0 0 0.60113 302.82301 97.28293] CT
N
/f598672714{118.811 7.8 M
118.67 7.8 118.67 7.612 QT
118.686 7.581 118.702 7.495 QT
118.717 7.409 118.756 7.355 QT
118.795 7.3 118.858 7.3 QT
119.702 7.3 120.045 7.206 QT
120.233 7.144 120.311 6.831 QT
122.233 -0.856 L
122.264 -0.997 122.264 -1.044 QT
122.264 -1.2 122.092 -1.216 QT
121.827 -1.278 121.077 -1.278 QT
120.952 -1.278 120.952 -1.45 QT
120.952 -1.497 120.975 -1.583 QT
120.999 -1.669 121.03 -1.716 QT
121.061 -1.763 121.124 -1.763 QT
128.717 -1.763 L
128.858 -1.763 128.858 -1.575 QT
128.514 1.316 L
128.514 1.347 128.467 1.394 QT
128.42 1.441 128.374 1.441 QT
128.249 1.441 L
128.108 1.441 128.108 1.269 QT
128.186 0.581 128.186 0.253 QT
128.186 -0.309 127.999 -0.622 QT
127.811 -0.934 127.491 -1.067 QT
127.17 -1.2 126.788 -1.239 QT
126.405 -1.278 125.764 -1.278 QT
124.17 -1.278 L
123.795 -1.278 123.67 -1.208 QT
123.545 -1.138 123.452 -0.794 QT
122.608 2.597 L
123.702 2.597 L
124.405 2.597 124.772 2.495 QT
125.139 2.394 125.35 2.081 QT
125.561 1.769 125.733 1.081 QT
125.749 1.034 125.78 0.995 QT
125.811 0.956 125.874 0.956 QT
125.999 0.956 L
126.139 0.956 126.139 1.128 QT
125.264 4.597 L
125.233 4.722 125.124 4.722 QT
124.999 4.722 L
124.858 4.722 124.858 4.534 QT
124.999 3.972 124.999 3.706 QT
124.999 3.3 124.631 3.191 QT
124.264 3.081 123.639 3.081 QT
122.483 3.081 L
121.53 6.894 L
121.467 7.066 121.467 7.191 QT
121.467 7.3 121.952 7.3 QT
123.639 7.3 L
124.655 7.3 125.288 7.144 QT
125.92 6.987 126.334 6.644 QT
126.749 6.3 127.045 5.769 QT
127.342 5.237 127.78 4.222 QT
127.795 4.128 127.889 4.128 QT
128.03 4.128 L
128.077 4.128 128.124 4.175 QT
128.17 4.222 128.17 4.284 QT
128.17 4.316 128.155 4.347 QT
126.702 7.722 L
126.686 7.8 126.592 7.8 QT
118.811 7.8 L
cp}def
f598672714
f
GR
GS
[0.6 0 0 0.60113 302.82301 97.28293] CT
N
/f-753596519{137.352 2.144 M
137.196 2.144 137.086 2.019 QT
136.977 1.894 136.977 1.737 QT
136.977 1.581 137.086 1.464 QT
137.196 1.347 137.352 1.347 QT
149.914 1.347 L
150.055 1.347 150.164 1.464 QT
150.274 1.581 150.274 1.737 QT
150.274 1.894 150.164 2.019 QT
150.055 2.144 149.914 2.144 QT
137.352 2.144 L
cp
137.352 -1.747 M
137.196 -1.747 137.086 -1.864 QT
136.977 -1.981 136.977 -2.138 QT
136.977 -2.294 137.086 -2.419 QT
137.196 -2.544 137.352 -2.544 QT
149.914 -2.544 L
150.055 -2.544 150.164 -2.419 QT
150.274 -2.294 150.274 -2.138 QT
150.274 -1.981 150.164 -1.864 QT
150.055 -1.747 149.914 -1.747 QT
137.352 -1.747 L
cp}def
f-753596519
f
GR
GS
[0.6 0 0 0.60113 302.82301 97.28293] CT
N
/f968933090{161.963 5.237 M
159.51 5.237 158.627 3.222 QT
157.744 1.206 157.744 -1.575 QT
157.744 -3.309 158.064 -4.849 QT
158.385 -6.388 159.322 -7.458 QT
160.26 -8.528 161.963 -8.528 QT
163.275 -8.528 164.119 -7.88 QT
164.963 -7.231 165.4 -6.208 QT
165.838 -5.184 166.002 -4.02 QT
166.166 -2.856 166.166 -1.575 QT
166.166 0.144 165.846 1.644 QT
165.525 3.144 164.596 4.191 QT
163.666 5.237 161.963 5.237 QT
cp
161.963 4.722 M
163.072 4.722 163.619 3.581 QT
164.166 2.441 164.299 1.05 QT
164.432 -0.341 164.432 -1.903 QT
164.432 -3.403 164.299 -4.677 QT
164.166 -5.95 163.627 -6.974 QT
163.088 -7.997 161.963 -7.997 QT
160.838 -7.997 160.291 -6.966 QT
159.744 -5.934 159.611 -4.669 QT
159.478 -3.403 159.478 -1.903 QT
159.478 -0.794 159.533 0.198 QT
159.588 1.191 159.822 2.237 QT
160.057 3.284 160.58 4.003 QT
161.103 4.722 161.963 4.722 QT
cp}def
f968933090
f
GR
GS
[0.6 0 0 0.60113 302.82301 97.28293] CT
N
/f2121906588{178.52 5.019 M
177.333 5.019 176.356 4.378 QT
175.38 3.737 174.84 2.698 QT
174.301 1.659 174.301 0.487 QT
174.301 -0.731 174.887 -1.77 QT
175.473 -2.809 176.489 -3.427 QT
177.505 -4.044 178.723 -4.044 QT
179.458 -4.044 180.114 -3.731 QT
180.77 -3.419 181.255 -2.872 QT
181.255 -7.044 L
181.255 -7.575 181.09 -7.817 QT
180.926 -8.059 180.63 -8.106 QT
180.333 -8.153 179.692 -8.153 QT
179.692 -8.856 L
182.661 -9.075 L
182.661 2.987 L
182.661 3.503 182.817 3.745 QT
182.973 3.987 183.27 4.042 QT
183.567 4.097 184.208 4.097 QT
184.208 4.8 L
181.192 5.019 L
181.192 3.769 L
180.676 4.362 179.958 4.691 QT
179.239 5.019 178.52 5.019 QT
cp
176.473 3.066 M
176.817 3.722 177.387 4.112 QT
177.958 4.503 178.63 4.503 QT
179.458 4.503 180.153 4.019 QT
180.848 3.534 181.192 2.784 QT
181.192 -2.013 L
180.958 -2.45 180.598 -2.802 QT
180.239 -3.153 179.794 -3.341 QT
179.348 -3.528 178.848 -3.528 QT
177.817 -3.528 177.176 -2.934 QT
176.536 -2.341 176.286 -1.419 QT
176.036 -0.497 176.036 0.503 QT
176.036 1.3 176.114 1.894 QT
176.192 2.487 176.473 3.066 QT
cp}def
f2121906588
f
GR
GS
[0.6 0 0 0.60113 302.82301 97.28293] CT
N
/f-2041768346{185.428 4.8 M
185.428 4.097 L
187.491 4.097 187.491 3.456 QT
187.491 -7.528 L
187.491 -8.153 185.428 -8.153 QT
185.428 -8.856 L
192.772 -8.856 L
193.788 -8.856 194.827 -8.466 QT
195.866 -8.075 196.545 -7.294 QT
197.225 -6.513 197.225 -5.466 QT
197.225 -4.247 196.225 -3.419 QT
195.225 -2.591 193.881 -2.341 QT
194.756 -2.341 195.67 -1.864 QT
196.584 -1.388 197.17 -0.583 QT
197.756 0.222 197.756 1.112 QT
197.756 2.206 197.108 3.05 QT
196.459 3.894 195.428 4.347 QT
194.397 4.8 193.35 4.8 QT
185.428 4.8 L
cp
189.225 3.456 M
189.225 3.894 189.467 3.995 QT
189.709 4.097 190.241 4.097 QT
192.772 4.097 L
193.553 4.097 194.225 3.683 QT
194.897 3.269 195.288 2.581 QT
195.678 1.894 195.678 1.112 QT
195.678 0.362 195.358 -0.372 QT
195.038 -1.106 194.436 -1.575 QT
193.834 -2.044 193.069 -2.044 QT
189.225 -2.044 L
189.225 3.456 L
cp
189.225 -2.559 M
192.225 -2.559 L
192.834 -2.559 193.366 -2.778 QT
193.897 -2.997 194.319 -3.419 QT
194.741 -3.841 194.967 -4.356 QT
195.194 -4.872 195.194 -5.466 QT
195.194 -5.981 195.03 -6.458 QT
194.866 -6.934 194.53 -7.325 QT
194.194 -7.716 193.749 -7.934 QT
193.303 -8.153 192.772 -8.153 QT
190.241 -8.153 L
189.881 -8.153 189.678 -8.13 QT
189.475 -8.106 189.35 -7.966 QT
189.225 -7.825 189.225 -7.528 QT
189.225 -2.559 L
cp}def
f-2041768346
f
GR
GS
[0.6 0 0 0.60113 0 -0.39999] CT
0.851 0.325 0.098 RC
1 LJ
2.5 LW
N
450.996 162.5 M
500.958 162.5 L
S
GR
GS
[0.6 0 0 0.60113 285.58622 97.28293] CT
0.851 0.325 0.098 RC
10.0 ML
2.5 LW
N
0 -5 M
0 5 L
-5 0 M
5 0 L
-3.536 -3.536 M
3.536 3.536 L
-3.536 3.536 M
3.536 -3.536 L
S
GR
GS
[0.6 0 0 0.60113 302.82301 112.22753] CT
N
f971893044
f
GR
GS
[0.6 0 0 0.60113 302.82301 112.22753] CT
N
f-1202328363
f
GR
GS
[0.6 0 0 0.60113 302.82301 112.22753] CT
N
f-375580431
f
GR
GS
[0.6 0 0 0.60113 302.82301 112.22753] CT
N
f440654855
f
GR
GS
[0.6 0 0 0.60113 302.82301 112.22753] CT
N
f-309366413
f
GR
GS
[0.6 0 0 0.60113 302.82301 112.22753] CT
N
f439055052
f
GR
GS
[0.6 0 0 0.60113 302.82301 112.22753] CT
N
f-1530088755
f
GR
GS
[0.6 0 0 0.60113 302.82301 112.22753] CT
N
f-2127231060
f
GR
GS
[0.6 0 0 0.60113 302.82301 112.22753] CT
N
f598672714
f
GR
GS
[0.6 0 0 0.60113 302.82301 112.22753] CT
N
f-753596519
f
GR
GS
[0.6 0 0 0.60113 302.82301 112.22753] CT
N
/f-1157931006{158.697 2.519 M
158.9 3.112 159.33 3.589 QT
159.76 4.066 160.338 4.331 QT
160.916 4.597 161.541 4.597 QT
162.994 4.597 163.541 3.48 QT
164.088 2.362 164.088 0.753 QT
164.088 0.066 164.064 -0.411 QT
164.041 -0.888 163.932 -1.325 QT
163.744 -2.028 163.275 -2.552 QT
162.807 -3.075 162.135 -3.075 QT
161.463 -3.075 160.978 -2.872 QT
160.494 -2.669 160.197 -2.395 QT
159.9 -2.122 159.666 -1.817 QT
159.432 -1.513 159.369 -1.497 QT
159.135 -1.497 L
159.088 -1.497 159.018 -1.559 QT
158.947 -1.622 158.947 -1.684 QT
158.947 -8.372 L
158.947 -8.419 159.01 -8.474 QT
159.072 -8.528 159.135 -8.528 QT
159.197 -8.528 L
160.541 -7.872 162.057 -7.872 QT
163.541 -7.872 164.916 -8.528 QT
164.978 -8.528 L
165.057 -8.528 165.111 -8.474 QT
165.166 -8.419 165.166 -8.372 QT
165.166 -8.184 L
165.166 -8.075 165.135 -8.075 QT
164.447 -7.169 163.416 -6.661 QT
162.385 -6.153 161.275 -6.153 QT
160.478 -6.153 159.635 -6.388 QT
159.635 -2.606 L
160.307 -3.138 160.83 -3.372 QT
161.353 -3.606 162.166 -3.606 QT
163.26 -3.606 164.135 -2.966 QT
165.01 -2.325 165.478 -1.309 QT
165.947 -0.294 165.947 0.769 QT
165.947 1.972 165.353 3.003 QT
164.76 4.034 163.744 4.636 QT
162.728 5.237 161.541 5.237 QT
160.557 5.237 159.728 4.73 QT
158.9 4.222 158.432 3.362 QT
157.963 2.503 157.963 1.534 QT
157.963 1.081 158.252 0.8 QT
158.541 0.519 158.978 0.519 QT
159.432 0.519 159.728 0.808 QT
160.025 1.097 160.025 1.534 QT
160.025 1.972 159.728 2.269 QT
159.432 2.566 158.978 2.566 QT
158.916 2.566 158.83 2.55 QT
158.744 2.534 158.697 2.519 QT
cp}def
f-1157931006
f
GR
GS
[0.6 0 0 0.60113 302.82301 112.22753] CT
N
f2121906588
f
GR
GS
[0.6 0 0 0.60113 302.82301 112.22753] CT
N
f-2041768346
f
GR
GS
[0.6 0 0 0.60113 0 -0.39999] CT
0.929 0.694 0.125 RC
1 LJ
2.5 LW
N
450.996 187.361 M
500.958 187.361 L
S
GR
GS
[0.6 0 0 0.60113 285.58622 112.22753] CT
0.929 0.694 0.125 RC
10.0 ML
2.5 LW
N
4.5 -0.5 M
4.5 -3.261 2.261 -5.5 -0.5 -5.5 C
-3.261 -5.5 -5.5 -3.261 -5.5 -0.5 C
-5.5 2.261 -3.261 4.5 -0.5 4.5 C
2.261 4.5 4.5 2.261 4.5 -0.5 C
S
GR
GS
[0.6 0 0 0.60113 0 -0.39999] CT
0.149 GC
10.0 ML
0.833 LW
N
446 202 M
446 123 L
724 123 L
724 202 L
cp
S
GR
%%Trailer
%%Pages: 1
%%EOF
