%!PS-Adobe-3.0 EPSF-3.0
%%Creator: (MATLAB, The Mathworks, Inc. Version 9.2.0.538062 \(R2017a\). Operating System: Windows 8)
%%Title: C:/Users/chees/Documents/DottoratoLoc/GNSS/authProtocol/latex/figures/feaGauss.eps
%%CreationDate: 2017-11-20T08:16:06
%%Pages: (atend)
%%BoundingBox: 0 0 284 284
%%LanguageLevel: 3
%%EndComments
%%BeginProlog
%%BeginResource: procset (Apache XML Graphics Std ProcSet) 1.2 0
%%Version: 1.2 0
%%Copyright: (Copyright 2001-2003,2010 The Apache Software Foundation. License terms: http://www.apache.org/licenses/LICENSE-2.0)
/bd{bind def}bind def
/ld{load def}bd
/GR/grestore ld
/M/moveto ld
/LJ/setlinejoin ld
/C/curveto ld
/f/fill ld
/LW/setlinewidth ld
/GC/setgray ld
/t/show ld
/N/newpath ld
/CT/concat ld
/cp/closepath ld
/S/stroke ld
/L/lineto ld
/CC/setcmykcolor ld
/A/ashow ld
/GS/gsave ld
/RC/setrgbcolor ld
/RM/rmoveto ld
/ML/setmiterlimit ld
/re {4 2 roll M
1 index 0 rlineto
0 exch rlineto
neg 0 rlineto
cp } bd
/_ctm matrix def
/_tm matrix def
/BT { _ctm currentmatrix pop matrix _tm copy pop 0 0 moveto } bd
/ET { _ctm setmatrix } bd
/iTm { _ctm setmatrix _tm concat } bd
/Tm { _tm astore pop iTm 0 0 moveto } bd
/ux 0.0 def
/uy 0.0 def
/F {
  /Tp exch def
  /Tf exch def
  Tf findfont Tp scalefont setfont
  /cf Tf def  /cs Tp def
} bd
/ULS {currentpoint /uy exch def /ux exch def} bd
/ULE {
  /Tcx currentpoint pop def
  gsave
  newpath
  cf findfont cs scalefont dup
  /FontMatrix get 0 get /Ts exch def /FontInfo get dup
  /UnderlinePosition get Ts mul /To exch def
  /UnderlineThickness get Ts mul /Tt exch def
  ux uy To add moveto  Tcx uy To add lineto
  Tt setlinewidth stroke
  grestore
} bd
/OLE {
  /Tcx currentpoint pop def
  gsave
  newpath
  cf findfont cs scalefont dup
  /FontMatrix get 0 get /Ts exch def /FontInfo get dup
  /UnderlinePosition get Ts mul /To exch def
  /UnderlineThickness get Ts mul /Tt exch def
  ux uy To add cs add moveto Tcx uy To add cs add lineto
  Tt setlinewidth stroke
  grestore
} bd
/SOE {
  /Tcx currentpoint pop def
  gsave
  newpath
  cf findfont cs scalefont dup
  /FontMatrix get 0 get /Ts exch def /FontInfo get dup
  /UnderlinePosition get Ts mul /To exch def
  /UnderlineThickness get Ts mul /Tt exch def
  ux uy To add cs 10 mul 26 idiv add moveto Tcx uy To add cs 10 mul 26 idiv add lineto
  Tt setlinewidth stroke
  grestore
} bd
/QT {
/Y22 exch store
/X22 exch store
/Y21 exch store
/X21 exch store
currentpoint
/Y21 load 2 mul add 3 div exch
/X21 load 2 mul add 3 div exch
/X21 load 2 mul /X22 load add 3 div
/Y21 load 2 mul /Y22 load add 3 div
/X22 load /Y22 load curveto
} bd
/SSPD {
dup length /d exch dict def
{
/v exch def
/k exch def
currentpagedevice k known {
/cpdv currentpagedevice k get def
v cpdv ne {
/upd false def
/nullv v type /nulltype eq def
/nullcpdv cpdv type /nulltype eq def
nullv nullcpdv or
{
/upd true def
} {
/sametype v type cpdv type eq def
sametype {
v type /arraytype eq {
/vlen v length def
/cpdvlen cpdv length def
vlen cpdvlen eq {
0 1 vlen 1 sub {
/i exch def
/obj v i get def
/cpdobj cpdv i get def
obj cpdobj ne {
/upd true def
exit
} if
} for
} {
/upd true def
} ifelse
} {
v type /dicttype eq {
v {
/dv exch def
/dk exch def
/cpddv cpdv dk get def
dv cpddv ne {
/upd true def
exit
} if
} forall
} {
/upd true def
} ifelse
} ifelse
} if
} ifelse
upd true eq {
d k v put
} if
} if
} if
} forall
d length 0 gt {
d setpagedevice
} if
} bd
/RE { % /NewFontName [NewEncodingArray] /FontName RE -
  findfont dup length dict begin
  {
    1 index /FID ne
    {def} {pop pop} ifelse
  } forall
  /Encoding exch def
  /FontName 1 index def
  currentdict definefont pop
  end
} bind def
%%EndResource
%%BeginResource: procset (Apache XML Graphics EPS ProcSet) 1.0 0
%%Version: 1.0 0
%%Copyright: (Copyright 2002-2003 The Apache Software Foundation. License terms: http://www.apache.org/licenses/LICENSE-2.0)
/BeginEPSF { %def
/b4_Inc_state save def         % Save state for cleanup
/dict_count countdictstack def % Count objects on dict stack
/op_count count 1 sub def      % Count objects on operand stack
userdict begin                 % Push userdict on dict stack
/showpage { } def              % Redefine showpage, { } = null proc
0 setgray 0 setlinecap         % Prepare graphics state
1 setlinewidth 0 setlinejoin
10 setmiterlimit [ ] 0 setdash newpath
/languagelevel where           % If level not equal to 1 then
{pop languagelevel             % set strokeadjust and
1 ne                           % overprint to their defaults.
{false setstrokeadjust false setoverprint
} if
} if
} bd
/EndEPSF { %def
count op_count sub {pop} repeat            % Clean up stacks
countdictstack dict_count sub {end} repeat
b4_Inc_state restore
} bd
%%EndResource
%FOPBeginFontDict
%%IncludeResource: font Courier-Bold
%%IncludeResource: font Helvetica
%%IncludeResource: font Courier-BoldOblique
%%IncludeResource: font Courier-Oblique
%%IncludeResource: font Times-Roman
%%IncludeResource: font Helvetica-BoldOblique
%%IncludeResource: font Helvetica-Bold
%%IncludeResource: font Helvetica-Oblique
%%IncludeResource: font Times-BoldItalic
%%IncludeResource: font Courier
%%IncludeResource: font Times-Italic
%%IncludeResource: font Times-Bold
%%IncludeResource: font Symbol
%%IncludeResource: font ZapfDingbats
%FOPEndFontDict
%%BeginResource: encoding WinAnsiEncoding
/WinAnsiEncoding [
/.notdef /.notdef /.notdef /.notdef /.notdef
/.notdef /.notdef /.notdef /.notdef /.notdef
/.notdef /.notdef /.notdef /.notdef /.notdef
/.notdef /.notdef /.notdef /.notdef /.notdef
/.notdef /.notdef /.notdef /.notdef /.notdef
/.notdef /.notdef /.notdef /.notdef /.notdef
/.notdef /.notdef /space /exclam /quotedbl
/numbersign /dollar /percent /ampersand /quotesingle
/parenleft /parenright /asterisk /plus /comma
/hyphen /period /slash /zero /one
/two /three /four /five /six
/seven /eight /nine /colon /semicolon
/less /equal /greater /question /at
/A /B /C /D /E
/F /G /H /I /J
/K /L /M /N /O
/P /Q /R /S /T
/U /V /W /X /Y
/Z /bracketleft /backslash /bracketright /asciicircum
/underscore /quoteleft /a /b /c
/d /e /f /g /h
/i /j /k /l /m
/n /o /p /q /r
/s /t /u /v /w
/x /y /z /braceleft /bar
/braceright /asciitilde /bullet /Euro /bullet
/quotesinglbase /florin /quotedblbase /ellipsis /dagger
/daggerdbl /circumflex /perthousand /Scaron /guilsinglleft
/OE /bullet /Zcaron /bullet /bullet
/quoteleft /quoteright /quotedblleft /quotedblright /bullet
/endash /emdash /asciitilde /trademark /scaron
/guilsinglright /oe /bullet /zcaron /Ydieresis
/space /exclamdown /cent /sterling /currency
/yen /brokenbar /section /dieresis /copyright
/ordfeminine /guillemotleft /logicalnot /sfthyphen /registered
/macron /degree /plusminus /twosuperior /threesuperior
/acute /mu /paragraph /middot /cedilla
/onesuperior /ordmasculine /guillemotright /onequarter /onehalf
/threequarters /questiondown /Agrave /Aacute /Acircumflex
/Atilde /Adieresis /Aring /AE /Ccedilla
/Egrave /Eacute /Ecircumflex /Edieresis /Igrave
/Iacute /Icircumflex /Idieresis /Eth /Ntilde
/Ograve /Oacute /Ocircumflex /Otilde /Odieresis
/multiply /Oslash /Ugrave /Uacute /Ucircumflex
/Udieresis /Yacute /Thorn /germandbls /agrave
/aacute /acircumflex /atilde /adieresis /aring
/ae /ccedilla /egrave /eacute /ecircumflex
/edieresis /igrave /iacute /icircumflex /idieresis
/eth /ntilde /ograve /oacute /ocircumflex
/otilde /odieresis /divide /oslash /ugrave
/uacute /ucircumflex /udieresis /yacute /thorn
/ydieresis
] def
%%EndResource
%FOPBeginFontReencode
/Courier-Bold findfont
dup length dict begin
  {1 index /FID ne {def} {pop pop} ifelse} forall
  /Encoding WinAnsiEncoding def
  currentdict
end
/Courier-Bold exch definefont pop
/Helvetica findfont
dup length dict begin
  {1 index /FID ne {def} {pop pop} ifelse} forall
  /Encoding WinAnsiEncoding def
  currentdict
end
/Helvetica exch definefont pop
/Courier-BoldOblique findfont
dup length dict begin
  {1 index /FID ne {def} {pop pop} ifelse} forall
  /Encoding WinAnsiEncoding def
  currentdict
end
/Courier-BoldOblique exch definefont pop
/Courier-Oblique findfont
dup length dict begin
  {1 index /FID ne {def} {pop pop} ifelse} forall
  /Encoding WinAnsiEncoding def
  currentdict
end
/Courier-Oblique exch definefont pop
/Times-Roman findfont
dup length dict begin
  {1 index /FID ne {def} {pop pop} ifelse} forall
  /Encoding WinAnsiEncoding def
  currentdict
end
/Times-Roman exch definefont pop
/Helvetica-BoldOblique findfont
dup length dict begin
  {1 index /FID ne {def} {pop pop} ifelse} forall
  /Encoding WinAnsiEncoding def
  currentdict
end
/Helvetica-BoldOblique exch definefont pop
/Helvetica-Bold findfont
dup length dict begin
  {1 index /FID ne {def} {pop pop} ifelse} forall
  /Encoding WinAnsiEncoding def
  currentdict
end
/Helvetica-Bold exch definefont pop
/Helvetica-Oblique findfont
dup length dict begin
  {1 index /FID ne {def} {pop pop} ifelse} forall
  /Encoding WinAnsiEncoding def
  currentdict
end
/Helvetica-Oblique exch definefont pop
/Times-BoldItalic findfont
dup length dict begin
  {1 index /FID ne {def} {pop pop} ifelse} forall
  /Encoding WinAnsiEncoding def
  currentdict
end
/Times-BoldItalic exch definefont pop
/Courier findfont
dup length dict begin
  {1 index /FID ne {def} {pop pop} ifelse} forall
  /Encoding WinAnsiEncoding def
  currentdict
end
/Courier exch definefont pop
/Times-Italic findfont
dup length dict begin
  {1 index /FID ne {def} {pop pop} ifelse} forall
  /Encoding WinAnsiEncoding def
  currentdict
end
/Times-Italic exch definefont pop
/Times-Bold findfont
dup length dict begin
  {1 index /FID ne {def} {pop pop} ifelse} forall
  /Encoding WinAnsiEncoding def
  currentdict
end
/Times-Bold exch definefont pop
%FOPEndFontReencode
%%EndProlog
%%Page: 1 1
%%PageBoundingBox: 0 0 284 284
%%BeginPageSetup
[1 0 0 -1 0 284] CT
%%EndPageSetup
GS
[0.60127 0 0 0.60127 0 0.20001] CT
N
0 0 M
472 0 L
472 472 L
0 472 L
0 0 L
cp
clip
1 GC
N
0 0 472 472 re
f
GR
GS
[0.60127 0 0 0.60127 0 0.20001] CT
1 GC
N
0 0 472 472 re
f
GR
GS
[0.60127 0 0 0.60127 0 0.20001] CT
1 GC
N
78 415 M
428 415 L
428 35 L
78 35 L
cp
f
GR
GS
[0.60127 0 0 0.60127 0 0.20001] CT
0.873 GC
1 LJ
0.833 LW
N
151.684 415 M
151.684 35 L
S
GR
GS
[0.60127 0 0 0.60127 0 0.20001] CT
0.873 GC
1 LJ
0.833 LW
N
243.789 415 M
243.789 35 L
S
GR
GS
[0.60127 0 0 0.60127 0 0.20001] CT
0.873 GC
1 LJ
0.833 LW
N
335.895 415 M
335.895 35 L
S
GR
GS
[0.60127 0 0 0.60127 0 0.20001] CT
0.873 GC
1 LJ
0.833 LW
N
428 415 M
428 35 L
S
GR
GS
[0.60127 0 0 0.60127 0 0.20001] CT
0.775 GC
[1 3] 0 setdash
2 LJ
0.833 LW
N
428 390.165 M
78 390.165 L
S
GR
GS
[0.60127 0 0 0.60127 0 0.20001] CT
0.775 GC
[1 3] 0 setdash
2 LJ
0.833 LW
N
428 365.33 M
78 365.33 L
S
GR
GS
[0.60127 0 0 0.60127 0 0.20001] CT
0.775 GC
[1 3] 0 setdash
2 LJ
0.833 LW
N
428 340.495 M
78 340.495 L
S
GR
GS
[0.60127 0 0 0.60127 0 0.20001] CT
0.775 GC
[1 3] 0 setdash
2 LJ
0.833 LW
N
428 315.66 M
78 315.66 L
S
GR
GS
[0.60127 0 0 0.60127 0 0.20001] CT
0.775 GC
[1 3] 0 setdash
2 LJ
0.833 LW
N
428 265.99 M
78 265.99 L
S
GR
GS
[0.60127 0 0 0.60127 0 0.20001] CT
0.775 GC
[1 3] 0 setdash
2 LJ
0.833 LW
N
428 241.155 M
78 241.155 L
S
GR
GS
[0.60127 0 0 0.60127 0 0.20001] CT
0.775 GC
[1 3] 0 setdash
2 LJ
0.833 LW
N
428 216.321 M
78 216.321 L
S
GR
GS
[0.60127 0 0 0.60127 0 0.20001] CT
0.775 GC
[1 3] 0 setdash
2 LJ
0.833 LW
N
428 191.486 M
78 191.486 L
S
GR
GS
[0.60127 0 0 0.60127 0 0.20001] CT
0.775 GC
[1 3] 0 setdash
2 LJ
0.833 LW
N
428 141.816 M
78 141.816 L
S
GR
GS
[0.60127 0 0 0.60127 0 0.20001] CT
0.775 GC
[1 3] 0 setdash
2 LJ
0.833 LW
N
428 116.981 M
78 116.981 L
S
GR
GS
[0.60127 0 0 0.60127 0 0.20001] CT
0.775 GC
[1 3] 0 setdash
2 LJ
0.833 LW
N
428 92.146 M
78 92.146 L
S
GR
GS
[0.60127 0 0 0.60127 0 0.20001] CT
0.775 GC
[1 3] 0 setdash
2 LJ
0.833 LW
N
428 67.311 M
78 67.311 L
S
GR
GS
[0.60127 0 0 0.60127 0 0.20001] CT
0.873 GC
1 LJ
0.833 LW
N
428 415 M
78 415 L
S
GR
GS
[0.60127 0 0 0.60127 0 0.20001] CT
0.873 GC
1 LJ
0.833 LW
N
428 290.825 M
78 290.825 L
S
GR
GS
[0.60127 0 0 0.60127 0 0.20001] CT
0.873 GC
1 LJ
0.833 LW
N
428 166.651 M
78 166.651 L
S
GR
GS
[0.60127 0 0 0.60127 0 0.20001] CT
0.873 GC
1 LJ
0.833 LW
N
428 42.476 M
78 42.476 L
S
GR
GS
[0.60127 0 0 0.60127 0 0.20001] CT
0.149 GC
2 setlinecap
1 LJ
0.833 LW
N
78 415 M
428 415 L
S
GR
GS
[0.60127 0 0 0.60127 0 0.20001] CT
0.149 GC
2 setlinecap
1 LJ
0.833 LW
N
78 35 M
428 35 L
S
GR
GS
[0.60127 0 0 0.60127 0 0.20001] CT
0.149 GC
2 setlinecap
1 LJ
0.833 LW
N
151.684 415 M
151.684 411.2 L
S
GR
GS
[0.60127 0 0 0.60127 0 0.20001] CT
0.149 GC
2 setlinecap
1 LJ
0.833 LW
N
243.789 415 M
243.789 411.2 L
S
GR
GS
[0.60127 0 0 0.60127 0 0.20001] CT
0.149 GC
2 setlinecap
1 LJ
0.833 LW
N
335.895 415 M
335.895 411.2 L
S
GR
GS
[0.60127 0 0 0.60127 0 0.20001] CT
0.149 GC
2 setlinecap
1 LJ
0.833 LW
N
428 415 M
428 411.2 L
S
GR
GS
[0.60127 0 0 0.60127 0 0.20001] CT
0.149 GC
2 setlinecap
1 LJ
0.833 LW
N
151.684 35 M
151.684 38.8 L
S
GR
GS
[0.60127 0 0 0.60127 0 0.20001] CT
0.149 GC
2 setlinecap
1 LJ
0.833 LW
N
243.789 35 M
243.789 38.8 L
S
GR
GS
[0.60127 0 0 0.60127 0 0.20001] CT
0.149 GC
2 setlinecap
1 LJ
0.833 LW
N
335.895 35 M
335.895 38.8 L
S
GR
GS
[0.60127 0 0 0.60127 0 0.20001] CT
0.149 GC
2 setlinecap
1 LJ
0.833 LW
N
428 35 M
428 38.8 L
S
GR
GS
[0.60127 0 0 0.60127 91.20334 253.73601] CT
0.149 GC
/Helvetica 16.667 F
GS
[1 0 0 1 0 0] CT
-14.5 18 moveto 
1 -1 scale
(100) t 
GR
GR
GS
[0.60127 0 0 0.60127 146.58358 253.73601] CT
0.149 GC
/Helvetica 16.667 F
GS
[1 0 0 1 0 0] CT
-14.5 18 moveto 
1 -1 scale
(150) t 
GR
GR
GS
[0.60127 0 0 0.60127 201.96382 253.73601] CT
0.149 GC
/Helvetica 16.667 F
GS
[1 0 0 1 0 0] CT
-14.5 18 moveto 
1 -1 scale
(200) t 
GR
GR
GS
[0.60127 0 0 0.60127 257.34406 253.73601] CT
0.149 GC
/Helvetica 16.667 F
GS
[1 0 0 1 0 0] CT
-14.5 18 moveto 
1 -1 scale
(250) t 
GR
GR
GS
[0.60127 0 0 0.60127 152.1217 267.96611] CT
0.149 GC
N
-5.221 19.209 M
-5.221 19.069 -5.206 19.006 QT
-3.487 12.147 L
-3.315 11.506 -3.315 11.022 QT
-3.315 10.037 -3.987 10.037 QT
-4.706 10.037 -5.057 10.897 QT
-5.409 11.756 -5.737 13.069 QT
-5.737 13.131 -5.8 13.17 QT
-5.862 13.209 -5.925 13.209 QT
-6.19 13.209 L
-6.268 13.209 -6.323 13.123 QT
-6.378 13.037 -6.378 12.975 QT
-6.143 11.975 -5.909 11.28 QT
-5.675 10.584 -5.19 10.014 QT
-4.706 9.444 -3.971 9.444 QT
-3.112 9.444 -2.448 9.983 QT
-1.784 10.522 -1.784 11.366 QT
-1.096 10.475 -0.175 9.959 QT
0.747 9.444 1.779 9.444 QT
2.607 9.444 3.2 9.717 QT
3.794 9.991 4.122 10.561 QT
4.45 11.131 4.45 11.912 QT
4.45 12.866 4.029 14.201 QT
3.607 15.537 2.982 17.178 QT
2.654 17.944 2.654 18.569 QT
2.654 19.256 3.185 19.256 QT
4.075 19.256 4.677 18.287 QT
5.279 17.319 5.529 16.225 QT
5.575 16.084 5.716 16.084 QT
5.997 16.084 L
6.075 16.084 6.138 16.139 QT
6.2 16.194 6.2 16.287 QT
6.2 16.303 6.185 16.35 QT
5.872 17.662 5.091 18.764 QT
4.31 19.866 3.138 19.866 QT
2.325 19.866 1.755 19.303 QT
1.185 18.741 1.185 17.944 QT
1.185 17.522 1.357 17.053 QT
1.654 16.303 2.029 15.256 QT
2.404 14.209 2.646 13.256 QT
2.888 12.303 2.888 11.569 QT
2.888 10.928 2.622 10.483 QT
2.357 10.037 1.732 10.037 QT
0.888 10.037 0.185 10.405 QT
-0.518 10.772 -1.05 11.381 QT
-1.581 11.991 -2.018 12.834 QT
-3.581 19.1 L
-3.659 19.412 -3.932 19.639 QT
-4.206 19.866 -4.55 19.866 QT
-4.831 19.866 -5.026 19.686 QT
-5.221 19.506 -5.221 19.209 QT
cp
f
GR
GS
[0.60127 0 0 0.60127 0 0.20001] CT
0.149 GC
2 setlinecap
1 LJ
0.833 LW
N
78 415 M
78 35 L
S
GR
GS
[0.60127 0 0 0.60127 0 0.20001] CT
0.149 GC
2 setlinecap
1 LJ
0.833 LW
N
428 415 M
428 35 L
S
GR
GS
[0.60127 0 0 0.60127 0 0.20001] CT
0.149 GC
2 setlinecap
1 LJ
0.833 LW
N
78 415 M
81.8 415 L
S
GR
GS
[0.60127 0 0 0.60127 0 0.20001] CT
0.149 GC
2 setlinecap
1 LJ
0.833 LW
N
78 290.825 M
81.8 290.825 L
S
GR
GS
[0.60127 0 0 0.60127 0 0.20001] CT
0.149 GC
2 setlinecap
1 LJ
0.833 LW
N
78 166.651 M
81.8 166.651 L
S
GR
GS
[0.60127 0 0 0.60127 0 0.20001] CT
0.149 GC
2 setlinecap
1 LJ
0.833 LW
N
78 42.476 M
81.8 42.476 L
S
GR
GS
[0.60127 0 0 0.60127 0 0.20001] CT
0.149 GC
2 setlinecap
1 LJ
0.833 LW
N
428 415 M
424.2 415 L
S
GR
GS
[0.60127 0 0 0.60127 0 0.20001] CT
0.149 GC
2 setlinecap
1 LJ
0.833 LW
N
428 290.825 M
424.2 290.825 L
S
GR
GS
[0.60127 0 0 0.60127 0 0.20001] CT
0.149 GC
2 setlinecap
1 LJ
0.833 LW
N
428 166.651 M
424.2 166.651 L
S
GR
GS
[0.60127 0 0 0.60127 0 0.20001] CT
0.149 GC
2 setlinecap
1 LJ
0.833 LW
N
428 42.476 M
424.2 42.476 L
S
GR
GS
[0.60127 0 0 0.60127 0 0.20001] CT
0.149 GC
2 setlinecap
1 LJ
0.833 LW
N
78 415 M
79.9 415 L
S
GR
GS
[0.60127 0 0 0.60127 0 0.20001] CT
0.149 GC
2 setlinecap
1 LJ
0.833 LW
N
78 390.165 M
79.9 390.165 L
S
GR
GS
[0.60127 0 0 0.60127 0 0.20001] CT
0.149 GC
2 setlinecap
1 LJ
0.833 LW
N
78 365.33 M
79.9 365.33 L
S
GR
GS
[0.60127 0 0 0.60127 0 0.20001] CT
0.149 GC
2 setlinecap
1 LJ
0.833 LW
N
78 340.495 M
79.9 340.495 L
S
GR
GS
[0.60127 0 0 0.60127 0 0.20001] CT
0.149 GC
2 setlinecap
1 LJ
0.833 LW
N
78 315.66 M
79.9 315.66 L
S
GR
GS
[0.60127 0 0 0.60127 0 0.20001] CT
0.149 GC
2 setlinecap
1 LJ
0.833 LW
N
78 290.825 M
79.9 290.825 L
S
GR
GS
[0.60127 0 0 0.60127 0 0.20001] CT
0.149 GC
2 setlinecap
1 LJ
0.833 LW
N
78 265.99 M
79.9 265.99 L
S
GR
GS
[0.60127 0 0 0.60127 0 0.20001] CT
0.149 GC
2 setlinecap
1 LJ
0.833 LW
N
78 241.155 M
79.9 241.155 L
S
GR
GS
[0.60127 0 0 0.60127 0 0.20001] CT
0.149 GC
2 setlinecap
1 LJ
0.833 LW
N
78 216.321 M
79.9 216.321 L
S
GR
GS
[0.60127 0 0 0.60127 0 0.20001] CT
0.149 GC
2 setlinecap
1 LJ
0.833 LW
N
78 191.486 M
79.9 191.486 L
S
GR
GS
[0.60127 0 0 0.60127 0 0.20001] CT
0.149 GC
2 setlinecap
1 LJ
0.833 LW
N
78 166.651 M
79.9 166.651 L
S
GR
GS
[0.60127 0 0 0.60127 0 0.20001] CT
0.149 GC
2 setlinecap
1 LJ
0.833 LW
N
78 141.816 M
79.9 141.816 L
S
GR
GS
[0.60127 0 0 0.60127 0 0.20001] CT
0.149 GC
2 setlinecap
1 LJ
0.833 LW
N
78 116.981 M
79.9 116.981 L
S
GR
GS
[0.60127 0 0 0.60127 0 0.20001] CT
0.149 GC
2 setlinecap
1 LJ
0.833 LW
N
78 92.146 M
79.9 92.146 L
S
GR
GS
[0.60127 0 0 0.60127 0 0.20001] CT
0.149 GC
2 setlinecap
1 LJ
0.833 LW
N
78 67.311 M
79.9 67.311 L
S
GR
GS
[0.60127 0 0 0.60127 0 0.20001] CT
0.149 GC
2 setlinecap
1 LJ
0.833 LW
N
78 42.476 M
79.9 42.476 L
S
GR
GS
[0.60127 0 0 0.60127 0 0.20001] CT
0.149 GC
2 setlinecap
1 LJ
0.833 LW
N
428 415 M
426.1 415 L
S
GR
GS
[0.60127 0 0 0.60127 0 0.20001] CT
0.149 GC
2 setlinecap
1 LJ
0.833 LW
N
428 390.165 M
426.1 390.165 L
S
GR
GS
[0.60127 0 0 0.60127 0 0.20001] CT
0.149 GC
2 setlinecap
1 LJ
0.833 LW
N
428 365.33 M
426.1 365.33 L
S
GR
GS
[0.60127 0 0 0.60127 0 0.20001] CT
0.149 GC
2 setlinecap
1 LJ
0.833 LW
N
428 340.495 M
426.1 340.495 L
S
GR
GS
[0.60127 0 0 0.60127 0 0.20001] CT
0.149 GC
2 setlinecap
1 LJ
0.833 LW
N
428 315.66 M
426.1 315.66 L
S
GR
GS
[0.60127 0 0 0.60127 0 0.20001] CT
0.149 GC
2 setlinecap
1 LJ
0.833 LW
N
428 290.825 M
426.1 290.825 L
S
GR
GS
[0.60127 0 0 0.60127 0 0.20001] CT
0.149 GC
2 setlinecap
1 LJ
0.833 LW
N
428 265.99 M
426.1 265.99 L
S
GR
GS
[0.60127 0 0 0.60127 0 0.20001] CT
0.149 GC
2 setlinecap
1 LJ
0.833 LW
N
428 241.155 M
426.1 241.155 L
S
GR
GS
[0.60127 0 0 0.60127 0 0.20001] CT
0.149 GC
2 setlinecap
1 LJ
0.833 LW
N
428 216.321 M
426.1 216.321 L
S
GR
GS
[0.60127 0 0 0.60127 0 0.20001] CT
0.149 GC
2 setlinecap
1 LJ
0.833 LW
N
428 191.486 M
426.1 191.486 L
S
GR
GS
[0.60127 0 0 0.60127 0 0.20001] CT
0.149 GC
2 setlinecap
1 LJ
0.833 LW
N
428 166.651 M
426.1 166.651 L
S
GR
GS
[0.60127 0 0 0.60127 0 0.20001] CT
0.149 GC
2 setlinecap
1 LJ
0.833 LW
N
428 141.816 M
426.1 141.816 L
S
GR
GS
[0.60127 0 0 0.60127 0 0.20001] CT
0.149 GC
2 setlinecap
1 LJ
0.833 LW
N
428 116.981 M
426.1 116.981 L
S
GR
GS
[0.60127 0 0 0.60127 0 0.20001] CT
0.149 GC
2 setlinecap
1 LJ
0.833 LW
N
428 92.146 M
426.1 92.146 L
S
GR
GS
[0.60127 0 0 0.60127 0 0.20001] CT
0.149 GC
2 setlinecap
1 LJ
0.833 LW
N
428 67.311 M
426.1 67.311 L
S
GR
GS
[0.60127 0 0 0.60127 0 0.20001] CT
0.149 GC
2 setlinecap
1 LJ
0.833 LW
N
428 42.476 M
426.1 42.476 L
S
GR
GS
[0.60127 0 0 0.60127 19.84195 255.13898] CT
0.149 GC
/Helvetica 16.667 F
GS
[1 0 0 1 0 0] CT
0 0 moveto 
1 -1 scale
(10) t 
GR
GR
GS
[0.60127 0 0 0.60127 31.2661 250.32882] CT
0.149 GC
/Helvetica 13.333 F
GS
[1 0 0 1 0 0] CT
0 0 moveto 
1 -1 scale
(-15) t 
GR
GR
GS
[0.60127 0 0 0.60127 19.84195 180.58136] CT
0.149 GC
/Helvetica 16.667 F
GS
[1 0 0 1 0 0] CT
0 0 moveto 
1 -1 scale
(10) t 
GR
GR
GS
[0.60127 0 0 0.60127 31.2661 175.77119] CT
0.149 GC
/Helvetica 13.333 F
GS
[1 0 0 1 0 0] CT
0 0 moveto 
1 -1 scale
(-10) t 
GR
GR
GS
[0.60127 0 0 0.60127 24.05085 106.02374] CT
0.149 GC
/Helvetica 16.667 F
GS
[1 0 0 1 0 0] CT
0 0 moveto 
1 -1 scale
(10) t 
GR
GR
GS
[0.60127 0 0 0.60127 35.475 101.21357] CT
0.149 GC
/Helvetica 13.333 F
GS
[1 0 0 1 0 0] CT
0 0 moveto 
1 -1 scale
(-5) t 
GR
GR
GS
[0.60127 0 0 0.60127 26.45593 30.86484] CT
0.149 GC
/Helvetica 16.667 F
GS
[1 0 0 1 0 0] CT
0 0 moveto 
1 -1 scale
(10) t 
GR
GR
GS
[0.60127 0 0 0.60127 37.88008 26.05467] CT
0.149 GC
/Helvetica 13.333 F
GS
[1 0 0 1 0 0] CT
0 0 moveto 
1 -1 scale
(0) t 
GR
GR
GS
[0 -0.60127 0.60127 0 17.03601 135.48591] CT
0.149 GC
N
-22.52 -8.4 M
-22.739 -8.4 -22.739 -8.697 QT
-22.739 -8.759 -22.7 -8.9 QT
-22.661 -9.041 -22.606 -9.127 QT
-22.551 -9.213 -22.458 -9.213 QT
-21.051 -9.213 -20.489 -9.369 QT
-20.192 -9.463 -20.067 -9.978 QT
-16.911 -22.619 L
-16.864 -22.838 -16.864 -22.931 QT
-16.864 -23.181 -17.129 -23.213 QT
-17.567 -23.306 -18.786 -23.306 QT
-19.02 -23.306 -19.02 -23.603 QT
-19.004 -23.666 -18.973 -23.806 QT
-18.942 -23.947 -18.879 -24.033 QT
-18.817 -24.119 -18.723 -24.119 QT
-10.786 -24.119 L
-9.692 -24.119 -8.668 -23.728 QT
-7.645 -23.338 -6.997 -22.541 QT
-6.348 -21.744 -6.348 -20.603 QT
-6.348 -19.15 -7.379 -18.002 QT
-8.411 -16.853 -9.942 -16.213 QT
-11.473 -15.572 -12.911 -15.572 QT
-16.645 -15.572 L
-18.051 -9.9 L
-18.098 -9.666 -18.098 -9.572 QT
-18.098 -9.478 -18.067 -9.416 QT
-18.036 -9.353 -17.989 -9.338 QT
-17.942 -9.322 -17.833 -9.306 QT
-17.395 -9.213 -16.161 -9.213 QT
-15.942 -9.213 -15.942 -8.9 QT
-16.02 -8.588 -16.067 -8.494 QT
-16.114 -8.4 -16.333 -8.4 QT
-22.52 -8.4 L
cp
-16.536 -16.259 M
-13.317 -16.259 L
-11.083 -16.259 -9.911 -17.463 QT
-9.317 -18.056 -8.942 -19.181 QT
-8.567 -20.306 -8.567 -21.213 QT
-8.567 -22.353 -9.426 -22.83 QT
-10.286 -23.306 -11.567 -23.306 QT
-13.77 -23.306 L
-14.395 -23.306 -14.598 -23.197 QT
-14.801 -23.088 -14.973 -22.509 QT
-16.536 -16.259 L
cp
f
GR
GS
[0 -0.60127 0.60127 0 17.03601 135.48591] CT
0.149 GC
N
-7.274 -5.884 M
-6.837 -5.15 -5.54 -5.15 QT
-4.977 -5.15 -4.469 -5.338 QT
-3.962 -5.525 -3.633 -5.908 QT
-3.305 -6.291 -3.305 -6.838 QT
-3.305 -7.259 -3.602 -7.525 QT
-3.899 -7.791 -4.321 -7.884 QT
-5.196 -8.056 L
-5.79 -8.197 -6.173 -8.603 QT
-6.555 -9.009 -6.555 -9.588 QT
-6.555 -10.306 -6.165 -10.853 QT
-5.774 -11.4 -5.141 -11.689 QT
-4.508 -11.978 -3.837 -11.978 QT
-3.102 -11.978 -2.532 -11.627 QT
-1.962 -11.275 -1.962 -10.603 QT
-1.962 -10.228 -2.165 -9.947 QT
-2.368 -9.666 -2.743 -9.666 QT
-2.946 -9.666 -3.102 -9.806 QT
-3.258 -9.947 -3.258 -10.15 QT
-3.258 -10.338 -3.149 -10.517 QT
-3.04 -10.697 -2.868 -10.799 QT
-2.696 -10.9 -2.508 -10.9 QT
-2.649 -11.244 -3.032 -11.4 QT
-3.415 -11.556 -3.868 -11.556 QT
-4.274 -11.556 -4.68 -11.392 QT
-5.087 -11.228 -5.329 -10.916 QT
-5.571 -10.603 -5.571 -10.166 QT
-5.571 -9.884 -5.368 -9.666 QT
-5.165 -9.447 -4.868 -9.353 QT
-3.946 -9.166 L
-3.493 -9.072 -3.126 -8.83 QT
-2.758 -8.588 -2.54 -8.228 QT
-2.321 -7.869 -2.321 -7.4 QT
-2.321 -6.806 -2.657 -6.228 QT
-2.993 -5.65 -3.477 -5.306 QT
-4.321 -4.713 -5.555 -4.713 QT
-6.415 -4.713 -7.126 -5.111 QT
-7.837 -5.509 -7.837 -6.275 QT
-7.837 -6.713 -7.579 -7.041 QT
-7.321 -7.369 -6.883 -7.369 QT
-6.633 -7.369 -6.454 -7.213 QT
-6.274 -7.056 -6.274 -6.791 QT
-6.274 -6.431 -6.548 -6.158 QT
-6.821 -5.884 -7.196 -5.884 QT
-7.274 -5.884 L
cp
f
GR
GS
[0 -0.60127 0.60127 0 17.03601 135.48591] CT
0.149 GC
N
0.695 -6.65 M
0.695 -7.166 0.835 -7.72 QT
0.976 -8.275 1.226 -8.947 QT
1.476 -9.619 1.663 -10.119 QT
1.882 -10.713 1.882 -11.088 QT
1.882 -11.556 1.523 -11.556 QT
0.898 -11.556 0.484 -10.908 QT
0.07 -10.259 -0.118 -9.447 QT
-0.149 -9.353 -0.258 -9.353 QT
-0.446 -9.353 L
-0.571 -9.353 -0.571 -9.494 QT
-0.571 -9.541 L
-0.321 -10.494 0.21 -11.236 QT
0.742 -11.978 1.554 -11.978 QT
2.132 -11.978 2.523 -11.603 QT
2.913 -11.228 2.913 -10.65 QT
2.913 -10.353 2.788 -10.025 QT
2.71 -9.822 2.46 -9.166 QT
2.21 -8.509 2.077 -8.08 QT
1.945 -7.65 1.859 -7.236 QT
1.773 -6.822 1.773 -6.416 QT
1.773 -5.884 1.999 -5.517 QT
2.226 -5.15 2.742 -5.15 QT
3.757 -5.15 4.538 -6.416 QT
4.554 -6.478 4.562 -6.533 QT
4.57 -6.588 4.585 -6.65 QT
5.726 -11.291 L
5.788 -11.494 5.984 -11.65 QT
6.179 -11.806 6.398 -11.806 QT
6.601 -11.806 6.742 -11.681 QT
6.882 -11.556 6.882 -11.353 QT
6.882 -11.259 6.867 -11.228 QT
5.71 -6.619 L
5.601 -6.134 5.601 -5.838 QT
5.601 -5.15 6.07 -5.15 QT
6.585 -5.15 6.835 -5.783 QT
7.085 -6.416 7.273 -7.259 QT
7.304 -7.353 7.398 -7.353 QT
7.585 -7.353 L
7.648 -7.353 7.687 -7.299 QT
7.726 -7.244 7.726 -7.197 QT
7.554 -6.509 7.398 -6.017 QT
7.242 -5.525 6.898 -5.119 QT
6.554 -4.713 6.038 -4.713 QT
5.523 -4.713 5.124 -4.994 QT
4.726 -5.275 4.585 -5.759 QT
4.21 -5.291 3.726 -5.002 QT
3.242 -4.713 2.71 -4.713 QT
1.788 -4.713 1.242 -5.22 QT
0.695 -5.728 0.695 -6.65 QT
cp
f
GR
GS
[0 -0.60127 0.60127 0 17.03601 135.48591] CT
0.149 GC
N
10.217 -6.806 M
10.217 -6.119 10.576 -5.634 QT
10.935 -5.15 11.592 -5.15 QT
12.545 -5.15 13.428 -5.588 QT
14.31 -6.025 14.857 -6.791 QT
14.904 -6.838 14.982 -6.838 QT
15.06 -6.838 15.146 -6.752 QT
15.232 -6.666 15.232 -6.588 QT
15.232 -6.525 15.201 -6.494 QT
14.607 -5.666 13.615 -5.189 QT
12.623 -4.713 11.56 -4.713 QT
10.795 -4.713 10.209 -5.08 QT
9.623 -5.447 9.303 -6.056 QT
8.982 -6.666 8.982 -7.431 QT
8.982 -8.509 9.584 -9.572 QT
10.185 -10.634 11.185 -11.306 QT
12.185 -11.978 13.295 -11.978 QT
14.014 -11.978 14.584 -11.627 QT
15.154 -11.275 15.154 -10.603 QT
15.154 -10.166 14.904 -9.853 QT
14.654 -9.541 14.217 -9.541 QT
13.967 -9.541 13.787 -9.705 QT
13.607 -9.869 13.607 -10.119 QT
13.607 -10.494 13.881 -10.759 QT
14.154 -11.025 14.529 -11.025 QT
14.56 -11.025 L
14.373 -11.306 14.014 -11.431 QT
13.654 -11.556 13.279 -11.556 QT
12.342 -11.556 11.639 -10.759 QT
10.935 -9.963 10.576 -8.845 QT
10.217 -7.728 10.217 -6.806 QT
cp
f
GR
GS
[0 -0.60127 0.60127 0 17.03601 135.48591] CT
0.149 GC
N
17.285 -6.806 M
17.285 -6.119 17.644 -5.634 QT
18.004 -5.15 18.66 -5.15 QT
19.613 -5.15 20.496 -5.588 QT
21.379 -6.025 21.926 -6.791 QT
21.973 -6.838 22.051 -6.838 QT
22.129 -6.838 22.215 -6.752 QT
22.301 -6.666 22.301 -6.588 QT
22.301 -6.525 22.269 -6.494 QT
21.676 -5.666 20.683 -5.189 QT
19.691 -4.713 18.629 -4.713 QT
17.863 -4.713 17.277 -5.08 QT
16.691 -5.447 16.371 -6.056 QT
16.051 -6.666 16.051 -7.431 QT
16.051 -8.509 16.652 -9.572 QT
17.254 -10.634 18.254 -11.306 QT
19.254 -11.978 20.363 -11.978 QT
21.082 -11.978 21.652 -11.627 QT
22.223 -11.275 22.223 -10.603 QT
22.223 -10.166 21.973 -9.853 QT
21.723 -9.541 21.285 -9.541 QT
21.035 -9.541 20.855 -9.705 QT
20.676 -9.869 20.676 -10.119 QT
20.676 -10.494 20.949 -10.759 QT
21.223 -11.025 21.598 -11.025 QT
21.629 -11.025 L
21.441 -11.306 21.082 -11.431 QT
20.723 -11.556 20.348 -11.556 QT
19.41 -11.556 18.707 -10.759 QT
18.004 -9.963 17.644 -8.845 QT
17.285 -7.728 17.285 -6.806 QT
cp
f
GR
GS
[0.60127 0 0 0.60127 0 0.20001] CT
1 LJ
2.5 LW
N
359.827 415.045 M
359.842 415.009 L
361.684 410.243 L
363.526 405.368 L
365.368 400.36 L
367.211 395.485 L
369.053 390.79 L
370.895 386.043 L
372.737 381.401 L
374.579 376.869 L
376.421 372.346 L
378.263 367.881 L
380.105 363.483 L
381.947 359.133 L
383.789 354.832 L
385.632 350.589 L
387.474 346.398 L
389.316 342.257 L
391.158 338.166 L
393 334.126 L
394.842 330.134 L
396.684 326.191 L
398.526 322.296 L
400.368 318.448 L
402.211 314.647 L
404.053 310.892 L
405.895 307.182 L
407.737 303.517 L
409.579 299.897 L
411.421 296.32 L
413.263 292.786 L
415.105 289.296 L
416.947 285.847 L
418.789 282.44 L
420.632 279.074 L
422.474 275.749 L
424.316 272.463 L
426.158 269.218 L
428 266.011 L
S
GR
GS
[0.60127 0 0 0.60127 0 0.20001] CT
[8 2 4 2] 0 setdash
2 LJ
2.5 LW
N
211.184 415.045 M
212.474 408.803 L
214.316 399.193 L
216.158 389.937 L
218 380.984 L
219.842 372.186 L
221.684 363.564 L
223.526 355.144 L
225.368 346.904 L
227.211 338.845 L
229.053 330.963 L
230.895 323.253 L
232.737 315.713 L
234.579 308.339 L
236.421 301.126 L
238.263 294.073 L
240.105 287.175 L
241.947 280.43 L
243.789 273.834 L
245.632 267.384 L
247.474 261.077 L
249.316 254.911 L
251.158 248.882 L
253 242.989 L
254.842 237.227 L
256.684 231.596 L
258.526 226.091 L
260.368 220.711 L
262.211 215.453 L
264.053 210.315 L
265.895 205.295 L
267.737 200.39 L
269.579 195.598 L
271.421 190.918 L
273.263 186.346 L
275.105 181.881 L
276.947 177.521 L
278.789 173.264 L
280.632 169.108 L
282.474 165.051 L
284.316 161.091 L
286.158 157.228 L
288 153.458 L
289.842 149.78 L
291.684 146.192 L
293.526 142.693 L
295.368 139.282 L
297.211 135.956 L
299.053 132.714 L
300.895 129.555 L
302.737 126.477 L
304.579 123.478 L
306.421 120.558 L
308.263 117.715 L
310.105 114.947 L
311.947 112.253 L
313.789 109.631 L
315.632 107.082 L
317.474 104.602 L
319.316 102.191 L
321.158 99.848 L
323 97.572 L
324.842 95.361 L
326.684 93.213 L
328.526 91.129 L
330.368 89.106 L
332.211 87.145 L
334.053 85.242 L
335.895 83.398 L
337.737 81.611 L
339.579 79.881 L
341.421 78.206 L
343.263 76.585 L
345.105 75.017 L
346.947 73.501 L
348.789 72.036 L
350.632 70.621 L
352.474 69.255 L
354.316 67.938 L
356.158 66.667 L
358 65.442 L
359.842 64.263 L
361.684 63.128 L
363.526 62.036 L
365.368 60.986 L
367.211 59.978 L
369.053 59.01 L
370.895 58.082 L
372.737 57.192 L
374.579 56.339 L
376.421 55.524 L
378.263 54.744 L
380.105 53.999 L
381.947 53.288 L
383.789 52.61 L
385.632 51.964 L
387.474 51.349 L
389.316 50.765 L
391.158 50.21 L
393 49.683 L
394.842 49.184 L
396.684 48.712 L
398.526 48.265 L
400.368 47.844 L
402.211 47.446 L
404.053 47.071 L
405.895 46.719 L
407.737 46.389 L
409.579 46.078 L
411.421 45.788 L
413.263 45.516 L
415.105 45.262 L
416.947 45.026 L
418.789 44.806 L
420.632 44.601 L
422.474 44.411 L
424.316 44.236 L
426.158 44.073 L
428 43.923 L
S
GR
GS
[0.60127 0 0 0.60127 0 0.20001] CT
[8 8] 0 setdash
2 LJ
2.5 LW
N
188.155 415.045 M
188.526 412.844 L
190.368 401.669 L
192.211 391.178 L
194.053 380.681 L
195.895 370.475 L
197.737 360.535 L
199.579 350.843 L
201.421 341.394 L
203.263 332.182 L
205.105 323.199 L
206.947 314.441 L
208.789 305.903 L
210.632 297.58 L
212.474 289.466 L
214.316 281.557 L
216.158 273.848 L
218 266.335 L
219.842 259.013 L
221.684 251.878 L
223.526 244.926 L
225.368 238.153 L
227.211 231.555 L
229.053 225.128 L
230.895 218.869 L
232.737 212.773 L
234.579 206.838 L
236.421 201.059 L
238.263 195.434 L
240.105 189.96 L
241.947 184.632 L
243.789 179.449 L
245.632 174.407 L
247.474 169.503 L
249.316 164.734 L
251.158 160.098 L
253 155.591 L
254.842 151.212 L
256.684 146.957 L
258.526 142.824 L
260.368 138.811 L
262.211 134.915 L
264.053 131.134 L
265.895 127.465 L
267.737 123.906 L
269.579 120.455 L
271.421 117.109 L
273.263 113.868 L
275.105 110.728 L
276.947 107.687 L
278.789 104.744 L
280.632 101.896 L
282.474 99.141 L
284.316 96.479 L
286.158 93.906 L
288 91.42 L
289.842 89.021 L
291.684 86.706 L
293.526 84.474 L
295.368 82.322 L
297.211 80.25 L
299.053 78.254 L
300.895 76.335 L
302.737 74.489 L
304.579 72.716 L
306.421 71.013 L
308.263 69.38 L
310.105 67.814 L
311.947 66.314 L
313.789 64.878 L
315.632 63.505 L
317.474 62.194 L
319.316 60.942 L
321.158 59.748 L
323 58.611 L
324.842 57.529 L
326.684 56.501 L
328.526 55.525 L
330.368 54.599 L
332.211 53.722 L
334.053 52.893 L
335.895 52.11 L
337.737 51.371 L
339.579 50.676 L
341.421 50.022 L
343.263 49.408 L
345.105 48.832 L
346.947 48.293 L
348.789 47.79 L
350.632 47.321 L
352.474 46.885 L
354.316 46.48 L
356.158 46.104 L
358 45.757 L
359.842 45.436 L
361.684 45.141 L
363.526 44.869 L
365.368 44.621 L
367.211 44.393 L
369.053 44.186 L
370.895 43.997 L
372.737 43.826 L
374.579 43.671 L
376.421 43.531 L
378.263 43.405 L
380.105 43.292 L
381.947 43.191 L
383.789 43.101 L
385.632 43.02 L
387.474 42.949 L
389.316 42.886 L
391.158 42.83 L
393 42.781 L
394.842 42.738 L
396.684 42.701 L
398.526 42.668 L
400.368 42.64 L
402.211 42.615 L
404.053 42.594 L
405.895 42.576 L
407.737 42.56 L
409.579 42.547 L
411.421 42.535 L
413.263 42.526 L
415.105 42.517 L
416.947 42.511 L
418.789 42.505 L
420.632 42.5 L
422.474 42.496 L
424.316 42.492 L
426.158 42.489 L
428 42.487 L
S
GR
GS
[0.60127 0 0 0.60127 0 0.20001] CT
[2 2] 0 setdash
2 LJ
2.5 LW
N
114.063 415.045 M
114.842 406.396 L
116.684 385.961 L
118.526 366.636 L
120.368 348.139 L
122.211 330.444 L
124.053 313.524 L
125.895 297.351 L
127.737 281.899 L
129.579 267.142 L
131.421 253.056 L
133.263 239.618 L
135.105 226.806 L
136.947 214.598 L
138.789 202.975 L
140.632 191.916 L
142.474 181.403 L
144.316 171.418 L
146.158 161.942 L
148 152.96 L
149.842 144.455 L
151.684 136.412 L
153.526 128.814 L
155.368 121.648 L
157.211 114.898 L
159.053 108.552 L
160.895 102.595 L
162.737 97.015 L
164.579 91.797 L
166.421 86.931 L
168.263 82.402 L
170.105 78.198 L
171.947 74.308 L
173.789 70.719 L
175.632 67.419 L
177.474 64.396 L
179.316 61.639 L
181.158 59.133 L
183 56.869 L
184.842 54.832 L
186.684 53.01 L
188.526 51.392 L
190.368 49.963 L
192.211 48.711 L
194.053 47.623 L
195.895 46.685 L
197.737 45.885 L
199.579 45.207 L
201.421 44.641 L
203.263 44.173 L
205.105 43.79 L
206.947 43.481 L
208.789 43.235 L
210.632 43.042 L
212.474 42.892 L
214.316 42.778 L
216.158 42.692 L
218 42.629 L
219.842 42.582 L
221.684 42.549 L
223.526 42.525 L
225.368 42.509 L
227.211 42.498 L
229.053 42.49 L
230.895 42.485 L
232.737 42.482 L
234.579 42.48 L
236.421 42.478 L
238.263 42.477 L
240.105 42.477 L
241.947 42.477 L
243.789 42.476 L
245.632 42.476 L
247.474 42.476 L
249.316 42.476 L
251.158 42.476 L
253 42.476 L
254.842 42.476 L
256.684 42.476 L
258.526 42.476 L
260.368 42.476 L
262.211 42.476 L
264.053 42.476 L
265.895 42.476 L
267.737 42.476 L
269.579 42.476 L
271.421 42.476 L
273.263 42.476 L
275.105 42.476 L
276.947 42.476 L
278.789 42.476 L
280.632 42.476 L
282.474 42.476 L
284.316 42.476 L
286.158 42.476 L
288 42.476 L
289.842 42.476 L
291.684 42.476 L
293.526 42.476 L
295.368 42.476 L
297.211 42.476 L
299.053 42.476 L
300.895 42.476 L
302.737 42.476 L
304.579 42.476 L
306.421 42.476 L
308.263 42.476 L
310.105 42.476 L
311.947 42.476 L
313.789 42.476 L
315.632 42.476 L
317.474 42.476 L
319.316 42.476 L
321.158 42.476 L
323 42.476 L
324.842 42.476 L
326.684 42.476 L
328.526 42.476 L
330.368 42.476 L
332.211 42.476 L
334.053 42.476 L
335.895 42.476 L
337.737 42.476 L
339.579 42.476 L
341.421 42.476 L
343.263 42.476 L
345.105 42.476 L
346.947 42.476 L
348.789 42.476 L
350.632 42.476 L
352.474 42.476 L
354.316 42.476 L
356.158 42.476 L
358 42.476 L
359.842 42.476 L
361.684 42.476 L
363.526 42.476 L
365.368 42.476 L
367.211 42.476 L
369.053 42.476 L
370.895 42.476 L
372.737 42.476 L
374.579 42.476 L
376.421 42.476 L
378.263 42.476 L
380.105 42.476 L
381.947 42.476 L
383.789 42.476 L
385.632 42.476 L
387.474 42.476 L
389.316 42.476 L
391.158 42.476 L
393 42.476 L
394.842 42.476 L
396.684 42.476 L
398.526 42.476 L
400.368 42.476 L
402.211 42.476 L
404.053 42.476 L
405.895 42.476 L
407.737 42.476 L
409.579 42.476 L
411.421 42.476 L
413.263 42.476 L
415.105 42.476 L
416.947 42.476 L
418.789 42.476 L
420.632 42.476 L
422.474 42.476 L
424.316 42.476 L
426.158 42.476 L
428 42.476 L
S
GR
GS
[0.60127 0 0 0.60127 0 0.20001] CT
1 GC
N
85 155 M
85 52 L
246 52 L
246 155 L
cp
f
GR
GS
[0.60127 0 0 0.60127 86.33486 40.19514] CT
N
0.609 4.8 M
0.609 4.097 L
2.672 4.097 2.672 3.456 QT
2.672 -7.528 L
2.672 -8.153 0.609 -8.153 QT
0.609 -8.856 L
11.078 -8.856 L
11.641 -4.278 L
11.063 -4.278 L
10.922 -5.559 10.727 -6.247 QT
10.531 -6.934 10.141 -7.364 QT
9.75 -7.794 9.047 -7.974 QT
8.344 -8.153 7.094 -8.153 QT
5.563 -8.153 L
5.203 -8.153 5 -8.13 QT
4.797 -8.106 4.672 -7.966 QT
4.547 -7.825 4.547 -7.528 QT
4.547 3.456 L
4.547 4.097 7.094 4.097 QT
7.094 4.8 L
0.609 4.8 L
cp
f
GR
GS
[0.60127 0 0 0.60127 86.33486 40.19514] CT
N
13.156 7.8 M
13.016 7.8 13.016 7.612 QT
13.031 7.581 13.047 7.495 QT
13.063 7.409 13.102 7.355 QT
13.141 7.3 13.203 7.3 QT
14.047 7.3 14.391 7.206 QT
14.578 7.144 14.656 6.831 QT
16.578 -0.856 L
16.609 -0.997 16.609 -1.044 QT
16.609 -1.2 16.438 -1.216 QT
16.172 -1.278 15.422 -1.278 QT
15.297 -1.278 15.297 -1.45 QT
15.297 -1.497 15.32 -1.583 QT
15.344 -1.669 15.375 -1.716 QT
15.406 -1.763 15.469 -1.763 QT
23.063 -1.763 L
23.203 -1.763 23.203 -1.575 QT
22.859 1.316 L
22.859 1.347 22.813 1.394 QT
22.766 1.441 22.719 1.441 QT
22.594 1.441 L
22.453 1.441 22.453 1.269 QT
22.531 0.581 22.531 0.253 QT
22.531 -0.309 22.344 -0.622 QT
22.156 -0.934 21.836 -1.067 QT
21.516 -1.2 21.133 -1.239 QT
20.75 -1.278 20.109 -1.278 QT
18.516 -1.278 L
18.141 -1.278 18.016 -1.208 QT
17.891 -1.138 17.797 -0.794 QT
16.953 2.597 L
18.047 2.597 L
18.75 2.597 19.117 2.495 QT
19.484 2.394 19.695 2.081 QT
19.906 1.769 20.078 1.081 QT
20.094 1.034 20.125 0.995 QT
20.156 0.956 20.219 0.956 QT
20.344 0.956 L
20.484 0.956 20.484 1.128 QT
19.609 4.597 L
19.578 4.722 19.469 4.722 QT
19.344 4.722 L
19.203 4.722 19.203 4.534 QT
19.344 3.972 19.344 3.706 QT
19.344 3.3 18.977 3.191 QT
18.609 3.081 17.984 3.081 QT
16.828 3.081 L
15.875 6.894 L
15.813 7.066 15.813 7.191 QT
15.813 7.3 16.297 7.3 QT
17.984 7.3 L
19 7.3 19.633 7.144 QT
20.266 6.987 20.68 6.644 QT
21.094 6.3 21.391 5.769 QT
21.688 5.237 22.125 4.222 QT
22.141 4.128 22.234 4.128 QT
22.375 4.128 L
22.422 4.128 22.469 4.175 QT
22.516 4.222 22.516 4.284 QT
22.516 4.316 22.5 4.347 QT
21.047 7.722 L
21.031 7.8 20.938 7.8 QT
13.156 7.8 L
cp
f
GR
GS
[0.60127 0 0 0.60127 86.33486 40.19514] CT
N
31.697 2.144 M
31.541 2.144 31.431 2.019 QT
31.322 1.894 31.322 1.737 QT
31.322 1.581 31.431 1.464 QT
31.541 1.347 31.697 1.347 QT
44.26 1.347 L
44.4 1.347 44.51 1.464 QT
44.619 1.581 44.619 1.737 QT
44.619 1.894 44.51 2.019 QT
44.4 2.144 44.26 2.144 QT
31.697 2.144 L
cp
31.697 -1.747 M
31.541 -1.747 31.431 -1.864 QT
31.322 -1.981 31.322 -2.138 QT
31.322 -2.294 31.431 -2.419 QT
31.541 -2.544 31.697 -2.544 QT
44.26 -2.544 L
44.4 -2.544 44.51 -2.419 QT
44.619 -2.294 44.619 -2.138 QT
44.619 -1.981 44.51 -1.864 QT
44.4 -1.747 44.26 -1.747 QT
31.697 -1.747 L
cp
f
GR
GS
[0.60127 0 0 0.60127 86.33486 40.19514] CT
N
50.753 5.237 M
48.3 5.237 47.417 3.222 QT
46.534 1.206 46.534 -1.575 QT
46.534 -3.309 46.854 -4.849 QT
47.175 -6.388 48.112 -7.458 QT
49.05 -8.528 50.753 -8.528 QT
52.065 -8.528 52.909 -7.88 QT
53.753 -7.231 54.19 -6.208 QT
54.628 -5.184 54.792 -4.02 QT
54.956 -2.856 54.956 -1.575 QT
54.956 0.144 54.635 1.644 QT
54.315 3.144 53.385 4.191 QT
52.456 5.237 50.753 5.237 QT
cp
50.753 4.722 M
51.862 4.722 52.409 3.581 QT
52.956 2.441 53.089 1.05 QT
53.221 -0.341 53.221 -1.903 QT
53.221 -3.403 53.089 -4.677 QT
52.956 -5.95 52.417 -6.974 QT
51.878 -7.997 50.753 -7.997 QT
49.628 -7.997 49.081 -6.966 QT
48.534 -5.934 48.401 -4.669 QT
48.268 -3.403 48.268 -1.903 QT
48.268 -0.794 48.323 0.198 QT
48.378 1.191 48.612 2.237 QT
48.846 3.284 49.37 4.003 QT
49.893 4.722 50.753 4.722 QT
cp
f
GR
GS
[0.60127 0 0 0.60127 86.33486 40.19514] CT
N
67.31 5.019 M
66.122 5.019 65.146 4.378 QT
64.169 3.737 63.63 2.698 QT
63.091 1.659 63.091 0.487 QT
63.091 -0.731 63.677 -1.77 QT
64.263 -2.809 65.279 -3.427 QT
66.294 -4.044 67.513 -4.044 QT
68.247 -4.044 68.904 -3.731 QT
69.56 -3.419 70.044 -2.872 QT
70.044 -7.044 L
70.044 -7.575 69.88 -7.817 QT
69.716 -8.059 69.419 -8.106 QT
69.122 -8.153 68.482 -8.153 QT
68.482 -8.856 L
71.451 -9.075 L
71.451 2.987 L
71.451 3.503 71.607 3.745 QT
71.763 3.987 72.06 4.042 QT
72.357 4.097 72.997 4.097 QT
72.997 4.8 L
69.982 5.019 L
69.982 3.769 L
69.466 4.362 68.747 4.691 QT
68.029 5.019 67.31 5.019 QT
cp
65.263 3.066 M
65.607 3.722 66.177 4.112 QT
66.747 4.503 67.419 4.503 QT
68.247 4.503 68.943 4.019 QT
69.638 3.534 69.982 2.784 QT
69.982 -2.013 L
69.747 -2.45 69.388 -2.802 QT
69.029 -3.153 68.583 -3.341 QT
68.138 -3.528 67.638 -3.528 QT
66.607 -3.528 65.966 -2.934 QT
65.326 -2.341 65.076 -1.419 QT
64.826 -0.497 64.826 0.503 QT
64.826 1.3 64.904 1.894 QT
64.982 2.487 65.263 3.066 QT
cp
f
GR
GS
[0.60127 0 0 0.60127 86.33486 40.19514] CT
N
74.218 4.8 M
74.218 4.097 L
76.281 4.097 76.281 3.456 QT
76.281 -7.528 L
76.281 -8.153 74.218 -8.153 QT
74.218 -8.856 L
81.562 -8.856 L
82.577 -8.856 83.616 -8.466 QT
84.656 -8.075 85.335 -7.294 QT
86.015 -6.513 86.015 -5.466 QT
86.015 -4.247 85.015 -3.419 QT
84.015 -2.591 82.671 -2.341 QT
83.546 -2.341 84.46 -1.864 QT
85.374 -1.388 85.96 -0.583 QT
86.546 0.222 86.546 1.112 QT
86.546 2.206 85.898 3.05 QT
85.249 3.894 84.218 4.347 QT
83.187 4.8 82.14 4.8 QT
74.218 4.8 L
cp
78.015 3.456 M
78.015 3.894 78.257 3.995 QT
78.499 4.097 79.031 4.097 QT
81.562 4.097 L
82.343 4.097 83.015 3.683 QT
83.687 3.269 84.077 2.581 QT
84.468 1.894 84.468 1.112 QT
84.468 0.362 84.148 -0.372 QT
83.827 -1.106 83.226 -1.575 QT
82.624 -2.044 81.859 -2.044 QT
78.015 -2.044 L
78.015 3.456 L
cp
78.015 -2.559 M
81.015 -2.559 L
81.624 -2.559 82.156 -2.778 QT
82.687 -2.997 83.109 -3.419 QT
83.531 -3.841 83.757 -4.356 QT
83.984 -4.872 83.984 -5.466 QT
83.984 -5.981 83.82 -6.458 QT
83.656 -6.934 83.32 -7.325 QT
82.984 -7.716 82.538 -7.934 QT
82.093 -8.153 81.562 -8.153 QT
79.031 -8.153 L
78.671 -8.153 78.468 -8.13 QT
78.265 -8.106 78.14 -7.966 QT
78.015 -7.825 78.015 -7.528 QT
78.015 -2.559 L
cp
f
GR
GS
[0.60127 0 0 0.60127 0 0.20001] CT
1 LJ
2.5 LW
N
89.986 66.518 M
139.848 66.518 L
S
GR
GS
[0.60127 0 0 0.60127 86.33486 55.01943] CT
N
/f971893044{0.609 4.8 M
0.609 4.097 L
2.672 4.097 2.672 3.456 QT
2.672 -7.528 L
2.672 -8.153 0.609 -8.153 QT
0.609 -8.856 L
11.078 -8.856 L
11.641 -4.278 L
11.063 -4.278 L
10.922 -5.559 10.727 -6.247 QT
10.531 -6.934 10.141 -7.364 QT
9.75 -7.794 9.047 -7.974 QT
8.344 -8.153 7.094 -8.153 QT
5.563 -8.153 L
5.203 -8.153 5 -8.13 QT
4.797 -8.106 4.672 -7.966 QT
4.547 -7.825 4.547 -7.528 QT
4.547 3.456 L
4.547 4.097 7.094 4.097 QT
7.094 4.8 L
0.609 4.8 L
cp}def
f971893044
f
GR
GS
[0.60127 0 0 0.60127 86.33486 55.01943] CT
N
/f745021100{13.156 7.8 M
13.016 7.8 13.016 7.612 QT
13.031 7.581 13.047 7.495 QT
13.063 7.409 13.102 7.355 QT
13.141 7.3 13.203 7.3 QT
14.047 7.3 14.391 7.206 QT
14.578 7.144 14.656 6.831 QT
16.578 -0.856 L
16.609 -0.997 16.609 -1.044 QT
16.609 -1.2 16.438 -1.216 QT
16.172 -1.278 15.422 -1.278 QT
15.297 -1.278 15.297 -1.45 QT
15.297 -1.497 15.32 -1.583 QT
15.344 -1.669 15.375 -1.716 QT
15.406 -1.763 15.469 -1.763 QT
23.063 -1.763 L
23.203 -1.763 23.203 -1.575 QT
22.859 1.316 L
22.859 1.347 22.813 1.394 QT
22.766 1.441 22.719 1.441 QT
22.594 1.441 L
22.453 1.441 22.453 1.269 QT
22.531 0.581 22.531 0.253 QT
22.531 -0.309 22.344 -0.622 QT
22.156 -0.934 21.836 -1.067 QT
21.516 -1.2 21.133 -1.239 QT
20.75 -1.278 20.109 -1.278 QT
18.516 -1.278 L
18.141 -1.278 18.016 -1.208 QT
17.891 -1.138 17.797 -0.794 QT
16.953 2.597 L
18.047 2.597 L
18.75 2.597 19.117 2.495 QT
19.484 2.394 19.695 2.081 QT
19.906 1.769 20.078 1.081 QT
20.094 1.034 20.125 0.995 QT
20.156 0.956 20.219 0.956 QT
20.344 0.956 L
20.484 0.956 20.484 1.128 QT
19.609 4.597 L
19.578 4.722 19.469 4.722 QT
19.344 4.722 L
19.203 4.722 19.203 4.534 QT
19.344 3.972 19.344 3.706 QT
19.344 3.3 18.977 3.191 QT
18.609 3.081 17.984 3.081 QT
16.828 3.081 L
15.875 6.894 L
15.813 7.066 15.813 7.191 QT
15.813 7.3 16.297 7.3 QT
17.984 7.3 L
19 7.3 19.633 7.144 QT
20.266 6.987 20.68 6.644 QT
21.094 6.3 21.391 5.769 QT
21.688 5.237 22.125 4.222 QT
22.141 4.128 22.234 4.128 QT
22.375 4.128 L
22.422 4.128 22.469 4.175 QT
22.516 4.222 22.516 4.284 QT
22.516 4.316 22.5 4.347 QT
21.047 7.722 L
21.031 7.8 20.938 7.8 QT
13.156 7.8 L
cp}def
f745021100
f
GR
GS
[0.60127 0 0 0.60127 86.33486 55.01943] CT
N
/f-10812567{31.697 2.144 M
31.541 2.144 31.431 2.019 QT
31.322 1.894 31.322 1.737 QT
31.322 1.581 31.431 1.464 QT
31.541 1.347 31.697 1.347 QT
44.26 1.347 L
44.4 1.347 44.51 1.464 QT
44.619 1.581 44.619 1.737 QT
44.619 1.894 44.51 2.019 QT
44.4 2.144 44.26 2.144 QT
31.697 2.144 L
cp
31.697 -1.747 M
31.541 -1.747 31.431 -1.864 QT
31.322 -1.981 31.322 -2.138 QT
31.322 -2.294 31.431 -2.419 QT
31.541 -2.544 31.697 -2.544 QT
44.26 -2.544 L
44.4 -2.544 44.51 -2.419 QT
44.619 -2.294 44.619 -2.138 QT
44.619 -1.981 44.51 -1.864 QT
44.4 -1.747 44.26 -1.747 QT
31.697 -1.747 L
cp}def
f-10812567
f
GR
GS
[0.60127 0 0 0.60127 86.33486 55.01943] CT
N
/f-135269473{46.315 1.503 M
46.315 0.8 L
52.487 -8.419 L
52.565 -8.528 52.69 -8.528 QT
52.987 -8.528 L
53.221 -8.528 53.221 -8.294 QT
53.221 0.8 L
55.175 0.8 L
55.175 1.503 L
53.221 1.503 L
53.221 3.456 L
53.221 3.878 53.807 3.987 QT
54.393 4.097 55.159 4.097 QT
55.159 4.8 L
49.643 4.8 L
49.643 4.097 L
50.425 4.097 51.01 3.987 QT
51.596 3.878 51.596 3.456 QT
51.596 1.503 L
46.315 1.503 L
cp
46.971 0.8 M
51.706 0.8 L
51.706 -6.278 L
46.971 0.8 L
cp}def
f-135269473
f
GR
GS
[0.60127 0 0 0.60127 86.33486 55.01943] CT
N
/f13838597{67.31 5.019 M
66.122 5.019 65.146 4.378 QT
64.169 3.737 63.63 2.698 QT
63.091 1.659 63.091 0.487 QT
63.091 -0.731 63.677 -1.77 QT
64.263 -2.809 65.279 -3.427 QT
66.294 -4.044 67.513 -4.044 QT
68.247 -4.044 68.904 -3.731 QT
69.56 -3.419 70.044 -2.872 QT
70.044 -7.044 L
70.044 -7.575 69.88 -7.817 QT
69.716 -8.059 69.419 -8.106 QT
69.122 -8.153 68.482 -8.153 QT
68.482 -8.856 L
71.451 -9.075 L
71.451 2.987 L
71.451 3.503 71.607 3.745 QT
71.763 3.987 72.06 4.042 QT
72.357 4.097 72.997 4.097 QT
72.997 4.8 L
69.982 5.019 L
69.982 3.769 L
69.466 4.362 68.747 4.691 QT
68.029 5.019 67.31 5.019 QT
cp
65.263 3.066 M
65.607 3.722 66.177 4.112 QT
66.747 4.503 67.419 4.503 QT
68.247 4.503 68.943 4.019 QT
69.638 3.534 69.982 2.784 QT
69.982 -2.013 L
69.747 -2.45 69.388 -2.802 QT
69.029 -3.153 68.583 -3.341 QT
68.138 -3.528 67.638 -3.528 QT
66.607 -3.528 65.966 -2.934 QT
65.326 -2.341 65.076 -1.419 QT
64.826 -0.497 64.826 0.503 QT
64.826 1.3 64.904 1.894 QT
64.982 2.487 65.263 3.066 QT
cp}def
f13838597
f
GR
GS
[0.60127 0 0 0.60127 86.33486 55.01943] CT
N
/f1852015947{74.218 4.8 M
74.218 4.097 L
76.281 4.097 76.281 3.456 QT
76.281 -7.528 L
76.281 -8.153 74.218 -8.153 QT
74.218 -8.856 L
81.562 -8.856 L
82.577 -8.856 83.616 -8.466 QT
84.656 -8.075 85.335 -7.294 QT
86.015 -6.513 86.015 -5.466 QT
86.015 -4.247 85.015 -3.419 QT
84.015 -2.591 82.671 -2.341 QT
83.546 -2.341 84.46 -1.864 QT
85.374 -1.388 85.96 -0.583 QT
86.546 0.222 86.546 1.112 QT
86.546 2.206 85.898 3.05 QT
85.249 3.894 84.218 4.347 QT
83.187 4.8 82.14 4.8 QT
74.218 4.8 L
cp
78.015 3.456 M
78.015 3.894 78.257 3.995 QT
78.499 4.097 79.031 4.097 QT
81.562 4.097 L
82.343 4.097 83.015 3.683 QT
83.687 3.269 84.077 2.581 QT
84.468 1.894 84.468 1.112 QT
84.468 0.362 84.148 -0.372 QT
83.827 -1.106 83.226 -1.575 QT
82.624 -2.044 81.859 -2.044 QT
78.015 -2.044 L
78.015 3.456 L
cp
78.015 -2.559 M
81.015 -2.559 L
81.624 -2.559 82.156 -2.778 QT
82.687 -2.997 83.109 -3.419 QT
83.531 -3.841 83.757 -4.356 QT
83.984 -4.872 83.984 -5.466 QT
83.984 -5.981 83.82 -6.458 QT
83.656 -6.934 83.32 -7.325 QT
82.984 -7.716 82.538 -7.934 QT
82.093 -8.153 81.562 -8.153 QT
79.031 -8.153 L
78.671 -8.153 78.468 -8.13 QT
78.265 -8.106 78.14 -7.966 QT
78.015 -7.825 78.015 -7.528 QT
78.015 -2.559 L
cp}def
f1852015947
f
GR
GS
[0.60127 0 0 0.60127 0 0.20001] CT
[8 2 4 2] 0 setdash
2 LJ
2.5 LW
N
89.986 91.173 M
139.848 91.173 L
S
GR
GS
[0.60127 0 0 0.60127 86.33486 69.84372] CT
N
f971893044
f
GR
GS
[0.60127 0 0 0.60127 86.33486 69.84372] CT
N
f745021100
f
GR
GS
[0.60127 0 0 0.60127 86.33486 69.84372] CT
N
f-10812567
f
GR
GS
[0.60127 0 0 0.60127 86.33486 69.84372] CT
N
/f841011835{47.487 2.519 M
47.69 3.112 48.12 3.589 QT
48.55 4.066 49.128 4.331 QT
49.706 4.597 50.331 4.597 QT
51.784 4.597 52.331 3.48 QT
52.878 2.362 52.878 0.753 QT
52.878 0.066 52.854 -0.411 QT
52.831 -0.888 52.721 -1.325 QT
52.534 -2.028 52.065 -2.552 QT
51.596 -3.075 50.925 -3.075 QT
50.253 -3.075 49.768 -2.872 QT
49.284 -2.669 48.987 -2.395 QT
48.69 -2.122 48.456 -1.817 QT
48.221 -1.513 48.159 -1.497 QT
47.925 -1.497 L
47.878 -1.497 47.807 -1.559 QT
47.737 -1.622 47.737 -1.684 QT
47.737 -8.372 L
47.737 -8.419 47.8 -8.474 QT
47.862 -8.528 47.925 -8.528 QT
47.987 -8.528 L
49.331 -7.872 50.846 -7.872 QT
52.331 -7.872 53.706 -8.528 QT
53.768 -8.528 L
53.846 -8.528 53.901 -8.474 QT
53.956 -8.419 53.956 -8.372 QT
53.956 -8.184 L
53.956 -8.075 53.925 -8.075 QT
53.237 -7.169 52.206 -6.661 QT
51.175 -6.153 50.065 -6.153 QT
49.268 -6.153 48.425 -6.388 QT
48.425 -2.606 L
49.096 -3.138 49.62 -3.372 QT
50.143 -3.606 50.956 -3.606 QT
52.05 -3.606 52.925 -2.966 QT
53.8 -2.325 54.268 -1.309 QT
54.737 -0.294 54.737 0.769 QT
54.737 1.972 54.143 3.003 QT
53.55 4.034 52.534 4.636 QT
51.518 5.237 50.331 5.237 QT
49.346 5.237 48.518 4.73 QT
47.69 4.222 47.221 3.362 QT
46.753 2.503 46.753 1.534 QT
46.753 1.081 47.042 0.8 QT
47.331 0.519 47.768 0.519 QT
48.221 0.519 48.518 0.808 QT
48.815 1.097 48.815 1.534 QT
48.815 1.972 48.518 2.269 QT
48.221 2.566 47.768 2.566 QT
47.706 2.566 47.62 2.55 QT
47.534 2.534 47.487 2.519 QT
cp}def
f841011835
f
GR
GS
[0.60127 0 0 0.60127 86.33486 69.84372] CT
N
f13838597
f
GR
GS
[0.60127 0 0 0.60127 86.33486 69.84372] CT
N
f1852015947
f
GR
GS
[0.60127 0 0 0.60127 0 0.20001] CT
[8 8] 0 setdash
2 LJ
2.5 LW
N
89.986 115.827 M
139.848 115.827 L
S
GR
GS
[0.60127 0 0 0.60127 86.33486 84.66801] CT
N
f971893044
f
GR
GS
[0.60127 0 0 0.60127 86.33486 84.66801] CT
N
f745021100
f
GR
GS
[0.60127 0 0 0.60127 86.33486 84.66801] CT
N
f-10812567
f
GR
GS
[0.60127 0 0 0.60127 86.33486 84.66801] CT
N
/f788152670{47.612 4.8 M
47.612 4.097 L
50.112 4.097 50.112 3.456 QT
50.112 -7.044 L
49.081 -6.544 47.487 -6.544 QT
47.487 -7.247 L
49.94 -7.247 51.19 -8.528 QT
51.471 -8.528 L
51.55 -8.528 51.612 -8.474 QT
51.675 -8.419 51.675 -8.341 QT
51.675 3.456 L
51.675 4.097 54.175 4.097 QT
54.175 4.8 L
47.612 4.8 L
cp}def
f788152670
f
GR
GS
[0.60127 0 0 0.60127 86.33486 84.66801] CT
N
/f-1979843373{60.753 5.237 M
58.3 5.237 57.417 3.222 QT
56.534 1.206 56.534 -1.575 QT
56.534 -3.309 56.854 -4.849 QT
57.175 -6.388 58.112 -7.458 QT
59.05 -8.528 60.753 -8.528 QT
62.065 -8.528 62.909 -7.88 QT
63.753 -7.231 64.19 -6.208 QT
64.628 -5.184 64.792 -4.02 QT
64.956 -2.856 64.956 -1.575 QT
64.956 0.144 64.636 1.644 QT
64.315 3.144 63.386 4.191 QT
62.456 5.237 60.753 5.237 QT
cp
60.753 4.722 M
61.862 4.722 62.409 3.581 QT
62.956 2.441 63.089 1.05 QT
63.221 -0.341 63.221 -1.903 QT
63.221 -3.403 63.089 -4.677 QT
62.956 -5.95 62.417 -6.974 QT
61.878 -7.997 60.753 -7.997 QT
59.628 -7.997 59.081 -6.966 QT
58.534 -5.934 58.401 -4.669 QT
58.268 -3.403 58.268 -1.903 QT
58.268 -0.794 58.323 0.198 QT
58.378 1.191 58.612 2.237 QT
58.846 3.284 59.37 4.003 QT
59.893 4.722 60.753 4.722 QT
cp}def
f-1979843373
f
GR
GS
[0.60127 0 0 0.60127 86.33486 84.66801] CT
N
/f-169105686{77.31 5.019 M
76.123 5.019 75.146 4.378 QT
74.169 3.737 73.63 2.698 QT
73.091 1.659 73.091 0.487 QT
73.091 -0.731 73.677 -1.77 QT
74.263 -2.809 75.279 -3.427 QT
76.294 -4.044 77.513 -4.044 QT
78.248 -4.044 78.904 -3.731 QT
79.56 -3.419 80.044 -2.872 QT
80.044 -7.044 L
80.044 -7.575 79.88 -7.817 QT
79.716 -8.059 79.419 -8.106 QT
79.123 -8.153 78.482 -8.153 QT
78.482 -8.856 L
81.451 -9.075 L
81.451 2.987 L
81.451 3.503 81.607 3.745 QT
81.763 3.987 82.06 4.042 QT
82.357 4.097 82.998 4.097 QT
82.998 4.8 L
79.982 5.019 L
79.982 3.769 L
79.466 4.362 78.748 4.691 QT
78.029 5.019 77.31 5.019 QT
cp
75.263 3.066 M
75.607 3.722 76.177 4.112 QT
76.748 4.503 77.419 4.503 QT
78.248 4.503 78.943 4.019 QT
79.638 3.534 79.982 2.784 QT
79.982 -2.013 L
79.748 -2.45 79.388 -2.802 QT
79.029 -3.153 78.583 -3.341 QT
78.138 -3.528 77.638 -3.528 QT
76.607 -3.528 75.966 -2.934 QT
75.326 -2.341 75.076 -1.419 QT
74.826 -0.497 74.826 0.503 QT
74.826 1.3 74.904 1.894 QT
74.982 2.487 75.263 3.066 QT
cp}def
f-169105686
f
GR
GS
[0.60127 0 0 0.60127 86.33486 84.66801] CT
N
/f-1859277867{84.218 4.8 M
84.218 4.097 L
86.281 4.097 86.281 3.456 QT
86.281 -7.528 L
86.281 -8.153 84.218 -8.153 QT
84.218 -8.856 L
91.562 -8.856 L
92.577 -8.856 93.616 -8.466 QT
94.656 -8.075 95.335 -7.294 QT
96.015 -6.513 96.015 -5.466 QT
96.015 -4.247 95.015 -3.419 QT
94.015 -2.591 92.671 -2.341 QT
93.546 -2.341 94.46 -1.864 QT
95.374 -1.388 95.96 -0.583 QT
96.546 0.222 96.546 1.112 QT
96.546 2.206 95.898 3.05 QT
95.249 3.894 94.218 4.347 QT
93.187 4.8 92.14 4.8 QT
84.218 4.8 L
cp
88.015 3.456 M
88.015 3.894 88.257 3.995 QT
88.499 4.097 89.031 4.097 QT
91.562 4.097 L
92.343 4.097 93.015 3.683 QT
93.687 3.269 94.077 2.581 QT
94.468 1.894 94.468 1.112 QT
94.468 0.362 94.148 -0.372 QT
93.827 -1.106 93.226 -1.575 QT
92.624 -2.044 91.859 -2.044 QT
88.015 -2.044 L
88.015 3.456 L
cp
88.015 -2.559 M
91.015 -2.559 L
91.624 -2.559 92.156 -2.778 QT
92.687 -2.997 93.109 -3.419 QT
93.531 -3.841 93.757 -4.356 QT
93.984 -4.872 93.984 -5.466 QT
93.984 -5.981 93.82 -6.458 QT
93.656 -6.934 93.32 -7.325 QT
92.984 -7.716 92.538 -7.934 QT
92.093 -8.153 91.562 -8.153 QT
89.031 -8.153 L
88.671 -8.153 88.468 -8.13 QT
88.265 -8.106 88.14 -7.966 QT
88.015 -7.825 88.015 -7.528 QT
88.015 -2.559 L
cp}def
f-1859277867
f
GR
GS
[0.60127 0 0 0.60127 0 0.20001] CT
[2 2] 0 setdash
2 LJ
2.5 LW
N
89.986 140.482 M
139.848 140.482 L
S
GR
GS
[0.60127 0 0 0.60127 0 0.20001] CT
0.149 GC
10.0 ML
0.833 LW
N
85 155 M
85 52 L
246 52 L
246 155 L
cp
S
GR
%%Trailer
%%Pages: 1
%%EOF
