%!PS-Adobe-3.0 EPSF-3.0
%%Creator: (MATLAB, The Mathworks, Inc. Version 9.2.0.538062 \(R2017a\). Operating System: Windows 8)
%%Title: C:/Users/chees/Documents/DottoratoLoc/GNSS/authProtocol/latex/figures/hornStandard.eps
%%CreationDate: 2017-10-16T14:37:58
%%Pages: (atend)
%%BoundingBox: 0 0 284 284
%%LanguageLevel: 3
%%EndComments
%%BeginProlog
%%BeginResource: procset (Apache XML Graphics Std ProcSet) 1.2 0
%%Version: 1.2 0
%%Copyright: (Copyright 2001-2003,2010 The Apache Software Foundation. License terms: http://www.apache.org/licenses/LICENSE-2.0)
/bd{bind def}bind def
/ld{load def}bd
/GR/grestore ld
/M/moveto ld
/LJ/setlinejoin ld
/C/curveto ld
/f/fill ld
/LW/setlinewidth ld
/GC/setgray ld
/t/show ld
/N/newpath ld
/CT/concat ld
/cp/closepath ld
/S/stroke ld
/L/lineto ld
/CC/setcmykcolor ld
/A/ashow ld
/GS/gsave ld
/RC/setrgbcolor ld
/RM/rmoveto ld
/ML/setmiterlimit ld
/re {4 2 roll M
1 index 0 rlineto
0 exch rlineto
neg 0 rlineto
cp } bd
/_ctm matrix def
/_tm matrix def
/BT { _ctm currentmatrix pop matrix _tm copy pop 0 0 moveto } bd
/ET { _ctm setmatrix } bd
/iTm { _ctm setmatrix _tm concat } bd
/Tm { _tm astore pop iTm 0 0 moveto } bd
/ux 0.0 def
/uy 0.0 def
/F {
  /Tp exch def
  /Tf exch def
  Tf findfont Tp scalefont setfont
  /cf Tf def  /cs Tp def
} bd
/ULS {currentpoint /uy exch def /ux exch def} bd
/ULE {
  /Tcx currentpoint pop def
  gsave
  newpath
  cf findfont cs scalefont dup
  /FontMatrix get 0 get /Ts exch def /FontInfo get dup
  /UnderlinePosition get Ts mul /To exch def
  /UnderlineThickness get Ts mul /Tt exch def
  ux uy To add moveto  Tcx uy To add lineto
  Tt setlinewidth stroke
  grestore
} bd
/OLE {
  /Tcx currentpoint pop def
  gsave
  newpath
  cf findfont cs scalefont dup
  /FontMatrix get 0 get /Ts exch def /FontInfo get dup
  /UnderlinePosition get Ts mul /To exch def
  /UnderlineThickness get Ts mul /Tt exch def
  ux uy To add cs add moveto Tcx uy To add cs add lineto
  Tt setlinewidth stroke
  grestore
} bd
/SOE {
  /Tcx currentpoint pop def
  gsave
  newpath
  cf findfont cs scalefont dup
  /FontMatrix get 0 get /Ts exch def /FontInfo get dup
  /UnderlinePosition get Ts mul /To exch def
  /UnderlineThickness get Ts mul /Tt exch def
  ux uy To add cs 10 mul 26 idiv add moveto Tcx uy To add cs 10 mul 26 idiv add lineto
  Tt setlinewidth stroke
  grestore
} bd
/QT {
/Y22 exch store
/X22 exch store
/Y21 exch store
/X21 exch store
currentpoint
/Y21 load 2 mul add 3 div exch
/X21 load 2 mul add 3 div exch
/X21 load 2 mul /X22 load add 3 div
/Y21 load 2 mul /Y22 load add 3 div
/X22 load /Y22 load curveto
} bd
/SSPD {
dup length /d exch dict def
{
/v exch def
/k exch def
currentpagedevice k known {
/cpdv currentpagedevice k get def
v cpdv ne {
/upd false def
/nullv v type /nulltype eq def
/nullcpdv cpdv type /nulltype eq def
nullv nullcpdv or
{
/upd true def
} {
/sametype v type cpdv type eq def
sametype {
v type /arraytype eq {
/vlen v length def
/cpdvlen cpdv length def
vlen cpdvlen eq {
0 1 vlen 1 sub {
/i exch def
/obj v i get def
/cpdobj cpdv i get def
obj cpdobj ne {
/upd true def
exit
} if
} for
} {
/upd true def
} ifelse
} {
v type /dicttype eq {
v {
/dv exch def
/dk exch def
/cpddv cpdv dk get def
dv cpddv ne {
/upd true def
exit
} if
} forall
} {
/upd true def
} ifelse
} ifelse
} if
} ifelse
upd true eq {
d k v put
} if
} if
} if
} forall
d length 0 gt {
d setpagedevice
} if
} bd
/RE { % /NewFontName [NewEncodingArray] /FontName RE -
  findfont dup length dict begin
  {
    1 index /FID ne
    {def} {pop pop} ifelse
  } forall
  /Encoding exch def
  /FontName 1 index def
  currentdict definefont pop
  end
} bind def
%%EndResource
%%BeginResource: procset (Apache XML Graphics EPS ProcSet) 1.0 0
%%Version: 1.0 0
%%Copyright: (Copyright 2002-2003 The Apache Software Foundation. License terms: http://www.apache.org/licenses/LICENSE-2.0)
/BeginEPSF { %def
/b4_Inc_state save def         % Save state for cleanup
/dict_count countdictstack def % Count objects on dict stack
/op_count count 1 sub def      % Count objects on operand stack
userdict begin                 % Push userdict on dict stack
/showpage { } def              % Redefine showpage, { } = null proc
0 setgray 0 setlinecap         % Prepare graphics state
1 setlinewidth 0 setlinejoin
10 setmiterlimit [ ] 0 setdash newpath
/languagelevel where           % If level not equal to 1 then
{pop languagelevel             % set strokeadjust and
1 ne                           % overprint to their defaults.
{false setstrokeadjust false setoverprint
} if
} if
} bd
/EndEPSF { %def
count op_count sub {pop} repeat            % Clean up stacks
countdictstack dict_count sub {end} repeat
b4_Inc_state restore
} bd
%%EndResource
%FOPBeginFontDict
%%IncludeResource: font Courier-Bold
%%IncludeResource: font Helvetica
%%IncludeResource: font Courier-BoldOblique
%%IncludeResource: font Courier-Oblique
%%IncludeResource: font Times-Roman
%%IncludeResource: font Helvetica-BoldOblique
%%IncludeResource: font Helvetica-Bold
%%IncludeResource: font Helvetica-Oblique
%%IncludeResource: font Times-BoldItalic
%%IncludeResource: font Courier
%%IncludeResource: font Times-Italic
%%IncludeResource: font Times-Bold
%%IncludeResource: font Symbol
%%IncludeResource: font ZapfDingbats
%FOPEndFontDict
%%BeginResource: encoding WinAnsiEncoding
/WinAnsiEncoding [
/.notdef /.notdef /.notdef /.notdef /.notdef
/.notdef /.notdef /.notdef /.notdef /.notdef
/.notdef /.notdef /.notdef /.notdef /.notdef
/.notdef /.notdef /.notdef /.notdef /.notdef
/.notdef /.notdef /.notdef /.notdef /.notdef
/.notdef /.notdef /.notdef /.notdef /.notdef
/.notdef /.notdef /space /exclam /quotedbl
/numbersign /dollar /percent /ampersand /quotesingle
/parenleft /parenright /asterisk /plus /comma
/hyphen /period /slash /zero /one
/two /three /four /five /six
/seven /eight /nine /colon /semicolon
/less /equal /greater /question /at
/A /B /C /D /E
/F /G /H /I /J
/K /L /M /N /O
/P /Q /R /S /T
/U /V /W /X /Y
/Z /bracketleft /backslash /bracketright /asciicircum
/underscore /quoteleft /a /b /c
/d /e /f /g /h
/i /j /k /l /m
/n /o /p /q /r
/s /t /u /v /w
/x /y /z /braceleft /bar
/braceright /asciitilde /bullet /Euro /bullet
/quotesinglbase /florin /quotedblbase /ellipsis /dagger
/daggerdbl /circumflex /perthousand /Scaron /guilsinglleft
/OE /bullet /Zcaron /bullet /bullet
/quoteleft /quoteright /quotedblleft /quotedblright /bullet
/endash /emdash /asciitilde /trademark /scaron
/guilsinglright /oe /bullet /zcaron /Ydieresis
/space /exclamdown /cent /sterling /currency
/yen /brokenbar /section /dieresis /copyright
/ordfeminine /guillemotleft /logicalnot /sfthyphen /registered
/macron /degree /plusminus /twosuperior /threesuperior
/acute /mu /paragraph /middot /cedilla
/onesuperior /ordmasculine /guillemotright /onequarter /onehalf
/threequarters /questiondown /Agrave /Aacute /Acircumflex
/Atilde /Adieresis /Aring /AE /Ccedilla
/Egrave /Eacute /Ecircumflex /Edieresis /Igrave
/Iacute /Icircumflex /Idieresis /Eth /Ntilde
/Ograve /Oacute /Ocircumflex /Otilde /Odieresis
/multiply /Oslash /Ugrave /Uacute /Ucircumflex
/Udieresis /Yacute /Thorn /germandbls /agrave
/aacute /acircumflex /atilde /adieresis /aring
/ae /ccedilla /egrave /eacute /ecircumflex
/edieresis /igrave /iacute /icircumflex /idieresis
/eth /ntilde /ograve /oacute /ocircumflex
/otilde /odieresis /divide /oslash /ugrave
/uacute /ucircumflex /udieresis /yacute /thorn
/ydieresis
] def
%%EndResource
%FOPBeginFontReencode
/Courier-Bold findfont
dup length dict begin
  {1 index /FID ne {def} {pop pop} ifelse} forall
  /Encoding WinAnsiEncoding def
  currentdict
end
/Courier-Bold exch definefont pop
/Helvetica findfont
dup length dict begin
  {1 index /FID ne {def} {pop pop} ifelse} forall
  /Encoding WinAnsiEncoding def
  currentdict
end
/Helvetica exch definefont pop
/Courier-BoldOblique findfont
dup length dict begin
  {1 index /FID ne {def} {pop pop} ifelse} forall
  /Encoding WinAnsiEncoding def
  currentdict
end
/Courier-BoldOblique exch definefont pop
/Courier-Oblique findfont
dup length dict begin
  {1 index /FID ne {def} {pop pop} ifelse} forall
  /Encoding WinAnsiEncoding def
  currentdict
end
/Courier-Oblique exch definefont pop
/Times-Roman findfont
dup length dict begin
  {1 index /FID ne {def} {pop pop} ifelse} forall
  /Encoding WinAnsiEncoding def
  currentdict
end
/Times-Roman exch definefont pop
/Helvetica-BoldOblique findfont
dup length dict begin
  {1 index /FID ne {def} {pop pop} ifelse} forall
  /Encoding WinAnsiEncoding def
  currentdict
end
/Helvetica-BoldOblique exch definefont pop
/Helvetica-Bold findfont
dup length dict begin
  {1 index /FID ne {def} {pop pop} ifelse} forall
  /Encoding WinAnsiEncoding def
  currentdict
end
/Helvetica-Bold exch definefont pop
/Helvetica-Oblique findfont
dup length dict begin
  {1 index /FID ne {def} {pop pop} ifelse} forall
  /Encoding WinAnsiEncoding def
  currentdict
end
/Helvetica-Oblique exch definefont pop
/Times-BoldItalic findfont
dup length dict begin
  {1 index /FID ne {def} {pop pop} ifelse} forall
  /Encoding WinAnsiEncoding def
  currentdict
end
/Times-BoldItalic exch definefont pop
/Courier findfont
dup length dict begin
  {1 index /FID ne {def} {pop pop} ifelse} forall
  /Encoding WinAnsiEncoding def
  currentdict
end
/Courier exch definefont pop
/Times-Italic findfont
dup length dict begin
  {1 index /FID ne {def} {pop pop} ifelse} forall
  /Encoding WinAnsiEncoding def
  currentdict
end
/Times-Italic exch definefont pop
/Times-Bold findfont
dup length dict begin
  {1 index /FID ne {def} {pop pop} ifelse} forall
  /Encoding WinAnsiEncoding def
  currentdict
end
/Times-Bold exch definefont pop
%FOPEndFontReencode
%%EndProlog
%%Page: 1 1
%%PageBoundingBox: 0 0 284 284
%%BeginPageSetup
[1 0 0 -1 0 284] CT
%%EndPageSetup
GS
[0.60127 0 0 0.60127 0 0.20001] CT
N
0 0 M
472 0 L
472 472 L
0 472 L
0 0 L
cp
clip
1 GC
N
0 0 472 472 re
f
GR
GS
[0.60127 0 0 0.60127 0 0.20001] CT
1 GC
N
0 0 472 472 re
f
GR
GS
[0.60127 0 0 0.60127 0 0.20001] CT
1 GC
N
61 411.5 M
428 411.5 L
428 44.5 L
61 44.5 L
cp
f
GR
GS
[0.60127 0 0 0.60127 0 0.20001] CT
0.873 GC
1 LJ
0.833 LW
N
61 411.5 M
61 44.5 L
S
GR
GS
[0.60127 0 0 0.60127 0 0.20001] CT
0.873 GC
1 LJ
0.833 LW
N
113.429 411.5 M
113.429 44.5 L
S
GR
GS
[0.60127 0 0 0.60127 0 0.20001] CT
0.873 GC
1 LJ
0.833 LW
N
165.857 411.5 M
165.857 44.5 L
S
GR
GS
[0.60127 0 0 0.60127 0 0.20001] CT
0.873 GC
1 LJ
0.833 LW
N
218.286 411.5 M
218.286 44.5 L
S
GR
GS
[0.60127 0 0 0.60127 0 0.20001] CT
0.873 GC
1 LJ
0.833 LW
N
270.714 411.5 M
270.714 44.5 L
S
GR
GS
[0.60127 0 0 0.60127 0 0.20001] CT
0.873 GC
1 LJ
0.833 LW
N
323.143 411.5 M
323.143 44.5 L
S
GR
GS
[0.60127 0 0 0.60127 0 0.20001] CT
0.873 GC
1 LJ
0.833 LW
N
375.571 411.5 M
375.571 44.5 L
S
GR
GS
[0.60127 0 0 0.60127 0 0.20001] CT
0.873 GC
1 LJ
0.833 LW
N
428 411.5 M
61 411.5 L
S
GR
GS
[0.60127 0 0 0.60127 0 0.20001] CT
0.873 GC
1 LJ
0.833 LW
N
428 350.333 M
61 350.333 L
S
GR
GS
[0.60127 0 0 0.60127 0 0.20001] CT
0.873 GC
1 LJ
0.833 LW
N
428 289.167 M
61 289.167 L
S
GR
GS
[0.60127 0 0 0.60127 0 0.20001] CT
0.873 GC
1 LJ
0.833 LW
N
428 228 M
61 228 L
S
GR
GS
[0.60127 0 0 0.60127 0 0.20001] CT
0.873 GC
1 LJ
0.833 LW
N
428 166.833 M
61 166.833 L
S
GR
GS
[0.60127 0 0 0.60127 0 0.20001] CT
0.873 GC
1 LJ
0.833 LW
N
428 105.667 M
61 105.667 L
S
GR
GS
[0.60127 0 0 0.60127 0 0.20001] CT
0.873 GC
1 LJ
0.833 LW
N
428 44.5 M
61 44.5 L
S
GR
GS
[0.60127 0 0 0.60127 0 0.20001] CT
0.149 GC
2 setlinecap
1 LJ
0.833 LW
N
61 411.5 M
428 411.5 L
S
GR
GS
[0.60127 0 0 0.60127 0 0.20001] CT
0.149 GC
2 setlinecap
1 LJ
0.833 LW
N
61 44.5 M
428 44.5 L
S
GR
GS
[0.60127 0 0 0.60127 0 0.20001] CT
0.149 GC
2 setlinecap
1 LJ
0.833 LW
N
61 411.5 M
61 407.83 L
S
GR
GS
[0.60127 0 0 0.60127 0 0.20001] CT
0.149 GC
2 setlinecap
1 LJ
0.833 LW
N
113.429 411.5 M
113.429 407.83 L
S
GR
GS
[0.60127 0 0 0.60127 0 0.20001] CT
0.149 GC
2 setlinecap
1 LJ
0.833 LW
N
165.857 411.5 M
165.857 407.83 L
S
GR
GS
[0.60127 0 0 0.60127 0 0.20001] CT
0.149 GC
2 setlinecap
1 LJ
0.833 LW
N
218.286 411.5 M
218.286 407.83 L
S
GR
GS
[0.60127 0 0 0.60127 0 0.20001] CT
0.149 GC
2 setlinecap
1 LJ
0.833 LW
N
270.714 411.5 M
270.714 407.83 L
S
GR
GS
[0.60127 0 0 0.60127 0 0.20001] CT
0.149 GC
2 setlinecap
1 LJ
0.833 LW
N
323.143 411.5 M
323.143 407.83 L
S
GR
GS
[0.60127 0 0 0.60127 0 0.20001] CT
0.149 GC
2 setlinecap
1 LJ
0.833 LW
N
375.571 411.5 M
375.571 407.83 L
S
GR
GS
[0.60127 0 0 0.60127 0 0.20001] CT
0.149 GC
2 setlinecap
1 LJ
0.833 LW
N
61 44.5 M
61 48.17 L
S
GR
GS
[0.60127 0 0 0.60127 0 0.20001] CT
0.149 GC
2 setlinecap
1 LJ
0.833 LW
N
113.429 44.5 M
113.429 48.17 L
S
GR
GS
[0.60127 0 0 0.60127 0 0.20001] CT
0.149 GC
2 setlinecap
1 LJ
0.833 LW
N
165.857 44.5 M
165.857 48.17 L
S
GR
GS
[0.60127 0 0 0.60127 0 0.20001] CT
0.149 GC
2 setlinecap
1 LJ
0.833 LW
N
218.286 44.5 M
218.286 48.17 L
S
GR
GS
[0.60127 0 0 0.60127 0 0.20001] CT
0.149 GC
2 setlinecap
1 LJ
0.833 LW
N
270.714 44.5 M
270.714 48.17 L
S
GR
GS
[0.60127 0 0 0.60127 0 0.20001] CT
0.149 GC
2 setlinecap
1 LJ
0.833 LW
N
323.143 44.5 M
323.143 48.17 L
S
GR
GS
[0.60127 0 0 0.60127 0 0.20001] CT
0.149 GC
2 setlinecap
1 LJ
0.833 LW
N
375.571 44.5 M
375.571 48.17 L
S
GR
GS
[0.60127 0 0 0.60127 36.67754 251.63156] CT
0.149 GC
/Helvetica 16.667 F
GS
[1 0 0 1 0 0] CT
-15 18 moveto 
1 -1 scale
(-0.2) t 
GR
GR
GS
[0.60127 0 0 0.60127 68.20133 251.63156] CT
0.149 GC
/Helvetica 16.667 F
GS
[1 0 0 1 0 0] CT
-5 18 moveto 
1 -1 scale
(0) t 
GR
GR
GS
[0.60127 0 0 0.60127 99.72512 251.63156] CT
0.149 GC
/Helvetica 16.667 F
GS
[1 0 0 1 0 0] CT
-12 18 moveto 
1 -1 scale
(0.2) t 
GR
GR
GS
[0.60127 0 0 0.60127 131.24891 251.63156] CT
0.149 GC
/Helvetica 16.667 F
GS
[1 0 0 1 0 0] CT
-12 18 moveto 
1 -1 scale
(0.4) t 
GR
GR
GS
[0.60127 0 0 0.60127 162.7727 251.63156] CT
0.149 GC
/Helvetica 16.667 F
GS
[1 0 0 1 0 0] CT
-12 18 moveto 
1 -1 scale
(0.6) t 
GR
GR
GS
[0.60127 0 0 0.60127 194.29648 251.63156] CT
0.149 GC
/Helvetica 16.667 F
GS
[1 0 0 1 0 0] CT
-12 18 moveto 
1 -1 scale
(0.8) t 
GR
GR
GS
[0.60127 0 0 0.60127 225.82028 251.63156] CT
0.149 GC
/Helvetica 16.667 F
GS
[1 0 0 1 0 0] CT
-5 18 moveto 
1 -1 scale
(1) t 
GR
GR
GS
[0.60127 0 0 0.60127 147.01091 265.86166] CT
0.149 GC
N
-19.56 17.741 M
-19.56 17.397 -19.482 17.1 QT
-17.825 10.491 L
-20.247 10.491 L
-20.482 10.491 -20.482 10.194 QT
-20.388 9.678 -20.169 9.678 QT
-17.622 9.678 L
-16.7 5.928 L
-16.607 5.631 -16.341 5.42 QT
-16.075 5.209 -15.732 5.209 QT
-15.45 5.209 -15.247 5.381 QT
-15.044 5.553 -15.044 5.85 QT
-15.044 5.912 -15.052 5.951 QT
-15.06 5.991 -15.075 6.037 QT
-15.997 9.678 L
-13.622 9.678 L
-13.388 9.678 -13.388 9.991 QT
-13.403 10.037 -13.435 10.178 QT
-13.466 10.319 -13.521 10.405 QT
-13.575 10.491 -13.7 10.491 QT
-16.2 10.491 L
-17.841 17.147 L
-18.013 17.787 -18.013 18.256 QT
-18.013 19.256 -17.341 19.256 QT
-16.325 19.256 -15.552 18.303 QT
-14.778 17.35 -14.357 16.225 QT
-14.263 16.084 -14.169 16.084 QT
-13.888 16.084 L
-13.81 16.084 -13.755 16.147 QT
-13.7 16.209 -13.7 16.287 QT
-13.7 16.334 -13.716 16.35 QT
-14.216 17.741 -15.185 18.803 QT
-16.153 19.866 -17.403 19.866 QT
-18.31 19.866 -18.935 19.264 QT
-19.56 18.662 -19.56 17.741 QT
cp
f
GR
GS
[0.60127 0 0 0.60127 147.01091 265.86166] CT
0.149 GC
N
-11.259 24.897 M
-11.259 24.819 -11.243 24.803 QT
-3.243 2.631 L
-3.196 2.491 -3.087 2.42 QT
-2.977 2.35 -2.837 2.35 QT
-2.634 2.35 -2.501 2.475 QT
-2.368 2.6 -2.368 2.803 QT
-2.368 2.897 L
-10.368 25.069 L
-10.493 25.35 -10.806 25.35 QT
-10.993 25.35 -11.126 25.217 QT
-11.259 25.084 -11.259 24.897 QT
cp
f
GR
GS
[0.60127 0 0 0.60127 147.01091 265.86166] CT
0.149 GC
N
0.174 19.303 M
0.174 19.241 0.213 19.092 QT
0.252 18.944 0.314 18.866 QT
0.377 18.787 0.486 18.787 QT
2.47 18.787 3.111 18.678 QT
3.72 18.522 3.845 18.022 QT
7.002 5.381 L
7.095 5.1 7.095 4.881 QT
7.095 4.694 6.283 4.694 QT
4.955 4.694 L
3.408 4.694 2.572 5.17 QT
1.736 5.647 1.345 6.42 QT
0.955 7.194 0.33 8.959 QT
0.252 9.162 0.095 9.162 QT
-0.108 9.162 L
-0.342 9.162 -0.342 8.866 QT
1.299 4.1 L
1.345 3.881 1.533 3.881 QT
15.111 3.881 L
15.345 3.881 15.345 4.194 QT
14.58 8.959 L
14.58 9.022 14.502 9.092 QT
14.424 9.162 14.361 9.162 QT
14.142 9.162 L
13.924 9.162 13.924 8.866 QT
14.174 7.241 14.174 6.569 QT
14.174 5.756 13.838 5.342 QT
13.502 4.928 12.963 4.811 QT
12.424 4.694 11.549 4.694 QT
10.189 4.694 L
9.58 4.694 9.369 4.811 QT
9.158 4.928 9.002 5.491 QT
5.845 18.1 L
5.845 18.147 5.838 18.194 QT
5.83 18.241 5.799 18.303 QT
5.799 18.6 6.158 18.678 QT
6.752 18.787 8.705 18.787 QT
8.924 18.787 8.924 19.1 QT
8.845 19.412 8.799 19.506 QT
8.752 19.6 8.549 19.6 QT
0.408 19.6 L
0.174 19.6 0.174 19.303 QT
cp
f
GR
GS
[0.60127 0 0 0.60127 147.01091 265.86166] CT
0.149 GC
N
14.622 21.194 M
14.622 21.881 14.981 22.366 QT
15.34 22.85 15.997 22.85 QT
16.95 22.85 17.832 22.412 QT
18.715 21.975 19.262 21.209 QT
19.309 21.162 19.387 21.162 QT
19.465 21.162 19.551 21.248 QT
19.637 21.334 19.637 21.412 QT
19.637 21.475 19.606 21.506 QT
19.012 22.334 18.02 22.811 QT
17.028 23.287 15.965 23.287 QT
15.2 23.287 14.614 22.92 QT
14.028 22.553 13.707 21.944 QT
13.387 21.334 13.387 20.569 QT
13.387 19.491 13.989 18.428 QT
14.59 17.366 15.59 16.694 QT
16.59 16.022 17.7 16.022 QT
18.418 16.022 18.989 16.373 QT
19.559 16.725 19.559 17.397 QT
19.559 17.834 19.309 18.147 QT
19.059 18.459 18.622 18.459 QT
18.372 18.459 18.192 18.295 QT
18.012 18.131 18.012 17.881 QT
18.012 17.506 18.286 17.241 QT
18.559 16.975 18.934 16.975 QT
18.965 16.975 L
18.778 16.694 18.418 16.569 QT
18.059 16.444 17.684 16.444 QT
16.747 16.444 16.043 17.241 QT
15.34 18.037 14.981 19.155 QT
14.622 20.272 14.622 21.194 QT
cp
f
GR
GS
[0.60127 0 0 0.60127 0 0.20001] CT
0.149 GC
2 setlinecap
1 LJ
0.833 LW
N
61 411.5 M
61 44.5 L
S
GR
GS
[0.60127 0 0 0.60127 0 0.20001] CT
0.149 GC
2 setlinecap
1 LJ
0.833 LW
N
428 411.5 M
428 44.5 L
S
GR
GS
[0.60127 0 0 0.60127 0 0.20001] CT
0.149 GC
2 setlinecap
1 LJ
0.833 LW
N
61 411.5 M
64.67 411.5 L
S
GR
GS
[0.60127 0 0 0.60127 0 0.20001] CT
0.149 GC
2 setlinecap
1 LJ
0.833 LW
N
61 350.333 M
64.67 350.333 L
S
GR
GS
[0.60127 0 0 0.60127 0 0.20001] CT
0.149 GC
2 setlinecap
1 LJ
0.833 LW
N
61 289.167 M
64.67 289.167 L
S
GR
GS
[0.60127 0 0 0.60127 0 0.20001] CT
0.149 GC
2 setlinecap
1 LJ
0.833 LW
N
61 228 M
64.67 228 L
S
GR
GS
[0.60127 0 0 0.60127 0 0.20001] CT
0.149 GC
2 setlinecap
1 LJ
0.833 LW
N
61 166.833 M
64.67 166.833 L
S
GR
GS
[0.60127 0 0 0.60127 0 0.20001] CT
0.149 GC
2 setlinecap
1 LJ
0.833 LW
N
61 105.667 M
64.67 105.667 L
S
GR
GS
[0.60127 0 0 0.60127 0 0.20001] CT
0.149 GC
2 setlinecap
1 LJ
0.833 LW
N
61 44.5 M
64.67 44.5 L
S
GR
GS
[0.60127 0 0 0.60127 0 0.20001] CT
0.149 GC
2 setlinecap
1 LJ
0.833 LW
N
428 411.5 M
424.33 411.5 L
S
GR
GS
[0.60127 0 0 0.60127 0 0.20001] CT
0.149 GC
2 setlinecap
1 LJ
0.833 LW
N
428 350.333 M
424.33 350.333 L
S
GR
GS
[0.60127 0 0 0.60127 0 0.20001] CT
0.149 GC
2 setlinecap
1 LJ
0.833 LW
N
428 289.167 M
424.33 289.167 L
S
GR
GS
[0.60127 0 0 0.60127 0 0.20001] CT
0.149 GC
2 setlinecap
1 LJ
0.833 LW
N
428 228 M
424.33 228 L
S
GR
GS
[0.60127 0 0 0.60127 0 0.20001] CT
0.149 GC
2 setlinecap
1 LJ
0.833 LW
N
428 166.833 M
424.33 166.833 L
S
GR
GS
[0.60127 0 0 0.60127 0 0.20001] CT
0.149 GC
2 setlinecap
1 LJ
0.833 LW
N
428 105.667 M
424.33 105.667 L
S
GR
GS
[0.60127 0 0 0.60127 0 0.20001] CT
0.149 GC
2 setlinecap
1 LJ
0.833 LW
N
428 44.5 M
424.33 44.5 L
S
GR
GS
[0.60127 0 0 0.60127 32.66907 247.62309] CT
0.149 GC
/Helvetica 16.667 F
GS
[1 0 0 1 0 0] CT
-30 7 moveto 
1 -1 scale
(-1.5) t 
GR
GR
GS
[0.60127 0 0 0.60127 32.66907 210.84535] CT
0.149 GC
/Helvetica 16.667 F
GS
[1 0 0 1 0 0] CT
-16 7 moveto 
1 -1 scale
(-1) t 
GR
GR
GS
[0.60127 0 0 0.60127 32.66907 174.06758] CT
0.149 GC
/Helvetica 16.667 F
GS
[1 0 0 1 0 0] CT
-30 7 moveto 
1 -1 scale
(-0.5) t 
GR
GR
GS
[0.60127 0 0 0.60127 32.66907 137.28984] CT
0.149 GC
/Helvetica 16.667 F
GS
[1 0 0 1 0 0] CT
-10 7 moveto 
1 -1 scale
(0) t 
GR
GR
GS
[0.60127 0 0 0.60127 32.66907 100.51208] CT
0.149 GC
/Helvetica 16.667 F
GS
[1 0 0 1 0 0] CT
-24 7 moveto 
1 -1 scale
(0.5) t 
GR
GR
GS
[0.60127 0 0 0.60127 32.66907 63.73433] CT
0.149 GC
/Helvetica 16.667 F
GS
[1 0 0 1 0 0] CT
-10 7 moveto 
1 -1 scale
(1) t 
GR
GR
GS
[0.60127 0 0 0.60127 32.66907 26.95658] CT
0.149 GC
/Helvetica 16.667 F
GS
[1 0 0 1 0 0] CT
-24 7 moveto 
1 -1 scale
(1.5) t 
GR
GR
GS
[0.60127 0 0 0.60127 0 0.20001] CT
0 0.447 0.741 RC
1 LJ
2.5 LW
N
113.431 228 M
118.898 228 L
125.347 228 L
131.584 228 L
137.262 228 L
143.108 228 L
149.178 228 L
155.751 228 L
161.093 228 L
167.733 228 L
173.009 228 L
178.756 228 L
184.924 228 L
190.651 228 L
193.745 228 L
196.839 228 L
198.501 228 L
199.332 228 L
199.747 228 L
200.162 228 L
200.37 228 L
200.578 228 L
200.682 228 L
200.734 228 L
200.76 228 L
200.772 228 L
200.785 228 L
200.798 228 L
200.811 74.475 L
200.824 74.475 L
200.837 74.475 L
200.863 74.475 L
200.889 74.475 L
200.941 74.475 L
200.993 74.475 L
201.097 74.475 L
201.201 74.475 L
201.409 74.475 L
201.824 74.475 L
202.655 74.475 L
203.485 74.475 L
204.803 74.475 L
206.12 74.475 L
208.755 74.475 L
215.145 74.475 L
217.908 74.475 L
219.289 74.475 L
220.67 74.475 L
221.454 74.475 L
221.846 74.475 L
222.238 74.475 L
222.434 74.475 L
222.532 74.475 L
222.581 74.475 L
222.606 74.475 L
222.63 74.475 L
222.642 74.475 L
222.655 74.475 L
222.667 148.245 L
222.679 148.245 L
222.691 148.245 L
222.704 148.245 L
222.728 148.245 L
222.777 148.245 L
222.826 148.245 L
222.924 148.245 L
223.022 148.245 L
223.218 148.245 L
223.414 148.245 L
223.806 148.245 L
224.59 148.245 L
225.374 148.245 L
226.941 148.245 L
229.764 148.245 L
232.586 148.245 L
235.537 148.245 L
238.488 148.245 L
239.992 148.245 L
241.495 148.245 L
242.246 148.245 L
242.998 148.245 L
243.374 148.245 L
243.75 148.245 L
243.938 148.245 L
244.126 148.245 L
244.219 148.245 L
244.313 148.245 L
244.36 148.245 L
244.407 148.245 L
244.431 148.245 L
244.454 148.245 L
244.466 148.245 L
244.478 148.245 L
244.49 148.245 L
244.501 307.755 L
244.513 307.755 L
244.525 307.755 L
244.548 307.755 L
244.594 307.755 L
244.688 307.755 L
244.874 307.755 L
245.246 307.755 L
245.991 307.755 L
247.481 307.755 L
250.461 307.755 L
256.417 307.755 L
259.514 307.755 L
262.611 307.755 L
264.042 307.755 L
264.757 307.755 L
265.472 307.755 L
265.829 307.755 L
266.008 307.755 L
266.098 307.755 L
266.187 307.755 L
266.232 307.755 L
266.276 307.755 L
266.299 307.755 L
266.321 307.755 L
266.332 307.755 L
266.343 307.755 L
266.354 381.525 L
266.366 381.525 L
266.377 381.525 L
266.388 381.525 L
266.41 381.525 L
266.455 381.525 L
266.544 381.525 L
266.723 381.525 L
266.902 381.525 L
267.26 381.525 L
267.617 381.525 L
268.332 381.525 L
269.941 381.525 L
271.55 381.525 L
274.767 381.525 L
280.248 381.525 L
283.175 381.525 L
284.639 381.525 L
286.103 381.525 L
286.861 381.525 L
287.239 381.525 L
287.618 381.525 L
287.808 381.525 L
287.997 381.525 L
288.092 381.525 L
288.139 381.525 L
288.163 381.525 L
288.174 381.525 L
288.186 381.525 L
288.198 228 L
288.21 228 L
288.222 228 L
288.234 228 L
288.257 228 L
288.281 228 L
288.328 228 L
288.376 228 L
288.47 228 L
288.565 228 L
288.754 228 L
289.133 228 L
289.891 228 L
290.648 228 L
292.163 228 L
295.162 228 L
298.16 228 L
304.079 228 L
310.041 228 L
315.994 228 L
322.386 228 L
327.91 228 L
333.586 228 L
339.825 228 L
346.077 228 L
351.741 228 L
356.237 228 L
363.656 228 L
369.503 228 L
375.571 228 L
S
GR
%%Trailer
%%Pages: 1
%%EOF
