%!PS-Adobe-3.0 EPSF-3.0
%%Creator: (MATLAB, The Mathworks, Inc. Version 9.2.0.538062 \(R2017a\). Operating System: Windows 8)
%%Title: C:/Users/chees/Documents/DottoratoLoc/GNSS/authProtocol/latex/figures/HornsStandard.eps
%%CreationDate: 2017-10-16T14:21:43
%%Pages: (atend)
%%BoundingBox: 0 0 284 284
%%LanguageLevel: 3
%%EndComments
%%BeginProlog
%%BeginResource: procset (Apache XML Graphics Std ProcSet) 1.2 0
%%Version: 1.2 0
%%Copyright: (Copyright 2001-2003,2010 The Apache Software Foundation. License terms: http://www.apache.org/licenses/LICENSE-2.0)
/bd{bind def}bind def
/ld{load def}bd
/GR/grestore ld
/M/moveto ld
/LJ/setlinejoin ld
/C/curveto ld
/f/fill ld
/LW/setlinewidth ld
/GC/setgray ld
/t/show ld
/N/newpath ld
/CT/concat ld
/cp/closepath ld
/S/stroke ld
/L/lineto ld
/CC/setcmykcolor ld
/A/ashow ld
/GS/gsave ld
/RC/setrgbcolor ld
/RM/rmoveto ld
/ML/setmiterlimit ld
/re {4 2 roll M
1 index 0 rlineto
0 exch rlineto
neg 0 rlineto
cp } bd
/_ctm matrix def
/_tm matrix def
/BT { _ctm currentmatrix pop matrix _tm copy pop 0 0 moveto } bd
/ET { _ctm setmatrix } bd
/iTm { _ctm setmatrix _tm concat } bd
/Tm { _tm astore pop iTm 0 0 moveto } bd
/ux 0.0 def
/uy 0.0 def
/F {
  /Tp exch def
  /Tf exch def
  Tf findfont Tp scalefont setfont
  /cf Tf def  /cs Tp def
} bd
/ULS {currentpoint /uy exch def /ux exch def} bd
/ULE {
  /Tcx currentpoint pop def
  gsave
  newpath
  cf findfont cs scalefont dup
  /FontMatrix get 0 get /Ts exch def /FontInfo get dup
  /UnderlinePosition get Ts mul /To exch def
  /UnderlineThickness get Ts mul /Tt exch def
  ux uy To add moveto  Tcx uy To add lineto
  Tt setlinewidth stroke
  grestore
} bd
/OLE {
  /Tcx currentpoint pop def
  gsave
  newpath
  cf findfont cs scalefont dup
  /FontMatrix get 0 get /Ts exch def /FontInfo get dup
  /UnderlinePosition get Ts mul /To exch def
  /UnderlineThickness get Ts mul /Tt exch def
  ux uy To add cs add moveto Tcx uy To add cs add lineto
  Tt setlinewidth stroke
  grestore
} bd
/SOE {
  /Tcx currentpoint pop def
  gsave
  newpath
  cf findfont cs scalefont dup
  /FontMatrix get 0 get /Ts exch def /FontInfo get dup
  /UnderlinePosition get Ts mul /To exch def
  /UnderlineThickness get Ts mul /Tt exch def
  ux uy To add cs 10 mul 26 idiv add moveto Tcx uy To add cs 10 mul 26 idiv add lineto
  Tt setlinewidth stroke
  grestore
} bd
/QT {
/Y22 exch store
/X22 exch store
/Y21 exch store
/X21 exch store
currentpoint
/Y21 load 2 mul add 3 div exch
/X21 load 2 mul add 3 div exch
/X21 load 2 mul /X22 load add 3 div
/Y21 load 2 mul /Y22 load add 3 div
/X22 load /Y22 load curveto
} bd
/SSPD {
dup length /d exch dict def
{
/v exch def
/k exch def
currentpagedevice k known {
/cpdv currentpagedevice k get def
v cpdv ne {
/upd false def
/nullv v type /nulltype eq def
/nullcpdv cpdv type /nulltype eq def
nullv nullcpdv or
{
/upd true def
} {
/sametype v type cpdv type eq def
sametype {
v type /arraytype eq {
/vlen v length def
/cpdvlen cpdv length def
vlen cpdvlen eq {
0 1 vlen 1 sub {
/i exch def
/obj v i get def
/cpdobj cpdv i get def
obj cpdobj ne {
/upd true def
exit
} if
} for
} {
/upd true def
} ifelse
} {
v type /dicttype eq {
v {
/dv exch def
/dk exch def
/cpddv cpdv dk get def
dv cpddv ne {
/upd true def
exit
} if
} forall
} {
/upd true def
} ifelse
} ifelse
} if
} ifelse
upd true eq {
d k v put
} if
} if
} if
} forall
d length 0 gt {
d setpagedevice
} if
} bd
/RE { % /NewFontName [NewEncodingArray] /FontName RE -
  findfont dup length dict begin
  {
    1 index /FID ne
    {def} {pop pop} ifelse
  } forall
  /Encoding exch def
  /FontName 1 index def
  currentdict definefont pop
  end
} bind def
%%EndResource
%%BeginResource: procset (Apache XML Graphics EPS ProcSet) 1.0 0
%%Version: 1.0 0
%%Copyright: (Copyright 2002-2003 The Apache Software Foundation. License terms: http://www.apache.org/licenses/LICENSE-2.0)
/BeginEPSF { %def
/b4_Inc_state save def         % Save state for cleanup
/dict_count countdictstack def % Count objects on dict stack
/op_count count 1 sub def      % Count objects on operand stack
userdict begin                 % Push userdict on dict stack
/showpage { } def              % Redefine showpage, { } = null proc
0 setgray 0 setlinecap         % Prepare graphics state
1 setlinewidth 0 setlinejoin
10 setmiterlimit [ ] 0 setdash newpath
/languagelevel where           % If level not equal to 1 then
{pop languagelevel             % set strokeadjust and
1 ne                           % overprint to their defaults.
{false setstrokeadjust false setoverprint
} if
} if
} bd
/EndEPSF { %def
count op_count sub {pop} repeat            % Clean up stacks
countdictstack dict_count sub {end} repeat
b4_Inc_state restore
} bd
%%EndResource
%FOPBeginFontDict
%%IncludeResource: font Courier-Bold
%%IncludeResource: font Helvetica
%%IncludeResource: font Courier-BoldOblique
%%IncludeResource: font Courier-Oblique
%%IncludeResource: font Times-Roman
%%IncludeResource: font Helvetica-BoldOblique
%%IncludeResource: font Helvetica-Bold
%%IncludeResource: font Helvetica-Oblique
%%IncludeResource: font Times-BoldItalic
%%IncludeResource: font Courier
%%IncludeResource: font Times-Italic
%%IncludeResource: font Times-Bold
%%IncludeResource: font Symbol
%%IncludeResource: font ZapfDingbats
%FOPEndFontDict
%%BeginResource: encoding WinAnsiEncoding
/WinAnsiEncoding [
/.notdef /.notdef /.notdef /.notdef /.notdef
/.notdef /.notdef /.notdef /.notdef /.notdef
/.notdef /.notdef /.notdef /.notdef /.notdef
/.notdef /.notdef /.notdef /.notdef /.notdef
/.notdef /.notdef /.notdef /.notdef /.notdef
/.notdef /.notdef /.notdef /.notdef /.notdef
/.notdef /.notdef /space /exclam /quotedbl
/numbersign /dollar /percent /ampersand /quotesingle
/parenleft /parenright /asterisk /plus /comma
/hyphen /period /slash /zero /one
/two /three /four /five /six
/seven /eight /nine /colon /semicolon
/less /equal /greater /question /at
/A /B /C /D /E
/F /G /H /I /J
/K /L /M /N /O
/P /Q /R /S /T
/U /V /W /X /Y
/Z /bracketleft /backslash /bracketright /asciicircum
/underscore /quoteleft /a /b /c
/d /e /f /g /h
/i /j /k /l /m
/n /o /p /q /r
/s /t /u /v /w
/x /y /z /braceleft /bar
/braceright /asciitilde /bullet /Euro /bullet
/quotesinglbase /florin /quotedblbase /ellipsis /dagger
/daggerdbl /circumflex /perthousand /Scaron /guilsinglleft
/OE /bullet /Zcaron /bullet /bullet
/quoteleft /quoteright /quotedblleft /quotedblright /bullet
/endash /emdash /asciitilde /trademark /scaron
/guilsinglright /oe /bullet /zcaron /Ydieresis
/space /exclamdown /cent /sterling /currency
/yen /brokenbar /section /dieresis /copyright
/ordfeminine /guillemotleft /logicalnot /sfthyphen /registered
/macron /degree /plusminus /twosuperior /threesuperior
/acute /mu /paragraph /middot /cedilla
/onesuperior /ordmasculine /guillemotright /onequarter /onehalf
/threequarters /questiondown /Agrave /Aacute /Acircumflex
/Atilde /Adieresis /Aring /AE /Ccedilla
/Egrave /Eacute /Ecircumflex /Edieresis /Igrave
/Iacute /Icircumflex /Idieresis /Eth /Ntilde
/Ograve /Oacute /Ocircumflex /Otilde /Odieresis
/multiply /Oslash /Ugrave /Uacute /Ucircumflex
/Udieresis /Yacute /Thorn /germandbls /agrave
/aacute /acircumflex /atilde /adieresis /aring
/ae /ccedilla /egrave /eacute /ecircumflex
/edieresis /igrave /iacute /icircumflex /idieresis
/eth /ntilde /ograve /oacute /ocircumflex
/otilde /odieresis /divide /oslash /ugrave
/uacute /ucircumflex /udieresis /yacute /thorn
/ydieresis
] def
%%EndResource
%FOPBeginFontReencode
/Courier-Bold findfont
dup length dict begin
  {1 index /FID ne {def} {pop pop} ifelse} forall
  /Encoding WinAnsiEncoding def
  currentdict
end
/Courier-Bold exch definefont pop
/Helvetica findfont
dup length dict begin
  {1 index /FID ne {def} {pop pop} ifelse} forall
  /Encoding WinAnsiEncoding def
  currentdict
end
/Helvetica exch definefont pop
/Courier-BoldOblique findfont
dup length dict begin
  {1 index /FID ne {def} {pop pop} ifelse} forall
  /Encoding WinAnsiEncoding def
  currentdict
end
/Courier-BoldOblique exch definefont pop
/Courier-Oblique findfont
dup length dict begin
  {1 index /FID ne {def} {pop pop} ifelse} forall
  /Encoding WinAnsiEncoding def
  currentdict
end
/Courier-Oblique exch definefont pop
/Times-Roman findfont
dup length dict begin
  {1 index /FID ne {def} {pop pop} ifelse} forall
  /Encoding WinAnsiEncoding def
  currentdict
end
/Times-Roman exch definefont pop
/Helvetica-BoldOblique findfont
dup length dict begin
  {1 index /FID ne {def} {pop pop} ifelse} forall
  /Encoding WinAnsiEncoding def
  currentdict
end
/Helvetica-BoldOblique exch definefont pop
/Helvetica-Bold findfont
dup length dict begin
  {1 index /FID ne {def} {pop pop} ifelse} forall
  /Encoding WinAnsiEncoding def
  currentdict
end
/Helvetica-Bold exch definefont pop
/Helvetica-Oblique findfont
dup length dict begin
  {1 index /FID ne {def} {pop pop} ifelse} forall
  /Encoding WinAnsiEncoding def
  currentdict
end
/Helvetica-Oblique exch definefont pop
/Times-BoldItalic findfont
dup length dict begin
  {1 index /FID ne {def} {pop pop} ifelse} forall
  /Encoding WinAnsiEncoding def
  currentdict
end
/Times-BoldItalic exch definefont pop
/Courier findfont
dup length dict begin
  {1 index /FID ne {def} {pop pop} ifelse} forall
  /Encoding WinAnsiEncoding def
  currentdict
end
/Courier exch definefont pop
/Times-Italic findfont
dup length dict begin
  {1 index /FID ne {def} {pop pop} ifelse} forall
  /Encoding WinAnsiEncoding def
  currentdict
end
/Times-Italic exch definefont pop
/Times-Bold findfont
dup length dict begin
  {1 index /FID ne {def} {pop pop} ifelse} forall
  /Encoding WinAnsiEncoding def
  currentdict
end
/Times-Bold exch definefont pop
%FOPEndFontReencode
%%EndProlog
%%Page: 1 1
%%PageBoundingBox: 0 0 284 284
%%BeginPageSetup
[1 0 0 -1 0 284] CT
%%EndPageSetup
GS
[0.60127 0 0 0.60127 0 0.20001] CT
N
0 0 M
472 0 L
472 472 L
0 472 L
0 0 L
cp
clip
1 GC
N
0 0 472 472 re
f
GR
GS
[0.60127 0 0 0.60127 0 0.20001] CT
1 GC
N
0 0 472 472 re
f
GR
GS
[0.60127 0 0 0.60127 0 0.20001] CT
1 GC
N
61 404.5 M
428 404.5 L
428 37.5 L
61 37.5 L
cp
f
GR
GS
[0.60127 0 0 0.60127 0 0.20001] CT
0.873 GC
1 LJ
0.833 LW
N
113.429 404.5 M
113.429 37.5 L
S
GR
GS
[0.60127 0 0 0.60127 0 0.20001] CT
0.873 GC
1 LJ
0.833 LW
N
244.5 404.5 M
244.5 37.5 L
S
GR
GS
[0.60127 0 0 0.60127 0 0.20001] CT
0.873 GC
1 LJ
0.833 LW
N
375.571 404.5 M
375.571 37.5 L
S
GR
GS
[0.60127 0 0 0.60127 0 0.20001] CT
0.873 GC
1 LJ
0.833 LW
N
428 404.5 M
61 404.5 L
S
GR
GS
[0.60127 0 0 0.60127 0 0.20001] CT
0.873 GC
1 LJ
0.833 LW
N
428 343.333 M
61 343.333 L
S
GR
GS
[0.60127 0 0 0.60127 0 0.20001] CT
0.873 GC
1 LJ
0.833 LW
N
428 282.167 M
61 282.167 L
S
GR
GS
[0.60127 0 0 0.60127 0 0.20001] CT
0.873 GC
1 LJ
0.833 LW
N
428 221 M
61 221 L
S
GR
GS
[0.60127 0 0 0.60127 0 0.20001] CT
0.873 GC
1 LJ
0.833 LW
N
428 159.833 M
61 159.833 L
S
GR
GS
[0.60127 0 0 0.60127 0 0.20001] CT
0.873 GC
1 LJ
0.833 LW
N
428 98.667 M
61 98.667 L
S
GR
GS
[0.60127 0 0 0.60127 0 0.20001] CT
0.873 GC
1 LJ
0.833 LW
N
428 37.5 M
61 37.5 L
S
GR
GS
[0.60127 0 0 0.60127 0 0.20001] CT
0.149 GC
2 setlinecap
1 LJ
0.833 LW
N
61 404.5 M
428 404.5 L
S
GR
GS
[0.60127 0 0 0.60127 0 0.20001] CT
0.149 GC
2 setlinecap
1 LJ
0.833 LW
N
61 37.5 M
428 37.5 L
S
GR
GS
[0.60127 0 0 0.60127 0 0.20001] CT
0.149 GC
2 setlinecap
1 LJ
0.833 LW
N
113.429 404.5 M
113.429 400.83 L
S
GR
GS
[0.60127 0 0 0.60127 0 0.20001] CT
0.149 GC
2 setlinecap
1 LJ
0.833 LW
N
244.5 404.5 M
244.5 400.83 L
S
GR
GS
[0.60127 0 0 0.60127 0 0.20001] CT
0.149 GC
2 setlinecap
1 LJ
0.833 LW
N
375.571 404.5 M
375.571 400.83 L
S
GR
GS
[0.60127 0 0 0.60127 0 0.20001] CT
0.149 GC
2 setlinecap
1 LJ
0.833 LW
N
113.429 37.5 M
113.429 41.17 L
S
GR
GS
[0.60127 0 0 0.60127 0 0.20001] CT
0.149 GC
2 setlinecap
1 LJ
0.833 LW
N
244.5 37.5 M
244.5 41.17 L
S
GR
GS
[0.60127 0 0 0.60127 0 0.20001] CT
0.149 GC
2 setlinecap
1 LJ
0.833 LW
N
375.571 37.5 M
375.571 41.17 L
S
GR
GS
[0.60127 0 0 0.60127 68.20133 248.4248] CT
0.149 GC
/Helvetica 25 F
GS
[1 0 0 1 0 0] CT
-7 26 moveto 
1 -1 scale
(0) t 
GR
GR
GS
[0.60127 0 0 0.60127 147.0108 248.4248] CT
0.149 GC
/Helvetica 25 F
GS
[1 0 0 1 0 0] CT
-17.5 26 moveto 
1 -1 scale
(0.5) t 
GR
GR
GS
[0.60127 0 0 0.60127 225.82028 248.4248] CT
0.149 GC
/Helvetica 25 F
GS
[1 0 0 1 0 0] CT
-7 26 moveto 
1 -1 scale
(1) t 
GR
GR
GS
[0.60127 0 0 0.60127 147.01091 268.66759] CT
0.149 GC
N
-22.994 20.834 M
-22.994 20.412 -22.916 20.053 QT
-20.884 12.006 L
-23.822 12.006 L
-24.119 12.006 -24.119 11.647 QT
-24.009 11.022 -23.744 11.022 QT
-20.634 11.022 L
-19.525 6.459 L
-19.416 6.084 -19.088 5.826 QT
-18.759 5.569 -18.338 5.569 QT
-17.994 5.569 -17.752 5.78 QT
-17.509 5.991 -17.509 6.35 QT
-17.509 6.428 -17.517 6.475 QT
-17.525 6.522 -17.541 6.584 QT
-18.65 11.022 L
-15.775 11.022 L
-15.478 11.022 -15.478 11.397 QT
-15.494 11.459 -15.541 11.623 QT
-15.588 11.787 -15.65 11.897 QT
-15.713 12.006 -15.853 12.006 QT
-18.9 12.006 L
-20.916 20.1 L
-21.119 20.897 -21.119 21.475 QT
-21.119 22.678 -20.291 22.678 QT
-19.072 22.678 -18.119 21.522 QT
-17.166 20.366 -16.666 18.991 QT
-16.556 18.819 -16.447 18.819 QT
-16.103 18.819 L
-15.994 18.819 -15.924 18.897 QT
-15.853 18.975 -15.853 19.069 QT
-15.853 19.116 -15.884 19.147 QT
-16.494 20.85 -17.674 22.131 QT
-18.853 23.412 -20.369 23.412 QT
-21.478 23.412 -22.236 22.686 QT
-22.994 21.959 -22.994 20.834 QT
cp
f
GR
GS
[0.60127 0 0 0.60127 147.01091 268.66759] CT
0.149 GC
N
-13.22 29.537 M
-13.22 29.459 -13.204 29.428 QT
-3.47 2.444 L
-3.407 2.272 -3.274 2.186 QT
-3.141 2.1 -2.954 2.1 QT
-2.704 2.1 -2.548 2.248 QT
-2.391 2.397 -2.391 2.662 QT
-2.391 2.772 L
-12.126 29.756 L
-12.298 30.1 -12.657 30.1 QT
-12.891 30.1 -13.055 29.936 QT
-13.22 29.772 -13.22 29.537 QT
cp
f
GR
GS
[0.60127 0 0 0.60127 147.01091 268.66759] CT
0.149 GC
N
0.234 22.725 M
0.249 22.662 0.296 22.483 QT
0.343 22.303 0.421 22.209 QT
0.499 22.116 0.64 22.116 QT
3.046 22.116 3.827 21.975 QT
4.577 21.787 4.718 21.178 QT
8.546 5.787 L
8.671 5.444 8.671 5.178 QT
8.671 4.959 7.687 4.959 QT
6.062 4.959 L
4.187 4.959 3.171 5.53 QT
2.156 6.1 1.679 7.045 QT
1.202 7.991 0.437 10.131 QT
0.343 10.381 0.156 10.381 QT
-0.094 10.381 L
-0.376 10.381 -0.376 10.022 QT
1.624 4.225 L
1.671 3.975 1.89 3.975 QT
18.437 3.975 L
18.718 3.975 18.718 4.334 QT
17.796 10.131 L
17.796 10.225 17.702 10.303 QT
17.609 10.381 17.515 10.381 QT
17.265 10.381 L
16.984 10.381 16.984 10.022 QT
17.281 8.053 17.281 7.225 QT
17.281 6.241 16.874 5.733 QT
16.468 5.225 15.812 5.092 QT
15.156 4.959 14.109 4.959 QT
12.452 4.959 L
11.702 4.959 11.437 5.092 QT
11.171 5.225 10.999 5.912 QT
7.156 21.287 L
7.14 21.334 7.132 21.389 QT
7.124 21.444 7.109 21.522 QT
7.109 21.881 7.531 21.975 QT
8.249 22.116 10.624 22.116 QT
10.906 22.116 10.906 22.491 QT
10.812 22.881 10.757 22.991 QT
10.702 23.1 10.437 23.1 QT
0.531 23.1 L
0.234 23.1 0.234 22.725 QT
cp
f
GR
GS
[0.60127 0 0 0.60127 147.01091 268.66759] CT
0.149 GC
N
17.257 24.959 M
17.257 25.787 17.679 26.365 QT
18.101 26.944 18.882 26.944 QT
20.007 26.944 21.054 26.42 QT
22.101 25.897 22.757 24.975 QT
22.82 24.928 22.913 24.928 QT
23.007 24.928 23.101 25.03 QT
23.195 25.131 23.195 25.225 QT
23.195 25.303 23.163 25.334 QT
22.46 26.319 21.281 26.881 QT
20.101 27.444 18.851 27.444 QT
17.929 27.444 17.234 27.006 QT
16.538 26.569 16.163 25.85 QT
15.788 25.131 15.788 24.225 QT
15.788 22.944 16.499 21.678 QT
17.21 20.412 18.398 19.623 QT
19.585 18.834 20.898 18.834 QT
21.741 18.834 22.429 19.24 QT
23.116 19.647 23.116 20.459 QT
23.116 20.975 22.812 21.342 QT
22.507 21.709 22.007 21.709 QT
21.695 21.709 21.484 21.522 QT
21.273 21.334 21.273 21.022 QT
21.273 20.584 21.601 20.264 QT
21.929 19.944 22.366 19.944 QT
22.398 19.944 L
22.179 19.631 21.757 19.475 QT
21.335 19.319 20.882 19.319 QT
19.757 19.319 18.929 20.272 QT
18.101 21.225 17.679 22.545 QT
17.257 23.865 17.257 24.959 QT
cp
f
GR
GS
[0.60127 0 0 0.60127 0 0.20001] CT
0.149 GC
2 setlinecap
1 LJ
0.833 LW
N
61 404.5 M
61 37.5 L
S
GR
GS
[0.60127 0 0 0.60127 0 0.20001] CT
0.149 GC
2 setlinecap
1 LJ
0.833 LW
N
428 404.5 M
428 37.5 L
S
GR
GS
[0.60127 0 0 0.60127 0 0.20001] CT
0.149 GC
2 setlinecap
1 LJ
0.833 LW
N
61 404.5 M
64.67 404.5 L
S
GR
GS
[0.60127 0 0 0.60127 0 0.20001] CT
0.149 GC
2 setlinecap
1 LJ
0.833 LW
N
61 343.333 M
64.67 343.333 L
S
GR
GS
[0.60127 0 0 0.60127 0 0.20001] CT
0.149 GC
2 setlinecap
1 LJ
0.833 LW
N
61 282.167 M
64.67 282.167 L
S
GR
GS
[0.60127 0 0 0.60127 0 0.20001] CT
0.149 GC
2 setlinecap
1 LJ
0.833 LW
N
61 221 M
64.67 221 L
S
GR
GS
[0.60127 0 0 0.60127 0 0.20001] CT
0.149 GC
2 setlinecap
1 LJ
0.833 LW
N
61 159.833 M
64.67 159.833 L
S
GR
GS
[0.60127 0 0 0.60127 0 0.20001] CT
0.149 GC
2 setlinecap
1 LJ
0.833 LW
N
61 98.667 M
64.67 98.667 L
S
GR
GS
[0.60127 0 0 0.60127 0 0.20001] CT
0.149 GC
2 setlinecap
1 LJ
0.833 LW
N
61 37.5 M
64.67 37.5 L
S
GR
GS
[0.60127 0 0 0.60127 0 0.20001] CT
0.149 GC
2 setlinecap
1 LJ
0.833 LW
N
428 404.5 M
424.33 404.5 L
S
GR
GS
[0.60127 0 0 0.60127 0 0.20001] CT
0.149 GC
2 setlinecap
1 LJ
0.833 LW
N
428 343.333 M
424.33 343.333 L
S
GR
GS
[0.60127 0 0 0.60127 0 0.20001] CT
0.149 GC
2 setlinecap
1 LJ
0.833 LW
N
428 282.167 M
424.33 282.167 L
S
GR
GS
[0.60127 0 0 0.60127 0 0.20001] CT
0.149 GC
2 setlinecap
1 LJ
0.833 LW
N
428 221 M
424.33 221 L
S
GR
GS
[0.60127 0 0 0.60127 0 0.20001] CT
0.149 GC
2 setlinecap
1 LJ
0.833 LW
N
428 159.833 M
424.33 159.833 L
S
GR
GS
[0.60127 0 0 0.60127 0 0.20001] CT
0.149 GC
2 setlinecap
1 LJ
0.833 LW
N
428 98.667 M
424.33 98.667 L
S
GR
GS
[0.60127 0 0 0.60127 0 0.20001] CT
0.149 GC
2 setlinecap
1 LJ
0.833 LW
N
428 37.5 M
424.33 37.5 L
S
GR
GS
[0.60127 0 0 0.60127 31.66695 243.4142] CT
0.149 GC
/Helvetica 25 F
GS
[1 0 0 1 0 0] CT
-44 10 moveto 
1 -1 scale
(-1.5) t 
GR
GR
GS
[0.60127 0 0 0.60127 31.66695 206.63645] CT
0.149 GC
/Helvetica 25 F
GS
[1 0 0 1 0 0] CT
-23 10 moveto 
1 -1 scale
(-1) t 
GR
GR
GS
[0.60127 0 0 0.60127 31.66695 169.85869] CT
0.149 GC
/Helvetica 25 F
GS
[1 0 0 1 0 0] CT
-44 10 moveto 
1 -1 scale
(-0.5) t 
GR
GR
GS
[0.60127 0 0 0.60127 31.66695 133.08094] CT
0.149 GC
/Helvetica 25 F
GS
[1 0 0 1 0 0] CT
-14 10 moveto 
1 -1 scale
(0) t 
GR
GR
GS
[0.60127 0 0 0.60127 31.66695 96.30318] CT
0.149 GC
/Helvetica 25 F
GS
[1 0 0 1 0 0] CT
-35 10 moveto 
1 -1 scale
(0.5) t 
GR
GR
GS
[0.60127 0 0 0.60127 31.66695 59.52543] CT
0.149 GC
/Helvetica 25 F
GS
[1 0 0 1 0 0] CT
-14 10 moveto 
1 -1 scale
(1) t 
GR
GR
GS
[0.60127 0 0 0.60127 31.66695 22.74768] CT
0.149 GC
/Helvetica 25 F
GS
[1 0 0 1 0 0] CT
-35 10 moveto 
1 -1 scale
(1.5) t 
GR
GR
GS
[0.60127 0 0 0.60127 0 0.20001] CT
0 0.447 0.741 RC
1 LJ
2.5 LW
N
113.431 221 M
118.898 221 L
125.347 221 L
131.584 221 L
137.262 221 L
143.108 221 L
149.178 221 L
155.751 221 L
161.093 221 L
167.733 221 L
173.009 221 L
178.756 221 L
184.924 221 L
190.651 221 L
193.745 221 L
196.839 221 L
198.501 221 L
199.332 221 L
199.747 221 L
200.162 221 L
200.37 221 L
200.578 221 L
200.682 221 L
200.734 221 L
200.76 221 L
200.772 221 L
200.785 221 L
200.798 221 L
200.811 67.475 L
200.824 67.475 L
200.837 67.475 L
200.863 67.475 L
200.889 67.475 L
200.941 67.475 L
200.993 67.475 L
201.097 67.475 L
201.201 67.475 L
201.409 67.475 L
201.824 67.475 L
202.655 67.475 L
203.485 67.475 L
204.803 67.475 L
206.12 67.475 L
208.755 67.475 L
215.145 67.475 L
217.908 67.475 L
219.289 67.475 L
220.67 67.475 L
221.454 67.475 L
221.846 67.475 L
222.238 67.475 L
222.434 67.475 L
222.532 67.475 L
222.581 67.475 L
222.606 67.475 L
222.63 67.475 L
222.642 67.475 L
222.655 67.475 L
222.667 141.245 L
222.679 141.245 L
222.691 141.245 L
222.704 141.245 L
222.728 141.245 L
222.777 141.245 L
222.826 141.245 L
222.924 141.245 L
223.022 141.245 L
223.218 141.245 L
223.414 141.245 L
223.806 141.245 L
224.59 141.245 L
225.374 141.245 L
226.941 141.245 L
229.764 141.245 L
232.586 141.245 L
235.537 141.245 L
238.488 141.245 L
239.992 141.245 L
241.495 141.245 L
242.246 141.245 L
242.998 141.245 L
243.374 141.245 L
243.75 141.245 L
243.938 141.245 L
244.126 141.245 L
244.219 141.245 L
244.313 141.245 L
244.36 141.245 L
244.407 141.245 L
244.431 141.245 L
244.454 141.245 L
244.466 141.245 L
244.478 141.245 L
244.49 141.245 L
244.501 300.755 L
244.513 300.755 L
244.525 300.755 L
244.548 300.755 L
244.594 300.755 L
244.688 300.755 L
244.874 300.755 L
245.246 300.755 L
245.991 300.755 L
247.481 300.755 L
250.461 300.755 L
256.417 300.755 L
259.514 300.755 L
262.611 300.755 L
264.042 300.755 L
264.757 300.755 L
265.472 300.755 L
265.829 300.755 L
266.008 300.755 L
266.098 300.755 L
266.187 300.755 L
266.232 300.755 L
266.276 300.755 L
266.299 300.755 L
266.321 300.755 L
266.332 300.755 L
266.343 300.755 L
266.354 374.525 L
266.366 374.525 L
266.377 374.525 L
266.388 374.525 L
266.41 374.525 L
266.455 374.525 L
266.544 374.525 L
266.723 374.525 L
266.902 374.525 L
267.26 374.525 L
267.617 374.525 L
268.332 374.525 L
269.941 374.525 L
271.55 374.525 L
274.767 374.525 L
280.248 374.525 L
283.175 374.525 L
284.639 374.525 L
286.103 374.525 L
286.861 374.525 L
287.239 374.525 L
287.618 374.525 L
287.808 374.525 L
287.997 374.525 L
288.092 374.525 L
288.139 374.525 L
288.163 374.525 L
288.174 374.525 L
288.186 374.525 L
288.198 221 L
288.21 221 L
288.222 221 L
288.234 221 L
288.257 221 L
288.281 221 L
288.328 221 L
288.376 221 L
288.47 221 L
288.565 221 L
288.754 221 L
289.133 221 L
289.891 221 L
290.648 221 L
292.163 221 L
295.162 221 L
298.16 221 L
304.079 221 L
310.041 221 L
315.994 221 L
322.386 221 L
327.91 221 L
333.586 221 L
339.825 221 L
346.077 221 L
351.741 221 L
356.237 221 L
363.656 221 L
369.503 221 L
375.571 221 L
S
GR
%%Trailer
%%Pages: 1
%%EOF
