%!PS-Adobe-3.0 EPSF-3.0
%%Creator: (MATLAB, The Mathworks, Inc. Version 9.2.0.538062 \(R2017a\). Operating System: Windows 8)
%%Title: C:/Users/chees/Documents/DottoratoLoc/GNSS/authProtocol/latex/figures/mpsk.eps
%%CreationDate: 2017-11-20T08:14:40
%%Pages: (atend)
%%BoundingBox: 0 0 284 284
%%LanguageLevel: 3
%%EndComments
%%BeginProlog
%%BeginResource: procset (Apache XML Graphics Std ProcSet) 1.2 0
%%Version: 1.2 0
%%Copyright: (Copyright 2001-2003,2010 The Apache Software Foundation. License terms: http://www.apache.org/licenses/LICENSE-2.0)
/bd{bind def}bind def
/ld{load def}bd
/GR/grestore ld
/M/moveto ld
/LJ/setlinejoin ld
/C/curveto ld
/f/fill ld
/LW/setlinewidth ld
/GC/setgray ld
/t/show ld
/N/newpath ld
/CT/concat ld
/cp/closepath ld
/S/stroke ld
/L/lineto ld
/CC/setcmykcolor ld
/A/ashow ld
/GS/gsave ld
/RC/setrgbcolor ld
/RM/rmoveto ld
/ML/setmiterlimit ld
/re {4 2 roll M
1 index 0 rlineto
0 exch rlineto
neg 0 rlineto
cp } bd
/_ctm matrix def
/_tm matrix def
/BT { _ctm currentmatrix pop matrix _tm copy pop 0 0 moveto } bd
/ET { _ctm setmatrix } bd
/iTm { _ctm setmatrix _tm concat } bd
/Tm { _tm astore pop iTm 0 0 moveto } bd
/ux 0.0 def
/uy 0.0 def
/F {
  /Tp exch def
  /Tf exch def
  Tf findfont Tp scalefont setfont
  /cf Tf def  /cs Tp def
} bd
/ULS {currentpoint /uy exch def /ux exch def} bd
/ULE {
  /Tcx currentpoint pop def
  gsave
  newpath
  cf findfont cs scalefont dup
  /FontMatrix get 0 get /Ts exch def /FontInfo get dup
  /UnderlinePosition get Ts mul /To exch def
  /UnderlineThickness get Ts mul /Tt exch def
  ux uy To add moveto  Tcx uy To add lineto
  Tt setlinewidth stroke
  grestore
} bd
/OLE {
  /Tcx currentpoint pop def
  gsave
  newpath
  cf findfont cs scalefont dup
  /FontMatrix get 0 get /Ts exch def /FontInfo get dup
  /UnderlinePosition get Ts mul /To exch def
  /UnderlineThickness get Ts mul /Tt exch def
  ux uy To add cs add moveto Tcx uy To add cs add lineto
  Tt setlinewidth stroke
  grestore
} bd
/SOE {
  /Tcx currentpoint pop def
  gsave
  newpath
  cf findfont cs scalefont dup
  /FontMatrix get 0 get /Ts exch def /FontInfo get dup
  /UnderlinePosition get Ts mul /To exch def
  /UnderlineThickness get Ts mul /Tt exch def
  ux uy To add cs 10 mul 26 idiv add moveto Tcx uy To add cs 10 mul 26 idiv add lineto
  Tt setlinewidth stroke
  grestore
} bd
/QT {
/Y22 exch store
/X22 exch store
/Y21 exch store
/X21 exch store
currentpoint
/Y21 load 2 mul add 3 div exch
/X21 load 2 mul add 3 div exch
/X21 load 2 mul /X22 load add 3 div
/Y21 load 2 mul /Y22 load add 3 div
/X22 load /Y22 load curveto
} bd
/SSPD {
dup length /d exch dict def
{
/v exch def
/k exch def
currentpagedevice k known {
/cpdv currentpagedevice k get def
v cpdv ne {
/upd false def
/nullv v type /nulltype eq def
/nullcpdv cpdv type /nulltype eq def
nullv nullcpdv or
{
/upd true def
} {
/sametype v type cpdv type eq def
sametype {
v type /arraytype eq {
/vlen v length def
/cpdvlen cpdv length def
vlen cpdvlen eq {
0 1 vlen 1 sub {
/i exch def
/obj v i get def
/cpdobj cpdv i get def
obj cpdobj ne {
/upd true def
exit
} if
} for
} {
/upd true def
} ifelse
} {
v type /dicttype eq {
v {
/dv exch def
/dk exch def
/cpddv cpdv dk get def
dv cpddv ne {
/upd true def
exit
} if
} forall
} {
/upd true def
} ifelse
} ifelse
} if
} ifelse
upd true eq {
d k v put
} if
} if
} if
} forall
d length 0 gt {
d setpagedevice
} if
} bd
/RE { % /NewFontName [NewEncodingArray] /FontName RE -
  findfont dup length dict begin
  {
    1 index /FID ne
    {def} {pop pop} ifelse
  } forall
  /Encoding exch def
  /FontName 1 index def
  currentdict definefont pop
  end
} bind def
%%EndResource
%%BeginResource: procset (Apache XML Graphics EPS ProcSet) 1.0 0
%%Version: 1.0 0
%%Copyright: (Copyright 2002-2003 The Apache Software Foundation. License terms: http://www.apache.org/licenses/LICENSE-2.0)
/BeginEPSF { %def
/b4_Inc_state save def         % Save state for cleanup
/dict_count countdictstack def % Count objects on dict stack
/op_count count 1 sub def      % Count objects on operand stack
userdict begin                 % Push userdict on dict stack
/showpage { } def              % Redefine showpage, { } = null proc
0 setgray 0 setlinecap         % Prepare graphics state
1 setlinewidth 0 setlinejoin
10 setmiterlimit [ ] 0 setdash newpath
/languagelevel where           % If level not equal to 1 then
{pop languagelevel             % set strokeadjust and
1 ne                           % overprint to their defaults.
{false setstrokeadjust false setoverprint
} if
} if
} bd
/EndEPSF { %def
count op_count sub {pop} repeat            % Clean up stacks
countdictstack dict_count sub {end} repeat
b4_Inc_state restore
} bd
%%EndResource
%FOPBeginFontDict
%%IncludeResource: font Courier-Bold
%%IncludeResource: font Helvetica
%%IncludeResource: font Courier-BoldOblique
%%IncludeResource: font Courier-Oblique
%%IncludeResource: font Times-Roman
%%IncludeResource: font Helvetica-BoldOblique
%%IncludeResource: font Helvetica-Bold
%%IncludeResource: font Helvetica-Oblique
%%IncludeResource: font Times-BoldItalic
%%IncludeResource: font Courier
%%IncludeResource: font Times-Italic
%%IncludeResource: font Times-Bold
%%IncludeResource: font Symbol
%%IncludeResource: font ZapfDingbats
%FOPEndFontDict
%%BeginResource: encoding WinAnsiEncoding
/WinAnsiEncoding [
/.notdef /.notdef /.notdef /.notdef /.notdef
/.notdef /.notdef /.notdef /.notdef /.notdef
/.notdef /.notdef /.notdef /.notdef /.notdef
/.notdef /.notdef /.notdef /.notdef /.notdef
/.notdef /.notdef /.notdef /.notdef /.notdef
/.notdef /.notdef /.notdef /.notdef /.notdef
/.notdef /.notdef /space /exclam /quotedbl
/numbersign /dollar /percent /ampersand /quotesingle
/parenleft /parenright /asterisk /plus /comma
/hyphen /period /slash /zero /one
/two /three /four /five /six
/seven /eight /nine /colon /semicolon
/less /equal /greater /question /at
/A /B /C /D /E
/F /G /H /I /J
/K /L /M /N /O
/P /Q /R /S /T
/U /V /W /X /Y
/Z /bracketleft /backslash /bracketright /asciicircum
/underscore /quoteleft /a /b /c
/d /e /f /g /h
/i /j /k /l /m
/n /o /p /q /r
/s /t /u /v /w
/x /y /z /braceleft /bar
/braceright /asciitilde /bullet /Euro /bullet
/quotesinglbase /florin /quotedblbase /ellipsis /dagger
/daggerdbl /circumflex /perthousand /Scaron /guilsinglleft
/OE /bullet /Zcaron /bullet /bullet
/quoteleft /quoteright /quotedblleft /quotedblright /bullet
/endash /emdash /asciitilde /trademark /scaron
/guilsinglright /oe /bullet /zcaron /Ydieresis
/space /exclamdown /cent /sterling /currency
/yen /brokenbar /section /dieresis /copyright
/ordfeminine /guillemotleft /logicalnot /sfthyphen /registered
/macron /degree /plusminus /twosuperior /threesuperior
/acute /mu /paragraph /middot /cedilla
/onesuperior /ordmasculine /guillemotright /onequarter /onehalf
/threequarters /questiondown /Agrave /Aacute /Acircumflex
/Atilde /Adieresis /Aring /AE /Ccedilla
/Egrave /Eacute /Ecircumflex /Edieresis /Igrave
/Iacute /Icircumflex /Idieresis /Eth /Ntilde
/Ograve /Oacute /Ocircumflex /Otilde /Odieresis
/multiply /Oslash /Ugrave /Uacute /Ucircumflex
/Udieresis /Yacute /Thorn /germandbls /agrave
/aacute /acircumflex /atilde /adieresis /aring
/ae /ccedilla /egrave /eacute /ecircumflex
/edieresis /igrave /iacute /icircumflex /idieresis
/eth /ntilde /ograve /oacute /ocircumflex
/otilde /odieresis /divide /oslash /ugrave
/uacute /ucircumflex /udieresis /yacute /thorn
/ydieresis
] def
%%EndResource
%FOPBeginFontReencode
/Courier-Bold findfont
dup length dict begin
  {1 index /FID ne {def} {pop pop} ifelse} forall
  /Encoding WinAnsiEncoding def
  currentdict
end
/Courier-Bold exch definefont pop
/Helvetica findfont
dup length dict begin
  {1 index /FID ne {def} {pop pop} ifelse} forall
  /Encoding WinAnsiEncoding def
  currentdict
end
/Helvetica exch definefont pop
/Courier-BoldOblique findfont
dup length dict begin
  {1 index /FID ne {def} {pop pop} ifelse} forall
  /Encoding WinAnsiEncoding def
  currentdict
end
/Courier-BoldOblique exch definefont pop
/Courier-Oblique findfont
dup length dict begin
  {1 index /FID ne {def} {pop pop} ifelse} forall
  /Encoding WinAnsiEncoding def
  currentdict
end
/Courier-Oblique exch definefont pop
/Times-Roman findfont
dup length dict begin
  {1 index /FID ne {def} {pop pop} ifelse} forall
  /Encoding WinAnsiEncoding def
  currentdict
end
/Times-Roman exch definefont pop
/Helvetica-BoldOblique findfont
dup length dict begin
  {1 index /FID ne {def} {pop pop} ifelse} forall
  /Encoding WinAnsiEncoding def
  currentdict
end
/Helvetica-BoldOblique exch definefont pop
/Helvetica-Bold findfont
dup length dict begin
  {1 index /FID ne {def} {pop pop} ifelse} forall
  /Encoding WinAnsiEncoding def
  currentdict
end
/Helvetica-Bold exch definefont pop
/Helvetica-Oblique findfont
dup length dict begin
  {1 index /FID ne {def} {pop pop} ifelse} forall
  /Encoding WinAnsiEncoding def
  currentdict
end
/Helvetica-Oblique exch definefont pop
/Times-BoldItalic findfont
dup length dict begin
  {1 index /FID ne {def} {pop pop} ifelse} forall
  /Encoding WinAnsiEncoding def
  currentdict
end
/Times-BoldItalic exch definefont pop
/Courier findfont
dup length dict begin
  {1 index /FID ne {def} {pop pop} ifelse} forall
  /Encoding WinAnsiEncoding def
  currentdict
end
/Courier exch definefont pop
/Times-Italic findfont
dup length dict begin
  {1 index /FID ne {def} {pop pop} ifelse} forall
  /Encoding WinAnsiEncoding def
  currentdict
end
/Times-Italic exch definefont pop
/Times-Bold findfont
dup length dict begin
  {1 index /FID ne {def} {pop pop} ifelse} forall
  /Encoding WinAnsiEncoding def
  currentdict
end
/Times-Bold exch definefont pop
%FOPEndFontReencode
%%EndProlog
%%Page: 1 1
%%PageBoundingBox: 0 0 284 284
%%BeginPageSetup
[1 0 0 -1 0 284] CT
%%EndPageSetup
GS
[0.60127 0 0 0.60127 0 0.20001] CT
N
0 0 M
472 0 L
472 472 L
0 472 L
0 0 L
cp
clip
1 GC
N
0 0 472 472 re
f
GR
GS
[0.60127 0 0 0.60127 0 0.20001] CT
1 GC
N
0 0 472 472 re
f
GR
GS
[0.60127 0 0 0.60127 0 0.20001] CT
1 GC
N
64 415 M
428 415 L
428 35 L
64 35 L
cp
f
GR
GS
[0.60127 0 0 0.60127 0 0.20001] CT
0.873 GC
1 LJ
0.833 LW
N
103 415 M
103 35 L
S
GR
GS
[0.60127 0 0 0.60127 0 0.20001] CT
0.873 GC
1 LJ
0.833 LW
N
168 415 M
168 35 L
S
GR
GS
[0.60127 0 0 0.60127 0 0.20001] CT
0.873 GC
1 LJ
0.833 LW
N
233 415 M
233 35 L
S
GR
GS
[0.60127 0 0 0.60127 0 0.20001] CT
0.873 GC
1 LJ
0.833 LW
N
298 415 M
298 35 L
S
GR
GS
[0.60127 0 0 0.60127 0 0.20001] CT
0.873 GC
1 LJ
0.833 LW
N
363 415 M
363 35 L
S
GR
GS
[0.60127 0 0 0.60127 0 0.20001] CT
0.873 GC
1 LJ
0.833 LW
N
428 415 M
428 35 L
S
GR
GS
[0.60127 0 0 0.60127 0 0.20001] CT
0.873 GC
1 LJ
0.833 LW
N
428 415 M
64 415 L
S
GR
GS
[0.60127 0 0 0.60127 0 0.20001] CT
0.873 GC
1 LJ
0.833 LW
N
428 320 M
64 320 L
S
GR
GS
[0.60127 0 0 0.60127 0 0.20001] CT
0.873 GC
1 LJ
0.833 LW
N
428 225 M
64 225 L
S
GR
GS
[0.60127 0 0 0.60127 0 0.20001] CT
0.873 GC
1 LJ
0.833 LW
N
428 130 M
64 130 L
S
GR
GS
[0.60127 0 0 0.60127 0 0.20001] CT
0.873 GC
1 LJ
0.833 LW
N
428 35 M
64 35 L
S
GR
GS
[0.60127 0 0 0.60127 0 0.20001] CT
0.149 GC
2 setlinecap
1 LJ
0.833 LW
N
64 415 M
428 415 L
S
GR
GS
[0.60127 0 0 0.60127 0 0.20001] CT
0.149 GC
2 setlinecap
1 LJ
0.833 LW
N
103 415 M
103 411.203 L
S
GR
GS
[0.60127 0 0 0.60127 0 0.20001] CT
0.149 GC
2 setlinecap
1 LJ
0.833 LW
N
168 415 M
168 411.203 L
S
GR
GS
[0.60127 0 0 0.60127 0 0.20001] CT
0.149 GC
2 setlinecap
1 LJ
0.833 LW
N
233 415 M
233 411.203 L
S
GR
GS
[0.60127 0 0 0.60127 0 0.20001] CT
0.149 GC
2 setlinecap
1 LJ
0.833 LW
N
298 415 M
298 411.203 L
S
GR
GS
[0.60127 0 0 0.60127 0 0.20001] CT
0.149 GC
2 setlinecap
1 LJ
0.833 LW
N
363 415 M
363 411.203 L
S
GR
GS
[0.60127 0 0 0.60127 0 0.20001] CT
0.149 GC
2 setlinecap
1 LJ
0.833 LW
N
428 415 M
428 411.203 L
S
GR
GS
[0.60127 0 0 0.60127 61.93093 253.73601] CT
0.149 GC
/Helvetica 16.667 F
GS
[1 0 0 1 0 0] CT
-8 18 moveto 
1 -1 scale
(-5) t 
GR
GR
GS
[0.60127 0 0 0.60127 101.01355 253.73601] CT
0.149 GC
/Helvetica 16.667 F
GS
[1 0 0 1 0 0] CT
-5 18 moveto 
1 -1 scale
(0) t 
GR
GR
GS
[0.60127 0 0 0.60127 140.09618 253.73601] CT
0.149 GC
/Helvetica 16.667 F
GS
[1 0 0 1 0 0] CT
-5 18 moveto 
1 -1 scale
(5) t 
GR
GR
GS
[0.60127 0 0 0.60127 179.17881 253.73601] CT
0.149 GC
/Helvetica 16.667 F
GS
[1 0 0 1 0 0] CT
-9.5 18 moveto 
1 -1 scale
(10) t 
GR
GR
GS
[0.60127 0 0 0.60127 218.26143 253.73601] CT
0.149 GC
/Helvetica 16.667 F
GS
[1 0 0 1 0 0] CT
-9.5 18 moveto 
1 -1 scale
(15) t 
GR
GR
GS
[0.60127 0 0 0.60127 257.34406 253.73601] CT
0.149 GC
/Helvetica 16.667 F
GS
[1 0 0 1 0 0] CT
-9.5 18 moveto 
1 -1 scale
(20) t 
GR
GR
GS
[0.60127 0 0 0.60127 147.91281 267.76568] CT
0.149 GC
N
-37.635 19.866 M
-38.651 19.866 -39.44 19.373 QT
-40.229 18.881 -40.666 18.053 QT
-41.104 17.225 -41.104 16.225 QT
-41.104 15.147 -40.619 13.967 QT
-40.135 12.787 -39.299 11.811 QT
-38.463 10.834 -37.409 10.256 QT
-36.354 9.678 -35.244 9.678 QT
-29.448 9.678 L
-29.213 9.678 -29.041 9.834 QT
-28.869 9.991 -28.869 10.272 QT
-28.869 10.6 -29.112 10.858 QT
-29.354 11.116 -29.698 11.116 QT
-32.494 11.116 L
-31.838 12.1 -31.838 13.506 QT
-31.838 14.662 -32.284 15.78 QT
-32.729 16.897 -33.526 17.826 QT
-34.323 18.756 -35.385 19.311 QT
-36.448 19.866 -37.635 19.866 QT
cp
-37.604 19.256 M
-36.354 19.256 -35.377 18.272 QT
-34.401 17.287 -33.885 15.866 QT
-33.369 14.444 -33.369 13.225 QT
-33.369 12.241 -33.916 11.678 QT
-34.463 11.116 -35.448 11.116 QT
-36.776 11.116 -37.713 12.014 QT
-38.651 12.912 -39.119 14.272 QT
-39.588 15.631 -39.588 16.881 QT
-39.588 17.866 -39.065 18.561 QT
-38.541 19.256 -37.604 19.256 QT
cp
f
GR
GS
[0.60127 0 0 0.60127 147.91281 267.76568] CT
0.149 GC
N
-26.965 11.132 M
-26.965 10.695 L
-26.965 10.664 -26.934 10.617 QT
-24.449 7.867 L
-23.887 7.257 -23.535 6.843 QT
-23.184 6.429 -22.84 5.89 QT
-22.496 5.351 -22.293 4.789 QT
-22.09 4.226 -22.09 3.601 QT
-22.09 2.945 -22.332 2.351 QT
-22.574 1.757 -23.059 1.398 QT
-23.543 1.039 -24.215 1.039 QT
-24.918 1.039 -25.473 1.453 QT
-26.028 1.867 -26.246 2.539 QT
-26.184 2.523 -26.074 2.523 QT
-25.715 2.523 -25.465 2.765 QT
-25.215 3.007 -25.215 3.382 QT
-25.215 3.757 -25.465 4.007 QT
-25.715 4.257 -26.074 4.257 QT
-26.449 4.257 -26.707 4 QT
-26.965 3.742 -26.965 3.382 QT
-26.965 2.789 -26.738 2.257 QT
-26.512 1.726 -26.082 1.32 QT
-25.653 0.914 -25.121 0.695 QT
-24.59 0.476 -23.981 0.476 QT
-23.074 0.476 -22.285 0.859 QT
-21.496 1.242 -21.035 1.953 QT
-20.574 2.664 -20.574 3.601 QT
-20.574 4.304 -20.879 4.929 QT
-21.184 5.554 -21.66 6.062 QT
-22.137 6.57 -22.879 7.218 QT
-23.621 7.867 -23.856 8.086 QT
-25.668 9.836 L
-24.121 9.836 L
-22.996 9.836 -22.231 9.812 QT
-21.465 9.789 -21.418 9.757 QT
-21.231 9.554 -21.043 8.273 QT
-20.574 8.273 L
-21.028 11.132 L
-26.965 11.132 L
cp
f
GR
GS
[0.60127 0 0 0.60127 147.91281 267.76568] CT
0.149 GC
N
-26.865 23.509 M
-26.865 23.165 -26.779 22.728 QT
-26.693 22.29 -26.583 21.954 QT
-26.474 21.618 -26.208 20.915 QT
-25.943 20.212 -25.927 20.15 QT
-25.708 19.556 -25.708 19.181 QT
-25.708 18.712 -26.068 18.712 QT
-26.693 18.712 -27.107 19.36 QT
-27.521 20.009 -27.708 20.821 QT
-27.74 20.915 -27.849 20.915 QT
-28.037 20.915 L
-28.162 20.915 -28.162 20.775 QT
-28.162 20.728 L
-27.912 19.775 -27.38 19.032 QT
-26.849 18.29 -26.037 18.29 QT
-25.458 18.29 -25.068 18.665 QT
-24.677 19.04 -24.677 19.618 QT
-24.677 19.915 -24.802 20.243 QT
-24.99 20.728 -25.247 21.407 QT
-25.505 22.087 -25.646 22.642 QT
-25.787 23.196 -25.787 23.712 QT
-25.787 24.337 -25.458 24.728 QT
-25.13 25.118 -24.505 25.118 QT
-23.646 25.118 -23.083 23.821 QT
-23.115 23.728 -23.115 23.556 QT
-23.115 23.134 -22.974 22.587 QT
-22.083 18.978 L
-22.021 18.775 -21.826 18.618 QT
-21.63 18.462 -21.412 18.462 QT
-21.224 18.462 -21.076 18.587 QT
-20.927 18.712 -20.927 18.915 QT
-20.927 19.009 -20.943 19.04 QT
-21.849 22.618 L
-22.005 23.259 -22.005 23.759 QT
-22.005 24.368 -21.724 24.743 QT
-21.443 25.118 -20.849 25.118 QT
-19.818 25.118 -19.162 23.759 QT
-18.912 23.275 -18.599 22.329 QT
-18.287 21.384 -18.287 20.884 QT
-18.287 20.431 -18.435 20.157 QT
-18.583 19.884 -18.849 19.571 QT
-19.115 19.259 -19.115 19.103 QT
-19.115 18.806 -18.849 18.54 QT
-18.583 18.275 -18.271 18.275 QT
-17.896 18.275 -17.724 18.626 QT
-17.552 18.978 -17.552 19.431 QT
-17.552 19.962 -17.732 20.798 QT
-17.912 21.634 -18.185 22.47 QT
-18.458 23.306 -18.708 23.806 QT
-19.583 25.556 -20.88 25.556 QT
-21.552 25.556 -22.107 25.29 QT
-22.662 25.025 -22.927 24.462 QT
-23.193 24.931 -23.607 25.243 QT
-24.021 25.556 -24.537 25.556 QT
-25.583 25.556 -26.224 25.048 QT
-26.865 24.54 -26.865 23.509 QT
cp
f
GR
GS
[0.60127 0 0 0.60127 147.91281 267.76568] CT
0.149 GC
N
-15.341 19.119 M
-15.466 19.119 -15.576 19.009 QT
-15.685 18.9 -15.685 18.759 QT
-15.685 18.556 -15.513 18.478 QT
-13.794 17.65 L
-15.513 16.837 L
-15.685 16.759 -15.685 16.54 QT
-15.685 16.415 -15.576 16.298 QT
-15.466 16.181 -15.341 16.181 QT
-15.247 16.181 -15.169 16.244 QT
-13.638 17.369 L
-13.81 15.4 L
-13.81 15.259 -13.708 15.165 QT
-13.607 15.072 -13.466 15.072 QT
-13.326 15.072 -13.232 15.158 QT
-13.138 15.244 -13.138 15.384 QT
-13.138 15.4 L
-13.31 17.369 L
-11.779 16.244 L
-11.701 16.181 -11.607 16.181 QT
-11.466 16.181 -11.365 16.298 QT
-11.263 16.415 -11.263 16.54 QT
-11.263 16.759 -11.419 16.837 QT
-13.154 17.65 L
-11.419 18.478 L
-11.263 18.556 -11.263 18.759 QT
-11.263 18.9 -11.365 19.009 QT
-11.466 19.119 -11.607 19.119 QT
-11.701 19.119 -11.779 19.072 QT
-13.31 17.947 L
-13.138 19.9 L
-13.138 19.931 L
-13.138 20.056 -13.24 20.15 QT
-13.341 20.244 -13.466 20.244 QT
-13.607 20.244 -13.708 20.142 QT
-13.81 20.04 -13.81 19.9 QT
-13.638 17.947 L
-15.169 19.072 L
-15.247 19.119 -15.341 19.119 QT
cp
f
GR
GS
[0.60127 0 0 0.60127 147.91281 267.76568] CT
0.149 GC
N
2.197 25.35 M
2.197 2.35 L
5.338 2.35 L
5.338 3.272 L
3.119 3.272 L
3.119 24.428 L
5.338 24.428 L
5.338 25.35 L
2.197 25.35 L
cp
f
GR
GS
[0.60127 0 0 0.60127 147.91281 267.76568] CT
0.149 GC
N
11.569 19.866 M
10.21 19.866 9.093 19.123 QT
7.975 18.381 7.35 17.186 QT
6.725 15.991 6.725 14.631 QT
6.725 13.241 7.405 12.045 QT
8.085 10.85 9.249 10.147 QT
10.413 9.444 11.819 9.444 QT
12.663 9.444 13.413 9.795 QT
14.163 10.147 14.725 10.772 QT
14.725 5.991 L
14.725 5.366 14.538 5.092 QT
14.35 4.819 14.007 4.756 QT
13.663 4.694 12.928 4.694 QT
12.928 3.881 L
16.335 3.647 L
16.335 17.506 L
16.335 18.116 16.522 18.389 QT
16.71 18.662 17.053 18.725 QT
17.397 18.787 18.116 18.787 QT
18.116 19.6 L
14.647 19.866 L
14.647 18.412 L
14.053 19.1 13.233 19.483 QT
12.413 19.866 11.569 19.866 QT
cp
9.225 17.6 M
9.616 18.35 10.272 18.803 QT
10.928 19.256 11.71 19.256 QT
12.663 19.256 13.46 18.701 QT
14.257 18.147 14.647 17.272 QT
14.647 11.756 L
14.382 11.256 13.975 10.858 QT
13.569 10.459 13.053 10.248 QT
12.538 10.037 11.975 10.037 QT
10.772 10.037 10.038 10.717 QT
9.303 11.397 9.014 12.451 QT
8.725 13.506 8.725 14.662 QT
8.725 15.584 8.819 16.264 QT
8.913 16.944 9.225 17.6 QT
cp
f
GR
GS
[0.60127 0 0 0.60127 147.91281 267.76568] CT
0.149 GC
N
19.704 19.6 M
19.704 18.787 L
22.079 18.787 22.079 18.069 QT
22.079 5.428 L
22.079 4.694 19.704 4.694 QT
19.704 3.881 L
28.173 3.881 L
29.329 3.881 30.524 4.342 QT
31.72 4.803 32.501 5.694 QT
33.282 6.584 33.282 7.803 QT
33.282 9.194 32.126 10.147 QT
30.97 11.1 29.438 11.397 QT
30.438 11.397 31.493 11.944 QT
32.548 12.491 33.22 13.412 QT
33.891 14.334 33.891 15.366 QT
33.891 16.631 33.149 17.592 QT
32.407 18.553 31.212 19.076 QT
30.016 19.6 28.813 19.6 QT
19.704 19.6 L
cp
24.079 18.069 M
24.079 18.553 24.36 18.67 QT
24.641 18.787 25.251 18.787 QT
28.173 18.787 L
29.063 18.787 29.837 18.319 QT
30.61 17.85 31.056 17.061 QT
31.501 16.272 31.501 15.366 QT
31.501 14.491 31.134 13.655 QT
30.766 12.819 30.071 12.28 QT
29.376 11.741 28.485 11.741 QT
24.079 11.741 L
24.079 18.069 L
cp
24.079 11.131 M
27.532 11.131 L
28.22 11.131 28.829 10.881 QT
29.438 10.631 29.931 10.155 QT
30.423 9.678 30.688 9.076 QT
30.954 8.475 30.954 7.803 QT
30.954 7.194 30.759 6.647 QT
30.563 6.1 30.181 5.655 QT
29.798 5.209 29.282 4.951 QT
28.766 4.694 28.173 4.694 QT
25.251 4.694 L
24.829 4.694 24.602 4.733 QT
24.376 4.772 24.227 4.928 QT
24.079 5.084 24.079 5.428 QT
24.079 11.131 L
cp
f
GR
GS
[0.60127 0 0 0.60127 147.91281 267.76568] CT
0.149 GC
N
35.951 25.35 M
35.951 24.428 L
38.185 24.428 L
38.185 3.272 L
35.951 3.272 L
35.951 2.35 L
39.107 2.35 L
39.107 25.35 L
35.951 25.35 L
cp
f
GR
GS
[0.60127 0 0 0.60127 0 0.20001] CT
0.149 GC
2 setlinecap
1 LJ
0.833 LW
N
64 415 M
64 35 L
S
GR
GS
[0.60127 0 0 0.60127 0 0.20001] CT
0.149 GC
2 setlinecap
1 LJ
0.833 LW
N
64 415 M
67.797 415 L
S
GR
GS
[0.60127 0 0 0.60127 0 0.20001] CT
0.149 GC
2 setlinecap
1 LJ
0.833 LW
N
64 320 M
67.797 320 L
S
GR
GS
[0.60127 0 0 0.60127 0 0.20001] CT
0.149 GC
2 setlinecap
1 LJ
0.833 LW
N
64 225 M
67.797 225 L
S
GR
GS
[0.60127 0 0 0.60127 0 0.20001] CT
0.149 GC
2 setlinecap
1 LJ
0.833 LW
N
64 130 M
67.797 130 L
S
GR
GS
[0.60127 0 0 0.60127 0 0.20001] CT
0.149 GC
2 setlinecap
1 LJ
0.833 LW
N
64 35 M
67.797 35 L
S
GR
GS
[0.60127 0 0 0.60127 34.47288 249.72754] CT
0.149 GC
/Helvetica 16.667 F
GS
[1 0 0 1 0 0] CT
-10 7 moveto 
1 -1 scale
(0) t 
GR
GR
GS
[0.60127 0 0 0.60127 34.47288 192.60678] CT
0.149 GC
/Helvetica 16.667 F
GS
[1 0 0 1 0 0] CT
-24 7 moveto 
1 -1 scale
(0.5) t 
GR
GR
GS
[0.60127 0 0 0.60127 34.47288 135.48602] CT
0.149 GC
/Helvetica 16.667 F
GS
[1 0 0 1 0 0] CT
-10 7 moveto 
1 -1 scale
(1) t 
GR
GR
GS
[0.60127 0 0 0.60127 34.47288 78.36526] CT
0.149 GC
/Helvetica 16.667 F
GS
[1 0 0 1 0 0] CT
-24 7 moveto 
1 -1 scale
(1.5) t 
GR
GR
GS
[0.60127 0 0 0.60127 34.47288 21.2445] CT
0.149 GC
/Helvetica 16.667 F
GS
[1 0 0 1 0 0] CT
-10 7 moveto 
1 -1 scale
(2) t 
GR
GR
GS
[0 -0.60127 0.60127 0 16.83559 135.48591] CT
0.149 GC
N
-58.743 -13.369 M
-58.743 -11.978 -58.212 -10.931 QT
-57.681 -9.884 -56.665 -9.291 QT
-55.649 -8.697 -54.259 -8.697 QT
-52.821 -8.697 -51.477 -9.439 QT
-50.134 -10.181 -49.181 -11.424 QT
-48.227 -12.666 -47.884 -14.056 QT
-47.837 -14.197 -47.712 -14.197 QT
-47.431 -14.197 L
-47.337 -14.197 -47.282 -14.134 QT
-47.227 -14.072 -47.227 -13.994 QT
-47.227 -13.978 -47.243 -13.931 QT
-47.634 -12.338 -48.766 -10.939 QT
-49.899 -9.541 -51.47 -8.72 QT
-53.04 -7.9 -54.696 -7.9 QT
-56.493 -7.9 -57.923 -8.705 QT
-59.352 -9.509 -60.141 -10.947 QT
-60.931 -12.384 -60.931 -14.197 QT
-60.931 -16.134 -60.071 -18.025 QT
-59.212 -19.916 -57.751 -21.392 QT
-56.29 -22.869 -54.415 -23.744 QT
-52.54 -24.619 -50.618 -24.619 QT
-49.868 -24.619 -49.165 -24.384 QT
-48.462 -24.15 -47.868 -23.681 QT
-47.274 -23.213 -46.899 -22.603 QT
-45.071 -24.572 L
-45.071 -24.619 -44.962 -24.619 QT
-44.837 -24.619 L
-44.743 -24.619 -44.688 -24.541 QT
-44.634 -24.463 -44.634 -24.384 QT
-46.196 -18.166 L
-46.196 -18.009 -46.368 -18.009 QT
-46.79 -18.009 L
-46.962 -18.009 -46.962 -18.275 QT
-46.868 -18.775 -46.868 -19.478 QT
-46.868 -20.603 -47.251 -21.603 QT
-47.634 -22.603 -48.438 -23.205 QT
-49.243 -23.806 -50.399 -23.806 QT
-52.274 -23.806 -53.837 -22.861 QT
-55.399 -21.916 -56.485 -20.384 QT
-57.571 -18.853 -58.157 -16.986 QT
-58.743 -15.119 -58.743 -13.369 QT
cp
f
GR
GS
[0 -0.60127 0.60127 0 16.83559 135.48591] CT
0.149 GC
N
-44.707 -4.9 M
-44.863 -4.9 -44.863 -5.119 QT
-44.801 -5.463 -44.66 -5.463 QT
-44.004 -5.463 -43.535 -5.72 QT
-43.066 -5.978 -42.722 -6.525 QT
-42.691 -6.556 -42.691 -6.556 QT
-36.972 -16.181 L
-36.847 -16.353 -36.676 -16.353 QT
-36.457 -16.353 L
-36.41 -16.353 -36.363 -16.338 QT
-36.316 -16.322 -36.285 -16.275 QT
-36.254 -16.228 -36.254 -16.181 QT
-35.285 -5.853 L
-35.285 -5.775 -35.207 -5.634 QT
-35.051 -5.463 -34.019 -5.463 QT
-33.847 -5.463 -33.847 -5.259 QT
-33.91 -5.041 -33.941 -4.97 QT
-33.972 -4.9 -34.129 -4.9 QT
-38.129 -4.9 L
-38.269 -4.9 -38.269 -5.119 QT
-38.191 -5.463 -38.066 -5.463 QT
-36.801 -5.463 -36.722 -5.9 QT
-36.957 -8.541 L
-40.91 -8.541 L
-42.191 -6.384 L
-42.301 -6.213 -42.301 -5.994 QT
-42.301 -5.713 -42.035 -5.588 QT
-41.769 -5.463 -41.441 -5.463 QT
-41.285 -5.463 -41.285 -5.259 QT
-41.332 -5.025 -41.363 -4.963 QT
-41.394 -4.9 -41.551 -4.9 QT
-44.707 -4.9 L
cp
-40.597 -9.103 M
-37.019 -9.103 L
-37.504 -14.275 L
-40.597 -9.103 L
cp
f
GR
GS
[0 -0.60127 0.60127 0 16.83559 135.48591] CT
0.149 GC
N
-21.512 -2.65 M
-21.512 -25.65 L
-18.372 -25.65 L
-18.372 -24.728 L
-20.59 -24.728 L
-20.59 -3.572 L
-18.372 -3.572 L
-18.372 -2.65 L
-21.512 -2.65 L
cp
f
GR
GS
[0 -0.60127 0.60127 0 16.83559 135.48591] CT
0.149 GC
N
-15.359 -8.4 M
-15.359 -22.009 L
-15.359 -22.634 -15.546 -22.908 QT
-15.734 -23.181 -16.078 -23.244 QT
-16.421 -23.306 -17.156 -23.306 QT
-17.156 -24.119 L
-13.75 -24.353 L
-13.75 -17.166 L
-13.375 -17.588 -12.859 -17.908 QT
-12.343 -18.228 -11.765 -18.392 QT
-11.187 -18.556 -10.578 -18.556 QT
-9.546 -18.556 -8.664 -18.142 QT
-7.781 -17.728 -7.125 -17.002 QT
-6.468 -16.275 -6.109 -15.322 QT
-5.75 -14.369 -5.75 -13.369 QT
-5.75 -11.978 -6.429 -10.775 QT
-7.109 -9.572 -8.281 -8.853 QT
-9.453 -8.134 -10.859 -8.134 QT
-11.734 -8.134 -12.554 -8.588 QT
-13.375 -9.041 -13.906 -9.775 QT
-14.687 -8.4 L
-15.359 -8.4 L
cp
-13.687 -10.65 M
-13.296 -9.822 -12.578 -9.283 QT
-11.859 -8.744 -10.984 -8.744 QT
-9.796 -8.744 -9.062 -9.431 QT
-8.328 -10.119 -8.039 -11.166 QT
-7.75 -12.213 -7.75 -13.369 QT
-7.75 -15.306 -8.25 -16.322 QT
-8.468 -16.759 -8.859 -17.142 QT
-9.25 -17.525 -9.726 -17.744 QT
-10.203 -17.963 -10.734 -17.963 QT
-11.656 -17.963 -12.437 -17.478 QT
-13.218 -16.994 -13.687 -16.166 QT
-13.687 -10.65 L
cp
f
GR
GS
[0 -0.60127 0.60127 0 16.83559 135.48591] CT
0.149 GC
N
-3.49 -3.103 M
-3.49 -3.181 -3.474 -3.197 QT
4.526 -25.369 L
4.573 -25.509 4.682 -25.58 QT
4.792 -25.65 4.932 -25.65 QT
5.135 -25.65 5.268 -25.525 QT
5.401 -25.4 5.401 -25.197 QT
5.401 -25.103 L
-2.599 -2.931 L
-2.724 -2.65 -3.037 -2.65 QT
-3.224 -2.65 -3.357 -2.783 QT
-3.49 -2.916 -3.49 -3.103 QT
cp
f
GR
GS
[0 -0.60127 0.60127 0 16.83559 135.48591] CT
0.149 GC
N
7.646 -8.338 M
7.646 -12.088 L
7.646 -12.259 7.849 -12.259 QT
8.13 -12.259 L
8.255 -12.259 8.302 -12.088 QT
8.943 -8.744 11.411 -8.744 QT
12.489 -8.744 13.232 -9.244 QT
13.974 -9.744 13.974 -10.775 QT
13.974 -11.509 13.396 -12.033 QT
12.818 -12.556 12.036 -12.744 QT
10.489 -13.056 L
9.724 -13.213 9.091 -13.564 QT
8.458 -13.916 8.052 -14.494 QT
7.646 -15.072 7.646 -15.838 QT
7.646 -16.853 8.177 -17.494 QT
8.708 -18.134 9.56 -18.424 QT
10.411 -18.713 11.411 -18.713 QT
12.583 -18.713 13.458 -18.088 QT
14.13 -18.65 L
14.13 -18.713 14.239 -18.713 QT
14.411 -18.713 L
14.474 -18.713 14.529 -18.65 QT
14.583 -18.588 14.583 -18.525 QT
14.583 -15.509 L
14.583 -15.291 14.411 -15.291 QT
14.13 -15.291 L
13.927 -15.291 13.927 -15.509 QT
13.927 -16.713 13.255 -17.439 QT
12.583 -18.166 11.38 -18.166 QT
10.349 -18.166 9.591 -17.783 QT
8.833 -17.4 8.833 -16.478 QT
8.833 -15.838 9.38 -15.424 QT
9.927 -15.009 10.661 -14.838 QT
12.208 -14.541 L
13.005 -14.369 13.685 -13.939 QT
14.364 -13.509 14.763 -12.861 QT
15.161 -12.213 15.161 -11.384 QT
15.161 -10.556 14.872 -9.947 QT
14.583 -9.338 14.075 -8.931 QT
13.568 -8.525 12.872 -8.33 QT
12.177 -8.134 11.411 -8.134 QT
9.974 -8.134 8.943 -9.103 QT
8.099 -8.197 L
8.099 -8.134 7.974 -8.134 QT
7.849 -8.134 L
7.646 -8.134 7.646 -8.338 QT
cp
f
GR
GS
[0 -0.60127 0.60127 0 16.83559 135.48591] CT
0.149 GC
N
17.381 -3.103 M
17.381 -3.181 17.396 -3.197 QT
25.396 -25.369 L
25.443 -25.509 25.553 -25.58 QT
25.662 -25.65 25.803 -25.65 QT
26.006 -25.65 26.138 -25.525 QT
26.271 -25.4 26.271 -25.197 QT
26.271 -25.103 L
18.271 -2.931 L
18.146 -2.65 17.834 -2.65 QT
17.646 -2.65 17.513 -2.783 QT
17.381 -2.916 17.381 -3.103 QT
cp
f
GR
GS
[0 -0.60127 0.60127 0 16.83559 135.48591] CT
0.149 GC
N
28.454 -8.4 M
28.454 -9.213 L
30.829 -9.213 30.829 -9.931 QT
30.829 -22.572 L
30.829 -23.306 28.454 -23.306 QT
28.454 -24.119 L
35.344 -24.119 L
35.344 -23.306 L
32.969 -23.306 32.969 -22.572 QT
32.969 -16.978 L
39.75 -16.978 L
39.75 -22.572 L
39.75 -23.306 37.391 -23.306 QT
37.391 -24.119 L
44.266 -24.119 L
44.266 -23.306 L
41.907 -23.306 41.907 -22.572 QT
41.907 -9.931 L
41.907 -9.213 44.266 -9.213 QT
44.266 -8.4 L
37.391 -8.4 L
37.391 -9.213 L
39.75 -9.213 39.75 -9.931 QT
39.75 -16.166 L
32.969 -16.166 L
32.969 -9.931 L
32.969 -9.213 35.344 -9.213 QT
35.344 -8.4 L
28.454 -8.4 L
cp
f
GR
GS
[0 -0.60127 0.60127 0 16.83559 135.48591] CT
0.149 GC
N
46.157 -8.4 M
45.891 -8.4 45.891 -8.666 QT
45.891 -8.838 L
45.891 -8.931 45.954 -8.994 QT
52.376 -17.713 L
50.313 -17.713 L
49.344 -17.713 48.704 -17.588 QT
48.063 -17.463 47.657 -17.119 QT
47.251 -16.775 47.063 -16.174 QT
46.876 -15.572 46.876 -14.525 QT
46.219 -14.525 L
46.469 -18.322 L
54.172 -18.322 L
54.282 -18.322 54.352 -18.244 QT
54.422 -18.166 54.422 -18.056 QT
54.422 -17.931 L
54.422 -17.853 54.376 -17.759 QT
47.954 -9.056 L
50.141 -9.056 L
51.141 -9.056 51.813 -9.181 QT
52.485 -9.306 52.954 -9.775 QT
53.391 -10.213 53.555 -10.955 QT
53.719 -11.697 53.813 -12.791 QT
54.469 -12.791 L
54.079 -8.4 L
46.157 -8.4 L
cp
f
GR
GS
[0 -0.60127 0.60127 0 16.83559 135.48591] CT
0.149 GC
N
56.121 -2.65 M
56.121 -3.572 L
58.355 -3.572 L
58.355 -24.728 L
56.121 -24.728 L
56.121 -25.65 L
59.277 -25.65 L
59.277 -2.65 L
56.121 -2.65 L
cp
f
GR
GS
[0.60127 0 0 0.60127 0 0.20001] CT
1 LJ
2.5 LW
N
64 415 M
77 415 L
90 415 L
103 415 L
116 410.218 L
129 402.873 L
142 392.889 L
155 380.59 L
168 366.602 L
181 351.69 L
194 336.61 L
207 322.002 L
220 308.342 L
233 295.934 L
246 284.929 L
259 275.36 L
272 267.173 L
285 260.263 L
298 254.495 L
311 249.726 L
324 245.811 L
337 242.617 L
350 240.026 L
363 237.931 L
376 236.244 L
389 234.889 L
402 233.803 L
415 232.934 L
428 232.24 L
428.043 232.238 L
S
GR
GS
[0.60127 0 0 0.60127 38.48135 249.72754] CT
10.0 ML
2.5 LW
N
-5 0 M
0 6.65 L
5 0 L
0 -6.65 L
cp
S
GR
GS
[0.60127 0 0 0.60127 46.29788 249.72754] CT
10.0 ML
2.5 LW
N
-5 0 M
0 6.65 L
5 0 L
0 -6.65 L
cp
S
GR
GS
[0.60127 0 0 0.60127 54.1144 249.72754] CT
10.0 ML
2.5 LW
N
-5 0 M
0 6.65 L
5 0 L
0 -6.65 L
cp
S
GR
GS
[0.60127 0 0 0.60127 61.93093 249.72754] CT
10.0 ML
2.5 LW
N
-5 0 M
0 6.65 L
5 0 L
0 -6.65 L
cp
S
GR
GS
[0.60127 0 0 0.60127 69.74745 246.85217] CT
10.0 ML
2.5 LW
N
-5 0 M
0 6.65 L
5 0 L
0 -6.65 L
cp
S
GR
GS
[0.60127 0 0 0.60127 77.56398 242.43607] CT
10.0 ML
2.5 LW
N
-5 0 M
0 6.65 L
5 0 L
0 -6.65 L
cp
S
GR
GS
[0.60127 0 0 0.60127 85.3805 236.43281] CT
10.0 ML
2.5 LW
N
-5 0 M
0 6.65 L
5 0 L
0 -6.65 L
cp
S
GR
GS
[0.60127 0 0 0.60127 93.19703 229.03791] CT
10.0 ML
2.5 LW
N
-5 0 M
0 6.65 L
5 0 L
0 -6.65 L
cp
S
GR
GS
[0.60127 0 0 0.60127 101.01355 220.62731] CT
10.0 ML
2.5 LW
N
-5 0 M
0 6.65 L
5 0 L
0 -6.65 L
cp
S
GR
GS
[0.60127 0 0 0.60127 108.83008 211.66123] CT
10.0 ML
2.5 LW
N
-5 0 M
0 6.65 L
5 0 L
0 -6.65 L
cp
S
GR
GS
[0.60127 0 0 0.60127 116.64661 202.59385] CT
10.0 ML
2.5 LW
N
-5 0 M
0 6.65 L
5 0 L
0 -6.65 L
cp
S
GR
GS
[0.60127 0 0 0.60127 124.46313 193.81048] CT
10.0 ML
2.5 LW
N
-5 0 M
0 6.65 L
5 0 L
0 -6.65 L
cp
S
GR
GS
[0.60127 0 0 0.60127 132.27966 185.59721] CT
10.0 ML
2.5 LW
N
-5 0 M
0 6.65 L
5 0 L
0 -6.65 L
cp
S
GR
GS
[0.60127 0 0 0.60127 140.09618 178.13657] CT
10.0 ML
2.5 LW
N
-5 0 M
0 6.65 L
5 0 L
0 -6.65 L
cp
S
GR
GS
[0.60127 0 0 0.60127 147.91271 171.51967] CT
10.0 ML
2.5 LW
N
-5 0 M
0 6.65 L
5 0 L
0 -6.65 L
cp
S
GR
GS
[0.60127 0 0 0.60127 155.72923 165.76577] CT
10.0 ML
2.5 LW
N
-5 0 M
0 6.65 L
5 0 L
0 -6.65 L
cp
S
GR
GS
[0.60127 0 0 0.60127 163.54576 160.84331] CT
10.0 ML
2.5 LW
N
-5 0 M
0 6.65 L
5 0 L
0 -6.65 L
cp
S
GR
GS
[0.60127 0 0 0.60127 171.36228 156.68858] CT
10.0 ML
2.5 LW
N
-5 0 M
0 6.65 L
5 0 L
0 -6.65 L
cp
S
GR
GS
[0.60127 0 0 0.60127 179.17881 153.22075] CT
10.0 ML
2.5 LW
N
-5 0 M
0 6.65 L
5 0 L
0 -6.65 L
cp
S
GR
GS
[0.60127 0 0 0.60127 186.99533 150.35278] CT
10.0 ML
2.5 LW
N
-5 0 M
0 6.65 L
5 0 L
0 -6.65 L
cp
S
GR
GS
[0.60127 0 0 0.60127 194.81186 147.9988] CT
10.0 ML
2.5 LW
N
-5 0 M
0 6.65 L
5 0 L
0 -6.65 L
cp
S
GR
GS
[0.60127 0 0 0.60127 202.62838 146.0787] CT
10.0 ML
2.5 LW
N
-5 0 M
0 6.65 L
5 0 L
0 -6.65 L
cp
S
GR
GS
[0.60127 0 0 0.60127 210.44491 144.52047] CT
10.0 ML
2.5 LW
N
-5 0 M
0 6.65 L
5 0 L
0 -6.65 L
cp
S
GR
GS
[0.60127 0 0 0.60127 218.26143 143.26114] CT
10.0 ML
2.5 LW
N
-5 0 M
0 6.65 L
5 0 L
0 -6.65 L
cp
S
GR
GS
[0.60127 0 0 0.60127 226.07796 142.24685] CT
10.0 ML
2.5 LW
N
-5 0 M
0 6.65 L
5 0 L
0 -6.65 L
cp
S
GR
GS
[0.60127 0 0 0.60127 233.89448 141.43213] CT
10.0 ML
2.5 LW
N
-5 0 M
0 6.65 L
5 0 L
0 -6.65 L
cp
S
GR
GS
[0.60127 0 0 0.60127 241.71101 140.77917] CT
10.0 ML
2.5 LW
N
-5 0 M
0 6.65 L
5 0 L
0 -6.65 L
cp
S
GR
GS
[0.60127 0 0 0.60127 249.52753 140.25678] CT
10.0 ML
2.5 LW
N
-5 0 M
0 6.65 L
5 0 L
0 -6.65 L
cp
S
GR
GS
[0.60127 0 0 0.60127 257.34406 139.83932] CT
10.0 ML
2.5 LW
N
-5 0 M
0 6.65 L
5 0 L
0 -6.65 L
cp
S
GR
GS
[0.60127 0 0 0.60127 0 0.20001] CT
[8 8] 0 setdash
2 LJ
2.5 LW
N
64 415 M
77 415 L
90 415 L
103 415 L
116 390.361 L
129 362.357 L
142 332.523 L
155 302.366 L
168 273.165 L
181 245.869 L
194 221.08 L
207 199.1 L
220 179.99 L
233 163.644 L
246 149.849 L
259 138.336 L
272 128.816 L
285 121.002 L
298 114.629 L
311 109.457 L
324 105.277 L
337 101.911 L
350 99.207 L
363 97.04 L
376 95.307 L
389 93.922 L
402 92.817 L
415 91.936 L
428 91.234 L
428.043 91.232 L
S
GR
GS
[0.60127 0 0 0.60127 0 0.20001] CT
1 LJ
2.5 LW
N
64 415 M
77 415 L
90 415 L
103 415 L
116 380.106 L
129 345.23 L
142 311.048 L
155 278.279 L
168 247.578 L
181 219.455 L
194 194.226 L
207 172.02 L
220 152.796 L
233 136.395 L
246 122.574 L
259 111.049 L
272 101.523 L
285 93.707 L
298 87.332 L
311 82.16 L
324 77.98 L
337 74.614 L
350 71.91 L
363 69.743 L
376 68.009 L
389 66.624 L
402 65.519 L
415 64.638 L
428 63.936 L
428.043 63.934 L
S
GR
GS
[0.60127 0 0 0.60127 0 0.20001] CT
1 GC
N
81 130 M
81 52 L
202 52 L
202 130 L
cp
f
GR
GS
[0.60127 0 0 0.60127 84.03573 40.15669] CT
N
0.703 4.8 M
0.703 4.097 L
2.766 4.097 2.766 2.909 QT
2.766 -7.528 L
2.766 -8.153 0.703 -8.153 QT
0.703 -8.856 L
4.484 -8.856 L
4.734 -8.856 4.813 -8.638 QT
9.156 2.675 L
13.516 -8.638 L
13.594 -8.856 13.844 -8.856 QT
17.625 -8.856 L
17.625 -8.153 L
15.563 -8.153 15.563 -7.528 QT
15.563 3.456 L
15.563 4.097 17.625 4.097 QT
17.625 4.8 L
11.797 4.8 L
11.797 4.097 L
13.859 4.097 13.859 3.456 QT
13.859 -8.184 L
8.938 4.581 L
8.844 4.8 8.609 4.8 QT
8.344 4.8 8.266 4.581 QT
3.406 -8.028 L
3.406 2.909 L
3.406 4.097 5.453 4.097 QT
5.453 4.8 L
0.703 4.8 L
cp
f
GR
GS
[0.60127 0 0 0.60127 84.03573 40.15669] CT
N
26.5 2.144 M
26.344 2.144 26.234 2.019 QT
26.125 1.894 26.125 1.737 QT
26.125 1.581 26.234 1.464 QT
26.344 1.347 26.5 1.347 QT
39.063 1.347 L
39.203 1.347 39.313 1.464 QT
39.422 1.581 39.422 1.737 QT
39.422 1.894 39.313 2.019 QT
39.203 2.144 39.063 2.144 QT
26.5 2.144 L
cp
26.5 -1.747 M
26.344 -1.747 26.234 -1.864 QT
26.125 -1.981 26.125 -2.138 QT
26.125 -2.294 26.234 -2.419 QT
26.344 -2.544 26.5 -2.544 QT
39.063 -2.544 L
39.203 -2.544 39.313 -2.419 QT
39.422 -2.294 39.422 -2.138 QT
39.422 -1.981 39.313 -1.864 QT
39.203 -1.747 39.063 -1.747 QT
26.5 -1.747 L
cp
f
GR
GS
[0.60127 0 0 0.60127 84.03573 40.15669] CT
N
48.222 4.8 M
48.222 4.269 L
48.222 4.206 48.254 4.159 QT
51.363 0.722 L
52.066 -0.044 52.504 -0.559 QT
52.941 -1.075 53.371 -1.755 QT
53.8 -2.434 54.05 -3.13 QT
54.3 -3.825 54.3 -4.606 QT
54.3 -5.419 53.996 -6.169 QT
53.691 -6.919 53.097 -7.372 QT
52.504 -7.825 51.644 -7.825 QT
50.785 -7.825 50.089 -7.302 QT
49.394 -6.778 49.113 -5.95 QT
49.191 -5.966 49.316 -5.966 QT
49.769 -5.966 50.089 -5.661 QT
50.41 -5.356 50.41 -4.872 QT
50.41 -4.419 50.089 -4.099 QT
49.769 -3.778 49.316 -3.778 QT
48.847 -3.778 48.535 -4.106 QT
48.222 -4.434 48.222 -4.872 QT
48.222 -5.638 48.504 -6.294 QT
48.785 -6.95 49.316 -7.466 QT
49.847 -7.981 50.519 -8.255 QT
51.191 -8.528 51.941 -8.528 QT
53.082 -8.528 54.066 -8.044 QT
55.05 -7.559 55.629 -6.677 QT
56.207 -5.794 56.207 -4.606 QT
56.207 -3.731 55.824 -2.95 QT
55.441 -2.169 54.847 -1.528 QT
54.254 -0.888 53.324 -0.083 QT
52.394 0.722 52.113 1.003 QT
49.847 3.175 L
51.769 3.175 L
53.175 3.175 54.129 3.151 QT
55.082 3.128 55.144 3.081 QT
55.379 2.831 55.629 1.237 QT
56.207 1.237 L
55.644 4.8 L
48.222 4.8 L
cp
f
GR
GS
[0.60127 0 0 0.60127 0 0.20001] CT
1 LJ
2.5 LW
N
86.001 66.454 M
136.013 66.454 L
S
GR
GS
[0.60127 0 0 0.60127 66.74523 40.15669] CT
10.0 ML
2.5 LW
N
-5 0 M
0 6.65 L
5 0 L
0 -6.65 L
cp
S
GR
GS
[0.60127 0 0 0.60127 84.03573 54.91569] CT
N
/f-486838967{0.703 4.8 M
0.703 4.097 L
2.766 4.097 2.766 2.909 QT
2.766 -7.528 L
2.766 -8.153 0.703 -8.153 QT
0.703 -8.856 L
4.484 -8.856 L
4.734 -8.856 4.813 -8.638 QT
9.156 2.675 L
13.516 -8.638 L
13.594 -8.856 13.844 -8.856 QT
17.625 -8.856 L
17.625 -8.153 L
15.563 -8.153 15.563 -7.528 QT
15.563 3.456 L
15.563 4.097 17.625 4.097 QT
17.625 4.8 L
11.797 4.8 L
11.797 4.097 L
13.859 4.097 13.859 3.456 QT
13.859 -8.184 L
8.938 4.581 L
8.844 4.8 8.609 4.8 QT
8.344 4.8 8.266 4.581 QT
3.406 -8.028 L
3.406 2.909 L
3.406 4.097 5.453 4.097 QT
5.453 4.8 L
0.703 4.8 L
cp}def
f-486838967
f
GR
GS
[0.60127 0 0 0.60127 84.03573 54.91569] CT
N
/f1491036023{26.5 2.144 M
26.344 2.144 26.234 2.019 QT
26.125 1.894 26.125 1.737 QT
26.125 1.581 26.234 1.464 QT
26.344 1.347 26.5 1.347 QT
39.063 1.347 L
39.203 1.347 39.313 1.464 QT
39.422 1.581 39.422 1.737 QT
39.422 1.894 39.313 2.019 QT
39.203 2.144 39.063 2.144 QT
26.5 2.144 L
cp
26.5 -1.747 M
26.344 -1.747 26.234 -1.864 QT
26.125 -1.981 26.125 -2.138 QT
26.125 -2.294 26.234 -2.419 QT
26.344 -2.544 26.5 -2.544 QT
39.063 -2.544 L
39.203 -2.544 39.313 -2.419 QT
39.422 -2.294 39.422 -2.138 QT
39.422 -1.981 39.313 -1.864 QT
39.203 -1.747 39.063 -1.747 QT
26.5 -1.747 L
cp}def
f1491036023
f
GR
GS
[0.60127 0 0 0.60127 84.03573 54.91569] CT
N
/f1642073147{47.785 1.503 M
47.785 0.8 L
53.957 -8.419 L
54.035 -8.528 54.16 -8.528 QT
54.457 -8.528 L
54.691 -8.528 54.691 -8.294 QT
54.691 0.8 L
56.644 0.8 L
56.644 1.503 L
54.691 1.503 L
54.691 3.456 L
54.691 3.878 55.277 3.987 QT
55.863 4.097 56.629 4.097 QT
56.629 4.8 L
51.113 4.8 L
51.113 4.097 L
51.894 4.097 52.48 3.987 QT
53.066 3.878 53.066 3.456 QT
53.066 1.503 L
47.785 1.503 L
cp
48.441 0.8 M
53.175 0.8 L
53.175 -6.278 L
48.441 0.8 L
cp}def
f1642073147
f
GR
GS
[0.60127 0 0 0.60127 0 0.20001] CT
[8 8] 0 setdash
2 LJ
2.5 LW
N
86.001 91 M
136.013 91 L
S
GR
GS
[0.60127 0 0 0.60127 84.03573 69.67469] CT
N
f-486838967
f
GR
GS
[0.60127 0 0 0.60127 84.03573 69.67469] CT
N
f1491036023
f
GR
GS
[0.60127 0 0 0.60127 84.03573 69.67469] CT
N
/f513167062{48.066 1.769 M
48.066 0.566 48.855 -0.356 QT
49.644 -1.278 50.879 -1.903 QT
50.144 -2.372 L
49.457 -2.825 49.027 -3.575 QT
48.597 -4.325 48.597 -5.138 QT
48.597 -6.106 49.105 -6.872 QT
49.613 -7.638 50.441 -8.083 QT
51.269 -8.528 52.222 -8.528 QT
53.113 -8.528 53.941 -8.161 QT
54.769 -7.794 55.3 -7.122 QT
55.832 -6.45 55.832 -5.528 QT
55.832 -4.856 55.511 -4.278 QT
55.191 -3.7 54.636 -3.239 QT
54.082 -2.778 53.457 -2.45 QT
54.613 -1.731 L
55.394 -1.2 55.879 -0.364 QT
56.363 0.472 56.363 1.394 QT
56.363 2.487 55.785 3.378 QT
55.207 4.269 54.246 4.753 QT
53.285 5.237 52.222 5.237 QT
51.191 5.237 50.23 4.816 QT
49.269 4.394 48.668 3.597 QT
48.066 2.8 48.066 1.769 QT
cp
49.144 1.769 M
49.144 2.55 49.582 3.206 QT
50.019 3.862 50.73 4.23 QT
51.441 4.597 52.222 4.597 QT
53.379 4.597 54.332 3.925 QT
55.285 3.253 55.285 2.128 QT
55.285 1.737 55.129 1.362 QT
54.972 0.987 54.707 0.683 QT
54.441 0.378 54.113 0.175 QT
51.425 -1.559 L
50.8 -1.231 50.277 -0.724 QT
49.754 -0.216 49.449 0.425 QT
49.144 1.066 49.144 1.769 QT
cp
50.519 -4.341 M
52.941 -2.778 L
53.785 -3.263 54.324 -3.958 QT
54.863 -4.653 54.863 -5.528 QT
54.863 -6.2 54.488 -6.763 QT
54.113 -7.325 53.504 -7.638 QT
52.894 -7.95 52.207 -7.95 QT
51.597 -7.95 50.98 -7.716 QT
50.363 -7.481 49.964 -7.013 QT
49.566 -6.544 49.566 -5.919 QT
49.566 -4.981 50.519 -4.341 QT
cp}def
f513167062
f
GR
GS
[0.60127 0 0 0.60127 0 0.20001] CT
1 LJ
2.5 LW
N
86.001 115.546 M
136.013 115.546 L
S
GR
GS
[0.60127 0 0 0.60127 0 0.20001] CT
0.149 GC
10.0 ML
0.833 LW
N
81 130 M
81 52 L
202 52 L
202 130 L
cp
S
GR
%%Trailer
%%Pages: 1
%%EOF
