%!PS-Adobe-3.0 EPSF-3.0
%%Creator: (MATLAB, The Mathworks, Inc. Version 9.2.0.538062 \(R2017a\). Operating System: Windows 8)
%%Title: C:/Users/chees/Documents/DottoratoLoc/GNSS/authProtocol/latex/figures/PSDs.eps
%%CreationDate: 2017-11-20T08:10:30
%%Pages: (atend)
%%BoundingBox: 0 0 284 284
%%LanguageLevel: 3
%%EndComments
%%BeginProlog
%%BeginResource: procset (Apache XML Graphics Std ProcSet) 1.2 0
%%Version: 1.2 0
%%Copyright: (Copyright 2001-2003,2010 The Apache Software Foundation. License terms: http://www.apache.org/licenses/LICENSE-2.0)
/bd{bind def}bind def
/ld{load def}bd
/GR/grestore ld
/M/moveto ld
/LJ/setlinejoin ld
/C/curveto ld
/f/fill ld
/LW/setlinewidth ld
/GC/setgray ld
/t/show ld
/N/newpath ld
/CT/concat ld
/cp/closepath ld
/S/stroke ld
/L/lineto ld
/CC/setcmykcolor ld
/A/ashow ld
/GS/gsave ld
/RC/setrgbcolor ld
/RM/rmoveto ld
/ML/setmiterlimit ld
/re {4 2 roll M
1 index 0 rlineto
0 exch rlineto
neg 0 rlineto
cp } bd
/_ctm matrix def
/_tm matrix def
/BT { _ctm currentmatrix pop matrix _tm copy pop 0 0 moveto } bd
/ET { _ctm setmatrix } bd
/iTm { _ctm setmatrix _tm concat } bd
/Tm { _tm astore pop iTm 0 0 moveto } bd
/ux 0.0 def
/uy 0.0 def
/F {
  /Tp exch def
  /Tf exch def
  Tf findfont Tp scalefont setfont
  /cf Tf def  /cs Tp def
} bd
/ULS {currentpoint /uy exch def /ux exch def} bd
/ULE {
  /Tcx currentpoint pop def
  gsave
  newpath
  cf findfont cs scalefont dup
  /FontMatrix get 0 get /Ts exch def /FontInfo get dup
  /UnderlinePosition get Ts mul /To exch def
  /UnderlineThickness get Ts mul /Tt exch def
  ux uy To add moveto  Tcx uy To add lineto
  Tt setlinewidth stroke
  grestore
} bd
/OLE {
  /Tcx currentpoint pop def
  gsave
  newpath
  cf findfont cs scalefont dup
  /FontMatrix get 0 get /Ts exch def /FontInfo get dup
  /UnderlinePosition get Ts mul /To exch def
  /UnderlineThickness get Ts mul /Tt exch def
  ux uy To add cs add moveto Tcx uy To add cs add lineto
  Tt setlinewidth stroke
  grestore
} bd
/SOE {
  /Tcx currentpoint pop def
  gsave
  newpath
  cf findfont cs scalefont dup
  /FontMatrix get 0 get /Ts exch def /FontInfo get dup
  /UnderlinePosition get Ts mul /To exch def
  /UnderlineThickness get Ts mul /Tt exch def
  ux uy To add cs 10 mul 26 idiv add moveto Tcx uy To add cs 10 mul 26 idiv add lineto
  Tt setlinewidth stroke
  grestore
} bd
/QT {
/Y22 exch store
/X22 exch store
/Y21 exch store
/X21 exch store
currentpoint
/Y21 load 2 mul add 3 div exch
/X21 load 2 mul add 3 div exch
/X21 load 2 mul /X22 load add 3 div
/Y21 load 2 mul /Y22 load add 3 div
/X22 load /Y22 load curveto
} bd
/SSPD {
dup length /d exch dict def
{
/v exch def
/k exch def
currentpagedevice k known {
/cpdv currentpagedevice k get def
v cpdv ne {
/upd false def
/nullv v type /nulltype eq def
/nullcpdv cpdv type /nulltype eq def
nullv nullcpdv or
{
/upd true def
} {
/sametype v type cpdv type eq def
sametype {
v type /arraytype eq {
/vlen v length def
/cpdvlen cpdv length def
vlen cpdvlen eq {
0 1 vlen 1 sub {
/i exch def
/obj v i get def
/cpdobj cpdv i get def
obj cpdobj ne {
/upd true def
exit
} if
} for
} {
/upd true def
} ifelse
} {
v type /dicttype eq {
v {
/dv exch def
/dk exch def
/cpddv cpdv dk get def
dv cpddv ne {
/upd true def
exit
} if
} forall
} {
/upd true def
} ifelse
} ifelse
} if
} ifelse
upd true eq {
d k v put
} if
} if
} if
} forall
d length 0 gt {
d setpagedevice
} if
} bd
/RE { % /NewFontName [NewEncodingArray] /FontName RE -
  findfont dup length dict begin
  {
    1 index /FID ne
    {def} {pop pop} ifelse
  } forall
  /Encoding exch def
  /FontName 1 index def
  currentdict definefont pop
  end
} bind def
%%EndResource
%%BeginResource: procset (Apache XML Graphics EPS ProcSet) 1.0 0
%%Version: 1.0 0
%%Copyright: (Copyright 2002-2003 The Apache Software Foundation. License terms: http://www.apache.org/licenses/LICENSE-2.0)
/BeginEPSF { %def
/b4_Inc_state save def         % Save state for cleanup
/dict_count countdictstack def % Count objects on dict stack
/op_count count 1 sub def      % Count objects on operand stack
userdict begin                 % Push userdict on dict stack
/showpage { } def              % Redefine showpage, { } = null proc
0 setgray 0 setlinecap         % Prepare graphics state
1 setlinewidth 0 setlinejoin
10 setmiterlimit [ ] 0 setdash newpath
/languagelevel where           % If level not equal to 1 then
{pop languagelevel             % set strokeadjust and
1 ne                           % overprint to their defaults.
{false setstrokeadjust false setoverprint
} if
} if
} bd
/EndEPSF { %def
count op_count sub {pop} repeat            % Clean up stacks
countdictstack dict_count sub {end} repeat
b4_Inc_state restore
} bd
%%EndResource
%FOPBeginFontDict
%%IncludeResource: font Courier-Bold
%%IncludeResource: font Helvetica
%%IncludeResource: font Courier-BoldOblique
%%IncludeResource: font Courier-Oblique
%%IncludeResource: font Times-Roman
%%IncludeResource: font Helvetica-BoldOblique
%%IncludeResource: font Helvetica-Bold
%%IncludeResource: font Helvetica-Oblique
%%IncludeResource: font Times-BoldItalic
%%IncludeResource: font Courier
%%IncludeResource: font Times-Italic
%%IncludeResource: font Times-Bold
%%IncludeResource: font Symbol
%%IncludeResource: font ZapfDingbats
%FOPEndFontDict
%%BeginResource: encoding WinAnsiEncoding
/WinAnsiEncoding [
/.notdef /.notdef /.notdef /.notdef /.notdef
/.notdef /.notdef /.notdef /.notdef /.notdef
/.notdef /.notdef /.notdef /.notdef /.notdef
/.notdef /.notdef /.notdef /.notdef /.notdef
/.notdef /.notdef /.notdef /.notdef /.notdef
/.notdef /.notdef /.notdef /.notdef /.notdef
/.notdef /.notdef /space /exclam /quotedbl
/numbersign /dollar /percent /ampersand /quotesingle
/parenleft /parenright /asterisk /plus /comma
/hyphen /period /slash /zero /one
/two /three /four /five /six
/seven /eight /nine /colon /semicolon
/less /equal /greater /question /at
/A /B /C /D /E
/F /G /H /I /J
/K /L /M /N /O
/P /Q /R /S /T
/U /V /W /X /Y
/Z /bracketleft /backslash /bracketright /asciicircum
/underscore /quoteleft /a /b /c
/d /e /f /g /h
/i /j /k /l /m
/n /o /p /q /r
/s /t /u /v /w
/x /y /z /braceleft /bar
/braceright /asciitilde /bullet /Euro /bullet
/quotesinglbase /florin /quotedblbase /ellipsis /dagger
/daggerdbl /circumflex /perthousand /Scaron /guilsinglleft
/OE /bullet /Zcaron /bullet /bullet
/quoteleft /quoteright /quotedblleft /quotedblright /bullet
/endash /emdash /asciitilde /trademark /scaron
/guilsinglright /oe /bullet /zcaron /Ydieresis
/space /exclamdown /cent /sterling /currency
/yen /brokenbar /section /dieresis /copyright
/ordfeminine /guillemotleft /logicalnot /sfthyphen /registered
/macron /degree /plusminus /twosuperior /threesuperior
/acute /mu /paragraph /middot /cedilla
/onesuperior /ordmasculine /guillemotright /onequarter /onehalf
/threequarters /questiondown /Agrave /Aacute /Acircumflex
/Atilde /Adieresis /Aring /AE /Ccedilla
/Egrave /Eacute /Ecircumflex /Edieresis /Igrave
/Iacute /Icircumflex /Idieresis /Eth /Ntilde
/Ograve /Oacute /Ocircumflex /Otilde /Odieresis
/multiply /Oslash /Ugrave /Uacute /Ucircumflex
/Udieresis /Yacute /Thorn /germandbls /agrave
/aacute /acircumflex /atilde /adieresis /aring
/ae /ccedilla /egrave /eacute /ecircumflex
/edieresis /igrave /iacute /icircumflex /idieresis
/eth /ntilde /ograve /oacute /ocircumflex
/otilde /odieresis /divide /oslash /ugrave
/uacute /ucircumflex /udieresis /yacute /thorn
/ydieresis
] def
%%EndResource
%FOPBeginFontReencode
/Courier-Bold findfont
dup length dict begin
  {1 index /FID ne {def} {pop pop} ifelse} forall
  /Encoding WinAnsiEncoding def
  currentdict
end
/Courier-Bold exch definefont pop
/Helvetica findfont
dup length dict begin
  {1 index /FID ne {def} {pop pop} ifelse} forall
  /Encoding WinAnsiEncoding def
  currentdict
end
/Helvetica exch definefont pop
/Courier-BoldOblique findfont
dup length dict begin
  {1 index /FID ne {def} {pop pop} ifelse} forall
  /Encoding WinAnsiEncoding def
  currentdict
end
/Courier-BoldOblique exch definefont pop
/Courier-Oblique findfont
dup length dict begin
  {1 index /FID ne {def} {pop pop} ifelse} forall
  /Encoding WinAnsiEncoding def
  currentdict
end
/Courier-Oblique exch definefont pop
/Times-Roman findfont
dup length dict begin
  {1 index /FID ne {def} {pop pop} ifelse} forall
  /Encoding WinAnsiEncoding def
  currentdict
end
/Times-Roman exch definefont pop
/Helvetica-BoldOblique findfont
dup length dict begin
  {1 index /FID ne {def} {pop pop} ifelse} forall
  /Encoding WinAnsiEncoding def
  currentdict
end
/Helvetica-BoldOblique exch definefont pop
/Helvetica-Bold findfont
dup length dict begin
  {1 index /FID ne {def} {pop pop} ifelse} forall
  /Encoding WinAnsiEncoding def
  currentdict
end
/Helvetica-Bold exch definefont pop
/Helvetica-Oblique findfont
dup length dict begin
  {1 index /FID ne {def} {pop pop} ifelse} forall
  /Encoding WinAnsiEncoding def
  currentdict
end
/Helvetica-Oblique exch definefont pop
/Times-BoldItalic findfont
dup length dict begin
  {1 index /FID ne {def} {pop pop} ifelse} forall
  /Encoding WinAnsiEncoding def
  currentdict
end
/Times-BoldItalic exch definefont pop
/Courier findfont
dup length dict begin
  {1 index /FID ne {def} {pop pop} ifelse} forall
  /Encoding WinAnsiEncoding def
  currentdict
end
/Courier exch definefont pop
/Times-Italic findfont
dup length dict begin
  {1 index /FID ne {def} {pop pop} ifelse} forall
  /Encoding WinAnsiEncoding def
  currentdict
end
/Times-Italic exch definefont pop
/Times-Bold findfont
dup length dict begin
  {1 index /FID ne {def} {pop pop} ifelse} forall
  /Encoding WinAnsiEncoding def
  currentdict
end
/Times-Bold exch definefont pop
%FOPEndFontReencode
%%EndProlog
%%Page: 1 1
%%PageBoundingBox: 0 0 284 284
%%BeginPageSetup
[1 0 0 -1 0 284] CT
%%EndPageSetup
GS
[0.60127 0 0 0.60127 0 0.20001] CT
N
0 0 M
472 0 L
472 472 L
0 472 L
0 0 L
cp
clip
1 GC
N
0 0 472 472 re
f
GR
GS
[0.60127 0 0 0.60127 0 0.20001] CT
1 GC
N
0 0 472 472 re
f
GR
GS
[0.60127 0 0 0.60127 0 0.20001] CT
1 GC
N
75 404.5 M
428 404.5 L
428 51.5 L
75 51.5 L
cp
f
GR
GS
[0.60127 0 0 0.60127 0 0.20001] CT
0.873 GC
1 LJ
0.833 LW
N
75 404.5 M
75 51.5 L
S
GR
GS
[0.60127 0 0 0.60127 0 0.20001] CT
0.873 GC
1 LJ
0.833 LW
N
163.25 404.5 M
163.25 51.5 L
S
GR
GS
[0.60127 0 0 0.60127 0 0.20001] CT
0.873 GC
1 LJ
0.833 LW
N
251.5 404.5 M
251.5 51.5 L
S
GR
GS
[0.60127 0 0 0.60127 0 0.20001] CT
0.873 GC
1 LJ
0.833 LW
N
339.75 404.5 M
339.75 51.5 L
S
GR
GS
[0.60127 0 0 0.60127 0 0.20001] CT
0.873 GC
1 LJ
0.833 LW
N
428 404.5 M
428 51.5 L
S
GR
GS
[0.60127 0 0 0.60127 0 0.20001] CT
0.873 GC
1 LJ
0.833 LW
N
428 404.5 M
75 404.5 L
S
GR
GS
[0.60127 0 0 0.60127 0 0.20001] CT
0.873 GC
1 LJ
0.833 LW
N
428 360.375 M
75 360.375 L
S
GR
GS
[0.60127 0 0 0.60127 0 0.20001] CT
0.873 GC
1 LJ
0.833 LW
N
428 316.25 M
75 316.25 L
S
GR
GS
[0.60127 0 0 0.60127 0 0.20001] CT
0.873 GC
1 LJ
0.833 LW
N
428 272.125 M
75 272.125 L
S
GR
GS
[0.60127 0 0 0.60127 0 0.20001] CT
0.873 GC
1 LJ
0.833 LW
N
428 228 M
75 228 L
S
GR
GS
[0.60127 0 0 0.60127 0 0.20001] CT
0.873 GC
1 LJ
0.833 LW
N
428 183.875 M
75 183.875 L
S
GR
GS
[0.60127 0 0 0.60127 0 0.20001] CT
0.873 GC
1 LJ
0.833 LW
N
428 139.75 M
75 139.75 L
S
GR
GS
[0.60127 0 0 0.60127 0 0.20001] CT
0.873 GC
1 LJ
0.833 LW
N
428 95.625 M
75 95.625 L
S
GR
GS
[0.60127 0 0 0.60127 0 0.20001] CT
0.873 GC
1 LJ
0.833 LW
N
428 51.5 M
75 51.5 L
S
GR
GS
[0.60127 0 0 0.60127 0 0.20001] CT
0.149 GC
2 setlinecap
1 LJ
0.833 LW
N
75 404.5 M
428 404.5 L
S
GR
GS
[0.60127 0 0 0.60127 0 0.20001] CT
0.149 GC
2 setlinecap
1 LJ
0.833 LW
N
75 404.5 M
75 400.97 L
S
GR
GS
[0.60127 0 0 0.60127 0 0.20001] CT
0.149 GC
2 setlinecap
1 LJ
0.833 LW
N
163.25 404.5 M
163.25 400.97 L
S
GR
GS
[0.60127 0 0 0.60127 0 0.20001] CT
0.149 GC
2 setlinecap
1 LJ
0.833 LW
N
251.5 404.5 M
251.5 400.97 L
S
GR
GS
[0.60127 0 0 0.60127 0 0.20001] CT
0.149 GC
2 setlinecap
1 LJ
0.833 LW
N
339.75 404.5 M
339.75 400.97 L
S
GR
GS
[0.60127 0 0 0.60127 0 0.20001] CT
0.149 GC
2 setlinecap
1 LJ
0.833 LW
N
428 404.5 M
428 400.97 L
S
GR
GS
[0.60127 0 0 0.60127 45.09534 247.42268] CT
0.149 GC
/Helvetica 16.667 F
GS
[1 0 0 1 0 0] CT
-12.5 18 moveto 
1 -1 scale
(-10) t 
GR
GR
GS
[0.60127 0 0 0.60127 98.15752 247.42268] CT
0.149 GC
/Helvetica 16.667 F
GS
[1 0 0 1 0 0] CT
-8 18 moveto 
1 -1 scale
(-5) t 
GR
GR
GS
[0.60127 0 0 0.60127 151.2197 247.42268] CT
0.149 GC
/Helvetica 16.667 F
GS
[1 0 0 1 0 0] CT
-5 18 moveto 
1 -1 scale
(0) t 
GR
GR
GS
[0.60127 0 0 0.60127 204.28188 247.42268] CT
0.149 GC
/Helvetica 16.667 F
GS
[1 0 0 1 0 0] CT
-5 18 moveto 
1 -1 scale
(5) t 
GR
GR
GS
[0.60127 0 0 0.60127 257.34406 247.42268] CT
0.149 GC
/Helvetica 16.667 F
GS
[1 0 0 1 0 0] CT
-9.5 18 moveto 
1 -1 scale
(10) t 
GR
GR
GS
[0.60127 0 0 0.60127 151.2198 261.65274] CT
0.149 GC
N
-39.733 23.397 M
-39.311 23.725 -38.702 23.725 QT
-37.874 23.725 -37.358 21.897 QT
-37.155 21.022 -36.202 16.131 QT
-35.14 10.491 L
-37.108 10.491 L
-37.343 10.491 -37.343 10.194 QT
-37.249 9.678 -37.046 9.678 QT
-34.999 9.678 L
-34.718 8.194 L
-34.593 7.491 -34.475 6.991 QT
-34.358 6.491 -34.233 6.069 QT
-34.108 5.647 -33.843 5.116 QT
-33.452 4.366 -32.788 3.873 QT
-32.124 3.381 -31.343 3.381 QT
-30.843 3.381 -30.366 3.569 QT
-29.89 3.756 -29.585 4.123 QT
-29.28 4.491 -29.28 5.006 QT
-29.28 5.584 -29.663 6.014 QT
-30.046 6.444 -30.608 6.444 QT
-30.968 6.444 -31.233 6.217 QT
-31.499 5.991 -31.499 5.616 QT
-31.499 5.116 -31.155 4.741 QT
-30.811 4.366 -30.311 4.303 QT
-30.733 3.975 -31.358 3.975 QT
-31.718 3.975 -32.022 4.303 QT
-32.327 4.631 -32.421 5.006 QT
-32.561 5.584 -33.061 8.162 QT
-33.343 9.678 L
-30.968 9.678 L
-30.749 9.678 -30.749 9.991 QT
-30.765 10.037 -30.796 10.178 QT
-30.827 10.319 -30.89 10.405 QT
-30.952 10.491 -31.046 10.491 QT
-33.499 10.491 L
-34.561 16.1 L
-34.765 17.334 -35.03 18.6 QT
-35.296 19.866 -35.772 21.194 QT
-36.249 22.522 -36.991 23.42 QT
-37.733 24.319 -38.749 24.319 QT
-39.515 24.319 -40.132 23.873 QT
-40.749 23.428 -40.749 22.694 QT
-40.749 22.116 -40.366 21.686 QT
-39.983 21.256 -39.421 21.256 QT
-39.03 21.256 -38.772 21.483 QT
-38.515 21.709 -38.515 22.084 QT
-38.515 22.569 -38.882 22.983 QT
-39.249 23.397 -39.733 23.397 QT
cp
f
GR
GS
[0.60127 0 0 0.60127 151.2198 261.65274] CT
0.149 GC
N
-17.536 25.35 M
-17.536 2.35 L
-14.395 2.35 L
-14.395 3.272 L
-16.614 3.272 L
-16.614 24.428 L
-14.395 24.428 L
-14.395 25.35 L
-17.536 25.35 L
cp
f
GR
GS
[0.60127 0 0 0.60127 151.2198 261.65274] CT
0.149 GC
N
-12.961 19.6 M
-12.961 18.787 L
-10.601 18.787 -10.601 17.428 QT
-10.601 5.428 L
-10.601 4.694 -12.961 4.694 QT
-12.961 3.881 L
-8.617 3.881 L
-8.336 3.881 -8.242 4.147 QT
-3.242 17.162 L
1.774 4.147 L
1.867 3.881 2.133 3.881 QT
6.492 3.881 L
6.492 4.694 L
4.117 4.694 4.117 5.428 QT
4.117 18.069 L
4.117 18.787 6.492 18.787 QT
6.492 19.6 L
-0.211 19.6 L
-0.211 18.787 L
2.164 18.787 2.164 18.069 QT
2.164 4.678 L
-3.492 19.334 L
-3.601 19.6 -3.883 19.6 QT
-4.164 19.6 -4.273 19.334 QT
-9.867 4.85 L
-9.867 17.428 L
-9.867 18.787 -7.492 18.787 QT
-7.492 19.6 L
-12.961 19.6 L
cp
f
GR
GS
[0.60127 0 0 0.60127 151.2198 261.65274] CT
0.149 GC
N
8.319 19.6 M
8.319 18.787 L
10.694 18.787 10.694 18.069 QT
10.694 5.428 L
10.694 4.694 8.319 4.694 QT
8.319 3.881 L
15.21 3.881 L
15.21 4.694 L
12.835 4.694 12.835 5.428 QT
12.835 11.022 L
19.616 11.022 L
19.616 5.428 L
19.616 4.694 17.256 4.694 QT
17.256 3.881 L
24.131 3.881 L
24.131 4.694 L
21.772 4.694 21.772 5.428 QT
21.772 18.069 L
21.772 18.787 24.131 18.787 QT
24.131 19.6 L
17.256 19.6 L
17.256 18.787 L
19.616 18.787 19.616 18.069 QT
19.616 11.834 L
12.835 11.834 L
12.835 18.069 L
12.835 18.787 15.21 18.787 QT
15.21 19.6 L
8.319 19.6 L
cp
f
GR
GS
[0.60127 0 0 0.60127 151.2198 261.65274] CT
0.149 GC
N
26.022 19.6 M
25.756 19.6 25.756 19.334 QT
25.756 19.162 L
25.756 19.069 25.819 19.006 QT
32.241 10.287 L
30.178 10.287 L
29.21 10.287 28.569 10.412 QT
27.928 10.537 27.522 10.881 QT
27.116 11.225 26.928 11.826 QT
26.741 12.428 26.741 13.475 QT
26.085 13.475 L
26.335 9.678 L
34.038 9.678 L
34.147 9.678 34.217 9.756 QT
34.288 9.834 34.288 9.944 QT
34.288 10.069 L
34.288 10.147 34.241 10.241 QT
27.819 18.944 L
30.006 18.944 L
31.006 18.944 31.678 18.819 QT
32.35 18.694 32.819 18.225 QT
33.256 17.787 33.421 17.045 QT
33.585 16.303 33.678 15.209 QT
34.335 15.209 L
33.944 19.6 L
26.022 19.6 L
cp
f
GR
GS
[0.60127 0 0 0.60127 151.2198 261.65274] CT
0.149 GC
N
35.986 25.35 M
35.986 24.428 L
38.221 24.428 L
38.221 3.272 L
35.986 3.272 L
35.986 2.35 L
39.142 2.35 L
39.142 25.35 L
35.986 25.35 L
cp
f
GR
GS
[0.60127 0 0 0.60127 0 0.20001] CT
0.149 GC
2 setlinecap
1 LJ
0.833 LW
N
75 404.5 M
75 51.5 L
S
GR
GS
[0.60127 0 0 0.60127 0 0.20001] CT
0.149 GC
2 setlinecap
1 LJ
0.833 LW
N
75 404.5 M
78.53 404.5 L
S
GR
GS
[0.60127 0 0 0.60127 0 0.20001] CT
0.149 GC
2 setlinecap
1 LJ
0.833 LW
N
75 360.375 M
78.53 360.375 L
S
GR
GS
[0.60127 0 0 0.60127 0 0.20001] CT
0.149 GC
2 setlinecap
1 LJ
0.833 LW
N
75 316.25 M
78.53 316.25 L
S
GR
GS
[0.60127 0 0 0.60127 0 0.20001] CT
0.149 GC
2 setlinecap
1 LJ
0.833 LW
N
75 272.125 M
78.53 272.125 L
S
GR
GS
[0.60127 0 0 0.60127 0 0.20001] CT
0.149 GC
2 setlinecap
1 LJ
0.833 LW
N
75 228 M
78.53 228 L
S
GR
GS
[0.60127 0 0 0.60127 0 0.20001] CT
0.149 GC
2 setlinecap
1 LJ
0.833 LW
N
75 183.875 M
78.53 183.875 L
S
GR
GS
[0.60127 0 0 0.60127 0 0.20001] CT
0.149 GC
2 setlinecap
1 LJ
0.833 LW
N
75 139.75 M
78.53 139.75 L
S
GR
GS
[0.60127 0 0 0.60127 0 0.20001] CT
0.149 GC
2 setlinecap
1 LJ
0.833 LW
N
75 95.625 M
78.53 95.625 L
S
GR
GS
[0.60127 0 0 0.60127 0 0.20001] CT
0.149 GC
2 setlinecap
1 LJ
0.833 LW
N
75 51.5 M
78.53 51.5 L
S
GR
GS
[0.60127 0 0 0.60127 41.08686 243.4142] CT
0.149 GC
/Helvetica 16.667 F
GS
[1 0 0 1 0 0] CT
-35 7 moveto 
1 -1 scale
(-100) t 
GR
GR
GS
[0.60127 0 0 0.60127 41.08686 216.88311] CT
0.149 GC
/Helvetica 16.667 F
GS
[1 0 0 1 0 0] CT
-25 7 moveto 
1 -1 scale
(-95) t 
GR
GR
GS
[0.60127 0 0 0.60127 41.08686 190.35202] CT
0.149 GC
/Helvetica 16.667 F
GS
[1 0 0 1 0 0] CT
-25 7 moveto 
1 -1 scale
(-90) t 
GR
GR
GS
[0.60127 0 0 0.60127 41.08686 163.82093] CT
0.149 GC
/Helvetica 16.667 F
GS
[1 0 0 1 0 0] CT
-25 7 moveto 
1 -1 scale
(-85) t 
GR
GR
GS
[0.60127 0 0 0.60127 41.08686 137.28984] CT
0.149 GC
/Helvetica 16.667 F
GS
[1 0 0 1 0 0] CT
-25 7 moveto 
1 -1 scale
(-80) t 
GR
GR
GS
[0.60127 0 0 0.60127 41.08686 110.75875] CT
0.149 GC
/Helvetica 16.667 F
GS
[1 0 0 1 0 0] CT
-25 7 moveto 
1 -1 scale
(-75) t 
GR
GR
GS
[0.60127 0 0 0.60127 41.08686 84.22766] CT
0.149 GC
/Helvetica 16.667 F
GS
[1 0 0 1 0 0] CT
-25 7 moveto 
1 -1 scale
(-70) t 
GR
GR
GS
[0.60127 0 0 0.60127 41.08686 57.69657] CT
0.149 GC
/Helvetica 16.667 F
GS
[1 0 0 1 0 0] CT
-25 7 moveto 
1 -1 scale
(-65) t 
GR
GR
GS
[0.60127 0 0 0.60127 41.08686 31.16548] CT
0.149 GC
/Helvetica 16.667 F
GS
[1 0 0 1 0 0] CT
-25 7 moveto 
1 -1 scale
(-60) t 
GR
GR
GS
[0 -0.60127 0.60127 0 17.03602 137.28975] CT
0.149 GC
N
-22.631 -7.384 M
-22.631 -7.463 -22.616 -7.494 QT
-21.835 -9.384 -21.202 -11.306 QT
-20.569 -13.228 -20.053 -15.213 QT
-19.1 -19.103 -18.772 -22.759 QT
-19.991 -22.759 -21.178 -22.322 QT
-21.803 -22.072 -22.124 -21.681 QT
-22.444 -21.291 -22.663 -20.603 QT
-22.881 -20.228 -23.421 -19.892 QT
-23.96 -19.556 -24.381 -19.556 QT
-24.522 -19.556 L
-24.678 -19.65 -24.678 -19.791 QT
-24.272 -21.181 -23.03 -22.158 QT
-21.788 -23.134 -20.131 -23.627 QT
-18.475 -24.119 -16.991 -24.119 QT
-14.053 -24.119 L
-13.069 -24.119 -12.092 -23.931 QT
-11.116 -23.744 -10.241 -23.314 QT
-9.366 -22.884 -8.811 -22.174 QT
-8.256 -21.463 -8.256 -20.431 QT
-8.256 -19.384 -8.764 -18.4 QT
-9.272 -17.416 -10.046 -16.611 QT
-10.819 -15.806 -11.803 -15.134 QT
-13.241 -14.181 -14.835 -13.65 QT
-16.428 -13.119 -18.053 -13.119 QT
-18.178 -13.119 L
-18.225 -13.134 -18.28 -13.181 QT
-18.335 -13.228 -18.335 -13.291 QT
-18.335 -13.681 -17.663 -14.056 QT
-16.991 -14.431 -16.585 -14.478 QT
-15.444 -14.478 -14.342 -14.783 QT
-13.241 -15.088 -12.366 -15.728 QT
-11.772 -16.213 -11.319 -16.791 QT
-10.866 -17.369 -10.585 -18.056 QT
-10.303 -18.744 -10.303 -19.463 QT
-10.303 -20.666 -11.186 -21.408 QT
-12.069 -22.15 -13.335 -22.455 QT
-14.6 -22.759 -15.788 -22.759 QT
-16.819 -22.759 L
-17.022 -20.806 -17.366 -19.002 QT
-17.71 -17.197 -18.178 -15.447 QT
-18.647 -13.697 -19.272 -11.83 QT
-19.897 -9.963 -20.616 -8.259 QT
-20.866 -7.853 -21.358 -7.556 QT
-21.85 -7.259 -22.35 -7.213 QT
-22.46 -7.213 L
-22.553 -7.259 -22.585 -7.275 QT
-22.616 -7.291 -22.624 -7.306 QT
-22.631 -7.322 -22.631 -7.384 QT
cp
f
GR
GS
[0 -0.60127 0.60127 0 17.03602 137.28975] CT
0.149 GC
N
0.157 -2.697 M
-1.124 -3.713 -2.046 -5.017 QT
-2.968 -6.322 -3.561 -7.806 QT
-4.155 -9.291 -4.444 -10.908 QT
-4.733 -12.525 -4.733 -14.15 QT
-4.733 -15.806 -4.444 -17.424 QT
-4.155 -19.041 -3.554 -20.533 QT
-2.952 -22.025 -2.015 -23.33 QT
-1.077 -24.634 0.157 -25.603 QT
0.157 -25.65 0.282 -25.65 QT
0.485 -25.65 L
0.564 -25.65 0.618 -25.588 QT
0.673 -25.525 0.673 -25.447 QT
0.673 -25.353 0.626 -25.306 QT
-0.499 -24.197 -1.249 -22.939 QT
-1.999 -21.681 -2.452 -20.259 QT
-2.905 -18.838 -3.108 -17.322 QT
-3.311 -15.806 -3.311 -14.15 QT
-3.311 -6.838 0.595 -3.041 QT
0.673 -2.978 0.673 -2.853 QT
0.673 -2.791 0.61 -2.72 QT
0.548 -2.65 0.485 -2.65 QT
0.282 -2.65 L
0.157 -2.65 0.157 -2.697 QT
cp
f
GR
GS
[0 -0.60127 0.60127 0 17.03602 137.28975] CT
0.149 GC
N
4.341 -4.603 M
4.763 -4.275 5.372 -4.275 QT
6.2 -4.275 6.716 -6.103 QT
6.919 -6.978 7.872 -11.869 QT
8.935 -17.509 L
6.966 -17.509 L
6.731 -17.509 6.731 -17.806 QT
6.825 -18.322 7.028 -18.322 QT
9.075 -18.322 L
9.356 -19.806 L
9.481 -20.509 9.599 -21.009 QT
9.716 -21.509 9.841 -21.931 QT
9.966 -22.353 10.231 -22.884 QT
10.622 -23.634 11.286 -24.127 QT
11.95 -24.619 12.731 -24.619 QT
13.231 -24.619 13.708 -24.431 QT
14.185 -24.244 14.489 -23.877 QT
14.794 -23.509 14.794 -22.994 QT
14.794 -22.416 14.411 -21.986 QT
14.028 -21.556 13.466 -21.556 QT
13.106 -21.556 12.841 -21.783 QT
12.575 -22.009 12.575 -22.384 QT
12.575 -22.884 12.919 -23.259 QT
13.263 -23.634 13.763 -23.697 QT
13.341 -24.025 12.716 -24.025 QT
12.356 -24.025 12.052 -23.697 QT
11.747 -23.369 11.653 -22.994 QT
11.513 -22.416 11.013 -19.838 QT
10.731 -18.322 L
13.106 -18.322 L
13.325 -18.322 13.325 -18.009 QT
13.31 -17.963 13.278 -17.822 QT
13.247 -17.681 13.185 -17.595 QT
13.122 -17.509 13.028 -17.509 QT
10.575 -17.509 L
9.513 -11.9 L
9.31 -10.666 9.044 -9.4 QT
8.778 -8.134 8.302 -6.806 QT
7.825 -5.478 7.083 -4.58 QT
6.341 -3.681 5.325 -3.681 QT
4.56 -3.681 3.942 -4.127 QT
3.325 -4.572 3.325 -5.306 QT
3.325 -5.884 3.708 -6.314 QT
4.091 -6.744 4.653 -6.744 QT
5.044 -6.744 5.302 -6.517 QT
5.56 -6.291 5.56 -5.916 QT
5.56 -5.431 5.192 -5.017 QT
4.825 -4.603 4.341 -4.603 QT
cp
f
GR
GS
[0 -0.60127 0.60127 0 17.03602 137.28975] CT
0.149 GC
N
17.542 -2.65 M
17.339 -2.65 17.339 -2.853 QT
17.339 -2.947 17.385 -2.994 QT
21.307 -6.838 21.307 -14.15 QT
21.307 -21.463 17.417 -25.259 QT
17.339 -25.306 17.339 -25.447 QT
17.339 -25.525 17.401 -25.588 QT
17.464 -25.65 17.542 -25.65 QT
17.745 -25.65 L
17.823 -25.65 17.854 -25.603 QT
19.51 -24.306 20.612 -22.439 QT
21.714 -20.572 22.221 -18.463 QT
22.729 -16.353 22.729 -14.15 QT
22.729 -12.525 22.456 -10.947 QT
22.182 -9.369 21.581 -7.838 QT
20.979 -6.306 20.057 -5.009 QT
19.135 -3.713 17.854 -2.697 QT
17.823 -2.65 17.745 -2.65 QT
17.542 -2.65 L
cp
f
GR
GS
[0.60127 0 0 0.60127 0 0.20001] CT
1 LJ
2.5 LW
N
74.958 399.582 M
75.996 367.026 L
78.163 324.414 L
80.33 295.62 L
82.496 276.238 L
84.663 264.217 L
86.83 258.595 L
88.996 259.063 L
91.163 265.864 L
93.33 279.895 L
95.497 303.173 L
97.663 340.32 L
99.805 404.542 L
S
GR
GS
[0.60127 0 0 0.60127 0 0.20001] CT
1 LJ
2.5 LW
N
109.26 404.542 M
110.664 346.25 L
112.83 297.655 L
114.997 266.211 L
117.164 245.555 L
119.33 233.268 L
121.497 228.59 L
123.664 232.008 L
125.831 245.845 L
127.997 277.519 L
130.164 368.088 L
132.331 328.885 L
134.497 252.876 L
136.664 216.808 L
138.831 195.692 L
140.998 183.724 L
143.164 178.89 L
145.331 180.658 L
147.498 189.556 L
149.664 207.599 L
151.831 240.585 L
153.998 313.503 L
156.165 349.602 L
158.331 255.914 L
160.498 221.104 L
162.665 204.109 L
164.831 197.51 L
166.998 198.98 L
169.165 208.03 L
171.332 225.415 L
173.498 253.551 L
175.665 298.799 L
177.832 385.39 L
178.346 404.542 L
S
GR
GS
[0.60127 0 0 0.60127 0 0.20001] CT
1 LJ
2.5 LW
N
186.073 404.542 M
186.499 340.351 L
188.665 271.686 L
190.832 230.778 L
192.999 203.654 L
195.165 185.687 L
197.332 174.852 L
199.499 170.239 L
201.666 171.597 L
203.832 179.221 L
205.999 194.061 L
208.166 218.151 L
210.332 255.878 L
212.499 318.735 L
213.78 404.542 L
S
GR
GS
[0.60127 0 0 0.60127 0 0.20001] CT
1 LJ
2.5 LW
N
218.525 404.542 M
218.999 368.236 L
221.166 266.564 L
223.333 207.623 L
225.499 166.939 L
227.666 137.118 L
229.833 114.911 L
232 98.647 L
234.166 87.423 L
236.333 80.79 L
238.5 78.646 L
240.666 81.234 L
242.833 89.288 L
245 104.453 L
247.167 130.693 L
249.333 180.95 L
251.5 404.5 L
253.667 180.95 L
255.833 130.693 L
258 104.453 L
260.167 89.288 L
262.334 81.234 L
264.5 78.646 L
266.667 80.79 L
268.834 87.423 L
271 98.647 L
273.167 114.911 L
275.334 137.118 L
277.501 166.939 L
279.667 207.623 L
281.834 266.564 L
284.001 368.236 L
284.475 404.542 L
S
GR
GS
[0.60127 0 0 0.60127 0 0.20001] CT
1 LJ
2.5 LW
N
289.22 404.542 M
290.501 318.735 L
292.668 255.878 L
294.834 218.151 L
297.001 194.061 L
299.168 179.221 L
301.334 171.597 L
303.501 170.239 L
305.668 174.852 L
307.835 185.687 L
310.001 203.654 L
312.168 230.778 L
314.335 271.686 L
316.501 340.351 L
316.927 404.542 L
S
GR
GS
[0.60127 0 0 0.60127 0 0.20001] CT
1 LJ
2.5 LW
N
324.654 404.542 M
325.168 385.39 L
327.335 298.799 L
329.502 253.551 L
331.668 225.415 L
333.835 208.03 L
336.002 198.98 L
338.169 197.51 L
340.335 204.109 L
342.502 221.104 L
344.669 255.914 L
346.835 349.602 L
349.002 313.503 L
351.169 240.585 L
353.336 207.599 L
355.502 189.556 L
357.669 180.658 L
359.836 178.89 L
362.002 183.724 L
364.169 195.692 L
366.336 216.808 L
368.503 252.876 L
370.669 328.885 L
372.836 368.088 L
375.003 277.519 L
377.169 245.845 L
379.336 232.008 L
381.503 228.59 L
383.67 233.268 L
385.836 245.555 L
388.003 266.211 L
390.17 297.655 L
392.336 346.25 L
393.74 404.542 L
S
GR
GS
[0.60127 0 0 0.60127 0 0.20001] CT
1 LJ
2.5 LW
N
403.195 404.542 M
405.337 340.32 L
407.503 303.173 L
409.67 279.895 L
411.837 265.864 L
414.004 259.063 L
416.17 258.595 L
418.337 264.217 L
420.504 276.238 L
422.67 295.62 L
424.837 324.414 L
427.004 367.026 L
428.042 399.582 L
S
GR
GS
[0.60127 0 0 0.60127 0 0.20001] CT
[8 8] 0 setdash
2 LJ
2.5 LW
N
74.958 393.505 M
75.187 404.542 L
S
GR
GS
[0.60127 0 0 0.60127 0 0.20001] CT
[8 8] 0 setdash
2 LJ
2.5 LW
N
77.339 404.542 M
78.163 380.594 L
80.33 312.399 L
82.496 280.599 L
84.663 263.795 L
86.83 257.016 L
88.996 259.063 L
91.163 270.915 L
93.33 296.987 L
95.497 355.283 L
96.598 404.542 L
S
GR
GS
[0.60127 0 0 0.60127 0 0.20001] CT
[8 8] 0 setdash
2 LJ
2.5 LW
N
98.452 404.542 M
99.83 321.384 L
101.997 280.146 L
104.163 259.919 L
106.33 251.625 L
108.497 252.948 L
110.664 264.34 L
112.83 289.619 L
114.997 344.202 L
115.886 404.542 L
S
GR
GS
[0.60127 0 0 0.60127 0 0.20001] CT
[8 8] 0 setdash
2 LJ
2.5 LW
N
118.307 404.542 M
119.33 326.939 L
121.497 284.77 L
123.664 265.823 L
125.831 260.075 L
127.997 265.529 L
130.164 284.09 L
132.331 325.307 L
133.493 404.542 L
S
GR
GS
[0.60127 0 0 0.60127 0 0.20001] CT
[8 8] 0 setdash
2 LJ
2.5 LW
N
135.7 404.542 M
136.664 349.614 L
138.831 294.624 L
140.998 271.058 L
143.164 263.102 L
145.331 267.991 L
147.498 288.488 L
149.664 340.404 L
150.819 404.542 L
S
GR
GS
[0.60127 0 0 0.60127 0 0.20001] CT
[8 8] 0 setdash
2 LJ
2.5 LW
N
152.639 404.542 M
153.998 309.925 L
156.165 265.604 L
158.331 243.925 L
160.498 235.334 L
162.665 237.924 L
164.831 253.69 L
166.998 292.651 L
168.503 404.542 L
S
GR
GS
[0.60127 0 0 0.60127 0 0.20001] CT
[8 8] 0 setdash
2 LJ
2.5 LW
N
169.874 404.542 M
171.332 303.406 L
173.498 245.516 L
175.665 216.889 L
177.832 202.104 L
179.998 197.341 L
182.165 202.14 L
184.332 218.814 L
186.499 256.436 L
188.665 383.528 L
190.832 282.887 L
192.999 220.746 L
195.165 190.738 L
197.332 174.852 L
199.499 168.66 L
201.666 171.174 L
203.832 183.582 L
205.999 210.84 L
208.166 274.331 L
210.332 332.429 L
212.499 222.849 L
214.666 182.85 L
216.833 161.917 L
218.999 151.941 L
221.166 150.617 L
223.333 157.938 L
225.499 176.188 L
227.666 213.431 L
229.833 319.77 L
232 259.859 L
234.166 193.309 L
236.333 163.011 L
238.5 147.425 L
240.666 141.501 L
242.833 143.903 L
245 155.289 L
247.167 179.1 L
249.333 227.996 L
251.5 404.5 L
253.667 227.996 L
255.833 179.1 L
258 155.289 L
260.167 143.903 L
262.334 141.501 L
264.5 147.425 L
266.667 163.011 L
268.834 193.309 L
271 259.859 L
273.167 319.77 L
275.334 213.431 L
277.501 176.188 L
279.667 157.938 L
281.834 150.617 L
284.001 151.941 L
286.167 161.917 L
288.334 182.85 L
290.501 222.849 L
292.668 332.429 L
294.834 274.331 L
297.001 210.84 L
299.168 183.582 L
301.334 171.174 L
303.501 168.66 L
305.668 174.852 L
307.835 190.738 L
310.001 220.746 L
312.168 282.887 L
314.335 383.528 L
316.501 256.436 L
318.668 218.814 L
320.835 202.14 L
323.002 197.341 L
325.168 202.104 L
327.335 216.889 L
329.502 245.516 L
331.668 303.406 L
333.126 404.542 L
S
GR
GS
[0.60127 0 0 0.60127 0 0.20001] CT
[8 8] 0 setdash
2 LJ
2.5 LW
N
334.497 404.542 M
336.002 292.651 L
338.169 253.69 L
340.335 237.924 L
342.502 235.334 L
344.669 243.925 L
346.835 265.604 L
349.002 309.925 L
350.361 404.542 L
S
GR
GS
[0.60127 0 0 0.60127 0 0.20001] CT
[8 8] 0 setdash
2 LJ
2.5 LW
N
352.181 404.542 M
353.336 340.404 L
355.502 288.488 L
357.669 267.991 L
359.836 263.102 L
362.002 271.058 L
364.169 294.624 L
366.336 349.614 L
367.3 404.542 L
S
GR
GS
[0.60127 0 0 0.60127 0 0.20001] CT
[8 8] 0 setdash
2 LJ
2.5 LW
N
369.507 404.542 M
370.669 325.307 L
372.836 284.09 L
375.003 265.529 L
377.169 260.075 L
379.336 265.823 L
381.503 284.77 L
383.67 326.939 L
384.693 404.542 L
S
GR
GS
[0.60127 0 0 0.60127 0 0.20001] CT
[8 8] 0 setdash
2 LJ
2.5 LW
N
387.114 404.542 M
388.003 344.202 L
390.17 289.619 L
392.336 264.34 L
394.503 252.948 L
396.67 251.625 L
398.837 259.919 L
401.003 280.146 L
403.17 321.384 L
404.548 404.542 L
S
GR
GS
[0.60127 0 0 0.60127 0 0.20001] CT
[8 8] 0 setdash
2 LJ
2.5 LW
N
406.402 404.542 M
407.503 355.283 L
409.67 296.987 L
411.837 270.915 L
414.004 259.063 L
416.17 257.016 L
418.337 263.795 L
420.504 280.599 L
422.67 312.399 L
424.837 380.594 L
425.661 404.542 L
S
GR
GS
[0.60127 0 0 0.60127 0 0.20001] CT
[8 8] 0 setdash
2 LJ
2.5 LW
N
427.813 404.542 M
428.042 393.505 L
S
GR
GS
[0.60127 0 0 0.60127 0 0.20001] CT
1 GC
N
305 122 M
305 68 L
411 68 L
411 122 L
cp
f
GR
GS
[0.60127 0 0 0.60127 218.72005 49.86585] CT
N
2.125 2.628 M
2.125 1.972 2.297 1.284 QT
2.469 0.597 2.789 -0.255 QT
3.109 -1.106 3.344 -1.731 QT
3.609 -2.45 3.609 -2.919 QT
3.609 -3.528 3.172 -3.528 QT
2.375 -3.528 1.859 -2.708 QT
1.344 -1.888 1.109 -0.888 QT
1.063 -0.763 0.938 -0.763 QT
0.703 -0.763 L
0.531 -0.763 0.531 -0.95 QT
0.531 -0.997 L
0.859 -2.2 1.523 -3.122 QT
2.188 -4.044 3.203 -4.044 QT
3.922 -4.044 4.414 -3.575 QT
4.906 -3.106 4.906 -2.372 QT
4.906 -2.013 4.734 -1.591 QT
4.656 -1.356 4.344 -0.536 QT
4.031 0.284 3.859 0.823 QT
3.688 1.362 3.586 1.878 QT
3.484 2.394 3.484 2.909 QT
3.484 3.581 3.766 4.042 QT
4.047 4.503 4.672 4.503 QT
5.953 4.503 6.922 2.909 QT
6.938 2.831 6.953 2.761 QT
6.969 2.691 6.984 2.628 QT
8.422 -3.184 L
8.484 -3.45 8.727 -3.638 QT
8.969 -3.825 9.266 -3.825 QT
9.5 -3.825 9.68 -3.669 QT
9.859 -3.513 9.859 -3.263 QT
9.859 -3.138 9.844 -3.106 QT
8.406 2.659 L
8.266 3.253 8.266 3.644 QT
8.266 4.503 8.844 4.503 QT
9.484 4.503 9.805 3.706 QT
10.125 2.909 10.344 1.862 QT
10.375 1.737 10.5 1.737 QT
10.75 1.737 L
10.828 1.737 10.875 1.808 QT
10.922 1.878 10.922 1.941 QT
10.703 2.8 10.5 3.417 QT
10.297 4.034 9.867 4.526 QT
9.438 5.019 8.797 5.019 QT
8.172 5.019 7.664 4.675 QT
7.156 4.331 6.984 3.737 QT
6.531 4.316 5.922 4.667 QT
5.313 5.019 4.641 5.019 QT
3.484 5.019 2.805 4.394 QT
2.125 3.769 2.125 2.628 QT
cp
f
GR
GS
[0.60127 0 0 0.60127 218.72005 49.86585] CT
N
12.746 7.8 M
12.746 7.3 L
14.496 7.3 14.496 6.862 QT
14.496 -0.481 L
13.777 -0.138 12.668 -0.138 QT
12.668 -0.622 L
14.387 -0.622 15.262 -1.528 QT
15.449 -1.528 L
15.496 -1.528 15.543 -1.489 QT
15.59 -1.45 15.59 -1.403 QT
15.59 6.862 L
15.59 7.3 17.34 7.3 QT
17.34 7.8 L
12.746 7.8 L
cp
f
GR
GS
[0.60127 0 0 0.60127 218.72005 49.86585] CT
N
25.652 9.769 M
24.543 8.878 23.738 7.745 QT
22.934 6.612 22.418 5.323 QT
21.902 4.034 21.644 2.628 QT
21.387 1.222 21.387 -0.2 QT
21.387 -1.638 21.644 -3.044 QT
21.902 -4.45 22.426 -5.747 QT
22.949 -7.044 23.762 -8.177 QT
24.574 -9.309 25.652 -10.169 QT
25.652 -10.2 25.746 -10.2 QT
25.934 -10.2 L
25.996 -10.2 26.043 -10.145 QT
26.09 -10.091 26.09 -10.028 QT
26.09 -9.934 26.059 -9.903 QT
25.074 -8.934 24.426 -7.841 QT
23.777 -6.747 23.379 -5.513 QT
22.98 -4.278 22.809 -2.958 QT
22.637 -1.638 22.637 -0.2 QT
22.637 6.159 26.027 9.456 QT
26.09 9.519 26.09 9.628 QT
26.09 9.675 26.035 9.737 QT
25.98 9.8 25.934 9.8 QT
25.746 9.8 L
25.652 9.8 25.652 9.769 QT
cp
f
GR
GS
[0.60127 0 0 0.60127 218.72005 49.86585] CT
N
28.461 3.175 M
28.461 2.878 28.524 2.628 QT
29.977 -3.122 L
27.868 -3.122 L
27.664 -3.122 27.664 -3.388 QT
27.743 -3.825 27.93 -3.825 QT
30.149 -3.825 L
30.946 -7.091 L
31.024 -7.356 31.258 -7.536 QT
31.493 -7.716 31.789 -7.716 QT
32.039 -7.716 32.211 -7.567 QT
32.383 -7.419 32.383 -7.169 QT
32.383 -7.106 32.375 -7.075 QT
32.368 -7.044 32.368 -6.997 QT
31.571 -3.825 L
33.618 -3.825 L
33.836 -3.825 33.836 -3.559 QT
33.821 -3.513 33.789 -3.395 QT
33.758 -3.278 33.711 -3.2 QT
33.664 -3.122 33.571 -3.122 QT
31.383 -3.122 L
29.946 2.659 L
29.805 3.222 29.805 3.644 QT
29.805 4.503 30.399 4.503 QT
31.274 4.503 31.954 3.675 QT
32.633 2.847 32.993 1.862 QT
33.071 1.737 33.149 1.737 QT
33.383 1.737 L
33.461 1.737 33.516 1.792 QT
33.571 1.847 33.571 1.925 QT
33.571 1.956 33.539 1.972 QT
33.102 3.191 32.266 4.105 QT
31.43 5.019 30.336 5.019 QT
29.555 5.019 29.008 4.503 QT
28.461 3.987 28.461 3.175 QT
cp
f
GR
GS
[0.60127 0 0 0.60127 218.72005 49.86585] CT
N
35.746 9.8 M
35.574 9.8 35.574 9.628 QT
35.574 9.534 35.605 9.503 QT
39.027 6.159 39.027 -0.2 QT
39.027 -6.559 35.652 -9.856 QT
35.574 -9.903 35.574 -10.028 QT
35.574 -10.091 35.629 -10.145 QT
35.684 -10.2 35.746 -10.2 QT
35.934 -10.2 L
35.996 -10.2 36.027 -10.169 QT
37.465 -9.028 38.426 -7.411 QT
39.387 -5.794 39.832 -3.958 QT
40.277 -2.122 40.277 -0.2 QT
40.277 1.222 40.035 2.589 QT
39.793 3.956 39.27 5.292 QT
38.746 6.628 37.949 7.753 QT
37.152 8.878 36.027 9.769 QT
35.996 9.8 35.934 9.8 QT
35.746 9.8 L
cp
f
GR
GS
[0.60127 0 0 0.60127 0 0.20001] CT
1 LJ
2.5 LW
N
310.001 82.601 M
360.012 82.601 L
S
GR
GS
[0.60127 0 0 0.60127 218.72005 64.7757] CT
N
/f-2080499915{2.125 2.628 M
2.125 1.972 2.297 1.284 QT
2.469 0.597 2.789 -0.255 QT
3.109 -1.106 3.344 -1.731 QT
3.609 -2.45 3.609 -2.919 QT
3.609 -3.528 3.172 -3.528 QT
2.375 -3.528 1.859 -2.708 QT
1.344 -1.888 1.109 -0.888 QT
1.063 -0.763 0.938 -0.763 QT
0.703 -0.763 L
0.531 -0.763 0.531 -0.95 QT
0.531 -0.997 L
0.859 -2.2 1.523 -3.122 QT
2.188 -4.044 3.203 -4.044 QT
3.922 -4.044 4.414 -3.575 QT
4.906 -3.106 4.906 -2.372 QT
4.906 -2.013 4.734 -1.591 QT
4.656 -1.356 4.344 -0.536 QT
4.031 0.284 3.859 0.823 QT
3.688 1.362 3.586 1.878 QT
3.484 2.394 3.484 2.909 QT
3.484 3.581 3.766 4.042 QT
4.047 4.503 4.672 4.503 QT
5.953 4.503 6.922 2.909 QT
6.938 2.831 6.953 2.761 QT
6.969 2.691 6.984 2.628 QT
8.422 -3.184 L
8.484 -3.45 8.727 -3.638 QT
8.969 -3.825 9.266 -3.825 QT
9.5 -3.825 9.68 -3.669 QT
9.859 -3.513 9.859 -3.263 QT
9.859 -3.138 9.844 -3.106 QT
8.406 2.659 L
8.266 3.253 8.266 3.644 QT
8.266 4.503 8.844 4.503 QT
9.484 4.503 9.805 3.706 QT
10.125 2.909 10.344 1.862 QT
10.375 1.737 10.5 1.737 QT
10.75 1.737 L
10.828 1.737 10.875 1.808 QT
10.922 1.878 10.922 1.941 QT
10.703 2.8 10.5 3.417 QT
10.297 4.034 9.867 4.526 QT
9.438 5.019 8.797 5.019 QT
8.172 5.019 7.664 4.675 QT
7.156 4.331 6.984 3.737 QT
6.531 4.316 5.922 4.667 QT
5.313 5.019 4.641 5.019 QT
3.484 5.019 2.805 4.394 QT
2.125 3.769 2.125 2.628 QT
cp}def
f-2080499915
f
GR
GS
[0.60127 0 0 0.60127 218.72005 64.7757] CT
N
/f-935748845{12.152 7.8 M
12.152 7.425 L
12.152 7.394 12.168 7.347 QT
14.355 4.941 L
14.84 4.409 15.144 4.05 QT
15.449 3.691 15.754 3.214 QT
16.059 2.737 16.23 2.253 QT
16.402 1.769 16.402 1.222 QT
16.402 0.644 16.191 0.12 QT
15.98 -0.403 15.559 -0.716 QT
15.137 -1.028 14.543 -1.028 QT
13.934 -1.028 13.449 -0.661 QT
12.965 -0.294 12.762 0.284 QT
12.824 0.269 12.918 0.269 QT
13.23 0.269 13.457 0.48 QT
13.684 0.691 13.684 1.019 QT
13.684 1.347 13.457 1.566 QT
13.23 1.784 12.918 1.784 QT
12.59 1.784 12.371 1.558 QT
12.152 1.331 12.152 1.019 QT
12.152 0.503 12.348 0.042 QT
12.543 -0.419 12.918 -0.778 QT
13.293 -1.138 13.762 -1.333 QT
14.23 -1.528 14.746 -1.528 QT
15.559 -1.528 16.246 -1.184 QT
16.934 -0.841 17.34 -0.224 QT
17.746 0.394 17.746 1.222 QT
17.746 1.831 17.473 2.378 QT
17.199 2.925 16.785 3.37 QT
16.371 3.816 15.723 4.386 QT
15.074 4.956 14.871 5.144 QT
13.277 6.659 L
14.621 6.659 L
15.621 6.659 16.285 6.644 QT
16.949 6.628 16.996 6.597 QT
17.152 6.425 17.324 5.3 QT
17.746 5.3 L
17.34 7.8 L
12.152 7.8 L
cp}def
f-935748845
f
GR
GS
[0.60127 0 0 0.60127 218.72005 64.7757] CT
N
/f-1465303589{25.652 9.769 M
24.543 8.878 23.738 7.745 QT
22.934 6.612 22.418 5.323 QT
21.902 4.034 21.644 2.628 QT
21.387 1.222 21.387 -0.2 QT
21.387 -1.638 21.644 -3.044 QT
21.902 -4.45 22.426 -5.747 QT
22.949 -7.044 23.762 -8.177 QT
24.574 -9.309 25.652 -10.169 QT
25.652 -10.2 25.746 -10.2 QT
25.934 -10.2 L
25.996 -10.2 26.043 -10.145 QT
26.09 -10.091 26.09 -10.028 QT
26.09 -9.934 26.059 -9.903 QT
25.074 -8.934 24.426 -7.841 QT
23.777 -6.747 23.379 -5.513 QT
22.98 -4.278 22.809 -2.958 QT
22.637 -1.638 22.637 -0.2 QT
22.637 6.159 26.027 9.456 QT
26.09 9.519 26.09 9.628 QT
26.09 9.675 26.035 9.737 QT
25.98 9.8 25.934 9.8 QT
25.746 9.8 L
25.652 9.8 25.652 9.769 QT
cp}def
f-1465303589
f
GR
GS
[0.60127 0 0 0.60127 218.72005 64.7757] CT
N
/f2060146435{28.461 3.175 M
28.461 2.878 28.524 2.628 QT
29.977 -3.122 L
27.868 -3.122 L
27.664 -3.122 27.664 -3.388 QT
27.743 -3.825 27.93 -3.825 QT
30.149 -3.825 L
30.946 -7.091 L
31.024 -7.356 31.258 -7.536 QT
31.493 -7.716 31.789 -7.716 QT
32.039 -7.716 32.211 -7.567 QT
32.383 -7.419 32.383 -7.169 QT
32.383 -7.106 32.375 -7.075 QT
32.368 -7.044 32.368 -6.997 QT
31.571 -3.825 L
33.618 -3.825 L
33.836 -3.825 33.836 -3.559 QT
33.821 -3.513 33.789 -3.395 QT
33.758 -3.278 33.711 -3.2 QT
33.664 -3.122 33.571 -3.122 QT
31.383 -3.122 L
29.946 2.659 L
29.805 3.222 29.805 3.644 QT
29.805 4.503 30.399 4.503 QT
31.274 4.503 31.954 3.675 QT
32.633 2.847 32.993 1.862 QT
33.071 1.737 33.149 1.737 QT
33.383 1.737 L
33.461 1.737 33.516 1.792 QT
33.571 1.847 33.571 1.925 QT
33.571 1.956 33.539 1.972 QT
33.102 3.191 32.266 4.105 QT
31.43 5.019 30.336 5.019 QT
29.555 5.019 29.008 4.503 QT
28.461 3.987 28.461 3.175 QT
cp}def
f2060146435
f
GR
GS
[0.60127 0 0 0.60127 218.72005 64.7757] CT
N
/f1622326720{35.746 9.8 M
35.574 9.8 35.574 9.628 QT
35.574 9.534 35.605 9.503 QT
39.027 6.159 39.027 -0.2 QT
39.027 -6.559 35.652 -9.856 QT
35.574 -9.903 35.574 -10.028 QT
35.574 -10.091 35.629 -10.145 QT
35.684 -10.2 35.746 -10.2 QT
35.934 -10.2 L
35.996 -10.2 36.027 -10.169 QT
37.465 -9.028 38.426 -7.411 QT
39.387 -5.794 39.832 -3.958 QT
40.277 -2.122 40.277 -0.2 QT
40.277 1.222 40.035 2.589 QT
39.793 3.956 39.27 5.292 QT
38.746 6.628 37.949 7.753 QT
37.152 8.878 36.027 9.769 QT
35.996 9.8 35.934 9.8 QT
35.746 9.8 L
cp}def
f1622326720
f
GR
GS
[0.60127 0 0 0.60127 0 0.20001] CT
[8 8] 0 setdash
2 LJ
2.5 LW
N
310.001 107.399 M
360.012 107.399 L
S
GR
GS
[0.60127 0 0 0.60127 0 0.20001] CT
0.149 GC
10.0 ML
0.833 LW
N
305 122 M
305 68 L
411 68 L
411 122 L
cp
S
GR
%%Trailer
%%Pages: 1
%%EOF
