%!PS-Adobe-3.0 EPSF-3.0
%%Creator: (MATLAB, The Mathworks, Inc. Version 9.4.0.813654 \(R2018a\). Operating System: Windows 10)
%%Title: C:/Users/Francesco/Documents/gitRepo/authenticationProtocol/latex/figures/psucc_quantized.eps
%%CreationDate: 2018-07-31T13:39:44
%%Pages: (atend)
%%BoundingBox: 0 0 284 284
%%LanguageLevel: 3
%%EndComments
%%BeginProlog
%%BeginResource: procset (Apache XML Graphics Std ProcSet) 1.2 0
%%Version: 1.2 0
%%Copyright: (Copyright 2001-2003,2010 The Apache Software Foundation. License terms: http://www.apache.org/licenses/LICENSE-2.0)
/bd{bind def}bind def
/ld{load def}bd
/GR/grestore ld
/GS/gsave ld
/RM/rmoveto ld
/C/curveto ld
/t/show ld
/L/lineto ld
/ML/setmiterlimit ld
/CT/concat ld
/f/fill ld
/N/newpath ld
/S/stroke ld
/CC/setcmykcolor ld
/A/ashow ld
/cp/closepath ld
/RC/setrgbcolor ld
/LJ/setlinejoin ld
/GC/setgray ld
/LW/setlinewidth ld
/M/moveto ld
/re {4 2 roll M
1 index 0 rlineto
0 exch rlineto
neg 0 rlineto
cp } bd
/_ctm matrix def
/_tm matrix def
/BT { _ctm currentmatrix pop matrix _tm copy pop 0 0 moveto } bd
/ET { _ctm setmatrix } bd
/iTm { _ctm setmatrix _tm concat } bd
/Tm { _tm astore pop iTm 0 0 moveto } bd
/ux 0.0 def
/uy 0.0 def
/F {
  /Tp exch def
  /Tf exch def
  Tf findfont Tp scalefont setfont
  /cf Tf def  /cs Tp def
} bd
/ULS {currentpoint /uy exch def /ux exch def} bd
/ULE {
  /Tcx currentpoint pop def
  gsave
  newpath
  cf findfont cs scalefont dup
  /FontMatrix get 0 get /Ts exch def /FontInfo get dup
  /UnderlinePosition get Ts mul /To exch def
  /UnderlineThickness get Ts mul /Tt exch def
  ux uy To add moveto  Tcx uy To add lineto
  Tt setlinewidth stroke
  grestore
} bd
/OLE {
  /Tcx currentpoint pop def
  gsave
  newpath
  cf findfont cs scalefont dup
  /FontMatrix get 0 get /Ts exch def /FontInfo get dup
  /UnderlinePosition get Ts mul /To exch def
  /UnderlineThickness get Ts mul /Tt exch def
  ux uy To add cs add moveto Tcx uy To add cs add lineto
  Tt setlinewidth stroke
  grestore
} bd
/SOE {
  /Tcx currentpoint pop def
  gsave
  newpath
  cf findfont cs scalefont dup
  /FontMatrix get 0 get /Ts exch def /FontInfo get dup
  /UnderlinePosition get Ts mul /To exch def
  /UnderlineThickness get Ts mul /Tt exch def
  ux uy To add cs 10 mul 26 idiv add moveto Tcx uy To add cs 10 mul 26 idiv add lineto
  Tt setlinewidth stroke
  grestore
} bd
/QT {
/Y22 exch store
/X22 exch store
/Y21 exch store
/X21 exch store
currentpoint
/Y21 load 2 mul add 3 div exch
/X21 load 2 mul add 3 div exch
/X21 load 2 mul /X22 load add 3 div
/Y21 load 2 mul /Y22 load add 3 div
/X22 load /Y22 load curveto
} bd
/SSPD {
dup length /d exch dict def
{
/v exch def
/k exch def
currentpagedevice k known {
/cpdv currentpagedevice k get def
v cpdv ne {
/upd false def
/nullv v type /nulltype eq def
/nullcpdv cpdv type /nulltype eq def
nullv nullcpdv or
{
/upd true def
} {
/sametype v type cpdv type eq def
sametype {
v type /arraytype eq {
/vlen v length def
/cpdvlen cpdv length def
vlen cpdvlen eq {
0 1 vlen 1 sub {
/i exch def
/obj v i get def
/cpdobj cpdv i get def
obj cpdobj ne {
/upd true def
exit
} if
} for
} {
/upd true def
} ifelse
} {
v type /dicttype eq {
v {
/dv exch def
/dk exch def
/cpddv cpdv dk get def
dv cpddv ne {
/upd true def
exit
} if
} forall
} {
/upd true def
} ifelse
} ifelse
} if
} ifelse
upd true eq {
d k v put
} if
} if
} if
} forall
d length 0 gt {
d setpagedevice
} if
} bd
/RE { % /NewFontName [NewEncodingArray] /FontName RE -
  findfont dup length dict begin
  {
    1 index /FID ne
    {def} {pop pop} ifelse
  } forall
  /Encoding exch def
  /FontName 1 index def
  currentdict definefont pop
  end
} bind def
%%EndResource
%%BeginResource: procset (Apache XML Graphics EPS ProcSet) 1.0 0
%%Version: 1.0 0
%%Copyright: (Copyright 2002-2003 The Apache Software Foundation. License terms: http://www.apache.org/licenses/LICENSE-2.0)
/BeginEPSF { %def
/b4_Inc_state save def         % Save state for cleanup
/dict_count countdictstack def % Count objects on dict stack
/op_count count 1 sub def      % Count objects on operand stack
userdict begin                 % Push userdict on dict stack
/showpage { } def              % Redefine showpage, { } = null proc
0 setgray 0 setlinecap         % Prepare graphics state
1 setlinewidth 0 setlinejoin
10 setmiterlimit [ ] 0 setdash newpath
/languagelevel where           % If level not equal to 1 then
{pop languagelevel             % set strokeadjust and
1 ne                           % overprint to their defaults.
{false setstrokeadjust false setoverprint
} if
} if
} bd
/EndEPSF { %def
count op_count sub {pop} repeat            % Clean up stacks
countdictstack dict_count sub {end} repeat
b4_Inc_state restore
} bd
%%EndResource
%FOPBeginFontDict
%%IncludeResource: font Courier-Oblique
%%IncludeResource: font Courier-BoldOblique
%%IncludeResource: font Courier-Bold
%%IncludeResource: font ZapfDingbats
%%IncludeResource: font Symbol
%%IncludeResource: font Helvetica
%%IncludeResource: font Helvetica-Oblique
%%IncludeResource: font Helvetica-Bold
%%IncludeResource: font Helvetica-BoldOblique
%%IncludeResource: font Times-Roman
%%IncludeResource: font Times-Italic
%%IncludeResource: font Times-Bold
%%IncludeResource: font Times-BoldItalic
%%IncludeResource: font Courier
%FOPEndFontDict
%%BeginResource: encoding WinAnsiEncoding
/WinAnsiEncoding [
/.notdef /.notdef /.notdef /.notdef /.notdef
/.notdef /.notdef /.notdef /.notdef /.notdef
/.notdef /.notdef /.notdef /.notdef /.notdef
/.notdef /.notdef /.notdef /.notdef /.notdef
/.notdef /.notdef /.notdef /.notdef /.notdef
/.notdef /.notdef /.notdef /.notdef /.notdef
/.notdef /.notdef /space /exclam /quotedbl
/numbersign /dollar /percent /ampersand /quotesingle
/parenleft /parenright /asterisk /plus /comma
/hyphen /period /slash /zero /one
/two /three /four /five /six
/seven /eight /nine /colon /semicolon
/less /equal /greater /question /at
/A /B /C /D /E
/F /G /H /I /J
/K /L /M /N /O
/P /Q /R /S /T
/U /V /W /X /Y
/Z /bracketleft /backslash /bracketright /asciicircum
/underscore /quoteleft /a /b /c
/d /e /f /g /h
/i /j /k /l /m
/n /o /p /q /r
/s /t /u /v /w
/x /y /z /braceleft /bar
/braceright /asciitilde /bullet /Euro /bullet
/quotesinglbase /florin /quotedblbase /ellipsis /dagger
/daggerdbl /circumflex /perthousand /Scaron /guilsinglleft
/OE /bullet /Zcaron /bullet /bullet
/quoteleft /quoteright /quotedblleft /quotedblright /bullet
/endash /emdash /asciitilde /trademark /scaron
/guilsinglright /oe /bullet /zcaron /Ydieresis
/space /exclamdown /cent /sterling /currency
/yen /brokenbar /section /dieresis /copyright
/ordfeminine /guillemotleft /logicalnot /sfthyphen /registered
/macron /degree /plusminus /twosuperior /threesuperior
/acute /mu /paragraph /middot /cedilla
/onesuperior /ordmasculine /guillemotright /onequarter /onehalf
/threequarters /questiondown /Agrave /Aacute /Acircumflex
/Atilde /Adieresis /Aring /AE /Ccedilla
/Egrave /Eacute /Ecircumflex /Edieresis /Igrave
/Iacute /Icircumflex /Idieresis /Eth /Ntilde
/Ograve /Oacute /Ocircumflex /Otilde /Odieresis
/multiply /Oslash /Ugrave /Uacute /Ucircumflex
/Udieresis /Yacute /Thorn /germandbls /agrave
/aacute /acircumflex /atilde /adieresis /aring
/ae /ccedilla /egrave /eacute /ecircumflex
/edieresis /igrave /iacute /icircumflex /idieresis
/eth /ntilde /ograve /oacute /ocircumflex
/otilde /odieresis /divide /oslash /ugrave
/uacute /ucircumflex /udieresis /yacute /thorn
/ydieresis
] def
%%EndResource
%FOPBeginFontReencode
/Courier-Oblique findfont
dup length dict begin
  {1 index /FID ne {def} {pop pop} ifelse} forall
  /Encoding WinAnsiEncoding def
  currentdict
end
/Courier-Oblique exch definefont pop
/Courier-BoldOblique findfont
dup length dict begin
  {1 index /FID ne {def} {pop pop} ifelse} forall
  /Encoding WinAnsiEncoding def
  currentdict
end
/Courier-BoldOblique exch definefont pop
/Courier-Bold findfont
dup length dict begin
  {1 index /FID ne {def} {pop pop} ifelse} forall
  /Encoding WinAnsiEncoding def
  currentdict
end
/Courier-Bold exch definefont pop
/Helvetica findfont
dup length dict begin
  {1 index /FID ne {def} {pop pop} ifelse} forall
  /Encoding WinAnsiEncoding def
  currentdict
end
/Helvetica exch definefont pop
/Helvetica-Oblique findfont
dup length dict begin
  {1 index /FID ne {def} {pop pop} ifelse} forall
  /Encoding WinAnsiEncoding def
  currentdict
end
/Helvetica-Oblique exch definefont pop
/Helvetica-Bold findfont
dup length dict begin
  {1 index /FID ne {def} {pop pop} ifelse} forall
  /Encoding WinAnsiEncoding def
  currentdict
end
/Helvetica-Bold exch definefont pop
/Helvetica-BoldOblique findfont
dup length dict begin
  {1 index /FID ne {def} {pop pop} ifelse} forall
  /Encoding WinAnsiEncoding def
  currentdict
end
/Helvetica-BoldOblique exch definefont pop
/Times-Roman findfont
dup length dict begin
  {1 index /FID ne {def} {pop pop} ifelse} forall
  /Encoding WinAnsiEncoding def
  currentdict
end
/Times-Roman exch definefont pop
/Times-Italic findfont
dup length dict begin
  {1 index /FID ne {def} {pop pop} ifelse} forall
  /Encoding WinAnsiEncoding def
  currentdict
end
/Times-Italic exch definefont pop
/Times-Bold findfont
dup length dict begin
  {1 index /FID ne {def} {pop pop} ifelse} forall
  /Encoding WinAnsiEncoding def
  currentdict
end
/Times-Bold exch definefont pop
/Times-BoldItalic findfont
dup length dict begin
  {1 index /FID ne {def} {pop pop} ifelse} forall
  /Encoding WinAnsiEncoding def
  currentdict
end
/Times-BoldItalic exch definefont pop
/Courier findfont
dup length dict begin
  {1 index /FID ne {def} {pop pop} ifelse} forall
  /Encoding WinAnsiEncoding def
  currentdict
end
/Courier exch definefont pop
%FOPEndFontReencode
%%EndProlog
%%Page: 1 1
%%PageBoundingBox: 0 0 284 284
%%BeginPageSetup
[1 0 0 -1 0 284] CT
%%EndPageSetup
GS
[0.75 0 0 0.75 0 0.5] CT
N
0 0 M
378 0 L
378 378 L
0 378 L
0 0 L
cp
clip
1 GC
N
0 0 378 378 re
f
GR
GS
[0.75 0 0 0.75 0 0.5] CT
1 GC
N
0 0 378 378 re
f
GR
GS
[0.75 0 0 0.75 0 0.5] CT
1 GC
N
63 332 M
342 332 L
342 28 L
63 28 L
cp
f
GR
GS
[0.75 0 0 0.75 0 0.5] CT
0.873 GC
1 LJ
0.667 LW
N
63 332 M
63 28 L
S
GR
GS
[0.75 0 0 0.75 0 0.5] CT
0.873 GC
1 LJ
0.667 LW
N
132.75 332 M
132.75 28 L
S
GR
GS
[0.75 0 0 0.75 0 0.5] CT
0.873 GC
1 LJ
0.667 LW
N
202.5 332 M
202.5 28 L
S
GR
GS
[0.75 0 0 0.75 0 0.5] CT
0.873 GC
1 LJ
0.667 LW
N
272.25 332 M
272.25 28 L
S
GR
GS
[0.75 0 0 0.75 0 0.5] CT
0.873 GC
1 LJ
0.667 LW
N
342 332 M
342 28 L
S
GR
GS
[0.75 0 0 0.75 0 0.5] CT
0.775 GC
[1 3] 0 setdash
2 LJ
0.667 LW
N
342 316.8 M
63 316.8 L
S
GR
GS
[0.75 0 0 0.75 0 0.5] CT
0.775 GC
[1 3] 0 setdash
2 LJ
0.667 LW
N
342 301.6 M
63 301.6 L
S
GR
GS
[0.75 0 0 0.75 0 0.5] CT
0.775 GC
[1 3] 0 setdash
2 LJ
0.667 LW
N
342 286.4 M
63 286.4 L
S
GR
GS
[0.75 0 0 0.75 0 0.5] CT
0.775 GC
[1 3] 0 setdash
2 LJ
0.667 LW
N
342 271.2 M
63 271.2 L
S
GR
GS
[0.75 0 0 0.75 0 0.5] CT
0.775 GC
[1 3] 0 setdash
2 LJ
0.667 LW
N
342 240.8 M
63 240.8 L
S
GR
GS
[0.75 0 0 0.75 0 0.5] CT
0.775 GC
[1 3] 0 setdash
2 LJ
0.667 LW
N
342 225.6 M
63 225.6 L
S
GR
GS
[0.75 0 0 0.75 0 0.5] CT
0.775 GC
[1 3] 0 setdash
2 LJ
0.667 LW
N
342 210.4 M
63 210.4 L
S
GR
GS
[0.75 0 0 0.75 0 0.5] CT
0.775 GC
[1 3] 0 setdash
2 LJ
0.667 LW
N
342 195.2 M
63 195.2 L
S
GR
GS
[0.75 0 0 0.75 0 0.5] CT
0.775 GC
[1 3] 0 setdash
2 LJ
0.667 LW
N
342 164.8 M
63 164.8 L
S
GR
GS
[0.75 0 0 0.75 0 0.5] CT
0.775 GC
[1 3] 0 setdash
2 LJ
0.667 LW
N
342 149.6 M
63 149.6 L
S
GR
GS
[0.75 0 0 0.75 0 0.5] CT
0.775 GC
[1 3] 0 setdash
2 LJ
0.667 LW
N
342 134.4 M
63 134.4 L
S
GR
GS
[0.75 0 0 0.75 0 0.5] CT
0.775 GC
[1 3] 0 setdash
2 LJ
0.667 LW
N
342 119.2 M
63 119.2 L
S
GR
GS
[0.75 0 0 0.75 0 0.5] CT
0.775 GC
[1 3] 0 setdash
2 LJ
0.667 LW
N
342 88.8 M
63 88.8 L
S
GR
GS
[0.75 0 0 0.75 0 0.5] CT
0.775 GC
[1 3] 0 setdash
2 LJ
0.667 LW
N
342 73.6 M
63 73.6 L
S
GR
GS
[0.75 0 0 0.75 0 0.5] CT
0.775 GC
[1 3] 0 setdash
2 LJ
0.667 LW
N
342 58.4 M
63 58.4 L
S
GR
GS
[0.75 0 0 0.75 0 0.5] CT
0.775 GC
[1 3] 0 setdash
2 LJ
0.667 LW
N
342 43.2 M
63 43.2 L
S
GR
GS
[0.75 0 0 0.75 0 0.5] CT
0.873 GC
1 LJ
0.667 LW
N
342 332 M
63 332 L
S
GR
GS
[0.75 0 0 0.75 0 0.5] CT
0.873 GC
1 LJ
0.667 LW
N
342 256 M
63 256 L
S
GR
GS
[0.75 0 0 0.75 0 0.5] CT
0.873 GC
1 LJ
0.667 LW
N
342 180 M
63 180 L
S
GR
GS
[0.75 0 0 0.75 0 0.5] CT
0.873 GC
1 LJ
0.667 LW
N
342 104 M
63 104 L
S
GR
GS
[0.75 0 0 0.75 0 0.5] CT
0.873 GC
1 LJ
0.667 LW
N
342 28 M
63 28 L
S
GR
GS
[0.75 0 0 0.75 0 0.5] CT
0.149 GC
2 setlinecap
1 LJ
0.667 LW
N
63 332 M
342 332 L
S
GR
GS
[0.75 0 0 0.75 0 0.5] CT
0.149 GC
2 setlinecap
1 LJ
0.667 LW
N
63 28 M
342 28 L
S
GR
GS
[0.75 0 0 0.75 0 0.5] CT
0.149 GC
2 setlinecap
1 LJ
0.667 LW
N
63 332 M
63 328.96 L
S
GR
GS
[0.75 0 0 0.75 0 0.5] CT
0.149 GC
2 setlinecap
1 LJ
0.667 LW
N
132.75 332 M
132.75 328.96 L
S
GR
GS
[0.75 0 0 0.75 0 0.5] CT
0.149 GC
2 setlinecap
1 LJ
0.667 LW
N
202.5 332 M
202.5 328.96 L
S
GR
GS
[0.75 0 0 0.75 0 0.5] CT
0.149 GC
2 setlinecap
1 LJ
0.667 LW
N
272.25 332 M
272.25 328.96 L
S
GR
GS
[0.75 0 0 0.75 0 0.5] CT
0.149 GC
2 setlinecap
1 LJ
0.667 LW
N
342 332 M
342 328.96 L
S
GR
GS
[0.75 0 0 0.75 0 0.5] CT
0.149 GC
2 setlinecap
1 LJ
0.667 LW
N
63 28 M
63 31.04 L
S
GR
GS
[0.75 0 0 0.75 0 0.5] CT
0.149 GC
2 setlinecap
1 LJ
0.667 LW
N
132.75 28 M
132.75 31.04 L
S
GR
GS
[0.75 0 0 0.75 0 0.5] CT
0.149 GC
2 setlinecap
1 LJ
0.667 LW
N
202.5 28 M
202.5 31.04 L
S
GR
GS
[0.75 0 0 0.75 0 0.5] CT
0.149 GC
2 setlinecap
1 LJ
0.667 LW
N
272.25 28 M
272.25 31.04 L
S
GR
GS
[0.75 0 0 0.75 0 0.5] CT
0.149 GC
2 setlinecap
1 LJ
0.667 LW
N
342 28 M
342 31.04 L
S
GR
GS
[0.75 0 0 0.75 47.25 253.50001] CT
0.149 GC
/Helvetica 13.333 F
GS
[1 0 0 1 0 0] CT
-6 14 moveto 
1 -1 scale
(-6) t 
GR
GR
GS
[0.75 0 0 0.75 99.5625 253.50001] CT
0.149 GC
/Helvetica 13.333 F
GS
[1 0 0 1 0 0] CT
-6 14 moveto 
1 -1 scale
(-4) t 
GR
GR
GS
[0.75 0 0 0.75 151.875 253.50001] CT
0.149 GC
/Helvetica 13.333 F
GS
[1 0 0 1 0 0] CT
-6 14 moveto 
1 -1 scale
(-2) t 
GR
GR
GS
[0.75 0 0 0.75 204.1875 253.50001] CT
0.149 GC
/Helvetica 13.333 F
GS
[1 0 0 1 0 0] CT
-4 14 moveto 
1 -1 scale
(0) t 
GR
GR
GS
[0.75 0 0 0.75 256.5 253.50001] CT
0.149 GC
/Helvetica 13.333 F
GS
[1 0 0 1 0 0] CT
-4 14 moveto 
1 -1 scale
(2) t 
GR
GR
GS
[0.75 0 0 0.75 151.8751 267.24999] CT
0.149 GC
N
-29.999 15.899 M
-30.842 15.899 -31.491 15.492 QT
-32.139 15.086 -32.499 14.399 QT
-32.858 13.711 -32.858 12.883 QT
-32.858 12.008 -32.46 11.031 QT
-32.061 10.055 -31.374 9.25 QT
-30.686 8.446 -29.811 7.969 QT
-28.936 7.492 -28.014 7.492 QT
-23.233 7.492 L
-23.03 7.492 -22.889 7.617 QT
-22.749 7.742 -22.749 7.977 QT
-22.749 8.242 -22.952 8.453 QT
-23.155 8.664 -23.436 8.664 QT
-25.749 8.664 L
-25.202 9.477 -25.202 10.649 QT
-25.202 11.602 -25.577 12.524 QT
-25.952 13.446 -26.608 14.211 QT
-27.264 14.977 -28.139 15.438 QT
-29.014 15.899 -29.999 15.899 QT
cp
-29.967 15.399 M
-28.936 15.399 -28.132 14.586 QT
-27.327 13.774 -26.905 12.594 QT
-26.483 11.414 -26.483 10.414 QT
-26.483 9.602 -26.928 9.133 QT
-27.374 8.664 -28.186 8.664 QT
-29.28 8.664 -30.061 9.406 QT
-30.842 10.149 -31.225 11.274 QT
-31.608 12.399 -31.608 13.43 QT
-31.608 14.258 -31.178 14.828 QT
-30.749 15.399 -29.967 15.399 QT
cp
f
GR
GS
[0.75 0 0 0.75 151.8751 267.24999] CT
0.149 GC
N
-21.569 8.906 M
-21.569 8.562 L
-21.569 8.531 -21.538 8.484 QT
-19.522 6.25 L
-19.053 5.75 -18.772 5.414 QT
-18.491 5.078 -18.21 4.64 QT
-17.928 4.203 -17.764 3.75 QT
-17.6 3.297 -17.6 2.797 QT
-17.6 2.265 -17.803 1.773 QT
-18.006 1.281 -18.397 0.992 QT
-18.788 0.703 -19.335 0.703 QT
-19.897 0.703 -20.35 1.047 QT
-20.803 1.39 -20.991 1.922 QT
-20.928 1.906 -20.85 1.906 QT
-20.553 1.906 -20.35 2.101 QT
-20.147 2.297 -20.147 2.609 QT
-20.147 2.906 -20.35 3.117 QT
-20.553 3.328 -20.85 3.328 QT
-21.147 3.328 -21.358 3.117 QT
-21.569 2.906 -21.569 2.609 QT
-21.569 2.125 -21.381 1.695 QT
-21.194 1.265 -20.85 0.937 QT
-20.506 0.609 -20.069 0.429 QT
-19.631 0.25 -19.147 0.25 QT
-18.397 0.25 -17.756 0.562 QT
-17.116 0.875 -16.741 1.453 QT
-16.366 2.031 -16.366 2.797 QT
-16.366 3.359 -16.616 3.867 QT
-16.866 4.375 -17.249 4.789 QT
-17.631 5.203 -18.241 5.734 QT
-18.85 6.265 -19.038 6.437 QT
-20.506 7.859 L
-19.256 7.859 L
-18.335 7.859 -17.717 7.843 QT
-17.1 7.828 -17.069 7.781 QT
-16.913 7.625 -16.756 6.593 QT
-16.366 6.593 L
-16.741 8.906 L
-21.569 8.906 L
cp
f
GR
GS
[0.75 0 0 0.75 151.8751 267.24999] CT
0.149 GC
N
-21.473 18.779 M
-21.473 18.513 -21.403 18.154 QT
-21.332 17.795 -21.239 17.521 QT
-21.145 17.248 -20.934 16.677 QT
-20.723 16.107 -20.707 16.06 QT
-20.535 15.576 -20.535 15.279 QT
-20.535 14.888 -20.817 14.888 QT
-21.332 14.888 -21.668 15.42 QT
-22.004 15.951 -22.16 16.607 QT
-22.192 16.685 -22.27 16.685 QT
-22.426 16.685 L
-22.535 16.685 -22.535 16.56 QT
-22.535 16.529 L
-22.317 15.748 -21.887 15.146 QT
-21.457 14.545 -20.801 14.545 QT
-20.332 14.545 -20.012 14.849 QT
-19.692 15.154 -19.692 15.623 QT
-19.692 15.873 -19.801 16.138 QT
-19.957 16.529 -20.16 17.084 QT
-20.364 17.638 -20.481 18.084 QT
-20.598 18.529 -20.598 18.951 QT
-20.598 19.467 -20.332 19.779 QT
-20.067 20.092 -19.551 20.092 QT
-18.864 20.092 -18.41 19.045 QT
-18.426 18.967 -18.426 18.826 QT
-18.426 18.482 -18.317 18.029 QT
-17.582 15.107 L
-17.535 14.935 -17.379 14.81 QT
-17.223 14.685 -17.035 14.685 QT
-16.879 14.685 -16.762 14.787 QT
-16.645 14.888 -16.645 15.06 QT
-16.645 15.138 -16.66 15.154 QT
-17.395 18.06 L
-17.52 18.576 -17.52 18.998 QT
-17.52 19.482 -17.293 19.787 QT
-17.067 20.092 -16.582 20.092 QT
-15.754 20.092 -15.207 18.998 QT
-15.004 18.607 -14.754 17.834 QT
-14.504 17.06 -14.504 16.654 QT
-14.504 16.279 -14.629 16.06 QT
-14.754 15.842 -14.965 15.592 QT
-15.176 15.342 -15.176 15.217 QT
-15.176 14.967 -14.965 14.756 QT
-14.754 14.545 -14.489 14.545 QT
-14.176 14.545 -14.043 14.826 QT
-13.91 15.107 -13.91 15.467 QT
-13.91 15.904 -14.059 16.584 QT
-14.207 17.263 -14.426 17.943 QT
-14.645 18.623 -14.848 19.029 QT
-15.551 20.435 -16.614 20.435 QT
-17.16 20.435 -17.614 20.232 QT
-18.067 20.029 -18.27 19.56 QT
-18.489 19.935 -18.825 20.185 QT
-19.16 20.435 -19.582 20.435 QT
-20.442 20.435 -20.957 20.029 QT
-21.473 19.623 -21.473 18.779 QT
cp
f
GR
GS
[0.75 0 0 0.75 151.8751 267.24999] CT
0.149 GC
N
-12.329 15.379 M
-12.423 15.379 -12.509 15.293 QT
-12.595 15.207 -12.595 15.098 QT
-12.595 14.957 -12.454 14.895 QT
-11.157 14.27 L
-12.454 13.66 L
-12.595 13.614 -12.595 13.442 QT
-12.595 13.348 -12.509 13.262 QT
-12.423 13.176 -12.329 13.176 QT
-12.251 13.176 -12.204 13.207 QT
-11.048 14.051 L
-11.189 12.582 L
-11.189 12.473 -11.11 12.403 QT
-11.032 12.332 -10.923 12.332 QT
-10.814 12.332 -10.743 12.403 QT
-10.673 12.473 -10.673 12.567 QT
-10.673 12.582 L
-10.798 14.051 L
-9.657 13.207 L
-9.595 13.176 -9.532 13.176 QT
-9.423 13.176 -9.345 13.262 QT
-9.267 13.348 -9.267 13.442 QT
-9.267 13.614 -9.392 13.66 QT
-10.689 14.27 L
-9.392 14.895 L
-9.267 14.957 -9.267 15.098 QT
-9.267 15.207 -9.345 15.293 QT
-9.423 15.379 -9.532 15.379 QT
-9.595 15.379 -9.657 15.332 QT
-10.798 14.489 L
-10.673 15.957 L
-10.673 15.973 L
-10.673 16.082 -10.751 16.145 QT
-10.829 16.207 -10.923 16.207 QT
-11.032 16.207 -11.11 16.137 QT
-11.189 16.067 -11.189 15.957 QT
-11.048 14.489 L
-12.204 15.332 L
-12.251 15.379 -12.329 15.379 QT
cp
f
GR
GS
[0.75 0 0 0.75 151.8751 267.24999] CT
0.149 GC
N
1.833 20.43 M
1.833 1.43 L
4.426 1.43 L
4.426 2.196 L
2.583 2.196 L
2.583 19.664 L
4.426 19.664 L
4.426 20.43 L
1.833 20.43 L
cp
f
GR
GS
[0.75 0 0 0.75 151.8751 267.24999] CT
0.149 GC
N
9.408 15.899 M
8.283 15.899 7.354 15.289 QT
6.424 14.68 5.908 13.688 QT
5.393 12.696 5.393 11.586 QT
5.393 10.43 5.955 9.438 QT
6.518 8.446 7.487 7.867 QT
8.455 7.289 9.612 7.289 QT
10.299 7.289 10.924 7.578 QT
11.549 7.867 12.002 8.383 QT
12.002 4.43 L
12.002 3.93 11.854 3.703 QT
11.705 3.477 11.416 3.422 QT
11.127 3.367 10.533 3.367 QT
10.533 2.696 L
13.346 2.492 L
13.346 13.961 L
13.346 14.461 13.494 14.688 QT
13.643 14.914 13.924 14.961 QT
14.205 15.008 14.815 15.008 QT
14.815 15.68 L
11.955 15.899 L
11.955 14.696 L
11.455 15.258 10.776 15.578 QT
10.096 15.899 9.408 15.899 QT
cp
7.471 14.024 M
7.799 14.649 8.338 15.024 QT
8.877 15.399 9.518 15.399 QT
10.299 15.399 10.963 14.938 QT
11.627 14.477 11.955 13.758 QT
11.955 9.211 L
11.721 8.789 11.385 8.461 QT
11.049 8.133 10.627 7.953 QT
10.205 7.774 9.737 7.774 QT
8.737 7.774 8.135 8.336 QT
7.533 8.899 7.291 9.774 QT
7.049 10.649 7.049 11.602 QT
7.049 12.352 7.127 12.922 QT
7.205 13.492 7.471 14.024 QT
cp
f
GR
GS
[0.75 0 0 0.75 151.8751 267.24999] CT
0.149 GC
N
15.794 15.68 M
15.794 15.008 L
17.748 15.008 17.748 14.414 QT
17.748 3.977 L
17.748 3.367 15.794 3.367 QT
15.794 2.696 L
22.779 2.696 L
23.732 2.696 24.716 3.071 QT
25.701 3.446 26.349 4.188 QT
26.998 4.93 26.998 5.93 QT
26.998 7.086 26.044 7.875 QT
25.091 8.664 23.826 8.899 QT
24.654 8.899 25.521 9.352 QT
26.388 9.805 26.943 10.571 QT
27.498 11.336 27.498 12.18 QT
27.498 13.227 26.888 14.024 QT
26.279 14.821 25.294 15.25 QT
24.31 15.68 23.31 15.68 QT
15.794 15.68 L
cp
19.404 14.414 M
19.404 14.821 19.63 14.914 QT
19.857 15.008 20.357 15.008 QT
22.779 15.008 L
23.513 15.008 24.154 14.617 QT
24.794 14.227 25.162 13.578 QT
25.529 12.93 25.529 12.18 QT
25.529 11.461 25.224 10.766 QT
24.919 10.071 24.349 9.625 QT
23.779 9.18 23.044 9.18 QT
19.404 9.18 L
19.404 14.414 L
cp
19.404 8.68 M
22.248 8.68 L
22.826 8.68 23.326 8.477 QT
23.826 8.274 24.232 7.875 QT
24.638 7.477 24.857 6.985 QT
25.076 6.492 25.076 5.93 QT
25.076 5.43 24.912 4.977 QT
24.748 4.524 24.435 4.156 QT
24.123 3.789 23.693 3.578 QT
23.263 3.367 22.779 3.367 QT
20.357 3.367 L
20.013 3.367 19.826 3.399 QT
19.638 3.43 19.521 3.563 QT
19.404 3.696 19.404 3.977 QT
19.404 8.68 L
cp
f
GR
GS
[0.75 0 0 0.75 151.8751 267.24999] CT
0.149 GC
N
28.782 20.43 M
28.782 19.664 L
30.626 19.664 L
30.626 2.196 L
28.782 2.196 L
28.782 1.43 L
31.392 1.43 L
31.392 20.43 L
28.782 20.43 L
cp
f
GR
GS
[0.75 0 0 0.75 0 0.5] CT
0.149 GC
2 setlinecap
1 LJ
0.667 LW
N
63 332 M
63 28 L
S
GR
GS
[0.75 0 0 0.75 0 0.5] CT
0.149 GC
2 setlinecap
1 LJ
0.667 LW
N
342 332 M
342 28 L
S
GR
GS
[0.75 0 0 0.75 0 0.5] CT
0.149 GC
2 setlinecap
1 LJ
0.667 LW
N
63 332 M
66.04 332 L
S
GR
GS
[0.75 0 0 0.75 0 0.5] CT
0.149 GC
2 setlinecap
1 LJ
0.667 LW
N
63 256 M
66.04 256 L
S
GR
GS
[0.75 0 0 0.75 0 0.5] CT
0.149 GC
2 setlinecap
1 LJ
0.667 LW
N
63 180 M
66.04 180 L
S
GR
GS
[0.75 0 0 0.75 0 0.5] CT
0.149 GC
2 setlinecap
1 LJ
0.667 LW
N
63 104 M
66.04 104 L
S
GR
GS
[0.75 0 0 0.75 0 0.5] CT
0.149 GC
2 setlinecap
1 LJ
0.667 LW
N
63 28 M
66.04 28 L
S
GR
GS
[0.75 0 0 0.75 0 0.5] CT
0.149 GC
2 setlinecap
1 LJ
0.667 LW
N
342 332 M
338.96 332 L
S
GR
GS
[0.75 0 0 0.75 0 0.5] CT
0.149 GC
2 setlinecap
1 LJ
0.667 LW
N
342 256 M
338.96 256 L
S
GR
GS
[0.75 0 0 0.75 0 0.5] CT
0.149 GC
2 setlinecap
1 LJ
0.667 LW
N
342 180 M
338.96 180 L
S
GR
GS
[0.75 0 0 0.75 0 0.5] CT
0.149 GC
2 setlinecap
1 LJ
0.667 LW
N
342 104 M
338.96 104 L
S
GR
GS
[0.75 0 0 0.75 0 0.5] CT
0.149 GC
2 setlinecap
1 LJ
0.667 LW
N
342 28 M
338.96 28 L
S
GR
GS
[0.75 0 0 0.75 0 0.5] CT
0.149 GC
2 setlinecap
1 LJ
0.667 LW
N
63 332 M
64.52 332 L
S
GR
GS
[0.75 0 0 0.75 0 0.5] CT
0.149 GC
2 setlinecap
1 LJ
0.667 LW
N
63 316.8 M
64.52 316.8 L
S
GR
GS
[0.75 0 0 0.75 0 0.5] CT
0.149 GC
2 setlinecap
1 LJ
0.667 LW
N
63 301.6 M
64.52 301.6 L
S
GR
GS
[0.75 0 0 0.75 0 0.5] CT
0.149 GC
2 setlinecap
1 LJ
0.667 LW
N
63 286.4 M
64.52 286.4 L
S
GR
GS
[0.75 0 0 0.75 0 0.5] CT
0.149 GC
2 setlinecap
1 LJ
0.667 LW
N
63 271.2 M
64.52 271.2 L
S
GR
GS
[0.75 0 0 0.75 0 0.5] CT
0.149 GC
2 setlinecap
1 LJ
0.667 LW
N
63 256 M
64.52 256 L
S
GR
GS
[0.75 0 0 0.75 0 0.5] CT
0.149 GC
2 setlinecap
1 LJ
0.667 LW
N
63 240.8 M
64.52 240.8 L
S
GR
GS
[0.75 0 0 0.75 0 0.5] CT
0.149 GC
2 setlinecap
1 LJ
0.667 LW
N
63 225.6 M
64.52 225.6 L
S
GR
GS
[0.75 0 0 0.75 0 0.5] CT
0.149 GC
2 setlinecap
1 LJ
0.667 LW
N
63 210.4 M
64.52 210.4 L
S
GR
GS
[0.75 0 0 0.75 0 0.5] CT
0.149 GC
2 setlinecap
1 LJ
0.667 LW
N
63 195.2 M
64.52 195.2 L
S
GR
GS
[0.75 0 0 0.75 0 0.5] CT
0.149 GC
2 setlinecap
1 LJ
0.667 LW
N
63 180 M
64.52 180 L
S
GR
GS
[0.75 0 0 0.75 0 0.5] CT
0.149 GC
2 setlinecap
1 LJ
0.667 LW
N
63 164.8 M
64.52 164.8 L
S
GR
GS
[0.75 0 0 0.75 0 0.5] CT
0.149 GC
2 setlinecap
1 LJ
0.667 LW
N
63 149.6 M
64.52 149.6 L
S
GR
GS
[0.75 0 0 0.75 0 0.5] CT
0.149 GC
2 setlinecap
1 LJ
0.667 LW
N
63 134.4 M
64.52 134.4 L
S
GR
GS
[0.75 0 0 0.75 0 0.5] CT
0.149 GC
2 setlinecap
1 LJ
0.667 LW
N
63 119.2 M
64.52 119.2 L
S
GR
GS
[0.75 0 0 0.75 0 0.5] CT
0.149 GC
2 setlinecap
1 LJ
0.667 LW
N
63 104 M
64.52 104 L
S
GR
GS
[0.75 0 0 0.75 0 0.5] CT
0.149 GC
2 setlinecap
1 LJ
0.667 LW
N
63 88.8 M
64.52 88.8 L
S
GR
GS
[0.75 0 0 0.75 0 0.5] CT
0.149 GC
2 setlinecap
1 LJ
0.667 LW
N
63 73.6 M
64.52 73.6 L
S
GR
GS
[0.75 0 0 0.75 0 0.5] CT
0.149 GC
2 setlinecap
1 LJ
0.667 LW
N
63 58.4 M
64.52 58.4 L
S
GR
GS
[0.75 0 0 0.75 0 0.5] CT
0.149 GC
2 setlinecap
1 LJ
0.667 LW
N
63 43.2 M
64.52 43.2 L
S
GR
GS
[0.75 0 0 0.75 0 0.5] CT
0.149 GC
2 setlinecap
1 LJ
0.667 LW
N
63 28 M
64.52 28 L
S
GR
GS
[0.75 0 0 0.75 0 0.5] CT
0.149 GC
2 setlinecap
1 LJ
0.667 LW
N
342 332 M
340.48 332 L
S
GR
GS
[0.75 0 0 0.75 0 0.5] CT
0.149 GC
2 setlinecap
1 LJ
0.667 LW
N
342 316.8 M
340.48 316.8 L
S
GR
GS
[0.75 0 0 0.75 0 0.5] CT
0.149 GC
2 setlinecap
1 LJ
0.667 LW
N
342 301.6 M
340.48 301.6 L
S
GR
GS
[0.75 0 0 0.75 0 0.5] CT
0.149 GC
2 setlinecap
1 LJ
0.667 LW
N
342 286.4 M
340.48 286.4 L
S
GR
GS
[0.75 0 0 0.75 0 0.5] CT
0.149 GC
2 setlinecap
1 LJ
0.667 LW
N
342 271.2 M
340.48 271.2 L
S
GR
GS
[0.75 0 0 0.75 0 0.5] CT
0.149 GC
2 setlinecap
1 LJ
0.667 LW
N
342 256 M
340.48 256 L
S
GR
GS
[0.75 0 0 0.75 0 0.5] CT
0.149 GC
2 setlinecap
1 LJ
0.667 LW
N
342 240.8 M
340.48 240.8 L
S
GR
GS
[0.75 0 0 0.75 0 0.5] CT
0.149 GC
2 setlinecap
1 LJ
0.667 LW
N
342 225.6 M
340.48 225.6 L
S
GR
GS
[0.75 0 0 0.75 0 0.5] CT
0.149 GC
2 setlinecap
1 LJ
0.667 LW
N
342 210.4 M
340.48 210.4 L
S
GR
GS
[0.75 0 0 0.75 0 0.5] CT
0.149 GC
2 setlinecap
1 LJ
0.667 LW
N
342 195.2 M
340.48 195.2 L
S
GR
GS
[0.75 0 0 0.75 0 0.5] CT
0.149 GC
2 setlinecap
1 LJ
0.667 LW
N
342 180 M
340.48 180 L
S
GR
GS
[0.75 0 0 0.75 0 0.5] CT
0.149 GC
2 setlinecap
1 LJ
0.667 LW
N
342 164.8 M
340.48 164.8 L
S
GR
GS
[0.75 0 0 0.75 0 0.5] CT
0.149 GC
2 setlinecap
1 LJ
0.667 LW
N
342 149.6 M
340.48 149.6 L
S
GR
GS
[0.75 0 0 0.75 0 0.5] CT
0.149 GC
2 setlinecap
1 LJ
0.667 LW
N
342 134.4 M
340.48 134.4 L
S
GR
GS
[0.75 0 0 0.75 0 0.5] CT
0.149 GC
2 setlinecap
1 LJ
0.667 LW
N
342 119.2 M
340.48 119.2 L
S
GR
GS
[0.75 0 0 0.75 0 0.5] CT
0.149 GC
2 setlinecap
1 LJ
0.667 LW
N
342 104 M
340.48 104 L
S
GR
GS
[0.75 0 0 0.75 0 0.5] CT
0.149 GC
2 setlinecap
1 LJ
0.667 LW
N
342 88.8 M
340.48 88.8 L
S
GR
GS
[0.75 0 0 0.75 0 0.5] CT
0.149 GC
2 setlinecap
1 LJ
0.667 LW
N
342 73.6 M
340.48 73.6 L
S
GR
GS
[0.75 0 0 0.75 0 0.5] CT
0.149 GC
2 setlinecap
1 LJ
0.667 LW
N
342 58.4 M
340.48 58.4 L
S
GR
GS
[0.75 0 0 0.75 0 0.5] CT
0.149 GC
2 setlinecap
1 LJ
0.667 LW
N
342 43.2 M
340.48 43.2 L
S
GR
GS
[0.75 0 0 0.75 0 0.5] CT
0.149 GC
2 setlinecap
1 LJ
0.667 LW
N
342 28 M
340.48 28 L
S
GR
GS
[0.75 0 0 0.75 20.25 254.75] CT
0.149 GC
/Helvetica 13.333 F
GS
[1 0 0 1 0 0] CT
0 0 moveto 
1 -1 scale
(10) t 
GR
GR
GS
[0.75 0 0 0.75 31.5 250.25] CT
0.149 GC
/Helvetica 10.667 F
GS
[1 0 0 1 0 0] CT
0 0 moveto 
1 -1 scale
(-20) t 
GR
GR
GS
[0.75 0 0 0.75 20.25 197.75] CT
0.149 GC
/Helvetica 13.333 F
GS
[1 0 0 1 0 0] CT
0 0 moveto 
1 -1 scale
(10) t 
GR
GR
GS
[0.75 0 0 0.75 31.5 193.25] CT
0.149 GC
/Helvetica 10.667 F
GS
[1 0 0 1 0 0] CT
0 0 moveto 
1 -1 scale
(-15) t 
GR
GR
GS
[0.75 0 0 0.75 20.25 140.75] CT
0.149 GC
/Helvetica 13.333 F
GS
[1 0 0 1 0 0] CT
0 0 moveto 
1 -1 scale
(10) t 
GR
GR
GS
[0.75 0 0 0.75 31.5 136.25] CT
0.149 GC
/Helvetica 10.667 F
GS
[1 0 0 1 0 0] CT
0 0 moveto 
1 -1 scale
(-10) t 
GR
GR
GS
[0.75 0 0 0.75 24.75 83.75] CT
0.149 GC
/Helvetica 13.333 F
GS
[1 0 0 1 0 0] CT
0 0 moveto 
1 -1 scale
(10) t 
GR
GR
GS
[0.75 0 0 0.75 36 79.25] CT
0.149 GC
/Helvetica 10.667 F
GS
[1 0 0 1 0 0] CT
0 0 moveto 
1 -1 scale
(-5) t 
GR
GR
GS
[0.75 0 0 0.75 27.75 26.75] CT
0.149 GC
/Helvetica 13.333 F
GS
[1 0 0 1 0 0] CT
0 0 moveto 
1 -1 scale
(10) t 
GR
GR
GS
[0.75 0 0 0.75 39 22.25] CT
0.149 GC
/Helvetica 10.667 F
GS
[1 0 0 1 0 0] CT
0 0 moveto 
1 -1 scale
(0) t 
GR
GR
GS
[0 -0.75 0.75 0 17 135.49989] CT
0.149 GC
N
-17.994 -6.72 M
-18.166 -6.72 -18.166 -6.97 QT
-18.166 -7.017 -18.135 -7.134 QT
-18.104 -7.251 -18.057 -7.322 QT
-18.01 -7.392 -17.932 -7.392 QT
-16.775 -7.392 -16.307 -7.517 QT
-16.072 -7.595 -15.963 -8.033 QT
-13.354 -18.47 L
-13.307 -18.658 -13.307 -18.72 QT
-13.307 -18.923 -13.541 -18.954 QT
-13.9 -19.033 -14.9 -19.033 QT
-15.088 -19.033 -15.088 -19.283 QT
-15.088 -19.329 -15.057 -19.447 QT
-15.025 -19.564 -14.979 -19.634 QT
-14.932 -19.704 -14.854 -19.704 QT
-8.291 -19.704 L
-7.4 -19.704 -6.549 -19.384 QT
-5.697 -19.064 -5.166 -18.4 QT
-4.635 -17.736 -4.635 -16.798 QT
-4.635 -15.595 -5.479 -14.65 QT
-6.322 -13.704 -7.588 -13.173 QT
-8.854 -12.642 -10.041 -12.642 QT
-13.135 -12.642 L
-14.291 -7.954 L
-14.338 -7.767 -14.338 -7.689 QT
-14.338 -7.611 -14.314 -7.556 QT
-14.291 -7.501 -14.244 -7.494 QT
-14.197 -7.486 -14.104 -7.47 QT
-13.744 -7.392 -12.744 -7.392 QT
-12.557 -7.392 -12.557 -7.142 QT
-12.619 -6.876 -12.658 -6.798 QT
-12.697 -6.72 -12.869 -6.72 QT
-17.994 -6.72 L
cp
-13.041 -13.22 M
-10.385 -13.22 L
-8.541 -13.22 -7.572 -14.204 QT
-7.072 -14.704 -6.768 -15.626 QT
-6.463 -16.548 -6.463 -17.298 QT
-6.463 -18.236 -7.174 -18.634 QT
-7.885 -19.033 -8.947 -19.033 QT
-10.76 -19.033 L
-11.275 -19.033 -11.447 -18.947 QT
-11.619 -18.861 -11.76 -18.376 QT
-13.041 -13.22 L
cp
f
GR
GS
[0 -0.75 0.75 0 17 135.49989] CT
0.149 GC
N
-5.807 -4.717 M
-5.447 -4.123 -4.401 -4.123 QT
-3.947 -4.123 -3.533 -4.279 QT
-3.119 -4.436 -2.846 -4.74 QT
-2.572 -5.045 -2.572 -5.498 QT
-2.572 -5.826 -2.815 -6.045 QT
-3.057 -6.264 -3.416 -6.342 QT
-4.119 -6.483 L
-4.588 -6.592 -4.901 -6.928 QT
-5.213 -7.264 -5.213 -7.733 QT
-5.213 -8.311 -4.901 -8.756 QT
-4.588 -9.201 -4.072 -9.436 QT
-3.557 -9.67 -3.01 -9.67 QT
-2.416 -9.67 -1.947 -9.389 QT
-1.479 -9.108 -1.479 -8.545 QT
-1.479 -8.248 -1.651 -8.022 QT
-1.822 -7.795 -2.119 -7.795 QT
-2.291 -7.795 -2.416 -7.904 QT
-2.541 -8.014 -2.541 -8.186 QT
-2.541 -8.342 -2.455 -8.483 QT
-2.369 -8.623 -2.229 -8.709 QT
-2.088 -8.795 -1.932 -8.795 QT
-2.041 -9.076 -2.354 -9.201 QT
-2.666 -9.326 -3.041 -9.326 QT
-3.369 -9.326 -3.697 -9.194 QT
-4.026 -9.061 -4.229 -8.803 QT
-4.432 -8.545 -4.432 -8.201 QT
-4.432 -7.967 -4.26 -7.787 QT
-4.088 -7.608 -3.854 -7.529 QT
-3.104 -7.373 L
-2.729 -7.311 -2.432 -7.115 QT
-2.135 -6.92 -1.963 -6.623 QT
-1.791 -6.326 -1.791 -5.951 QT
-1.791 -5.467 -2.057 -4.998 QT
-2.322 -4.529 -2.713 -4.248 QT
-3.416 -3.779 -4.416 -3.779 QT
-5.104 -3.779 -5.682 -4.092 QT
-6.26 -4.404 -6.26 -5.045 QT
-6.26 -5.389 -6.057 -5.654 QT
-5.854 -5.92 -5.494 -5.92 QT
-5.276 -5.92 -5.135 -5.795 QT
-4.994 -5.67 -4.994 -5.451 QT
-4.994 -5.154 -5.221 -4.936 QT
-5.447 -4.717 -5.744 -4.717 QT
-5.807 -4.717 L
cp
f
GR
GS
[0 -0.75 0.75 0 17 135.49989] CT
0.149 GC
N
0.568 -5.342 M
0.568 -5.764 0.685 -6.209 QT
0.803 -6.654 1.006 -7.201 QT
1.209 -7.748 1.365 -8.154 QT
1.537 -8.639 1.537 -8.936 QT
1.537 -9.326 1.256 -9.326 QT
0.74 -9.326 0.404 -8.795 QT
0.068 -8.264 -0.088 -7.608 QT
-0.119 -7.529 -0.197 -7.529 QT
-0.354 -7.529 L
-0.463 -7.529 -0.463 -7.654 QT
-0.463 -7.686 L
-0.244 -8.467 0.185 -9.069 QT
0.615 -9.67 1.271 -9.67 QT
1.74 -9.67 2.06 -9.365 QT
2.381 -9.061 2.381 -8.592 QT
2.381 -8.342 2.271 -8.076 QT
2.209 -7.92 2.006 -7.389 QT
1.803 -6.858 1.701 -6.506 QT
1.599 -6.154 1.529 -5.819 QT
1.459 -5.483 1.459 -5.139 QT
1.459 -4.717 1.639 -4.42 QT
1.818 -4.123 2.24 -4.123 QT
3.068 -4.123 3.693 -5.139 QT
3.709 -5.201 3.717 -5.248 QT
3.724 -5.295 3.724 -5.342 QT
4.662 -9.108 L
4.709 -9.279 4.865 -9.404 QT
5.021 -9.529 5.209 -9.529 QT
5.365 -9.529 5.482 -9.428 QT
5.599 -9.326 5.599 -9.154 QT
5.599 -9.076 5.599 -9.061 QT
4.646 -5.311 L
4.568 -4.92 4.568 -4.67 QT
4.568 -4.123 4.943 -4.123 QT
5.349 -4.123 5.56 -4.639 QT
5.771 -5.154 5.912 -5.826 QT
5.943 -5.904 6.021 -5.904 QT
6.178 -5.904 L
6.224 -5.904 6.256 -5.858 QT
6.287 -5.811 6.287 -5.779 QT
6.146 -5.217 6.021 -4.819 QT
5.896 -4.42 5.615 -4.1 QT
5.334 -3.779 4.912 -3.779 QT
4.506 -3.779 4.178 -4.006 QT
3.849 -4.233 3.724 -4.608 QT
3.428 -4.233 3.037 -4.006 QT
2.646 -3.779 2.209 -3.779 QT
1.459 -3.779 1.014 -4.186 QT
0.568 -4.592 0.568 -5.342 QT
cp
f
GR
GS
[0 -0.75 0.75 0 17 135.49989] CT
0.149 GC
N
8.205 -5.467 M
8.205 -4.904 8.486 -4.514 QT
8.767 -4.123 9.314 -4.123 QT
10.095 -4.123 10.806 -4.475 QT
11.517 -4.826 11.97 -5.451 QT
12.001 -5.498 12.064 -5.498 QT
12.126 -5.498 12.197 -5.42 QT
12.267 -5.342 12.267 -5.279 QT
12.267 -5.233 12.236 -5.201 QT
11.767 -4.545 10.962 -4.162 QT
10.158 -3.779 9.283 -3.779 QT
8.673 -3.779 8.197 -4.069 QT
7.72 -4.358 7.455 -4.858 QT
7.189 -5.358 7.189 -5.983 QT
7.189 -6.858 7.681 -7.717 QT
8.173 -8.576 8.986 -9.123 QT
9.798 -9.67 10.689 -9.67 QT
11.283 -9.67 11.744 -9.389 QT
12.205 -9.108 12.205 -8.545 QT
12.205 -8.186 12.001 -7.936 QT
11.798 -7.686 11.455 -7.686 QT
11.236 -7.686 11.095 -7.819 QT
10.955 -7.951 10.955 -8.154 QT
10.955 -8.467 11.173 -8.686 QT
11.392 -8.904 11.689 -8.904 QT
11.72 -8.904 L
11.564 -9.123 11.275 -9.225 QT
10.986 -9.326 10.673 -9.326 QT
9.923 -9.326 9.345 -8.678 QT
8.767 -8.029 8.486 -7.123 QT
8.205 -6.217 8.205 -5.467 QT
cp
f
GR
GS
[0 -0.75 0.75 0 17 135.49989] CT
0.149 GC
N
13.859 -5.467 M
13.859 -4.904 14.141 -4.514 QT
14.422 -4.123 14.969 -4.123 QT
15.75 -4.123 16.461 -4.475 QT
17.172 -4.826 17.625 -5.451 QT
17.656 -5.498 17.719 -5.498 QT
17.781 -5.498 17.851 -5.42 QT
17.922 -5.342 17.922 -5.279 QT
17.922 -5.233 17.891 -5.201 QT
17.422 -4.545 16.617 -4.162 QT
15.812 -3.779 14.937 -3.779 QT
14.328 -3.779 13.851 -4.069 QT
13.375 -4.358 13.109 -4.858 QT
12.844 -5.358 12.844 -5.983 QT
12.844 -6.858 13.336 -7.717 QT
13.828 -8.576 14.641 -9.123 QT
15.453 -9.67 16.344 -9.67 QT
16.937 -9.67 17.398 -9.389 QT
17.859 -9.108 17.859 -8.545 QT
17.859 -8.186 17.656 -7.936 QT
17.453 -7.686 17.109 -7.686 QT
16.891 -7.686 16.75 -7.819 QT
16.609 -7.951 16.609 -8.154 QT
16.609 -8.467 16.828 -8.686 QT
17.047 -8.904 17.344 -8.904 QT
17.375 -8.904 L
17.219 -9.123 16.93 -9.225 QT
16.641 -9.326 16.328 -9.326 QT
15.578 -9.326 15 -8.678 QT
14.422 -8.029 14.141 -7.123 QT
13.859 -6.217 13.859 -5.467 QT
cp
f
GR
GS
[0.75 0 0 0.75 0 0.5] CT
0 0.447 0.741 RC
1 LJ
2 LW
N
97.875 28 M
132.75 28 L
167.625 28 L
202.5 28 L
237.375 102.409 L
272.25 202.865 L
307.125 292.409 L
324.669 332.036 L
S
GR
GS
[0.75 0 0 0.75 73.40625 21.5] CT
0 0.447 0.741 RC
10.0 ML
2 LW
N
-4 0 M
0 5.32 L
4 0 L
0 -5.32 L
cp
S
GR
GS
[0.75 0 0 0.75 99.5625 21.5] CT
0 0.447 0.741 RC
10.0 ML
2 LW
N
-4 0 M
0 5.32 L
4 0 L
0 -5.32 L
cp
S
GR
GS
[0.75 0 0 0.75 125.71875 21.5] CT
0 0.447 0.741 RC
10.0 ML
2 LW
N
-4 0 M
0 5.32 L
4 0 L
0 -5.32 L
cp
S
GR
GS
[0.75 0 0 0.75 151.875 21.5] CT
0 0.447 0.741 RC
10.0 ML
2 LW
N
-4 0 M
0 5.32 L
4 0 L
0 -5.32 L
cp
S
GR
GS
[0.75 0 0 0.75 178.03125 77.30666] CT
0 0.447 0.741 RC
10.0 ML
2 LW
N
-4 0 M
0 5.32 L
4 0 L
0 -5.32 L
cp
S
GR
GS
[0.75 0 0 0.75 204.1875 152.64911] CT
0 0.447 0.741 RC
10.0 ML
2 LW
N
-4 0 M
0 5.32 L
4 0 L
0 -5.32 L
cp
S
GR
GS
[0.75 0 0 0.75 230.34375 219.80666] CT
0 0.447 0.741 RC
10.0 ML
2 LW
N
-4 0 M
0 5.32 L
4 0 L
0 -5.32 L
cp
S
GR
GS
[0.75 0 0 0.75 0 0.5] CT
0.851 0.325 0.098 RC
1 LJ
2 LW
N
97.875 28 M
132.75 28 L
167.625 107.56 L
202.5 229.145 L
234.761 332.036 L
S
GR
GS
[0.75 0 0 0.75 73.40625 21.5] CT
0.851 0.325 0.098 RC
10.0 ML
2 LW
N
4 0 M
4 -2.209 2.209 -4 0 -4 C
-2.209 -4 -4 -2.209 -4 0 C
-4 2.209 -2.209 4 0 4 C
2.209 4 4 2.209 4 0 C
cp
S
GR
GS
[0.75 0 0 0.75 99.5625 21.5] CT
0.851 0.325 0.098 RC
10.0 ML
2 LW
N
4 0 M
4 -2.209 2.209 -4 0 -4 C
-2.209 -4 -4 -2.209 -4 0 C
-4 2.209 -2.209 4 0 4 C
2.209 4 4 2.209 4 0 C
cp
S
GR
GS
[0.75 0 0 0.75 125.71875 81.16978] CT
0.851 0.325 0.098 RC
10.0 ML
2 LW
N
4 0 M
4 -2.209 2.209 -4 0 -4 C
-2.209 -4 -4 -2.209 -4 0 C
-4 2.209 -2.209 4 0 4 C
2.209 4 4 2.209 4 0 C
cp
S
GR
GS
[0.75 0 0 0.75 151.875 172.35875] CT
0.851 0.325 0.098 RC
10.0 ML
2 LW
N
4 0 M
4 -2.209 2.209 -4 0 -4 C
-2.209 -4 -4 -2.209 -4 0 C
-4 2.209 -2.209 4 0 4 C
2.209 4 4 2.209 4 0 C
cp
S
GR
GS
[0.75 0 0 0.75 0 0.5] CT
0.929 0.694 0.125 RC
[8 8] 0 setdash
2 LJ
2 LW
N
97.875 28 M
132.75 99.065 L
167.625 230.365 L
196.788 332.036 L
S
GR
GS
[0.75 0 0 0.75 0 0.5] CT
1 GC
N
344 114 M
344 32 L
248 32 L
248 114 L
cp
f
GR
GS
[0.75 0 0 0.75 221.54629 33.16829] CT
N
1.672 3.84 M
1.672 -5.629 L
1.672 -6.066 1.539 -6.254 QT
1.406 -6.441 1.164 -6.488 QT
0.922 -6.535 0.422 -6.535 QT
0.422 -7.098 L
2.781 -7.269 L
2.781 -2.254 L
3.047 -2.551 3.406 -2.777 QT
3.766 -3.004 4.172 -3.121 QT
4.578 -3.238 5 -3.238 QT
5.719 -3.238 6.328 -2.949 QT
6.938 -2.66 7.391 -2.152 QT
7.844 -1.644 8.102 -0.98 QT
8.359 -0.316 8.359 0.387 QT
8.359 1.356 7.883 2.192 QT
7.406 3.027 6.594 3.527 QT
5.781 4.027 4.797 4.027 QT
4.188 4.027 3.617 3.707 QT
3.047 3.387 2.672 2.871 QT
2.125 3.84 L
1.672 3.84 L
cp
2.828 2.262 M
3.094 2.856 3.594 3.223 QT
4.094 3.59 4.703 3.59 QT
5.531 3.59 6.047 3.113 QT
6.563 2.637 6.766 1.91 QT
6.969 1.184 6.969 0.387 QT
6.969 -0.973 6.609 -1.676 QT
6.453 -1.988 6.188 -2.254 QT
5.922 -2.519 5.586 -2.668 QT
5.25 -2.816 4.891 -2.816 QT
4.25 -2.816 3.703 -2.48 QT
3.156 -2.144 2.828 -1.566 QT
2.828 2.262 L
cp
f
GR
GS
[0.75 0 0 0.75 221.54629 33.16829] CT
N
10.092 1.715 M
9.967 1.715 9.881 1.613 QT
9.795 1.512 9.795 1.387 QT
9.795 1.262 9.881 1.168 QT
9.967 1.074 10.092 1.074 QT
20.139 1.074 L
20.264 1.074 20.35 1.168 QT
20.436 1.262 20.436 1.387 QT
20.436 1.512 20.35 1.613 QT
20.264 1.715 20.139 1.715 QT
10.092 1.715 L
cp
10.092 -1.394 M
9.967 -1.394 9.881 -1.488 QT
9.795 -1.582 9.795 -1.723 QT
9.795 -1.832 9.881 -1.933 QT
9.967 -2.035 10.092 -2.035 QT
20.139 -2.035 L
20.264 -2.035 20.35 -1.933 QT
20.436 -1.832 20.436 -1.723 QT
20.436 -1.582 20.35 -1.488 QT
20.264 -1.394 20.139 -1.394 QT
10.092 -1.394 L
cp
f
GR
GS
[0.75 0 0 0.75 221.54629 33.16829] CT
N
28.151 3.84 M
28.151 3.277 L
30.151 3.277 30.151 2.762 QT
30.151 -5.629 L
29.323 -5.238 28.057 -5.238 QT
28.057 -5.801 L
30.026 -5.801 31.026 -6.816 QT
31.245 -6.816 L
31.307 -6.816 31.354 -6.777 QT
31.401 -6.738 31.401 -6.676 QT
31.401 2.762 L
31.401 3.277 33.401 3.277 QT
33.401 3.84 L
28.151 3.84 L
cp
f
GR
GS
[0.75 0 0 0.75 0 0.5] CT
0 0.447 0.741 RC
1 LJ
2 LW
N
252.034 43.558 M
292.37 43.558 L
S
GR
GS
[0.75 0 0 0.75 204.15129 33.16829] CT
0 0.447 0.741 RC
10.0 ML
2 LW
N
-4 0 M
0 5.32 L
4 0 L
0 -5.32 L
cp
S
GR
GS
[0.75 0 0 0.75 221.54629 47.88943] CT
N
/f1825830377{1.672 3.84 M
1.672 -5.629 L
1.672 -6.066 1.539 -6.254 QT
1.406 -6.441 1.164 -6.488 QT
0.922 -6.535 0.422 -6.535 QT
0.422 -7.098 L
2.781 -7.269 L
2.781 -2.254 L
3.047 -2.551 3.406 -2.777 QT
3.766 -3.004 4.172 -3.121 QT
4.578 -3.238 5 -3.238 QT
5.719 -3.238 6.328 -2.949 QT
6.938 -2.66 7.391 -2.152 QT
7.844 -1.644 8.102 -0.98 QT
8.359 -0.316 8.359 0.387 QT
8.359 1.356 7.883 2.192 QT
7.406 3.027 6.594 3.527 QT
5.781 4.027 4.797 4.027 QT
4.188 4.027 3.617 3.707 QT
3.047 3.387 2.672 2.871 QT
2.125 3.84 L
1.672 3.84 L
cp
2.828 2.262 M
3.094 2.856 3.594 3.223 QT
4.094 3.59 4.703 3.59 QT
5.531 3.59 6.047 3.113 QT
6.563 2.637 6.766 1.91 QT
6.969 1.184 6.969 0.387 QT
6.969 -0.973 6.609 -1.676 QT
6.453 -1.988 6.188 -2.254 QT
5.922 -2.519 5.586 -2.668 QT
5.25 -2.816 4.891 -2.816 QT
4.25 -2.816 3.703 -2.48 QT
3.156 -2.144 2.828 -1.566 QT
2.828 2.262 L
cp}def
f1825830377
f
GR
GS
[0.75 0 0 0.75 221.54629 47.88943] CT
N
/f1882848806{10.092 1.715 M
9.967 1.715 9.881 1.613 QT
9.795 1.512 9.795 1.387 QT
9.795 1.262 9.881 1.168 QT
9.967 1.074 10.092 1.074 QT
20.139 1.074 L
20.264 1.074 20.35 1.168 QT
20.436 1.262 20.436 1.387 QT
20.436 1.512 20.35 1.613 QT
20.264 1.715 20.139 1.715 QT
10.092 1.715 L
cp
10.092 -1.394 M
9.967 -1.394 9.881 -1.488 QT
9.795 -1.582 9.795 -1.723 QT
9.795 -1.832 9.881 -1.933 QT
9.967 -2.035 10.092 -2.035 QT
20.139 -2.035 L
20.264 -2.035 20.35 -1.933 QT
20.436 -1.832 20.436 -1.723 QT
20.436 -1.582 20.35 -1.488 QT
20.264 -1.394 20.139 -1.394 QT
10.092 -1.394 L
cp}def
f1882848806
f
GR
GS
[0.75 0 0 0.75 221.54629 47.88943] CT
N
/f671550422{27.464 3.84 M
27.464 3.402 L
27.464 3.371 27.495 3.324 QT
29.979 0.574 L
30.542 -0.035 30.893 -0.449 QT
31.245 -0.863 31.589 -1.402 QT
31.932 -1.941 32.135 -2.504 QT
32.339 -3.066 32.339 -3.691 QT
32.339 -4.348 32.096 -4.941 QT
31.854 -5.535 31.37 -5.894 QT
30.885 -6.254 30.214 -6.254 QT
29.51 -6.254 28.956 -5.84 QT
28.401 -5.426 28.182 -4.754 QT
28.245 -4.769 28.354 -4.769 QT
28.714 -4.769 28.964 -4.527 QT
29.214 -4.285 29.214 -3.91 QT
29.214 -3.535 28.964 -3.285 QT
28.714 -3.035 28.354 -3.035 QT
27.979 -3.035 27.721 -3.293 QT
27.464 -3.551 27.464 -3.91 QT
27.464 -4.504 27.69 -5.035 QT
27.917 -5.566 28.346 -5.973 QT
28.776 -6.379 29.307 -6.598 QT
29.839 -6.816 30.448 -6.816 QT
31.354 -6.816 32.143 -6.433 QT
32.932 -6.051 33.393 -5.34 QT
33.854 -4.629 33.854 -3.691 QT
33.854 -2.988 33.55 -2.363 QT
33.245 -1.738 32.768 -1.23 QT
32.292 -0.723 31.55 -0.074 QT
30.807 0.574 30.573 0.793 QT
28.76 2.543 L
30.307 2.543 L
31.432 2.543 32.198 2.52 QT
32.964 2.496 33.01 2.465 QT
33.198 2.262 33.385 0.981 QT
33.854 0.981 L
33.401 3.84 L
27.464 3.84 L
cp}def
f671550422
f
GR
GS
[0.75 0 0 0.75 0 0.5] CT
0.851 0.325 0.098 RC
1 LJ
2 LW
N
252.034 63.186 M
292.37 63.186 L
S
GR
GS
[0.75 0 0 0.75 204.15129 47.88943] CT
0.851 0.325 0.098 RC
10.0 ML
2 LW
N
4 0 M
4 -2.209 2.209 -4 0 -4 C
-2.209 -4 -4 -2.209 -4 0 C
-4 2.209 -2.209 4 0 4 C
2.209 4 4 2.209 4 0 C
cp
S
GR
GS
[0.75 0 0 0.75 221.54629 62.61057] CT
N
f1825830377
f
GR
GS
[0.75 0 0 0.75 221.54629 62.61057] CT
N
f1882848806
f
GR
GS
[0.75 0 0 0.75 221.54629 62.61057] CT
N
/f1118787008{28.198 2.606 M
28.573 3.152 29.206 3.418 QT
29.839 3.684 30.557 3.684 QT
31.495 3.684 31.885 2.887 QT
32.276 2.09 32.276 1.09 QT
32.276 0.637 32.19 0.184 QT
32.104 -0.269 31.909 -0.66 QT
31.714 -1.051 31.378 -1.285 QT
31.042 -1.519 30.542 -1.519 QT
29.479 -1.519 L
29.339 -1.519 29.339 -1.676 QT
29.339 -1.816 L
29.339 -1.941 29.479 -1.941 QT
30.37 -2.004 L
30.932 -2.004 31.3 -2.426 QT
31.667 -2.848 31.839 -3.457 QT
32.01 -4.066 32.01 -4.613 QT
32.01 -5.379 31.651 -5.871 QT
31.292 -6.363 30.557 -6.363 QT
29.948 -6.363 29.393 -6.129 QT
28.839 -5.894 28.51 -5.426 QT
28.542 -5.441 28.565 -5.441 QT
28.589 -5.441 28.62 -5.441 QT
28.979 -5.441 29.221 -5.191 QT
29.464 -4.941 29.464 -4.598 QT
29.464 -4.254 29.221 -4.004 QT
28.979 -3.754 28.62 -3.754 QT
28.276 -3.754 28.026 -4.004 QT
27.776 -4.254 27.776 -4.598 QT
27.776 -5.285 28.19 -5.793 QT
28.604 -6.301 29.253 -6.558 QT
29.901 -6.816 30.557 -6.816 QT
31.042 -6.816 31.581 -6.676 QT
32.12 -6.535 32.557 -6.262 QT
32.995 -5.988 33.276 -5.566 QT
33.557 -5.144 33.557 -4.613 QT
33.557 -3.941 33.253 -3.371 QT
32.948 -2.801 32.425 -2.387 QT
31.901 -1.973 31.276 -1.769 QT
31.979 -1.629 32.604 -1.238 QT
33.229 -0.848 33.604 -0.238 QT
33.979 0.371 33.979 1.074 QT
33.979 1.949 33.495 2.668 QT
33.01 3.387 32.221 3.793 QT
31.432 4.199 30.557 4.199 QT
29.807 4.199 29.057 3.91 QT
28.307 3.621 27.823 3.051 QT
27.339 2.481 27.339 1.684 QT
27.339 1.277 27.604 1.012 QT
27.87 0.746 28.276 0.746 QT
28.526 0.746 28.745 0.871 QT
28.964 0.996 29.081 1.215 QT
29.198 1.434 29.198 1.684 QT
29.198 2.074 28.925 2.34 QT
28.651 2.606 28.276 2.606 QT
28.198 2.606 L
cp}def
f1118787008
f
GR
GS
[0.75 0 0 0.75 0 0.5] CT
0.929 0.694 0.125 RC
[8 8] 0 setdash
2 LJ
2 LW
N
252.034 82.814 M
292.37 82.814 L
S
GR
GS
[0.75 0 0 0.75 221.54629 77.33171] CT
N
/f-1769961435{2.766 4.027 M
1.797 4.027 1.258 3.262 QT
0.719 2.496 0.719 1.481 QT
0.719 1.34 0.797 0.902 QT
0.875 0.465 0.875 0.371 QT
2.422 -5.848 L
2.484 -6.113 2.5 -6.269 QT
2.5 -6.535 1.453 -6.535 QT
1.297 -6.535 1.297 -6.738 QT
1.313 -6.785 1.336 -6.887 QT
1.359 -6.988 1.406 -7.043 QT
1.453 -7.098 1.531 -7.098 QT
3.688 -7.269 L
3.875 -7.269 3.875 -7.066 QT
2.688 -2.348 L
3.594 -3.238 4.516 -3.238 QT
5.203 -3.238 5.688 -2.879 QT
6.172 -2.519 6.414 -1.933 QT
6.656 -1.348 6.656 -0.676 QT
6.656 0.09 6.359 0.918 QT
6.063 1.746 5.531 2.449 QT
5 3.152 4.289 3.59 QT
3.578 4.027 2.766 4.027 QT
cp
2.797 3.59 M
3.344 3.59 3.82 3.137 QT
4.297 2.684 4.594 2.106 QT
4.922 1.465 5.195 0.371 QT
5.469 -0.723 5.469 -1.379 QT
5.469 -1.957 5.234 -2.387 QT
5 -2.816 4.484 -2.816 QT
3.906 -2.816 3.375 -2.394 QT
2.844 -1.973 2.453 -1.379 QT
2 0.434 L
1.75 1.434 1.734 2.043 QT
1.734 2.652 1.992 3.121 QT
2.25 3.59 2.797 3.59 QT
cp}def
f-1769961435
f
GR
GS
[0.75 0 0 0.75 221.54629 77.33171] CT
N
/f-1570718946{12.514 1.715 M
12.389 1.715 12.303 1.613 QT
12.217 1.512 12.217 1.387 QT
12.217 1.262 12.303 1.168 QT
12.389 1.074 12.514 1.074 QT
22.561 1.074 L
22.686 1.074 22.772 1.168 QT
22.858 1.262 22.858 1.387 QT
22.858 1.512 22.772 1.613 QT
22.686 1.715 22.561 1.715 QT
12.514 1.715 L
cp
12.514 -1.394 M
12.389 -1.394 12.303 -1.488 QT
12.217 -1.582 12.217 -1.723 QT
12.217 -1.832 12.303 -1.933 QT
12.389 -2.035 12.514 -2.035 QT
22.561 -2.035 L
22.686 -2.035 22.772 -1.933 QT
22.858 -1.832 22.858 -1.723 QT
22.858 -1.582 22.772 -1.488 QT
22.686 -1.394 22.561 -1.394 QT
12.514 -1.394 L
cp}def
f-1570718946
f
GR
GS
[0.75 0 0 0.75 221.54629 77.33171] CT
N
/f319778670{32.137 4.027 M
31.231 4.027 30.536 3.488 QT
29.84 2.949 29.473 2.106 QT
29.106 1.262 29.106 0.387 QT
29.106 -0.301 29.317 -0.949 QT
29.528 -1.598 29.934 -2.113 QT
30.34 -2.629 30.919 -2.933 QT
31.497 -3.238 32.184 -3.238 QT
32.903 -3.238 33.575 -2.965 QT
34.247 -2.691 34.809 -2.238 QT
35.372 -1.785 35.856 -1.191 QT
36.325 -0.551 L
36.809 -1.301 37.387 -1.902 QT
37.965 -2.504 38.692 -2.871 QT
39.419 -3.238 40.247 -3.238 QT
40.95 -3.238 41.52 -2.926 QT
42.09 -2.613 42.489 -2.082 QT
42.887 -1.551 43.09 -0.91 QT
43.294 -0.269 43.294 0.387 QT
43.294 1.293 42.911 2.129 QT
42.528 2.965 41.833 3.496 QT
41.137 4.027 40.2 4.027 QT
39.153 4.027 38.215 3.457 QT
37.278 2.887 36.544 1.965 QT
36.059 1.324 L
35.325 2.512 34.333 3.27 QT
33.34 4.027 32.137 4.027 QT
cp
31.981 3.449 M
34.012 3.449 35.606 0.731 QT
34.762 -0.348 L
34.028 -1.316 33.395 -1.863 QT
32.762 -2.41 31.934 -2.41 QT
31.215 -2.41 30.669 -2.004 QT
30.122 -1.598 29.817 -0.949 QT
29.512 -0.301 29.512 0.402 QT
29.512 0.934 29.684 1.481 QT
29.856 2.027 30.176 2.473 QT
30.497 2.918 30.95 3.184 QT
31.403 3.449 31.981 3.449 QT
cp
37.622 1.121 M
38.356 2.09 38.989 2.637 QT
39.622 3.184 40.465 3.184 QT
40.997 3.184 41.442 2.949 QT
41.887 2.715 42.208 2.317 QT
42.528 1.918 42.7 1.418 QT
42.872 0.918 42.872 0.387 QT
42.872 -0.363 42.575 -1.066 QT
42.278 -1.769 41.723 -2.223 QT
41.169 -2.676 40.419 -2.676 QT
38.387 -2.676 36.778 0.043 QT
37.622 1.121 L
cp}def
f319778670
f
GR
GS
[0.75 0 0 0.75 0 0.5] CT
1 LJ
2 LW
N
252.034 102.442 M
292.37 102.442 L
S
GR
GS
[0.75 0 0 0.75 0 0.5] CT
0.149 GC
10.0 ML
0.667 LW
N
248 114 M
248 32 L
344 32 L
344 114 L
cp
S
GR
%%Trailer
%%Pages: 1
%%EOF
