%!PS-Adobe-3.0 EPSF-3.0
%%Creator: (MATLAB, The Mathworks, Inc. Version 9.4.0.813654 \(R2018a\). Operating System: Windows 10)
%%Title: C:/Users/Francesco/Documents/gitRepo/authenticationProtocol/latex/figures/Psucc_gauss.eps
%%CreationDate: 2018-07-31T13:09:22
%%Pages: (atend)
%%BoundingBox: 0 0 284 284
%%LanguageLevel: 3
%%EndComments
%%BeginProlog
%%BeginResource: procset (Apache XML Graphics Std ProcSet) 1.2 0
%%Version: 1.2 0
%%Copyright: (Copyright 2001-2003,2010 The Apache Software Foundation. License terms: http://www.apache.org/licenses/LICENSE-2.0)
/bd{bind def}bind def
/ld{load def}bd
/GR/grestore ld
/GS/gsave ld
/RM/rmoveto ld
/C/curveto ld
/t/show ld
/L/lineto ld
/ML/setmiterlimit ld
/CT/concat ld
/f/fill ld
/N/newpath ld
/S/stroke ld
/CC/setcmykcolor ld
/A/ashow ld
/cp/closepath ld
/RC/setrgbcolor ld
/LJ/setlinejoin ld
/GC/setgray ld
/LW/setlinewidth ld
/M/moveto ld
/re {4 2 roll M
1 index 0 rlineto
0 exch rlineto
neg 0 rlineto
cp } bd
/_ctm matrix def
/_tm matrix def
/BT { _ctm currentmatrix pop matrix _tm copy pop 0 0 moveto } bd
/ET { _ctm setmatrix } bd
/iTm { _ctm setmatrix _tm concat } bd
/Tm { _tm astore pop iTm 0 0 moveto } bd
/ux 0.0 def
/uy 0.0 def
/F {
  /Tp exch def
  /Tf exch def
  Tf findfont Tp scalefont setfont
  /cf Tf def  /cs Tp def
} bd
/ULS {currentpoint /uy exch def /ux exch def} bd
/ULE {
  /Tcx currentpoint pop def
  gsave
  newpath
  cf findfont cs scalefont dup
  /FontMatrix get 0 get /Ts exch def /FontInfo get dup
  /UnderlinePosition get Ts mul /To exch def
  /UnderlineThickness get Ts mul /Tt exch def
  ux uy To add moveto  Tcx uy To add lineto
  Tt setlinewidth stroke
  grestore
} bd
/OLE {
  /Tcx currentpoint pop def
  gsave
  newpath
  cf findfont cs scalefont dup
  /FontMatrix get 0 get /Ts exch def /FontInfo get dup
  /UnderlinePosition get Ts mul /To exch def
  /UnderlineThickness get Ts mul /Tt exch def
  ux uy To add cs add moveto Tcx uy To add cs add lineto
  Tt setlinewidth stroke
  grestore
} bd
/SOE {
  /Tcx currentpoint pop def
  gsave
  newpath
  cf findfont cs scalefont dup
  /FontMatrix get 0 get /Ts exch def /FontInfo get dup
  /UnderlinePosition get Ts mul /To exch def
  /UnderlineThickness get Ts mul /Tt exch def
  ux uy To add cs 10 mul 26 idiv add moveto Tcx uy To add cs 10 mul 26 idiv add lineto
  Tt setlinewidth stroke
  grestore
} bd
/QT {
/Y22 exch store
/X22 exch store
/Y21 exch store
/X21 exch store
currentpoint
/Y21 load 2 mul add 3 div exch
/X21 load 2 mul add 3 div exch
/X21 load 2 mul /X22 load add 3 div
/Y21 load 2 mul /Y22 load add 3 div
/X22 load /Y22 load curveto
} bd
/SSPD {
dup length /d exch dict def
{
/v exch def
/k exch def
currentpagedevice k known {
/cpdv currentpagedevice k get def
v cpdv ne {
/upd false def
/nullv v type /nulltype eq def
/nullcpdv cpdv type /nulltype eq def
nullv nullcpdv or
{
/upd true def
} {
/sametype v type cpdv type eq def
sametype {
v type /arraytype eq {
/vlen v length def
/cpdvlen cpdv length def
vlen cpdvlen eq {
0 1 vlen 1 sub {
/i exch def
/obj v i get def
/cpdobj cpdv i get def
obj cpdobj ne {
/upd true def
exit
} if
} for
} {
/upd true def
} ifelse
} {
v type /dicttype eq {
v {
/dv exch def
/dk exch def
/cpddv cpdv dk get def
dv cpddv ne {
/upd true def
exit
} if
} forall
} {
/upd true def
} ifelse
} ifelse
} if
} ifelse
upd true eq {
d k v put
} if
} if
} if
} forall
d length 0 gt {
d setpagedevice
} if
} bd
/RE { % /NewFontName [NewEncodingArray] /FontName RE -
  findfont dup length dict begin
  {
    1 index /FID ne
    {def} {pop pop} ifelse
  } forall
  /Encoding exch def
  /FontName 1 index def
  currentdict definefont pop
  end
} bind def
%%EndResource
%%BeginResource: procset (Apache XML Graphics EPS ProcSet) 1.0 0
%%Version: 1.0 0
%%Copyright: (Copyright 2002-2003 The Apache Software Foundation. License terms: http://www.apache.org/licenses/LICENSE-2.0)
/BeginEPSF { %def
/b4_Inc_state save def         % Save state for cleanup
/dict_count countdictstack def % Count objects on dict stack
/op_count count 1 sub def      % Count objects on operand stack
userdict begin                 % Push userdict on dict stack
/showpage { } def              % Redefine showpage, { } = null proc
0 setgray 0 setlinecap         % Prepare graphics state
1 setlinewidth 0 setlinejoin
10 setmiterlimit [ ] 0 setdash newpath
/languagelevel where           % If level not equal to 1 then
{pop languagelevel             % set strokeadjust and
1 ne                           % overprint to their defaults.
{false setstrokeadjust false setoverprint
} if
} if
} bd
/EndEPSF { %def
count op_count sub {pop} repeat            % Clean up stacks
countdictstack dict_count sub {end} repeat
b4_Inc_state restore
} bd
%%EndResource
%FOPBeginFontDict
%%IncludeResource: font Courier-Oblique
%%IncludeResource: font Courier-BoldOblique
%%IncludeResource: font Courier-Bold
%%IncludeResource: font ZapfDingbats
%%IncludeResource: font Symbol
%%IncludeResource: font Helvetica
%%IncludeResource: font Helvetica-Oblique
%%IncludeResource: font Helvetica-Bold
%%IncludeResource: font Helvetica-BoldOblique
%%IncludeResource: font Times-Roman
%%IncludeResource: font Times-Italic
%%IncludeResource: font Times-Bold
%%IncludeResource: font Times-BoldItalic
%%IncludeResource: font Courier
%FOPEndFontDict
%%BeginResource: encoding WinAnsiEncoding
/WinAnsiEncoding [
/.notdef /.notdef /.notdef /.notdef /.notdef
/.notdef /.notdef /.notdef /.notdef /.notdef
/.notdef /.notdef /.notdef /.notdef /.notdef
/.notdef /.notdef /.notdef /.notdef /.notdef
/.notdef /.notdef /.notdef /.notdef /.notdef
/.notdef /.notdef /.notdef /.notdef /.notdef
/.notdef /.notdef /space /exclam /quotedbl
/numbersign /dollar /percent /ampersand /quotesingle
/parenleft /parenright /asterisk /plus /comma
/hyphen /period /slash /zero /one
/two /three /four /five /six
/seven /eight /nine /colon /semicolon
/less /equal /greater /question /at
/A /B /C /D /E
/F /G /H /I /J
/K /L /M /N /O
/P /Q /R /S /T
/U /V /W /X /Y
/Z /bracketleft /backslash /bracketright /asciicircum
/underscore /quoteleft /a /b /c
/d /e /f /g /h
/i /j /k /l /m
/n /o /p /q /r
/s /t /u /v /w
/x /y /z /braceleft /bar
/braceright /asciitilde /bullet /Euro /bullet
/quotesinglbase /florin /quotedblbase /ellipsis /dagger
/daggerdbl /circumflex /perthousand /Scaron /guilsinglleft
/OE /bullet /Zcaron /bullet /bullet
/quoteleft /quoteright /quotedblleft /quotedblright /bullet
/endash /emdash /asciitilde /trademark /scaron
/guilsinglright /oe /bullet /zcaron /Ydieresis
/space /exclamdown /cent /sterling /currency
/yen /brokenbar /section /dieresis /copyright
/ordfeminine /guillemotleft /logicalnot /sfthyphen /registered
/macron /degree /plusminus /twosuperior /threesuperior
/acute /mu /paragraph /middot /cedilla
/onesuperior /ordmasculine /guillemotright /onequarter /onehalf
/threequarters /questiondown /Agrave /Aacute /Acircumflex
/Atilde /Adieresis /Aring /AE /Ccedilla
/Egrave /Eacute /Ecircumflex /Edieresis /Igrave
/Iacute /Icircumflex /Idieresis /Eth /Ntilde
/Ograve /Oacute /Ocircumflex /Otilde /Odieresis
/multiply /Oslash /Ugrave /Uacute /Ucircumflex
/Udieresis /Yacute /Thorn /germandbls /agrave
/aacute /acircumflex /atilde /adieresis /aring
/ae /ccedilla /egrave /eacute /ecircumflex
/edieresis /igrave /iacute /icircumflex /idieresis
/eth /ntilde /ograve /oacute /ocircumflex
/otilde /odieresis /divide /oslash /ugrave
/uacute /ucircumflex /udieresis /yacute /thorn
/ydieresis
] def
%%EndResource
%FOPBeginFontReencode
/Courier-Oblique findfont
dup length dict begin
  {1 index /FID ne {def} {pop pop} ifelse} forall
  /Encoding WinAnsiEncoding def
  currentdict
end
/Courier-Oblique exch definefont pop
/Courier-BoldOblique findfont
dup length dict begin
  {1 index /FID ne {def} {pop pop} ifelse} forall
  /Encoding WinAnsiEncoding def
  currentdict
end
/Courier-BoldOblique exch definefont pop
/Courier-Bold findfont
dup length dict begin
  {1 index /FID ne {def} {pop pop} ifelse} forall
  /Encoding WinAnsiEncoding def
  currentdict
end
/Courier-Bold exch definefont pop
/Helvetica findfont
dup length dict begin
  {1 index /FID ne {def} {pop pop} ifelse} forall
  /Encoding WinAnsiEncoding def
  currentdict
end
/Helvetica exch definefont pop
/Helvetica-Oblique findfont
dup length dict begin
  {1 index /FID ne {def} {pop pop} ifelse} forall
  /Encoding WinAnsiEncoding def
  currentdict
end
/Helvetica-Oblique exch definefont pop
/Helvetica-Bold findfont
dup length dict begin
  {1 index /FID ne {def} {pop pop} ifelse} forall
  /Encoding WinAnsiEncoding def
  currentdict
end
/Helvetica-Bold exch definefont pop
/Helvetica-BoldOblique findfont
dup length dict begin
  {1 index /FID ne {def} {pop pop} ifelse} forall
  /Encoding WinAnsiEncoding def
  currentdict
end
/Helvetica-BoldOblique exch definefont pop
/Times-Roman findfont
dup length dict begin
  {1 index /FID ne {def} {pop pop} ifelse} forall
  /Encoding WinAnsiEncoding def
  currentdict
end
/Times-Roman exch definefont pop
/Times-Italic findfont
dup length dict begin
  {1 index /FID ne {def} {pop pop} ifelse} forall
  /Encoding WinAnsiEncoding def
  currentdict
end
/Times-Italic exch definefont pop
/Times-Bold findfont
dup length dict begin
  {1 index /FID ne {def} {pop pop} ifelse} forall
  /Encoding WinAnsiEncoding def
  currentdict
end
/Times-Bold exch definefont pop
/Times-BoldItalic findfont
dup length dict begin
  {1 index /FID ne {def} {pop pop} ifelse} forall
  /Encoding WinAnsiEncoding def
  currentdict
end
/Times-BoldItalic exch definefont pop
/Courier findfont
dup length dict begin
  {1 index /FID ne {def} {pop pop} ifelse} forall
  /Encoding WinAnsiEncoding def
  currentdict
end
/Courier exch definefont pop
%FOPEndFontReencode
%%EndProlog
%%Page: 1 1
%%PageBoundingBox: 0 0 284 284
%%BeginPageSetup
[1 0 0 -1 0 284] CT
%%EndPageSetup
GS
[0.75 0 0 0.75 0 0.5] CT
N
0 0 M
378 0 L
378 378 L
0 378 L
0 0 L
cp
clip
1 GC
N
0 0 378 378 re
f
GR
GS
[0.75 0 0 0.75 0 0.5] CT
1 GC
N
0 0 378 378 re
f
GR
GS
[0.75 0 0 0.75 0 0.5] CT
1 GC
N
63 321.5 M
342 321.5 L
342 42.5 L
63 42.5 L
cp
f
GR
GS
[0.75 0 0 0.75 0 0.5] CT
0.873 GC
1 LJ
0.667 LW
N
109.5 321.5 M
109.5 42.5 L
S
GR
GS
[0.75 0 0 0.75 0 0.5] CT
0.873 GC
1 LJ
0.667 LW
N
187 321.5 M
187 42.5 L
S
GR
GS
[0.75 0 0 0.75 0 0.5] CT
0.873 GC
1 LJ
0.667 LW
N
264.5 321.5 M
264.5 42.5 L
S
GR
GS
[0.75 0 0 0.75 0 0.5] CT
0.873 GC
1 LJ
0.667 LW
N
342 321.5 M
342 42.5 L
S
GR
GS
[0.75 0 0 0.75 0 0.5] CT
0.775 GC
[1 3] 0 setdash
2 LJ
0.667 LW
N
342 293.6 M
63 293.6 L
S
GR
GS
[0.75 0 0 0.75 0 0.5] CT
0.775 GC
[1 3] 0 setdash
2 LJ
0.667 LW
N
342 237.8 M
63 237.8 L
S
GR
GS
[0.75 0 0 0.75 0 0.5] CT
0.775 GC
[1 3] 0 setdash
2 LJ
0.667 LW
N
342 182 M
63 182 L
S
GR
GS
[0.75 0 0 0.75 0 0.5] CT
0.775 GC
[1 3] 0 setdash
2 LJ
0.667 LW
N
342 126.2 M
63 126.2 L
S
GR
GS
[0.75 0 0 0.75 0 0.5] CT
0.775 GC
[1 3] 0 setdash
2 LJ
0.667 LW
N
342 70.4 M
63 70.4 L
S
GR
GS
[0.75 0 0 0.75 0 0.5] CT
0.873 GC
1 LJ
0.667 LW
N
342 321.5 M
63 321.5 L
S
GR
GS
[0.75 0 0 0.75 0 0.5] CT
0.873 GC
1 LJ
0.667 LW
N
342 265.7 M
63 265.7 L
S
GR
GS
[0.75 0 0 0.75 0 0.5] CT
0.873 GC
1 LJ
0.667 LW
N
342 209.9 M
63 209.9 L
S
GR
GS
[0.75 0 0 0.75 0 0.5] CT
0.873 GC
1 LJ
0.667 LW
N
342 154.1 M
63 154.1 L
S
GR
GS
[0.75 0 0 0.75 0 0.5] CT
0.873 GC
1 LJ
0.667 LW
N
342 98.3 M
63 98.3 L
S
GR
GS
[0.75 0 0 0.75 0 0.5] CT
0.873 GC
1 LJ
0.667 LW
N
342 42.5 M
63 42.5 L
S
GR
GS
[0.75 0 0 0.75 0 0.5] CT
0.149 GC
2 setlinecap
1 LJ
0.667 LW
N
63 321.5 M
342 321.5 L
S
GR
GS
[0.75 0 0 0.75 0 0.5] CT
0.149 GC
2 setlinecap
1 LJ
0.667 LW
N
63 42.5 M
342 42.5 L
S
GR
GS
[0.75 0 0 0.75 0 0.5] CT
0.149 GC
2 setlinecap
1 LJ
0.667 LW
N
109.5 321.5 M
109.5 318.71 L
S
GR
GS
[0.75 0 0 0.75 0 0.5] CT
0.149 GC
2 setlinecap
1 LJ
0.667 LW
N
187 321.5 M
187 318.71 L
S
GR
GS
[0.75 0 0 0.75 0 0.5] CT
0.149 GC
2 setlinecap
1 LJ
0.667 LW
N
264.5 321.5 M
264.5 318.71 L
S
GR
GS
[0.75 0 0 0.75 0 0.5] CT
0.149 GC
2 setlinecap
1 LJ
0.667 LW
N
342 321.5 M
342 318.71 L
S
GR
GS
[0.75 0 0 0.75 0 0.5] CT
0.149 GC
2 setlinecap
1 LJ
0.667 LW
N
109.5 42.5 M
109.5 45.29 L
S
GR
GS
[0.75 0 0 0.75 0 0.5] CT
0.149 GC
2 setlinecap
1 LJ
0.667 LW
N
187 42.5 M
187 45.29 L
S
GR
GS
[0.75 0 0 0.75 0 0.5] CT
0.149 GC
2 setlinecap
1 LJ
0.667 LW
N
264.5 42.5 M
264.5 45.29 L
S
GR
GS
[0.75 0 0 0.75 0 0.5] CT
0.149 GC
2 setlinecap
1 LJ
0.667 LW
N
342 42.5 M
342 45.29 L
S
GR
GS
[0.75 0 0 0.75 82.125 245.62501] CT
0.149 GC
/Helvetica 13.333 F
GS
[1 0 0 1 0 0] CT
-10 14 moveto 
1 -1 scale
(-10) t 
GR
GR
GS
[0.75 0 0 0.75 140.25 245.62501] CT
0.149 GC
/Helvetica 13.333 F
GS
[1 0 0 1 0 0] CT
-6 14 moveto 
1 -1 scale
(-5) t 
GR
GR
GS
[0.75 0 0 0.75 198.375 245.62501] CT
0.149 GC
/Helvetica 13.333 F
GS
[1 0 0 1 0 0] CT
-4 14 moveto 
1 -1 scale
(0) t 
GR
GR
GS
[0.75 0 0 0.75 256.5 245.62501] CT
0.149 GC
/Helvetica 13.333 F
GS
[1 0 0 1 0 0] CT
-4 14 moveto 
1 -1 scale
(5) t 
GR
GR
GS
[0.75 0 0 0.75 151.8751 259.37499] CT
0.149 GC
N
-29.999 15.899 M
-30.842 15.899 -31.491 15.492 QT
-32.139 15.086 -32.499 14.399 QT
-32.858 13.711 -32.858 12.883 QT
-32.858 12.008 -32.46 11.031 QT
-32.061 10.055 -31.374 9.25 QT
-30.686 8.446 -29.811 7.969 QT
-28.936 7.492 -28.014 7.492 QT
-23.233 7.492 L
-23.03 7.492 -22.889 7.617 QT
-22.749 7.742 -22.749 7.977 QT
-22.749 8.242 -22.952 8.453 QT
-23.155 8.664 -23.436 8.664 QT
-25.749 8.664 L
-25.202 9.477 -25.202 10.649 QT
-25.202 11.602 -25.577 12.524 QT
-25.952 13.446 -26.608 14.211 QT
-27.264 14.977 -28.139 15.438 QT
-29.014 15.899 -29.999 15.899 QT
cp
-29.967 15.399 M
-28.936 15.399 -28.132 14.586 QT
-27.327 13.774 -26.905 12.594 QT
-26.483 11.414 -26.483 10.414 QT
-26.483 9.602 -26.928 9.133 QT
-27.374 8.664 -28.186 8.664 QT
-29.28 8.664 -30.061 9.406 QT
-30.842 10.149 -31.225 11.274 QT
-31.608 12.399 -31.608 13.43 QT
-31.608 14.258 -31.178 14.828 QT
-30.749 15.399 -29.967 15.399 QT
cp
f
GR
GS
[0.75 0 0 0.75 151.8751 259.37499] CT
0.149 GC
N
-21.569 8.906 M
-21.569 8.562 L
-21.569 8.531 -21.538 8.484 QT
-19.522 6.25 L
-19.053 5.75 -18.772 5.414 QT
-18.491 5.078 -18.21 4.64 QT
-17.928 4.203 -17.764 3.75 QT
-17.6 3.297 -17.6 2.797 QT
-17.6 2.265 -17.803 1.773 QT
-18.006 1.281 -18.397 0.992 QT
-18.788 0.703 -19.335 0.703 QT
-19.897 0.703 -20.35 1.047 QT
-20.803 1.39 -20.991 1.922 QT
-20.928 1.906 -20.85 1.906 QT
-20.553 1.906 -20.35 2.101 QT
-20.147 2.297 -20.147 2.609 QT
-20.147 2.906 -20.35 3.117 QT
-20.553 3.328 -20.85 3.328 QT
-21.147 3.328 -21.358 3.117 QT
-21.569 2.906 -21.569 2.609 QT
-21.569 2.125 -21.381 1.695 QT
-21.194 1.265 -20.85 0.937 QT
-20.506 0.609 -20.069 0.429 QT
-19.631 0.25 -19.147 0.25 QT
-18.397 0.25 -17.756 0.562 QT
-17.116 0.875 -16.741 1.453 QT
-16.366 2.031 -16.366 2.797 QT
-16.366 3.359 -16.616 3.867 QT
-16.866 4.375 -17.249 4.789 QT
-17.631 5.203 -18.241 5.734 QT
-18.85 6.265 -19.038 6.437 QT
-20.506 7.859 L
-19.256 7.859 L
-18.335 7.859 -17.717 7.843 QT
-17.1 7.828 -17.069 7.781 QT
-16.913 7.625 -16.756 6.593 QT
-16.366 6.593 L
-16.741 8.906 L
-21.569 8.906 L
cp
f
GR
GS
[0.75 0 0 0.75 151.8751 259.37499] CT
0.149 GC
N
-21.473 18.779 M
-21.473 18.513 -21.403 18.154 QT
-21.332 17.795 -21.239 17.521 QT
-21.145 17.248 -20.934 16.677 QT
-20.723 16.107 -20.707 16.06 QT
-20.535 15.576 -20.535 15.279 QT
-20.535 14.888 -20.817 14.888 QT
-21.332 14.888 -21.668 15.42 QT
-22.004 15.951 -22.16 16.607 QT
-22.192 16.685 -22.27 16.685 QT
-22.426 16.685 L
-22.535 16.685 -22.535 16.56 QT
-22.535 16.529 L
-22.317 15.748 -21.887 15.146 QT
-21.457 14.545 -20.801 14.545 QT
-20.332 14.545 -20.012 14.849 QT
-19.692 15.154 -19.692 15.623 QT
-19.692 15.873 -19.801 16.138 QT
-19.957 16.529 -20.16 17.084 QT
-20.364 17.638 -20.481 18.084 QT
-20.598 18.529 -20.598 18.951 QT
-20.598 19.467 -20.332 19.779 QT
-20.067 20.092 -19.551 20.092 QT
-18.864 20.092 -18.41 19.045 QT
-18.426 18.967 -18.426 18.826 QT
-18.426 18.482 -18.317 18.029 QT
-17.582 15.107 L
-17.535 14.935 -17.379 14.81 QT
-17.223 14.685 -17.035 14.685 QT
-16.879 14.685 -16.762 14.787 QT
-16.645 14.888 -16.645 15.06 QT
-16.645 15.138 -16.66 15.154 QT
-17.395 18.06 L
-17.52 18.576 -17.52 18.998 QT
-17.52 19.482 -17.293 19.787 QT
-17.067 20.092 -16.582 20.092 QT
-15.754 20.092 -15.207 18.998 QT
-15.004 18.607 -14.754 17.834 QT
-14.504 17.06 -14.504 16.654 QT
-14.504 16.279 -14.629 16.06 QT
-14.754 15.842 -14.965 15.592 QT
-15.176 15.342 -15.176 15.217 QT
-15.176 14.967 -14.965 14.756 QT
-14.754 14.545 -14.489 14.545 QT
-14.176 14.545 -14.043 14.826 QT
-13.91 15.107 -13.91 15.467 QT
-13.91 15.904 -14.059 16.584 QT
-14.207 17.263 -14.426 17.943 QT
-14.645 18.623 -14.848 19.029 QT
-15.551 20.435 -16.614 20.435 QT
-17.16 20.435 -17.614 20.232 QT
-18.067 20.029 -18.27 19.56 QT
-18.489 19.935 -18.825 20.185 QT
-19.16 20.435 -19.582 20.435 QT
-20.442 20.435 -20.957 20.029 QT
-21.473 19.623 -21.473 18.779 QT
cp
f
GR
GS
[0.75 0 0 0.75 151.8751 259.37499] CT
0.149 GC
N
-12.329 15.379 M
-12.423 15.379 -12.509 15.293 QT
-12.595 15.207 -12.595 15.098 QT
-12.595 14.957 -12.454 14.895 QT
-11.157 14.27 L
-12.454 13.66 L
-12.595 13.614 -12.595 13.442 QT
-12.595 13.348 -12.509 13.262 QT
-12.423 13.176 -12.329 13.176 QT
-12.251 13.176 -12.204 13.207 QT
-11.048 14.051 L
-11.189 12.582 L
-11.189 12.473 -11.11 12.403 QT
-11.032 12.332 -10.923 12.332 QT
-10.814 12.332 -10.743 12.403 QT
-10.673 12.473 -10.673 12.567 QT
-10.673 12.582 L
-10.798 14.051 L
-9.657 13.207 L
-9.595 13.176 -9.532 13.176 QT
-9.423 13.176 -9.345 13.262 QT
-9.267 13.348 -9.267 13.442 QT
-9.267 13.614 -9.392 13.66 QT
-10.689 14.27 L
-9.392 14.895 L
-9.267 14.957 -9.267 15.098 QT
-9.267 15.207 -9.345 15.293 QT
-9.423 15.379 -9.532 15.379 QT
-9.595 15.379 -9.657 15.332 QT
-10.798 14.489 L
-10.673 15.957 L
-10.673 15.973 L
-10.673 16.082 -10.751 16.145 QT
-10.829 16.207 -10.923 16.207 QT
-11.032 16.207 -11.11 16.137 QT
-11.189 16.067 -11.189 15.957 QT
-11.048 14.489 L
-12.204 15.332 L
-12.251 15.379 -12.329 15.379 QT
cp
f
GR
GS
[0.75 0 0 0.75 151.8751 259.37499] CT
0.149 GC
N
1.833 20.43 M
1.833 1.43 L
4.426 1.43 L
4.426 2.196 L
2.583 2.196 L
2.583 19.664 L
4.426 19.664 L
4.426 20.43 L
1.833 20.43 L
cp
f
GR
GS
[0.75 0 0 0.75 151.8751 259.37499] CT
0.149 GC
N
9.408 15.899 M
8.283 15.899 7.354 15.289 QT
6.424 14.68 5.908 13.688 QT
5.393 12.696 5.393 11.586 QT
5.393 10.43 5.955 9.438 QT
6.518 8.446 7.487 7.867 QT
8.455 7.289 9.612 7.289 QT
10.299 7.289 10.924 7.578 QT
11.549 7.867 12.002 8.383 QT
12.002 4.43 L
12.002 3.93 11.854 3.703 QT
11.705 3.477 11.416 3.422 QT
11.127 3.367 10.533 3.367 QT
10.533 2.696 L
13.346 2.492 L
13.346 13.961 L
13.346 14.461 13.494 14.688 QT
13.643 14.914 13.924 14.961 QT
14.205 15.008 14.815 15.008 QT
14.815 15.68 L
11.955 15.899 L
11.955 14.696 L
11.455 15.258 10.776 15.578 QT
10.096 15.899 9.408 15.899 QT
cp
7.471 14.024 M
7.799 14.649 8.338 15.024 QT
8.877 15.399 9.518 15.399 QT
10.299 15.399 10.963 14.938 QT
11.627 14.477 11.955 13.758 QT
11.955 9.211 L
11.721 8.789 11.385 8.461 QT
11.049 8.133 10.627 7.953 QT
10.205 7.774 9.737 7.774 QT
8.737 7.774 8.135 8.336 QT
7.533 8.899 7.291 9.774 QT
7.049 10.649 7.049 11.602 QT
7.049 12.352 7.127 12.922 QT
7.205 13.492 7.471 14.024 QT
cp
f
GR
GS
[0.75 0 0 0.75 151.8751 259.37499] CT
0.149 GC
N
15.794 15.68 M
15.794 15.008 L
17.748 15.008 17.748 14.414 QT
17.748 3.977 L
17.748 3.367 15.794 3.367 QT
15.794 2.696 L
22.779 2.696 L
23.732 2.696 24.716 3.071 QT
25.701 3.446 26.349 4.188 QT
26.998 4.93 26.998 5.93 QT
26.998 7.086 26.044 7.875 QT
25.091 8.664 23.826 8.899 QT
24.654 8.899 25.521 9.352 QT
26.388 9.805 26.943 10.571 QT
27.498 11.336 27.498 12.18 QT
27.498 13.227 26.888 14.024 QT
26.279 14.821 25.294 15.25 QT
24.31 15.68 23.31 15.68 QT
15.794 15.68 L
cp
19.404 14.414 M
19.404 14.821 19.63 14.914 QT
19.857 15.008 20.357 15.008 QT
22.779 15.008 L
23.513 15.008 24.154 14.617 QT
24.794 14.227 25.162 13.578 QT
25.529 12.93 25.529 12.18 QT
25.529 11.461 25.224 10.766 QT
24.919 10.071 24.349 9.625 QT
23.779 9.18 23.044 9.18 QT
19.404 9.18 L
19.404 14.414 L
cp
19.404 8.68 M
22.248 8.68 L
22.826 8.68 23.326 8.477 QT
23.826 8.274 24.232 7.875 QT
24.638 7.477 24.857 6.985 QT
25.076 6.492 25.076 5.93 QT
25.076 5.43 24.912 4.977 QT
24.748 4.524 24.435 4.156 QT
24.123 3.789 23.693 3.578 QT
23.263 3.367 22.779 3.367 QT
20.357 3.367 L
20.013 3.367 19.826 3.399 QT
19.638 3.43 19.521 3.563 QT
19.404 3.696 19.404 3.977 QT
19.404 8.68 L
cp
f
GR
GS
[0.75 0 0 0.75 151.8751 259.37499] CT
0.149 GC
N
28.782 20.43 M
28.782 19.664 L
30.626 19.664 L
30.626 2.196 L
28.782 2.196 L
28.782 1.43 L
31.392 1.43 L
31.392 20.43 L
28.782 20.43 L
cp
f
GR
GS
[0.75 0 0 0.75 0 0.5] CT
0.149 GC
2 setlinecap
1 LJ
0.667 LW
N
63 321.5 M
63 42.5 L
S
GR
GS
[0.75 0 0 0.75 0 0.5] CT
0.149 GC
2 setlinecap
1 LJ
0.667 LW
N
342 321.5 M
342 42.5 L
S
GR
GS
[0.75 0 0 0.75 0 0.5] CT
0.149 GC
2 setlinecap
1 LJ
0.667 LW
N
63 321.5 M
65.79 321.5 L
S
GR
GS
[0.75 0 0 0.75 0 0.5] CT
0.149 GC
2 setlinecap
1 LJ
0.667 LW
N
63 265.7 M
65.79 265.7 L
S
GR
GS
[0.75 0 0 0.75 0 0.5] CT
0.149 GC
2 setlinecap
1 LJ
0.667 LW
N
63 209.9 M
65.79 209.9 L
S
GR
GS
[0.75 0 0 0.75 0 0.5] CT
0.149 GC
2 setlinecap
1 LJ
0.667 LW
N
63 154.1 M
65.79 154.1 L
S
GR
GS
[0.75 0 0 0.75 0 0.5] CT
0.149 GC
2 setlinecap
1 LJ
0.667 LW
N
63 98.3 M
65.79 98.3 L
S
GR
GS
[0.75 0 0 0.75 0 0.5] CT
0.149 GC
2 setlinecap
1 LJ
0.667 LW
N
63 42.5 M
65.79 42.5 L
S
GR
GS
[0.75 0 0 0.75 0 0.5] CT
0.149 GC
2 setlinecap
1 LJ
0.667 LW
N
342 321.5 M
339.21 321.5 L
S
GR
GS
[0.75 0 0 0.75 0 0.5] CT
0.149 GC
2 setlinecap
1 LJ
0.667 LW
N
342 265.7 M
339.21 265.7 L
S
GR
GS
[0.75 0 0 0.75 0 0.5] CT
0.149 GC
2 setlinecap
1 LJ
0.667 LW
N
342 209.9 M
339.21 209.9 L
S
GR
GS
[0.75 0 0 0.75 0 0.5] CT
0.149 GC
2 setlinecap
1 LJ
0.667 LW
N
342 154.1 M
339.21 154.1 L
S
GR
GS
[0.75 0 0 0.75 0 0.5] CT
0.149 GC
2 setlinecap
1 LJ
0.667 LW
N
342 98.3 M
339.21 98.3 L
S
GR
GS
[0.75 0 0 0.75 0 0.5] CT
0.149 GC
2 setlinecap
1 LJ
0.667 LW
N
342 42.5 M
339.21 42.5 L
S
GR
GS
[0.75 0 0 0.75 0 0.5] CT
0.149 GC
2 setlinecap
1 LJ
0.667 LW
N
63 321.5 M
64.395 321.5 L
S
GR
GS
[0.75 0 0 0.75 0 0.5] CT
0.149 GC
2 setlinecap
1 LJ
0.667 LW
N
63 293.6 M
64.395 293.6 L
S
GR
GS
[0.75 0 0 0.75 0 0.5] CT
0.149 GC
2 setlinecap
1 LJ
0.667 LW
N
63 265.7 M
64.395 265.7 L
S
GR
GS
[0.75 0 0 0.75 0 0.5] CT
0.149 GC
2 setlinecap
1 LJ
0.667 LW
N
63 237.8 M
64.395 237.8 L
S
GR
GS
[0.75 0 0 0.75 0 0.5] CT
0.149 GC
2 setlinecap
1 LJ
0.667 LW
N
63 209.9 M
64.395 209.9 L
S
GR
GS
[0.75 0 0 0.75 0 0.5] CT
0.149 GC
2 setlinecap
1 LJ
0.667 LW
N
63 182 M
64.395 182 L
S
GR
GS
[0.75 0 0 0.75 0 0.5] CT
0.149 GC
2 setlinecap
1 LJ
0.667 LW
N
63 154.1 M
64.395 154.1 L
S
GR
GS
[0.75 0 0 0.75 0 0.5] CT
0.149 GC
2 setlinecap
1 LJ
0.667 LW
N
63 126.2 M
64.395 126.2 L
S
GR
GS
[0.75 0 0 0.75 0 0.5] CT
0.149 GC
2 setlinecap
1 LJ
0.667 LW
N
63 98.3 M
64.395 98.3 L
S
GR
GS
[0.75 0 0 0.75 0 0.5] CT
0.149 GC
2 setlinecap
1 LJ
0.667 LW
N
63 70.4 M
64.395 70.4 L
S
GR
GS
[0.75 0 0 0.75 0 0.5] CT
0.149 GC
2 setlinecap
1 LJ
0.667 LW
N
63 42.5 M
64.395 42.5 L
S
GR
GS
[0.75 0 0 0.75 0 0.5] CT
0.149 GC
2 setlinecap
1 LJ
0.667 LW
N
342 321.5 M
340.605 321.5 L
S
GR
GS
[0.75 0 0 0.75 0 0.5] CT
0.149 GC
2 setlinecap
1 LJ
0.667 LW
N
342 293.6 M
340.605 293.6 L
S
GR
GS
[0.75 0 0 0.75 0 0.5] CT
0.149 GC
2 setlinecap
1 LJ
0.667 LW
N
342 265.7 M
340.605 265.7 L
S
GR
GS
[0.75 0 0 0.75 0 0.5] CT
0.149 GC
2 setlinecap
1 LJ
0.667 LW
N
342 237.8 M
340.605 237.8 L
S
GR
GS
[0.75 0 0 0.75 0 0.5] CT
0.149 GC
2 setlinecap
1 LJ
0.667 LW
N
342 209.9 M
340.605 209.9 L
S
GR
GS
[0.75 0 0 0.75 0 0.5] CT
0.149 GC
2 setlinecap
1 LJ
0.667 LW
N
342 182 M
340.605 182 L
S
GR
GS
[0.75 0 0 0.75 0 0.5] CT
0.149 GC
2 setlinecap
1 LJ
0.667 LW
N
342 154.1 M
340.605 154.1 L
S
GR
GS
[0.75 0 0 0.75 0 0.5] CT
0.149 GC
2 setlinecap
1 LJ
0.667 LW
N
342 126.2 M
340.605 126.2 L
S
GR
GS
[0.75 0 0 0.75 0 0.5] CT
0.149 GC
2 setlinecap
1 LJ
0.667 LW
N
342 98.3 M
340.605 98.3 L
S
GR
GS
[0.75 0 0 0.75 0 0.5] CT
0.149 GC
2 setlinecap
1 LJ
0.667 LW
N
342 70.4 M
340.605 70.4 L
S
GR
GS
[0.75 0 0 0.75 0 0.5] CT
0.149 GC
2 setlinecap
1 LJ
0.667 LW
N
342 42.5 M
340.605 42.5 L
S
GR
GS
[0.75 0 0 0.75 20.25 247.25] CT
0.149 GC
/Helvetica 13.333 F
GS
[1 0 0 1 0 0] CT
0 0 moveto 
1 -1 scale
(10) t 
GR
GR
GS
[0.75 0 0 0.75 31.5 242.75] CT
0.149 GC
/Helvetica 10.667 F
GS
[1 0 0 1 0 0] CT
0 0 moveto 
1 -1 scale
(-50) t 
GR
GR
GS
[0.75 0 0 0.75 20.25 205.25] CT
0.149 GC
/Helvetica 13.333 F
GS
[1 0 0 1 0 0] CT
0 0 moveto 
1 -1 scale
(10) t 
GR
GR
GS
[0.75 0 0 0.75 31.5 200.75] CT
0.149 GC
/Helvetica 10.667 F
GS
[1 0 0 1 0 0] CT
0 0 moveto 
1 -1 scale
(-40) t 
GR
GR
GS
[0.75 0 0 0.75 20.25 163.25] CT
0.149 GC
/Helvetica 13.333 F
GS
[1 0 0 1 0 0] CT
0 0 moveto 
1 -1 scale
(10) t 
GR
GR
GS
[0.75 0 0 0.75 31.5 158.75] CT
0.149 GC
/Helvetica 10.667 F
GS
[1 0 0 1 0 0] CT
0 0 moveto 
1 -1 scale
(-30) t 
GR
GR
GS
[0.75 0 0 0.75 20.25 121.25] CT
0.149 GC
/Helvetica 13.333 F
GS
[1 0 0 1 0 0] CT
0 0 moveto 
1 -1 scale
(10) t 
GR
GR
GS
[0.75 0 0 0.75 31.5 116.75] CT
0.149 GC
/Helvetica 10.667 F
GS
[1 0 0 1 0 0] CT
0 0 moveto 
1 -1 scale
(-20) t 
GR
GR
GS
[0.75 0 0 0.75 20.25 79.25] CT
0.149 GC
/Helvetica 13.333 F
GS
[1 0 0 1 0 0] CT
0 0 moveto 
1 -1 scale
(10) t 
GR
GR
GS
[0.75 0 0 0.75 31.5 74.75] CT
0.149 GC
/Helvetica 10.667 F
GS
[1 0 0 1 0 0] CT
0 0 moveto 
1 -1 scale
(-10) t 
GR
GR
GS
[0.75 0 0 0.75 27.75 38] CT
0.149 GC
/Helvetica 13.333 F
GS
[1 0 0 1 0 0] CT
0 0 moveto 
1 -1 scale
(10) t 
GR
GR
GS
[0.75 0 0 0.75 39 33.5] CT
0.149 GC
/Helvetica 10.667 F
GS
[1 0 0 1 0 0] CT
0 0 moveto 
1 -1 scale
(0) t 
GR
GR
GS
[0 -0.75 0.75 0 17 136.9999] CT
0.149 GC
N
-17.994 -6.72 M
-18.166 -6.72 -18.166 -6.97 QT
-18.166 -7.017 -18.135 -7.134 QT
-18.104 -7.251 -18.057 -7.322 QT
-18.01 -7.392 -17.932 -7.392 QT
-16.775 -7.392 -16.307 -7.517 QT
-16.072 -7.595 -15.963 -8.033 QT
-13.354 -18.47 L
-13.307 -18.658 -13.307 -18.72 QT
-13.307 -18.923 -13.541 -18.954 QT
-13.9 -19.033 -14.9 -19.033 QT
-15.088 -19.033 -15.088 -19.283 QT
-15.088 -19.329 -15.057 -19.447 QT
-15.025 -19.564 -14.979 -19.634 QT
-14.932 -19.704 -14.854 -19.704 QT
-8.291 -19.704 L
-7.4 -19.704 -6.549 -19.384 QT
-5.697 -19.064 -5.166 -18.4 QT
-4.635 -17.736 -4.635 -16.798 QT
-4.635 -15.595 -5.479 -14.65 QT
-6.322 -13.704 -7.588 -13.173 QT
-8.854 -12.642 -10.041 -12.642 QT
-13.135 -12.642 L
-14.291 -7.954 L
-14.338 -7.767 -14.338 -7.689 QT
-14.338 -7.611 -14.314 -7.556 QT
-14.291 -7.501 -14.244 -7.494 QT
-14.197 -7.486 -14.104 -7.47 QT
-13.744 -7.392 -12.744 -7.392 QT
-12.557 -7.392 -12.557 -7.142 QT
-12.619 -6.876 -12.658 -6.798 QT
-12.697 -6.72 -12.869 -6.72 QT
-17.994 -6.72 L
cp
-13.041 -13.22 M
-10.385 -13.22 L
-8.541 -13.22 -7.572 -14.204 QT
-7.072 -14.704 -6.768 -15.626 QT
-6.463 -16.548 -6.463 -17.298 QT
-6.463 -18.236 -7.174 -18.634 QT
-7.885 -19.033 -8.947 -19.033 QT
-10.76 -19.033 L
-11.275 -19.033 -11.447 -18.947 QT
-11.619 -18.861 -11.76 -18.376 QT
-13.041 -13.22 L
cp
f
GR
GS
[0 -0.75 0.75 0 17 136.9999] CT
0.149 GC
N
-5.807 -4.717 M
-5.447 -4.123 -4.401 -4.123 QT
-3.947 -4.123 -3.533 -4.279 QT
-3.119 -4.436 -2.846 -4.74 QT
-2.572 -5.045 -2.572 -5.498 QT
-2.572 -5.826 -2.815 -6.045 QT
-3.057 -6.264 -3.416 -6.342 QT
-4.119 -6.483 L
-4.588 -6.592 -4.901 -6.928 QT
-5.213 -7.264 -5.213 -7.733 QT
-5.213 -8.311 -4.901 -8.756 QT
-4.588 -9.201 -4.072 -9.436 QT
-3.557 -9.67 -3.01 -9.67 QT
-2.416 -9.67 -1.947 -9.389 QT
-1.479 -9.108 -1.479 -8.545 QT
-1.479 -8.248 -1.651 -8.022 QT
-1.822 -7.795 -2.119 -7.795 QT
-2.291 -7.795 -2.416 -7.904 QT
-2.541 -8.014 -2.541 -8.186 QT
-2.541 -8.342 -2.455 -8.483 QT
-2.369 -8.623 -2.229 -8.709 QT
-2.088 -8.795 -1.932 -8.795 QT
-2.041 -9.076 -2.354 -9.201 QT
-2.666 -9.326 -3.041 -9.326 QT
-3.369 -9.326 -3.697 -9.194 QT
-4.026 -9.061 -4.229 -8.803 QT
-4.432 -8.545 -4.432 -8.201 QT
-4.432 -7.967 -4.26 -7.787 QT
-4.088 -7.608 -3.854 -7.529 QT
-3.104 -7.373 L
-2.729 -7.311 -2.432 -7.115 QT
-2.135 -6.92 -1.963 -6.623 QT
-1.791 -6.326 -1.791 -5.951 QT
-1.791 -5.467 -2.057 -4.998 QT
-2.322 -4.529 -2.713 -4.248 QT
-3.416 -3.779 -4.416 -3.779 QT
-5.104 -3.779 -5.682 -4.092 QT
-6.26 -4.404 -6.26 -5.045 QT
-6.26 -5.389 -6.057 -5.654 QT
-5.854 -5.92 -5.494 -5.92 QT
-5.276 -5.92 -5.135 -5.795 QT
-4.994 -5.67 -4.994 -5.451 QT
-4.994 -5.154 -5.221 -4.936 QT
-5.447 -4.717 -5.744 -4.717 QT
-5.807 -4.717 L
cp
f
GR
GS
[0 -0.75 0.75 0 17 136.9999] CT
0.149 GC
N
0.568 -5.342 M
0.568 -5.764 0.685 -6.209 QT
0.803 -6.654 1.006 -7.201 QT
1.209 -7.748 1.365 -8.154 QT
1.537 -8.639 1.537 -8.936 QT
1.537 -9.326 1.256 -9.326 QT
0.74 -9.326 0.404 -8.795 QT
0.068 -8.264 -0.088 -7.608 QT
-0.119 -7.529 -0.197 -7.529 QT
-0.354 -7.529 L
-0.463 -7.529 -0.463 -7.654 QT
-0.463 -7.686 L
-0.244 -8.467 0.185 -9.069 QT
0.615 -9.67 1.271 -9.67 QT
1.74 -9.67 2.06 -9.365 QT
2.381 -9.061 2.381 -8.592 QT
2.381 -8.342 2.271 -8.076 QT
2.209 -7.92 2.006 -7.389 QT
1.803 -6.858 1.701 -6.506 QT
1.599 -6.154 1.529 -5.819 QT
1.459 -5.483 1.459 -5.139 QT
1.459 -4.717 1.639 -4.42 QT
1.818 -4.123 2.24 -4.123 QT
3.068 -4.123 3.693 -5.139 QT
3.709 -5.201 3.717 -5.248 QT
3.724 -5.295 3.724 -5.342 QT
4.662 -9.108 L
4.709 -9.279 4.865 -9.404 QT
5.021 -9.529 5.209 -9.529 QT
5.365 -9.529 5.482 -9.428 QT
5.599 -9.326 5.599 -9.154 QT
5.599 -9.076 5.599 -9.061 QT
4.646 -5.311 L
4.568 -4.92 4.568 -4.67 QT
4.568 -4.123 4.943 -4.123 QT
5.349 -4.123 5.56 -4.639 QT
5.771 -5.154 5.912 -5.826 QT
5.943 -5.904 6.021 -5.904 QT
6.178 -5.904 L
6.224 -5.904 6.256 -5.858 QT
6.287 -5.811 6.287 -5.779 QT
6.146 -5.217 6.021 -4.819 QT
5.896 -4.42 5.615 -4.1 QT
5.334 -3.779 4.912 -3.779 QT
4.506 -3.779 4.178 -4.006 QT
3.849 -4.233 3.724 -4.608 QT
3.428 -4.233 3.037 -4.006 QT
2.646 -3.779 2.209 -3.779 QT
1.459 -3.779 1.014 -4.186 QT
0.568 -4.592 0.568 -5.342 QT
cp
f
GR
GS
[0 -0.75 0.75 0 17 136.9999] CT
0.149 GC
N
8.205 -5.467 M
8.205 -4.904 8.486 -4.514 QT
8.767 -4.123 9.314 -4.123 QT
10.095 -4.123 10.806 -4.475 QT
11.517 -4.826 11.97 -5.451 QT
12.001 -5.498 12.064 -5.498 QT
12.126 -5.498 12.197 -5.42 QT
12.267 -5.342 12.267 -5.279 QT
12.267 -5.233 12.236 -5.201 QT
11.767 -4.545 10.962 -4.162 QT
10.158 -3.779 9.283 -3.779 QT
8.673 -3.779 8.197 -4.069 QT
7.72 -4.358 7.455 -4.858 QT
7.189 -5.358 7.189 -5.983 QT
7.189 -6.858 7.681 -7.717 QT
8.173 -8.576 8.986 -9.123 QT
9.798 -9.67 10.689 -9.67 QT
11.283 -9.67 11.744 -9.389 QT
12.205 -9.108 12.205 -8.545 QT
12.205 -8.186 12.001 -7.936 QT
11.798 -7.686 11.455 -7.686 QT
11.236 -7.686 11.095 -7.819 QT
10.955 -7.951 10.955 -8.154 QT
10.955 -8.467 11.173 -8.686 QT
11.392 -8.904 11.689 -8.904 QT
11.72 -8.904 L
11.564 -9.123 11.275 -9.225 QT
10.986 -9.326 10.673 -9.326 QT
9.923 -9.326 9.345 -8.678 QT
8.767 -8.029 8.486 -7.123 QT
8.205 -6.217 8.205 -5.467 QT
cp
f
GR
GS
[0 -0.75 0.75 0 17 136.9999] CT
0.149 GC
N
13.859 -5.467 M
13.859 -4.904 14.141 -4.514 QT
14.422 -4.123 14.969 -4.123 QT
15.75 -4.123 16.461 -4.475 QT
17.172 -4.826 17.625 -5.451 QT
17.656 -5.498 17.719 -5.498 QT
17.781 -5.498 17.851 -5.42 QT
17.922 -5.342 17.922 -5.279 QT
17.922 -5.233 17.891 -5.201 QT
17.422 -4.545 16.617 -4.162 QT
15.812 -3.779 14.937 -3.779 QT
14.328 -3.779 13.851 -4.069 QT
13.375 -4.358 13.109 -4.858 QT
12.844 -5.358 12.844 -5.983 QT
12.844 -6.858 13.336 -7.717 QT
13.828 -8.576 14.641 -9.123 QT
15.453 -9.67 16.344 -9.67 QT
16.937 -9.67 17.398 -9.389 QT
17.859 -9.108 17.859 -8.545 QT
17.859 -8.186 17.656 -7.936 QT
17.453 -7.686 17.109 -7.686 QT
16.891 -7.686 16.75 -7.819 QT
16.609 -7.951 16.609 -8.154 QT
16.609 -8.467 16.828 -8.686 QT
17.047 -8.904 17.344 -8.904 QT
17.375 -8.904 L
17.219 -9.123 16.93 -9.225 QT
16.641 -9.326 16.328 -9.326 QT
15.578 -9.326 15 -8.678 QT
14.422 -8.029 14.141 -7.123 QT
13.859 -6.217 13.859 -5.467 QT
cp
f
GR
GS
[0.75 0 0 0.75 0 0.5] CT
0 0.447 0.741 RC
1 LJ
2 LW
N
63 42.5 M
78.5 42.5 L
94 42.5 L
109.5 42.5 L
125 42.5 L
140.5 42.5 L
156 42.5 L
171.5 42.5 L
187 42.5 L
202.5 42.5 L
218 42.5 L
233.5 42.5 L
249 42.5 L
264.5 42.5 L
280 75.372 L
295.5 104.29 L
311 129.405 L
326.5 150.954 L
342 169.235 L
S
GR
GS
[0.75 0 0 0.75 0 0.5] CT
0.851 0.325 0.098 RC
[8 8] 0 setdash
2 LJ
2 LW
N
63 42.5 M
78.5 42.5 L
94 42.5 L
109.5 42.5 L
125 42.5 L
140.5 42.5 L
156 42.5 L
171.5 42.5 L
187 42.5 L
202.5 93.969 L
218 142.17 L
233.5 186.805 L
249 227.637 L
264.5 264.515 L
280 297.387 L
292.943 321.533 L
S
GR
GS
[0.75 0 0 0.75 0 0.5] CT
0.929 0.694 0.125 RC
1 LJ
2 LW
N
63 42.5 M
78.5 42.5 L
94 42.5 L
109.5 42.5 L
125 105.202 L
140.5 166.307 L
156 225.512 L
171.5 282.489 L
182.625 321.533 L
S
GR
GS
[0.75 0 0 0.75 47.25 32.375] CT
0.929 0.694 0.125 RC
10.0 ML
2 LW
N
-4 0 M
0 5.32 L
4 0 L
0 -5.32 L
cp
S
GR
GS
[0.75 0 0 0.75 58.875 32.375] CT
0.929 0.694 0.125 RC
10.0 ML
2 LW
N
-4 0 M
0 5.32 L
4 0 L
0 -5.32 L
cp
S
GR
GS
[0.75 0 0 0.75 70.5 32.375] CT
0.929 0.694 0.125 RC
10.0 ML
2 LW
N
-4 0 M
0 5.32 L
4 0 L
0 -5.32 L
cp
S
GR
GS
[0.75 0 0 0.75 82.125 32.375] CT
0.929 0.694 0.125 RC
10.0 ML
2 LW
N
-4 0 M
0 5.32 L
4 0 L
0 -5.32 L
cp
S
GR
GS
[0.75 0 0 0.75 93.75 79.40171] CT
0.929 0.694 0.125 RC
10.0 ML
2 LW
N
-4 0 M
0 5.32 L
4 0 L
0 -5.32 L
cp
S
GR
GS
[0.75 0 0 0.75 105.375 125.23003] CT
0.929 0.694 0.125 RC
10.0 ML
2 LW
N
-4 0 M
0 5.32 L
4 0 L
0 -5.32 L
cp
S
GR
GS
[0.75 0 0 0.75 117 169.63408] CT
0.929 0.694 0.125 RC
10.0 ML
2 LW
N
-4 0 M
0 5.32 L
4 0 L
0 -5.32 L
cp
S
GR
GS
[0.75 0 0 0.75 128.625 212.36655] CT
0.929 0.694 0.125 RC
10.0 ML
2 LW
N
-4 0 M
0 5.32 L
4 0 L
0 -5.32 L
cp
S
GR
GS
[0.75 0 0 0.75 0 0.5] CT
1 GC
N
213 314 M
213 251 L
73 251 L
73 314 L
cp
f
GR
GS
[0.75 0 0 0.75 89.99796 197.5056] CT
N
3 4.027 M
2.281 4.027 1.734 3.684 QT
1.188 3.34 0.883 2.762 QT
0.578 2.184 0.578 1.481 QT
0.578 0.746 0.914 -0.074 QT
1.25 -0.894 1.836 -1.574 QT
2.422 -2.254 3.156 -2.66 QT
3.891 -3.066 4.656 -3.066 QT
8.688 -3.066 L
8.859 -3.066 8.977 -2.957 QT
9.094 -2.848 9.094 -2.66 QT
9.094 -2.426 8.922 -2.246 QT
8.75 -2.066 8.516 -2.066 QT
6.563 -2.066 L
7.031 -1.379 7.031 -0.41 QT
7.031 0.402 6.719 1.184 QT
6.406 1.965 5.852 2.606 QT
5.297 3.246 4.555 3.637 QT
3.813 4.027 3 4.027 QT
cp
3.016 3.59 M
3.891 3.59 4.563 2.91 QT
5.234 2.231 5.594 1.238 QT
5.953 0.246 5.953 -0.598 QT
5.953 -1.285 5.578 -1.676 QT
5.203 -2.066 4.516 -2.066 QT
3.594 -2.066 2.938 -1.441 QT
2.281 -0.816 1.961 0.129 QT
1.641 1.074 1.641 1.949 QT
1.641 2.637 2 3.113 QT
2.359 3.59 3.016 3.59 QT
cp
f
GR
GS
[0.75 0 0 0.75 89.99796 197.5056] CT
N
10.264 -1.966 M
10.264 -2.263 L
10.264 -2.294 10.279 -2.326 QT
11.998 -4.216 L
12.389 -4.638 12.623 -4.919 QT
12.857 -5.201 13.099 -5.568 QT
13.342 -5.935 13.474 -6.326 QT
13.607 -6.716 13.607 -7.138 QT
13.607 -7.591 13.443 -8.005 QT
13.279 -8.419 12.951 -8.662 QT
12.623 -8.904 12.154 -8.904 QT
11.67 -8.904 11.287 -8.615 QT
10.904 -8.326 10.748 -7.873 QT
10.795 -7.888 10.873 -7.888 QT
11.123 -7.888 11.295 -7.724 QT
11.467 -7.56 11.467 -7.294 QT
11.467 -7.044 11.295 -6.865 QT
11.123 -6.685 10.873 -6.685 QT
10.607 -6.685 10.435 -6.865 QT
10.264 -7.044 10.264 -7.294 QT
10.264 -7.701 10.42 -8.068 QT
10.576 -8.435 10.865 -8.716 QT
11.154 -8.998 11.529 -9.146 QT
11.904 -9.294 12.31 -9.294 QT
12.935 -9.294 13.482 -9.029 QT
14.029 -8.763 14.342 -8.279 QT
14.654 -7.794 14.654 -7.138 QT
14.654 -6.654 14.443 -6.224 QT
14.232 -5.794 13.912 -5.443 QT
13.592 -5.091 13.076 -4.646 QT
12.56 -4.201 12.404 -4.06 QT
11.154 -2.857 L
12.217 -2.857 L
12.998 -2.857 13.521 -2.873 QT
14.045 -2.888 14.076 -2.919 QT
14.201 -3.044 14.342 -3.919 QT
14.654 -3.919 L
14.342 -1.966 L
10.264 -1.966 L
cp
f
GR
GS
[0.75 0 0 0.75 89.99796 197.5056] CT
N
10.33 6.514 M
10.33 6.28 10.393 5.983 QT
10.455 5.686 10.533 5.452 QT
10.611 5.217 10.791 4.733 QT
10.971 4.249 10.986 4.202 QT
11.127 3.811 11.127 3.545 QT
11.127 3.217 10.877 3.217 QT
10.455 3.217 10.166 3.67 QT
9.877 4.124 9.752 4.67 QT
9.721 4.733 9.658 4.733 QT
9.533 4.733 L
9.439 4.733 9.439 4.639 QT
9.439 4.608 L
9.611 3.952 9.979 3.444 QT
10.346 2.936 10.908 2.936 QT
11.299 2.936 11.572 3.194 QT
11.846 3.452 11.846 3.842 QT
11.846 4.045 11.752 4.28 QT
11.611 4.608 11.439 5.077 QT
11.268 5.545 11.174 5.928 QT
11.08 6.311 11.08 6.655 QT
11.08 7.092 11.307 7.358 QT
11.533 7.624 11.955 7.624 QT
12.549 7.624 12.924 6.733 QT
12.908 6.67 12.908 6.561 QT
12.908 6.264 13.002 5.889 QT
13.627 3.405 L
13.658 3.264 13.791 3.155 QT
13.924 3.045 14.08 3.045 QT
14.221 3.045 14.314 3.131 QT
14.408 3.217 14.408 3.358 QT
14.408 3.436 14.408 3.452 QT
13.783 5.905 L
13.674 6.342 13.674 6.702 QT
13.674 7.108 13.869 7.366 QT
14.064 7.624 14.471 7.624 QT
15.174 7.624 15.627 6.702 QT
15.799 6.358 16.01 5.709 QT
16.221 5.061 16.221 4.717 QT
16.221 4.405 16.119 4.217 QT
16.018 4.03 15.838 3.819 QT
15.658 3.608 15.658 3.499 QT
15.658 3.28 15.838 3.1 QT
16.018 2.92 16.236 2.92 QT
16.502 2.92 16.619 3.163 QT
16.736 3.405 16.736 3.717 QT
16.736 4.077 16.611 4.655 QT
16.486 5.233 16.299 5.811 QT
16.111 6.389 15.939 6.733 QT
15.346 7.92 14.439 7.92 QT
13.986 7.92 13.604 7.741 QT
13.221 7.561 13.033 7.17 QT
12.861 7.499 12.572 7.709 QT
12.283 7.92 11.939 7.92 QT
11.205 7.92 10.768 7.577 QT
10.33 7.233 10.33 6.514 QT
cp
f
GR
GS
[0.75 0 0 0.75 89.99796 197.5056] CT
N
17.567 9.475 M
17.489 9.475 17.489 9.366 QT
17.489 9.35 17.497 9.304 QT
17.505 9.257 17.528 9.225 QT
17.551 9.194 17.583 9.194 QT
17.817 9.194 17.981 9.179 QT
18.145 9.163 18.27 9.132 QT
18.364 9.1 18.426 8.929 QT
19.52 4.522 L
19.536 4.444 19.536 4.413 QT
19.536 4.335 19.442 4.319 QT
19.286 4.288 18.864 4.288 QT
18.786 4.288 18.786 4.179 QT
18.786 4.163 18.794 4.116 QT
18.801 4.069 18.825 4.038 QT
18.848 4.007 18.88 4.007 QT
21.755 4.007 L
22.005 4.007 22.262 4.069 QT
22.52 4.132 22.739 4.272 QT
22.958 4.413 23.083 4.624 QT
23.208 4.835 23.208 5.116 QT
23.208 5.413 23.051 5.671 QT
22.895 5.929 22.653 6.124 QT
22.411 6.319 22.13 6.436 QT
21.848 6.554 21.536 6.616 QT
21.755 6.616 21.981 6.702 QT
22.208 6.788 22.38 6.936 QT
22.551 7.085 22.661 7.296 QT
22.77 7.507 22.77 7.741 QT
22.77 8.225 22.434 8.624 QT
22.098 9.022 21.591 9.249 QT
21.083 9.475 20.598 9.475 QT
17.567 9.475 L
cp
19.036 9.132 M
19.036 9.194 19.301 9.194 QT
20.458 9.194 L
20.848 9.194 21.208 8.975 QT
21.567 8.757 21.778 8.397 QT
21.989 8.038 21.989 7.647 QT
21.989 7.413 21.895 7.202 QT
21.801 6.991 21.614 6.866 QT
21.426 6.741 21.176 6.741 QT
19.614 6.741 L
19.067 8.96 L
19.036 9.069 19.036 9.132 QT
cp
19.676 6.522 M
20.895 6.522 L
21.27 6.522 21.63 6.327 QT
21.989 6.132 22.223 5.796 QT
22.458 5.46 22.458 5.085 QT
22.458 4.741 22.239 4.514 QT
22.02 4.288 21.676 4.288 QT
20.583 4.288 L
20.364 4.288 20.286 4.327 QT
20.208 4.366 20.161 4.569 QT
19.676 6.522 L
cp
f
GR
GS
[0.75 0 0 0.75 89.99796 197.5056] CT
N
30.878 1.715 M
30.753 1.715 30.667 1.613 QT
30.581 1.512 30.581 1.387 QT
30.581 1.262 30.667 1.168 QT
30.753 1.074 30.878 1.074 QT
40.925 1.074 L
41.05 1.074 41.136 1.168 QT
41.222 1.262 41.222 1.387 QT
41.222 1.512 41.136 1.613 QT
41.05 1.715 40.925 1.715 QT
30.878 1.715 L
cp
30.878 -1.394 M
30.753 -1.394 30.667 -1.488 QT
30.581 -1.582 30.581 -1.723 QT
30.581 -1.832 30.667 -1.933 QT
30.753 -2.035 30.878 -2.035 QT
40.925 -2.035 L
41.05 -2.035 41.136 -1.933 QT
41.222 -1.832 41.222 -1.723 QT
41.222 -1.582 41.136 -1.488 QT
41.05 -1.394 40.925 -1.394 QT
30.878 -1.394 L
cp
f
GR
GS
[0.75 0 0 0.75 89.99796 197.5056] CT
N
46.119 4.199 M
44.166 4.199 43.455 2.582 QT
42.744 0.965 42.744 -1.269 QT
42.744 -2.66 43.002 -3.887 QT
43.26 -5.113 44.01 -5.965 QT
44.76 -6.816 46.119 -6.816 QT
47.182 -6.816 47.853 -6.301 QT
48.525 -5.785 48.877 -4.973 QT
49.228 -4.16 49.353 -3.223 QT
49.478 -2.285 49.478 -1.269 QT
49.478 0.106 49.228 1.309 QT
48.978 2.512 48.236 3.356 QT
47.494 4.199 46.119 4.199 QT
cp
46.119 3.777 M
47.01 3.777 47.447 2.863 QT
47.885 1.949 47.986 0.84 QT
48.088 -0.269 48.088 -1.519 QT
48.088 -2.723 47.986 -3.738 QT
47.885 -4.754 47.455 -5.582 QT
47.025 -6.41 46.119 -6.41 QT
45.213 -6.41 44.775 -5.582 QT
44.338 -4.754 44.236 -3.738 QT
44.135 -2.723 44.135 -1.519 QT
44.135 -0.629 44.182 0.16 QT
44.228 0.949 44.416 1.785 QT
44.603 2.621 45.018 3.199 QT
45.432 3.777 46.119 3.777 QT
cp
f
GR
GS
[0.75 0 0 0.75 89.99796 197.5056] CT
N
59.359 4.027 M
58.421 4.027 57.64 3.512 QT
56.859 2.996 56.421 2.16 QT
55.984 1.324 55.984 0.387 QT
55.984 -0.582 56.46 -1.418 QT
56.937 -2.254 57.749 -2.746 QT
58.562 -3.238 59.531 -3.238 QT
60.124 -3.238 60.648 -2.988 QT
61.171 -2.738 61.546 -2.301 QT
61.546 -5.629 L
61.546 -6.066 61.421 -6.254 QT
61.296 -6.441 61.054 -6.488 QT
60.812 -6.535 60.312 -6.535 QT
60.312 -7.098 L
62.671 -7.269 L
62.671 2.387 L
62.671 2.809 62.804 2.996 QT
62.937 3.184 63.171 3.231 QT
63.406 3.277 63.921 3.277 QT
63.921 3.84 L
61.499 4.027 L
61.499 3.012 L
61.093 3.481 60.523 3.754 QT
59.952 4.027 59.359 4.027 QT
cp
57.734 2.449 M
57.999 2.965 58.46 3.277 QT
58.921 3.59 59.452 3.59 QT
60.124 3.59 60.679 3.207 QT
61.234 2.824 61.499 2.215 QT
61.499 -1.613 L
61.312 -1.973 61.031 -2.246 QT
60.749 -2.519 60.39 -2.668 QT
60.031 -2.816 59.64 -2.816 QT
58.796 -2.816 58.288 -2.348 QT
57.781 -1.879 57.577 -1.144 QT
57.374 -0.41 57.374 0.402 QT
57.374 1.043 57.445 1.52 QT
57.515 1.996 57.734 2.449 QT
cp
f
GR
GS
[0.75 0 0 0.75 89.99796 197.5056] CT
N
64.888 3.84 M
64.888 3.277 L
66.545 3.277 66.545 2.762 QT
66.545 -6.019 L
66.545 -6.535 64.888 -6.535 QT
64.888 -7.098 L
70.779 -7.098 L
71.591 -7.098 72.42 -6.777 QT
73.248 -6.457 73.787 -5.84 QT
74.326 -5.223 74.326 -4.379 QT
74.326 -3.394 73.529 -2.738 QT
72.732 -2.082 71.654 -1.879 QT
72.357 -1.879 73.091 -1.496 QT
73.826 -1.113 74.295 -0.473 QT
74.763 0.168 74.763 0.887 QT
74.763 1.762 74.24 2.434 QT
73.716 3.106 72.888 3.473 QT
72.06 3.84 71.232 3.84 QT
64.888 3.84 L
cp
67.935 2.762 M
67.935 3.106 68.13 3.192 QT
68.326 3.277 68.748 3.277 QT
70.779 3.277 L
71.404 3.277 71.935 2.949 QT
72.466 2.621 72.779 2.067 QT
73.091 1.512 73.091 0.887 QT
73.091 0.277 72.834 -0.301 QT
72.576 -0.879 72.099 -1.254 QT
71.623 -1.629 70.998 -1.629 QT
67.935 -1.629 L
67.935 2.762 L
cp
67.935 -2.051 M
70.326 -2.051 L
70.81 -2.051 71.24 -2.23 QT
71.67 -2.41 72.005 -2.738 QT
72.341 -3.066 72.529 -3.488 QT
72.716 -3.91 72.716 -4.379 QT
72.716 -4.785 72.576 -5.168 QT
72.435 -5.551 72.17 -5.863 QT
71.904 -6.176 71.545 -6.355 QT
71.185 -6.535 70.779 -6.535 QT
68.748 -6.535 L
68.451 -6.535 68.295 -6.512 QT
68.138 -6.488 68.037 -6.371 QT
67.935 -6.254 67.935 -6.019 QT
67.935 -2.051 L
cp
f
GR
GS
[0.75 0 0 0.75 0 0.5] CT
0 0.447 0.741 RC
1 LJ
2 LW
N
77 262.674 M
116.997 262.674 L
S
GR
GS
[0.75 0 0 0.75 89.99796 212.375] CT
N
/f-1610747416{3 4.027 M
2.281 4.027 1.734 3.684 QT
1.188 3.34 0.883 2.762 QT
0.578 2.184 0.578 1.481 QT
0.578 0.746 0.914 -0.074 QT
1.25 -0.894 1.836 -1.574 QT
2.422 -2.254 3.156 -2.66 QT
3.891 -3.066 4.656 -3.066 QT
8.688 -3.066 L
8.859 -3.066 8.977 -2.957 QT
9.094 -2.848 9.094 -2.66 QT
9.094 -2.426 8.922 -2.246 QT
8.75 -2.066 8.516 -2.066 QT
6.563 -2.066 L
7.031 -1.379 7.031 -0.41 QT
7.031 0.402 6.719 1.184 QT
6.406 1.965 5.852 2.606 QT
5.297 3.246 4.555 3.637 QT
3.813 4.027 3 4.027 QT
cp
3.016 3.59 M
3.891 3.59 4.563 2.91 QT
5.234 2.231 5.594 1.238 QT
5.953 0.246 5.953 -0.598 QT
5.953 -1.285 5.578 -1.676 QT
5.203 -2.066 4.516 -2.066 QT
3.594 -2.066 2.938 -1.441 QT
2.281 -0.816 1.961 0.129 QT
1.641 1.074 1.641 1.949 QT
1.641 2.637 2 3.113 QT
2.359 3.59 3.016 3.59 QT
cp}def
f-1610747416
f
GR
GS
[0.75 0 0 0.75 89.99796 212.375] CT
N
/f766163535{10.264 -1.966 M
10.264 -2.263 L
10.264 -2.294 10.279 -2.326 QT
11.998 -4.216 L
12.389 -4.638 12.623 -4.919 QT
12.857 -5.201 13.099 -5.568 QT
13.342 -5.935 13.474 -6.326 QT
13.607 -6.716 13.607 -7.138 QT
13.607 -7.591 13.443 -8.005 QT
13.279 -8.419 12.951 -8.662 QT
12.623 -8.904 12.154 -8.904 QT
11.67 -8.904 11.287 -8.615 QT
10.904 -8.326 10.748 -7.873 QT
10.795 -7.888 10.873 -7.888 QT
11.123 -7.888 11.295 -7.724 QT
11.467 -7.56 11.467 -7.294 QT
11.467 -7.044 11.295 -6.865 QT
11.123 -6.685 10.873 -6.685 QT
10.607 -6.685 10.435 -6.865 QT
10.264 -7.044 10.264 -7.294 QT
10.264 -7.701 10.42 -8.068 QT
10.576 -8.435 10.865 -8.716 QT
11.154 -8.998 11.529 -9.146 QT
11.904 -9.294 12.31 -9.294 QT
12.935 -9.294 13.482 -9.029 QT
14.029 -8.763 14.342 -8.279 QT
14.654 -7.794 14.654 -7.138 QT
14.654 -6.654 14.443 -6.224 QT
14.232 -5.794 13.912 -5.443 QT
13.592 -5.091 13.076 -4.646 QT
12.56 -4.201 12.404 -4.06 QT
11.154 -2.857 L
12.217 -2.857 L
12.998 -2.857 13.521 -2.873 QT
14.045 -2.888 14.076 -2.919 QT
14.201 -3.044 14.342 -3.919 QT
14.654 -3.919 L
14.342 -1.966 L
10.264 -1.966 L
cp}def
f766163535
f
GR
GS
[0.75 0 0 0.75 89.99796 212.375] CT
N
/f94862946{10.33 6.514 M
10.33 6.28 10.393 5.983 QT
10.455 5.686 10.533 5.452 QT
10.611 5.217 10.791 4.733 QT
10.971 4.249 10.986 4.202 QT
11.127 3.811 11.127 3.545 QT
11.127 3.217 10.877 3.217 QT
10.455 3.217 10.166 3.67 QT
9.877 4.124 9.752 4.67 QT
9.721 4.733 9.658 4.733 QT
9.533 4.733 L
9.439 4.733 9.439 4.639 QT
9.439 4.608 L
9.611 3.952 9.979 3.444 QT
10.346 2.936 10.908 2.936 QT
11.299 2.936 11.572 3.194 QT
11.846 3.452 11.846 3.842 QT
11.846 4.045 11.752 4.28 QT
11.611 4.608 11.439 5.077 QT
11.268 5.545 11.174 5.928 QT
11.08 6.311 11.08 6.655 QT
11.08 7.092 11.307 7.358 QT
11.533 7.624 11.955 7.624 QT
12.549 7.624 12.924 6.733 QT
12.908 6.67 12.908 6.561 QT
12.908 6.264 13.002 5.889 QT
13.627 3.405 L
13.658 3.264 13.791 3.155 QT
13.924 3.045 14.08 3.045 QT
14.221 3.045 14.314 3.131 QT
14.408 3.217 14.408 3.358 QT
14.408 3.436 14.408 3.452 QT
13.783 5.905 L
13.674 6.342 13.674 6.702 QT
13.674 7.108 13.869 7.366 QT
14.064 7.624 14.471 7.624 QT
15.174 7.624 15.627 6.702 QT
15.799 6.358 16.01 5.709 QT
16.221 5.061 16.221 4.717 QT
16.221 4.405 16.119 4.217 QT
16.018 4.03 15.838 3.819 QT
15.658 3.608 15.658 3.499 QT
15.658 3.28 15.838 3.1 QT
16.018 2.92 16.236 2.92 QT
16.502 2.92 16.619 3.163 QT
16.736 3.405 16.736 3.717 QT
16.736 4.077 16.611 4.655 QT
16.486 5.233 16.299 5.811 QT
16.111 6.389 15.939 6.733 QT
15.346 7.92 14.439 7.92 QT
13.986 7.92 13.604 7.741 QT
13.221 7.561 13.033 7.17 QT
12.861 7.499 12.572 7.709 QT
12.283 7.92 11.939 7.92 QT
11.205 7.92 10.768 7.577 QT
10.33 7.233 10.33 6.514 QT
cp}def
f94862946
f
GR
GS
[0.75 0 0 0.75 89.99796 212.375] CT
N
/f1996904053{17.567 9.475 M
17.489 9.475 17.489 9.366 QT
17.489 9.35 17.497 9.304 QT
17.505 9.257 17.528 9.225 QT
17.551 9.194 17.583 9.194 QT
17.817 9.194 17.981 9.179 QT
18.145 9.163 18.27 9.132 QT
18.364 9.1 18.426 8.929 QT
19.52 4.522 L
19.536 4.444 19.536 4.413 QT
19.536 4.335 19.442 4.319 QT
19.286 4.288 18.864 4.288 QT
18.786 4.288 18.786 4.179 QT
18.786 4.163 18.794 4.116 QT
18.801 4.069 18.825 4.038 QT
18.848 4.007 18.88 4.007 QT
21.755 4.007 L
22.005 4.007 22.262 4.069 QT
22.52 4.132 22.739 4.272 QT
22.958 4.413 23.083 4.624 QT
23.208 4.835 23.208 5.116 QT
23.208 5.413 23.051 5.671 QT
22.895 5.929 22.653 6.124 QT
22.411 6.319 22.13 6.436 QT
21.848 6.554 21.536 6.616 QT
21.755 6.616 21.981 6.702 QT
22.208 6.788 22.38 6.936 QT
22.551 7.085 22.661 7.296 QT
22.77 7.507 22.77 7.741 QT
22.77 8.225 22.434 8.624 QT
22.098 9.022 21.591 9.249 QT
21.083 9.475 20.598 9.475 QT
17.567 9.475 L
cp
19.036 9.132 M
19.036 9.194 19.301 9.194 QT
20.458 9.194 L
20.848 9.194 21.208 8.975 QT
21.567 8.757 21.778 8.397 QT
21.989 8.038 21.989 7.647 QT
21.989 7.413 21.895 7.202 QT
21.801 6.991 21.614 6.866 QT
21.426 6.741 21.176 6.741 QT
19.614 6.741 L
19.067 8.96 L
19.036 9.069 19.036 9.132 QT
cp
19.676 6.522 M
20.895 6.522 L
21.27 6.522 21.63 6.327 QT
21.989 6.132 22.223 5.796 QT
22.458 5.46 22.458 5.085 QT
22.458 4.741 22.239 4.514 QT
22.02 4.288 21.676 4.288 QT
20.583 4.288 L
20.364 4.288 20.286 4.327 QT
20.208 4.366 20.161 4.569 QT
19.676 6.522 L
cp}def
f1996904053
f
GR
GS
[0.75 0 0 0.75 89.99796 212.375] CT
N
/f-1784479988{30.878 1.715 M
30.753 1.715 30.667 1.613 QT
30.581 1.512 30.581 1.387 QT
30.581 1.262 30.667 1.168 QT
30.753 1.074 30.878 1.074 QT
40.925 1.074 L
41.05 1.074 41.136 1.168 QT
41.222 1.262 41.222 1.387 QT
41.222 1.512 41.136 1.613 QT
41.05 1.715 40.925 1.715 QT
30.878 1.715 L
cp
30.878 -1.394 M
30.753 -1.394 30.667 -1.488 QT
30.581 -1.582 30.581 -1.723 QT
30.581 -1.832 30.667 -1.933 QT
30.753 -2.035 30.878 -2.035 QT
40.925 -2.035 L
41.05 -2.035 41.136 -1.933 QT
41.222 -1.832 41.222 -1.723 QT
41.222 -1.582 41.136 -1.488 QT
41.05 -1.394 40.925 -1.394 QT
30.878 -1.394 L
cp}def
f-1784479988
f
GR
GS
[0.75 0 0 0.75 89.99796 212.375] CT
N
/f1173778276{42.307 0.871 M
42.307 -0.113 L
46.541 -0.113 L
46.541 0.871 L
42.307 0.871 L
cp}def
f1173778276
f
GR
GS
[0.75 0 0 0.75 89.99796 212.375] CT
N
/f-1227292472{48.843 2.012 M
49.015 2.481 49.351 2.863 QT
49.687 3.246 50.156 3.465 QT
50.624 3.684 51.124 3.684 QT
52.281 3.684 52.718 2.785 QT
53.156 1.887 53.156 0.606 QT
53.156 0.043 53.132 -0.332 QT
53.109 -0.707 53.031 -1.066 QT
52.874 -1.629 52.507 -2.051 QT
52.14 -2.473 51.593 -2.473 QT
51.062 -2.473 50.671 -2.308 QT
50.281 -2.144 50.038 -1.926 QT
49.796 -1.707 49.609 -1.465 QT
49.421 -1.223 49.374 -1.207 QT
49.202 -1.207 L
49.156 -1.207 49.101 -1.254 QT
49.046 -1.301 49.046 -1.348 QT
49.046 -6.691 L
49.046 -6.738 49.093 -6.777 QT
49.14 -6.816 49.202 -6.816 QT
49.249 -6.816 L
50.327 -6.301 51.531 -6.301 QT
52.718 -6.301 53.827 -6.816 QT
53.874 -6.816 L
53.921 -6.816 53.968 -6.777 QT
54.015 -6.738 54.015 -6.691 QT
54.015 -6.551 L
54.015 -6.473 53.984 -6.473 QT
53.437 -5.738 52.617 -5.332 QT
51.796 -4.926 50.906 -4.926 QT
50.265 -4.926 49.593 -5.113 QT
49.593 -2.082 L
50.124 -2.519 50.546 -2.699 QT
50.968 -2.879 51.609 -2.879 QT
52.499 -2.879 53.195 -2.371 QT
53.89 -1.863 54.265 -1.051 QT
54.64 -0.238 54.64 0.621 QT
54.64 1.574 54.171 2.395 QT
53.702 3.215 52.89 3.707 QT
52.077 4.199 51.124 4.199 QT
50.327 4.199 49.671 3.785 QT
49.015 3.371 48.632 2.684 QT
48.249 1.996 48.249 1.231 QT
48.249 0.871 48.484 0.645 QT
48.718 0.418 49.077 0.418 QT
49.421 0.418 49.663 0.645 QT
49.906 0.871 49.906 1.231 QT
49.906 1.574 49.663 1.809 QT
49.421 2.043 49.077 2.043 QT
49.015 2.043 48.945 2.035 QT
48.874 2.027 48.843 2.012 QT
cp}def
f-1227292472
f
GR
GS
[0.75 0 0 0.75 89.99796 212.375] CT
N
/f465917453{64.692 4.027 M
63.755 4.027 62.973 3.512 QT
62.192 2.996 61.755 2.16 QT
61.317 1.324 61.317 0.387 QT
61.317 -0.582 61.794 -1.418 QT
62.27 -2.254 63.083 -2.746 QT
63.895 -3.238 64.864 -3.238 QT
65.458 -3.238 65.981 -2.988 QT
66.505 -2.738 66.88 -2.301 QT
66.88 -5.629 L
66.88 -6.066 66.755 -6.254 QT
66.63 -6.441 66.387 -6.488 QT
66.145 -6.535 65.645 -6.535 QT
65.645 -7.098 L
68.005 -7.269 L
68.005 2.387 L
68.005 2.809 68.137 2.996 QT
68.27 3.184 68.505 3.231 QT
68.739 3.277 69.255 3.277 QT
69.255 3.84 L
66.833 4.027 L
66.833 3.012 L
66.426 3.481 65.856 3.754 QT
65.286 4.027 64.692 4.027 QT
cp
63.067 2.449 M
63.333 2.965 63.794 3.277 QT
64.255 3.59 64.786 3.59 QT
65.458 3.59 66.012 3.207 QT
66.567 2.824 66.833 2.215 QT
66.833 -1.613 L
66.645 -1.973 66.364 -2.246 QT
66.083 -2.519 65.723 -2.668 QT
65.364 -2.816 64.973 -2.816 QT
64.13 -2.816 63.622 -2.348 QT
63.114 -1.879 62.911 -1.144 QT
62.708 -0.41 62.708 0.402 QT
62.708 1.043 62.778 1.52 QT
62.848 1.996 63.067 2.449 QT
cp}def
f465917453
f
GR
GS
[0.75 0 0 0.75 89.99796 212.375] CT
N
/f1071057157{70.222 3.84 M
70.222 3.277 L
71.878 3.277 71.878 2.762 QT
71.878 -6.019 L
71.878 -6.535 70.222 -6.535 QT
70.222 -7.098 L
76.112 -7.098 L
76.925 -7.098 77.753 -6.777 QT
78.581 -6.457 79.12 -5.84 QT
79.659 -5.223 79.659 -4.379 QT
79.659 -3.394 78.862 -2.738 QT
78.065 -2.082 76.987 -1.879 QT
77.69 -1.879 78.425 -1.496 QT
79.159 -1.113 79.628 -0.473 QT
80.097 0.168 80.097 0.887 QT
80.097 1.762 79.573 2.434 QT
79.05 3.106 78.222 3.473 QT
77.393 3.84 76.565 3.84 QT
70.222 3.84 L
cp
73.268 2.762 M
73.268 3.106 73.464 3.192 QT
73.659 3.277 74.081 3.277 QT
76.112 3.277 L
76.737 3.277 77.268 2.949 QT
77.8 2.621 78.112 2.067 QT
78.425 1.512 78.425 0.887 QT
78.425 0.277 78.167 -0.301 QT
77.909 -0.879 77.433 -1.254 QT
76.956 -1.629 76.331 -1.629 QT
73.268 -1.629 L
73.268 2.762 L
cp
73.268 -2.051 M
75.659 -2.051 L
76.143 -2.051 76.573 -2.23 QT
77.003 -2.41 77.339 -2.738 QT
77.675 -3.066 77.862 -3.488 QT
78.05 -3.91 78.05 -4.379 QT
78.05 -4.785 77.909 -5.168 QT
77.768 -5.551 77.503 -5.863 QT
77.237 -6.176 76.878 -6.355 QT
76.518 -6.535 76.112 -6.535 QT
74.081 -6.535 L
73.784 -6.535 73.628 -6.512 QT
73.472 -6.488 73.37 -6.371 QT
73.268 -6.254 73.268 -6.019 QT
73.268 -2.051 L
cp}def
f1071057157
f
GR
GS
[0.75 0 0 0.75 0 0.5] CT
0.851 0.325 0.098 RC
[8 8] 0 setdash
2 LJ
2 LW
N
77 282.5 M
116.997 282.5 L
S
GR
GS
[0.75 0 0 0.75 89.99796 227.2444] CT
N
f-1610747416
f
GR
GS
[0.75 0 0 0.75 89.99796 227.2444] CT
N
f766163535
f
GR
GS
[0.75 0 0 0.75 89.99796 227.2444] CT
N
f94862946
f
GR
GS
[0.75 0 0 0.75 89.99796 227.2444] CT
N
f1996904053
f
GR
GS
[0.75 0 0 0.75 89.99796 227.2444] CT
N
f-1784479988
f
GR
GS
[0.75 0 0 0.75 89.99796 227.2444] CT
N
f1173778276
f
GR
GS
[0.75 0 0 0.75 89.99796 227.2444] CT
N
/f1027800098{48.937 3.84 M
48.937 3.277 L
50.937 3.277 50.937 2.762 QT
50.937 -5.629 L
50.109 -5.238 48.843 -5.238 QT
48.843 -5.801 L
50.812 -5.801 51.812 -6.816 QT
52.031 -6.816 L
52.093 -6.816 52.14 -6.777 QT
52.187 -6.738 52.187 -6.676 QT
52.187 2.762 L
52.187 3.277 54.187 3.277 QT
54.187 3.84 L
48.937 3.84 L
cp}def
f1027800098
f
GR
GS
[0.75 0 0 0.75 89.99796 227.2444] CT
N
/f449423524{59.452 4.199 M
57.499 4.199 56.788 2.582 QT
56.077 0.965 56.077 -1.269 QT
56.077 -2.66 56.335 -3.887 QT
56.593 -5.113 57.343 -5.965 QT
58.093 -6.816 59.452 -6.816 QT
60.515 -6.816 61.187 -6.301 QT
61.859 -5.785 62.21 -4.973 QT
62.562 -4.16 62.687 -3.223 QT
62.812 -2.285 62.812 -1.269 QT
62.812 0.106 62.562 1.309 QT
62.312 2.512 61.57 3.356 QT
60.827 4.199 59.452 4.199 QT
cp
59.452 3.777 M
60.343 3.777 60.781 2.863 QT
61.218 1.949 61.32 0.84 QT
61.421 -0.269 61.421 -1.519 QT
61.421 -2.723 61.32 -3.738 QT
61.218 -4.754 60.788 -5.582 QT
60.359 -6.41 59.452 -6.41 QT
58.546 -6.41 58.109 -5.582 QT
57.671 -4.754 57.57 -3.738 QT
57.468 -2.723 57.468 -1.519 QT
57.468 -0.629 57.515 0.16 QT
57.562 0.949 57.749 1.785 QT
57.937 2.621 58.351 3.199 QT
58.765 3.777 59.452 3.777 QT
cp}def
f449423524
f
GR
GS
[0.75 0 0 0.75 89.99796 227.2444] CT
N
/f-852217926{72.692 4.027 M
71.755 4.027 70.973 3.512 QT
70.192 2.996 69.755 2.16 QT
69.317 1.324 69.317 0.387 QT
69.317 -0.582 69.794 -1.418 QT
70.27 -2.254 71.083 -2.746 QT
71.895 -3.238 72.864 -3.238 QT
73.458 -3.238 73.981 -2.988 QT
74.505 -2.738 74.88 -2.301 QT
74.88 -5.629 L
74.88 -6.066 74.755 -6.254 QT
74.63 -6.441 74.387 -6.488 QT
74.145 -6.535 73.645 -6.535 QT
73.645 -7.098 L
76.005 -7.269 L
76.005 2.387 L
76.005 2.809 76.137 2.996 QT
76.27 3.184 76.505 3.231 QT
76.739 3.277 77.255 3.277 QT
77.255 3.84 L
74.833 4.027 L
74.833 3.012 L
74.426 3.481 73.856 3.754 QT
73.286 4.027 72.692 4.027 QT
cp
71.067 2.449 M
71.333 2.965 71.794 3.277 QT
72.255 3.59 72.786 3.59 QT
73.458 3.59 74.012 3.207 QT
74.567 2.824 74.833 2.215 QT
74.833 -1.613 L
74.645 -1.973 74.364 -2.246 QT
74.083 -2.519 73.723 -2.668 QT
73.364 -2.816 72.973 -2.816 QT
72.13 -2.816 71.622 -2.348 QT
71.114 -1.879 70.911 -1.144 QT
70.708 -0.41 70.708 0.402 QT
70.708 1.043 70.778 1.52 QT
70.848 1.996 71.067 2.449 QT
cp}def
f-852217926
f
GR
GS
[0.75 0 0 0.75 89.99796 227.2444] CT
N
/f-1897126085{78.222 3.84 M
78.222 3.277 L
79.878 3.277 79.878 2.762 QT
79.878 -6.019 L
79.878 -6.535 78.222 -6.535 QT
78.222 -7.098 L
84.112 -7.098 L
84.925 -7.098 85.753 -6.777 QT
86.581 -6.457 87.12 -5.84 QT
87.659 -5.223 87.659 -4.379 QT
87.659 -3.394 86.862 -2.738 QT
86.065 -2.082 84.987 -1.879 QT
85.69 -1.879 86.425 -1.496 QT
87.159 -1.113 87.628 -0.473 QT
88.097 0.168 88.097 0.887 QT
88.097 1.762 87.573 2.434 QT
87.05 3.106 86.222 3.473 QT
85.393 3.84 84.565 3.84 QT
78.222 3.84 L
cp
81.268 2.762 M
81.268 3.106 81.464 3.192 QT
81.659 3.277 82.081 3.277 QT
84.112 3.277 L
84.737 3.277 85.268 2.949 QT
85.8 2.621 86.112 2.067 QT
86.425 1.512 86.425 0.887 QT
86.425 0.277 86.167 -0.301 QT
85.909 -0.879 85.433 -1.254 QT
84.956 -1.629 84.331 -1.629 QT
81.268 -1.629 L
81.268 2.762 L
cp
81.268 -2.051 M
83.659 -2.051 L
84.143 -2.051 84.573 -2.23 QT
85.003 -2.41 85.339 -2.738 QT
85.675 -3.066 85.862 -3.488 QT
86.05 -3.91 86.05 -4.379 QT
86.05 -4.785 85.909 -5.168 QT
85.768 -5.551 85.503 -5.863 QT
85.237 -6.176 84.878 -6.355 QT
84.518 -6.535 84.112 -6.535 QT
82.081 -6.535 L
81.784 -6.535 81.628 -6.512 QT
81.472 -6.488 81.37 -6.371 QT
81.268 -6.254 81.268 -6.019 QT
81.268 -2.051 L
cp}def
f-1897126085
f
GR
GS
[0.75 0 0 0.75 0 0.5] CT
0.929 0.694 0.125 RC
1 LJ
2 LW
N
77 302.326 M
116.997 302.326 L
S
GR
GS
[0.75 0 0 0.75 72.74896 227.2444] CT
0.929 0.694 0.125 RC
10.0 ML
2 LW
N
-4 0 M
0 5.32 L
4 0 L
0 -5.32 L
cp
S
GR
GS
[0.75 0 0 0.75 0 0.5] CT
0.149 GC
10.0 ML
0.667 LW
N
73 314 M
73 251 L
213 251 L
213 314 L
cp
S
GR
%%Trailer
%%Pages: 1
%%EOF
