%!PS-Adobe-3.0 EPSF-3.0
%%Creator: (MATLAB, The Mathworks, Inc. Version 9.2.0.538062 \(R2017a\). Operating System: Windows 8)
%%Title: C:/Users/chees/Documents/DottoratoLoc/GNSS/authProtocol/latex/figures/quantization.eps
%%CreationDate: 2017-11-20T08:13:29
%%Pages: (atend)
%%BoundingBox: 0 0 283 283
%%LanguageLevel: 3
%%EndComments
%%BeginProlog
%%BeginResource: procset (Apache XML Graphics Std ProcSet) 1.2 0
%%Version: 1.2 0
%%Copyright: (Copyright 2001-2003,2010 The Apache Software Foundation. License terms: http://www.apache.org/licenses/LICENSE-2.0)
/bd{bind def}bind def
/ld{load def}bd
/GR/grestore ld
/M/moveto ld
/LJ/setlinejoin ld
/C/curveto ld
/f/fill ld
/LW/setlinewidth ld
/GC/setgray ld
/t/show ld
/N/newpath ld
/CT/concat ld
/cp/closepath ld
/S/stroke ld
/L/lineto ld
/CC/setcmykcolor ld
/A/ashow ld
/GS/gsave ld
/RC/setrgbcolor ld
/RM/rmoveto ld
/ML/setmiterlimit ld
/re {4 2 roll M
1 index 0 rlineto
0 exch rlineto
neg 0 rlineto
cp } bd
/_ctm matrix def
/_tm matrix def
/BT { _ctm currentmatrix pop matrix _tm copy pop 0 0 moveto } bd
/ET { _ctm setmatrix } bd
/iTm { _ctm setmatrix _tm concat } bd
/Tm { _tm astore pop iTm 0 0 moveto } bd
/ux 0.0 def
/uy 0.0 def
/F {
  /Tp exch def
  /Tf exch def
  Tf findfont Tp scalefont setfont
  /cf Tf def  /cs Tp def
} bd
/ULS {currentpoint /uy exch def /ux exch def} bd
/ULE {
  /Tcx currentpoint pop def
  gsave
  newpath
  cf findfont cs scalefont dup
  /FontMatrix get 0 get /Ts exch def /FontInfo get dup
  /UnderlinePosition get Ts mul /To exch def
  /UnderlineThickness get Ts mul /Tt exch def
  ux uy To add moveto  Tcx uy To add lineto
  Tt setlinewidth stroke
  grestore
} bd
/OLE {
  /Tcx currentpoint pop def
  gsave
  newpath
  cf findfont cs scalefont dup
  /FontMatrix get 0 get /Ts exch def /FontInfo get dup
  /UnderlinePosition get Ts mul /To exch def
  /UnderlineThickness get Ts mul /Tt exch def
  ux uy To add cs add moveto Tcx uy To add cs add lineto
  Tt setlinewidth stroke
  grestore
} bd
/SOE {
  /Tcx currentpoint pop def
  gsave
  newpath
  cf findfont cs scalefont dup
  /FontMatrix get 0 get /Ts exch def /FontInfo get dup
  /UnderlinePosition get Ts mul /To exch def
  /UnderlineThickness get Ts mul /Tt exch def
  ux uy To add cs 10 mul 26 idiv add moveto Tcx uy To add cs 10 mul 26 idiv add lineto
  Tt setlinewidth stroke
  grestore
} bd
/QT {
/Y22 exch store
/X22 exch store
/Y21 exch store
/X21 exch store
currentpoint
/Y21 load 2 mul add 3 div exch
/X21 load 2 mul add 3 div exch
/X21 load 2 mul /X22 load add 3 div
/Y21 load 2 mul /Y22 load add 3 div
/X22 load /Y22 load curveto
} bd
/SSPD {
dup length /d exch dict def
{
/v exch def
/k exch def
currentpagedevice k known {
/cpdv currentpagedevice k get def
v cpdv ne {
/upd false def
/nullv v type /nulltype eq def
/nullcpdv cpdv type /nulltype eq def
nullv nullcpdv or
{
/upd true def
} {
/sametype v type cpdv type eq def
sametype {
v type /arraytype eq {
/vlen v length def
/cpdvlen cpdv length def
vlen cpdvlen eq {
0 1 vlen 1 sub {
/i exch def
/obj v i get def
/cpdobj cpdv i get def
obj cpdobj ne {
/upd true def
exit
} if
} for
} {
/upd true def
} ifelse
} {
v type /dicttype eq {
v {
/dv exch def
/dk exch def
/cpddv cpdv dk get def
dv cpddv ne {
/upd true def
exit
} if
} forall
} {
/upd true def
} ifelse
} ifelse
} if
} ifelse
upd true eq {
d k v put
} if
} if
} if
} forall
d length 0 gt {
d setpagedevice
} if
} bd
/RE { % /NewFontName [NewEncodingArray] /FontName RE -
  findfont dup length dict begin
  {
    1 index /FID ne
    {def} {pop pop} ifelse
  } forall
  /Encoding exch def
  /FontName 1 index def
  currentdict definefont pop
  end
} bind def
%%EndResource
%%BeginResource: procset (Apache XML Graphics EPS ProcSet) 1.0 0
%%Version: 1.0 0
%%Copyright: (Copyright 2002-2003 The Apache Software Foundation. License terms: http://www.apache.org/licenses/LICENSE-2.0)
/BeginEPSF { %def
/b4_Inc_state save def         % Save state for cleanup
/dict_count countdictstack def % Count objects on dict stack
/op_count count 1 sub def      % Count objects on operand stack
userdict begin                 % Push userdict on dict stack
/showpage { } def              % Redefine showpage, { } = null proc
0 setgray 0 setlinecap         % Prepare graphics state
1 setlinewidth 0 setlinejoin
10 setmiterlimit [ ] 0 setdash newpath
/languagelevel where           % If level not equal to 1 then
{pop languagelevel             % set strokeadjust and
1 ne                           % overprint to their defaults.
{false setstrokeadjust false setoverprint
} if
} if
} bd
/EndEPSF { %def
count op_count sub {pop} repeat            % Clean up stacks
countdictstack dict_count sub {end} repeat
b4_Inc_state restore
} bd
%%EndResource
%FOPBeginFontDict
%%IncludeResource: font Courier-Bold
%%IncludeResource: font Helvetica
%%IncludeResource: font Courier-BoldOblique
%%IncludeResource: font Courier-Oblique
%%IncludeResource: font Times-Roman
%%IncludeResource: font Helvetica-BoldOblique
%%IncludeResource: font Helvetica-Bold
%%IncludeResource: font Helvetica-Oblique
%%IncludeResource: font Times-BoldItalic
%%IncludeResource: font Courier
%%IncludeResource: font Times-Italic
%%IncludeResource: font Times-Bold
%%IncludeResource: font Symbol
%%IncludeResource: font ZapfDingbats
%FOPEndFontDict
%%BeginResource: encoding WinAnsiEncoding
/WinAnsiEncoding [
/.notdef /.notdef /.notdef /.notdef /.notdef
/.notdef /.notdef /.notdef /.notdef /.notdef
/.notdef /.notdef /.notdef /.notdef /.notdef
/.notdef /.notdef /.notdef /.notdef /.notdef
/.notdef /.notdef /.notdef /.notdef /.notdef
/.notdef /.notdef /.notdef /.notdef /.notdef
/.notdef /.notdef /space /exclam /quotedbl
/numbersign /dollar /percent /ampersand /quotesingle
/parenleft /parenright /asterisk /plus /comma
/hyphen /period /slash /zero /one
/two /three /four /five /six
/seven /eight /nine /colon /semicolon
/less /equal /greater /question /at
/A /B /C /D /E
/F /G /H /I /J
/K /L /M /N /O
/P /Q /R /S /T
/U /V /W /X /Y
/Z /bracketleft /backslash /bracketright /asciicircum
/underscore /quoteleft /a /b /c
/d /e /f /g /h
/i /j /k /l /m
/n /o /p /q /r
/s /t /u /v /w
/x /y /z /braceleft /bar
/braceright /asciitilde /bullet /Euro /bullet
/quotesinglbase /florin /quotedblbase /ellipsis /dagger
/daggerdbl /circumflex /perthousand /Scaron /guilsinglleft
/OE /bullet /Zcaron /bullet /bullet
/quoteleft /quoteright /quotedblleft /quotedblright /bullet
/endash /emdash /asciitilde /trademark /scaron
/guilsinglright /oe /bullet /zcaron /Ydieresis
/space /exclamdown /cent /sterling /currency
/yen /brokenbar /section /dieresis /copyright
/ordfeminine /guillemotleft /logicalnot /sfthyphen /registered
/macron /degree /plusminus /twosuperior /threesuperior
/acute /mu /paragraph /middot /cedilla
/onesuperior /ordmasculine /guillemotright /onequarter /onehalf
/threequarters /questiondown /Agrave /Aacute /Acircumflex
/Atilde /Adieresis /Aring /AE /Ccedilla
/Egrave /Eacute /Ecircumflex /Edieresis /Igrave
/Iacute /Icircumflex /Idieresis /Eth /Ntilde
/Ograve /Oacute /Ocircumflex /Otilde /Odieresis
/multiply /Oslash /Ugrave /Uacute /Ucircumflex
/Udieresis /Yacute /Thorn /germandbls /agrave
/aacute /acircumflex /atilde /adieresis /aring
/ae /ccedilla /egrave /eacute /ecircumflex
/edieresis /igrave /iacute /icircumflex /idieresis
/eth /ntilde /ograve /oacute /ocircumflex
/otilde /odieresis /divide /oslash /ugrave
/uacute /ucircumflex /udieresis /yacute /thorn
/ydieresis
] def
%%EndResource
%FOPBeginFontReencode
/Courier-Bold findfont
dup length dict begin
  {1 index /FID ne {def} {pop pop} ifelse} forall
  /Encoding WinAnsiEncoding def
  currentdict
end
/Courier-Bold exch definefont pop
/Helvetica findfont
dup length dict begin
  {1 index /FID ne {def} {pop pop} ifelse} forall
  /Encoding WinAnsiEncoding def
  currentdict
end
/Helvetica exch definefont pop
/Courier-BoldOblique findfont
dup length dict begin
  {1 index /FID ne {def} {pop pop} ifelse} forall
  /Encoding WinAnsiEncoding def
  currentdict
end
/Courier-BoldOblique exch definefont pop
/Courier-Oblique findfont
dup length dict begin
  {1 index /FID ne {def} {pop pop} ifelse} forall
  /Encoding WinAnsiEncoding def
  currentdict
end
/Courier-Oblique exch definefont pop
/Times-Roman findfont
dup length dict begin
  {1 index /FID ne {def} {pop pop} ifelse} forall
  /Encoding WinAnsiEncoding def
  currentdict
end
/Times-Roman exch definefont pop
/Helvetica-BoldOblique findfont
dup length dict begin
  {1 index /FID ne {def} {pop pop} ifelse} forall
  /Encoding WinAnsiEncoding def
  currentdict
end
/Helvetica-BoldOblique exch definefont pop
/Helvetica-Bold findfont
dup length dict begin
  {1 index /FID ne {def} {pop pop} ifelse} forall
  /Encoding WinAnsiEncoding def
  currentdict
end
/Helvetica-Bold exch definefont pop
/Helvetica-Oblique findfont
dup length dict begin
  {1 index /FID ne {def} {pop pop} ifelse} forall
  /Encoding WinAnsiEncoding def
  currentdict
end
/Helvetica-Oblique exch definefont pop
/Times-BoldItalic findfont
dup length dict begin
  {1 index /FID ne {def} {pop pop} ifelse} forall
  /Encoding WinAnsiEncoding def
  currentdict
end
/Times-BoldItalic exch definefont pop
/Courier findfont
dup length dict begin
  {1 index /FID ne {def} {pop pop} ifelse} forall
  /Encoding WinAnsiEncoding def
  currentdict
end
/Courier exch definefont pop
/Times-Italic findfont
dup length dict begin
  {1 index /FID ne {def} {pop pop} ifelse} forall
  /Encoding WinAnsiEncoding def
  currentdict
end
/Times-Italic exch definefont pop
/Times-Bold findfont
dup length dict begin
  {1 index /FID ne {def} {pop pop} ifelse} forall
  /Encoding WinAnsiEncoding def
  currentdict
end
/Times-Bold exch definefont pop
%FOPEndFontReencode
%%EndProlog
%%Page: 1 1
%%PageBoundingBox: 0 0 283 283
%%BeginPageSetup
[1 0 0 -1 0 283] CT
%%EndPageSetup
GS
[0.60056 0 0 0.60056 0 -0.46457] CT
N
0 0 M
472 0 L
472 472 L
0 472 L
0 0 L
cp
clip
1 GC
N
0 0 472 472 re
f
GR
GS
[0.60056 0 0 0.60056 0 -0.46457] CT
1 GC
N
0 0 472 472 re
f
GR
GS
[0.60056 0 0 0.60056 0 -0.46457] CT
1 GC
N
64 415 M
428 415 L
428 35 L
64 35 L
cp
f
GR
GS
[0.60056 0 0 0.60056 0 -0.46457] CT
0.873 GC
1 LJ
0.833 LW
N
64 415 M
64 35 L
S
GR
GS
[0.60056 0 0 0.60056 0 -0.46457] CT
0.873 GC
1 LJ
0.833 LW
N
155 415 M
155 35 L
S
GR
GS
[0.60056 0 0 0.60056 0 -0.46457] CT
0.873 GC
1 LJ
0.833 LW
N
246 415 M
246 35 L
S
GR
GS
[0.60056 0 0 0.60056 0 -0.46457] CT
0.873 GC
1 LJ
0.833 LW
N
337 415 M
337 35 L
S
GR
GS
[0.60056 0 0 0.60056 0 -0.46457] CT
0.873 GC
1 LJ
0.833 LW
N
428 415 M
428 35 L
S
GR
GS
[0.60056 0 0 0.60056 0 -0.46457] CT
0.873 GC
1 LJ
0.833 LW
N
428 415 M
64 415 L
S
GR
GS
[0.60056 0 0 0.60056 0 -0.46457] CT
0.873 GC
1 LJ
0.833 LW
N
428 351.667 M
64 351.667 L
S
GR
GS
[0.60056 0 0 0.60056 0 -0.46457] CT
0.873 GC
1 LJ
0.833 LW
N
428 288.333 M
64 288.333 L
S
GR
GS
[0.60056 0 0 0.60056 0 -0.46457] CT
0.873 GC
1 LJ
0.833 LW
N
428 225 M
64 225 L
S
GR
GS
[0.60056 0 0 0.60056 0 -0.46457] CT
0.873 GC
1 LJ
0.833 LW
N
428 161.667 M
64 161.667 L
S
GR
GS
[0.60056 0 0 0.60056 0 -0.46457] CT
0.873 GC
1 LJ
0.833 LW
N
428 98.333 M
64 98.333 L
S
GR
GS
[0.60056 0 0 0.60056 0 -0.46457] CT
0.873 GC
1 LJ
0.833 LW
N
428 35 M
64 35 L
S
GR
GS
[0.60056 0 0 0.60056 0 -0.46457] CT
0.149 GC
2 setlinecap
1 LJ
0.833 LW
N
64 415 M
428 415 L
S
GR
GS
[0.60056 0 0 0.60056 0 -0.46457] CT
0.149 GC
2 setlinecap
1 LJ
0.833 LW
N
64 415 M
64 411.203 L
S
GR
GS
[0.60056 0 0 0.60056 0 -0.46457] CT
0.149 GC
2 setlinecap
1 LJ
0.833 LW
N
155 415 M
155 411.203 L
S
GR
GS
[0.60056 0 0 0.60056 0 -0.46457] CT
0.149 GC
2 setlinecap
1 LJ
0.833 LW
N
246 415 M
246 411.203 L
S
GR
GS
[0.60056 0 0 0.60056 0 -0.46457] CT
0.149 GC
2 setlinecap
1 LJ
0.833 LW
N
337 415 M
337 411.203 L
S
GR
GS
[0.60056 0 0 0.60056 0 -0.46457] CT
0.149 GC
2 setlinecap
1 LJ
0.833 LW
N
428 415 M
428 411.203 L
S
GR
GS
[0.60056 0 0 0.60056 38.43587 252.77178] CT
0.149 GC
/Helvetica 16.667 F
GS
[1 0 0 1 0 0] CT
-12.5 18 moveto 
1 -1 scale
(-10) t 
GR
GR
GS
[0.60056 0 0 0.60056 93.08688 252.77178] CT
0.149 GC
/Helvetica 16.667 F
GS
[1 0 0 1 0 0] CT
-5 18 moveto 
1 -1 scale
(0) t 
GR
GR
GS
[0.60056 0 0 0.60056 147.73789 252.77178] CT
0.149 GC
/Helvetica 16.667 F
GS
[1 0 0 1 0 0] CT
-9.5 18 moveto 
1 -1 scale
(10) t 
GR
GR
GS
[0.60056 0 0 0.60056 202.3889 252.77178] CT
0.149 GC
/Helvetica 16.667 F
GS
[1 0 0 1 0 0] CT
-9.5 18 moveto 
1 -1 scale
(20) t 
GR
GR
GS
[0.60056 0 0 0.60056 257.03991 252.77178] CT
0.149 GC
/Helvetica 16.667 F
GS
[1 0 0 1 0 0] CT
-9.5 18 moveto 
1 -1 scale
(30) t 
GR
GR
GS
[0.60056 0 0 0.60056 147.73799 266.78487] CT
0.149 GC
N
-37.635 19.866 M
-38.651 19.866 -39.44 19.373 QT
-40.229 18.881 -40.666 18.053 QT
-41.104 17.225 -41.104 16.225 QT
-41.104 15.147 -40.619 13.967 QT
-40.135 12.787 -39.299 11.811 QT
-38.463 10.834 -37.409 10.256 QT
-36.354 9.678 -35.244 9.678 QT
-29.448 9.678 L
-29.213 9.678 -29.041 9.834 QT
-28.869 9.991 -28.869 10.272 QT
-28.869 10.6 -29.112 10.858 QT
-29.354 11.116 -29.698 11.116 QT
-32.494 11.116 L
-31.838 12.1 -31.838 13.506 QT
-31.838 14.662 -32.284 15.78 QT
-32.729 16.897 -33.526 17.826 QT
-34.323 18.756 -35.385 19.311 QT
-36.448 19.866 -37.635 19.866 QT
cp
-37.604 19.256 M
-36.354 19.256 -35.377 18.272 QT
-34.401 17.287 -33.885 15.866 QT
-33.369 14.444 -33.369 13.225 QT
-33.369 12.241 -33.916 11.678 QT
-34.463 11.116 -35.448 11.116 QT
-36.776 11.116 -37.713 12.014 QT
-38.651 12.912 -39.119 14.272 QT
-39.588 15.631 -39.588 16.881 QT
-39.588 17.866 -39.065 18.561 QT
-38.541 19.256 -37.604 19.256 QT
cp
f
GR
GS
[0.60056 0 0 0.60056 147.73799 266.78487] CT
0.149 GC
N
-26.965 11.132 M
-26.965 10.695 L
-26.965 10.664 -26.934 10.617 QT
-24.449 7.867 L
-23.887 7.257 -23.535 6.843 QT
-23.184 6.429 -22.84 5.89 QT
-22.496 5.351 -22.293 4.789 QT
-22.09 4.226 -22.09 3.601 QT
-22.09 2.945 -22.332 2.351 QT
-22.574 1.757 -23.059 1.398 QT
-23.543 1.039 -24.215 1.039 QT
-24.918 1.039 -25.473 1.453 QT
-26.028 1.867 -26.246 2.539 QT
-26.184 2.523 -26.074 2.523 QT
-25.715 2.523 -25.465 2.765 QT
-25.215 3.007 -25.215 3.382 QT
-25.215 3.757 -25.465 4.007 QT
-25.715 4.257 -26.074 4.257 QT
-26.449 4.257 -26.707 4 QT
-26.965 3.742 -26.965 3.382 QT
-26.965 2.789 -26.738 2.257 QT
-26.512 1.726 -26.082 1.32 QT
-25.653 0.914 -25.121 0.695 QT
-24.59 0.476 -23.981 0.476 QT
-23.074 0.476 -22.285 0.859 QT
-21.496 1.242 -21.035 1.953 QT
-20.574 2.664 -20.574 3.601 QT
-20.574 4.304 -20.879 4.929 QT
-21.184 5.554 -21.66 6.062 QT
-22.137 6.57 -22.879 7.218 QT
-23.621 7.867 -23.856 8.086 QT
-25.668 9.836 L
-24.121 9.836 L
-22.996 9.836 -22.231 9.812 QT
-21.465 9.789 -21.418 9.757 QT
-21.231 9.554 -21.043 8.273 QT
-20.574 8.273 L
-21.028 11.132 L
-26.965 11.132 L
cp
f
GR
GS
[0.60056 0 0 0.60056 147.73799 266.78487] CT
0.149 GC
N
-26.865 23.509 M
-26.865 23.165 -26.779 22.728 QT
-26.693 22.29 -26.583 21.954 QT
-26.474 21.618 -26.208 20.915 QT
-25.943 20.212 -25.927 20.15 QT
-25.708 19.556 -25.708 19.181 QT
-25.708 18.712 -26.068 18.712 QT
-26.693 18.712 -27.107 19.36 QT
-27.521 20.009 -27.708 20.821 QT
-27.74 20.915 -27.849 20.915 QT
-28.037 20.915 L
-28.162 20.915 -28.162 20.775 QT
-28.162 20.728 L
-27.912 19.775 -27.38 19.032 QT
-26.849 18.29 -26.037 18.29 QT
-25.458 18.29 -25.068 18.665 QT
-24.677 19.04 -24.677 19.618 QT
-24.677 19.915 -24.802 20.243 QT
-24.99 20.728 -25.247 21.407 QT
-25.505 22.087 -25.646 22.642 QT
-25.787 23.196 -25.787 23.712 QT
-25.787 24.337 -25.458 24.728 QT
-25.13 25.118 -24.505 25.118 QT
-23.646 25.118 -23.083 23.821 QT
-23.115 23.728 -23.115 23.556 QT
-23.115 23.134 -22.974 22.587 QT
-22.083 18.978 L
-22.021 18.775 -21.826 18.618 QT
-21.63 18.462 -21.412 18.462 QT
-21.224 18.462 -21.076 18.587 QT
-20.927 18.712 -20.927 18.915 QT
-20.927 19.009 -20.943 19.04 QT
-21.849 22.618 L
-22.005 23.259 -22.005 23.759 QT
-22.005 24.368 -21.724 24.743 QT
-21.443 25.118 -20.849 25.118 QT
-19.818 25.118 -19.162 23.759 QT
-18.912 23.275 -18.599 22.329 QT
-18.287 21.384 -18.287 20.884 QT
-18.287 20.431 -18.435 20.157 QT
-18.583 19.884 -18.849 19.571 QT
-19.115 19.259 -19.115 19.103 QT
-19.115 18.806 -18.849 18.54 QT
-18.583 18.275 -18.271 18.275 QT
-17.896 18.275 -17.724 18.626 QT
-17.552 18.978 -17.552 19.431 QT
-17.552 19.962 -17.732 20.798 QT
-17.912 21.634 -18.185 22.47 QT
-18.458 23.306 -18.708 23.806 QT
-19.583 25.556 -20.88 25.556 QT
-21.552 25.556 -22.107 25.29 QT
-22.662 25.025 -22.927 24.462 QT
-23.193 24.931 -23.607 25.243 QT
-24.021 25.556 -24.537 25.556 QT
-25.583 25.556 -26.224 25.048 QT
-26.865 24.54 -26.865 23.509 QT
cp
f
GR
GS
[0.60056 0 0 0.60056 147.73799 266.78487] CT
0.149 GC
N
-15.341 19.119 M
-15.466 19.119 -15.576 19.009 QT
-15.685 18.9 -15.685 18.759 QT
-15.685 18.556 -15.513 18.478 QT
-13.794 17.65 L
-15.513 16.837 L
-15.685 16.759 -15.685 16.54 QT
-15.685 16.415 -15.576 16.298 QT
-15.466 16.181 -15.341 16.181 QT
-15.247 16.181 -15.169 16.244 QT
-13.638 17.369 L
-13.81 15.4 L
-13.81 15.259 -13.708 15.165 QT
-13.607 15.072 -13.466 15.072 QT
-13.326 15.072 -13.232 15.158 QT
-13.138 15.244 -13.138 15.384 QT
-13.138 15.4 L
-13.31 17.369 L
-11.779 16.244 L
-11.701 16.181 -11.607 16.181 QT
-11.466 16.181 -11.365 16.298 QT
-11.263 16.415 -11.263 16.54 QT
-11.263 16.759 -11.419 16.837 QT
-13.154 17.65 L
-11.419 18.478 L
-11.263 18.556 -11.263 18.759 QT
-11.263 18.9 -11.365 19.009 QT
-11.466 19.119 -11.607 19.119 QT
-11.701 19.119 -11.779 19.072 QT
-13.31 17.947 L
-13.138 19.9 L
-13.138 19.931 L
-13.138 20.056 -13.24 20.15 QT
-13.341 20.244 -13.466 20.244 QT
-13.607 20.244 -13.708 20.142 QT
-13.81 20.04 -13.81 19.9 QT
-13.638 17.947 L
-15.169 19.072 L
-15.247 19.119 -15.341 19.119 QT
cp
f
GR
GS
[0.60056 0 0 0.60056 147.73799 266.78487] CT
0.149 GC
N
2.197 25.35 M
2.197 2.35 L
5.338 2.35 L
5.338 3.272 L
3.119 3.272 L
3.119 24.428 L
5.338 24.428 L
5.338 25.35 L
2.197 25.35 L
cp
f
GR
GS
[0.60056 0 0 0.60056 147.73799 266.78487] CT
0.149 GC
N
11.569 19.866 M
10.21 19.866 9.093 19.123 QT
7.975 18.381 7.35 17.186 QT
6.725 15.991 6.725 14.631 QT
6.725 13.241 7.405 12.045 QT
8.085 10.85 9.249 10.147 QT
10.413 9.444 11.819 9.444 QT
12.663 9.444 13.413 9.795 QT
14.163 10.147 14.725 10.772 QT
14.725 5.991 L
14.725 5.366 14.538 5.092 QT
14.35 4.819 14.007 4.756 QT
13.663 4.694 12.928 4.694 QT
12.928 3.881 L
16.335 3.647 L
16.335 17.506 L
16.335 18.116 16.522 18.389 QT
16.71 18.662 17.053 18.725 QT
17.397 18.787 18.116 18.787 QT
18.116 19.6 L
14.647 19.866 L
14.647 18.412 L
14.053 19.1 13.233 19.483 QT
12.413 19.866 11.569 19.866 QT
cp
9.225 17.6 M
9.616 18.35 10.272 18.803 QT
10.928 19.256 11.71 19.256 QT
12.663 19.256 13.46 18.701 QT
14.257 18.147 14.647 17.272 QT
14.647 11.756 L
14.382 11.256 13.975 10.858 QT
13.569 10.459 13.053 10.248 QT
12.538 10.037 11.975 10.037 QT
10.772 10.037 10.038 10.717 QT
9.303 11.397 9.014 12.451 QT
8.725 13.506 8.725 14.662 QT
8.725 15.584 8.819 16.264 QT
8.913 16.944 9.225 17.6 QT
cp
f
GR
GS
[0.60056 0 0 0.60056 147.73799 266.78487] CT
0.149 GC
N
19.704 19.6 M
19.704 18.787 L
22.079 18.787 22.079 18.069 QT
22.079 5.428 L
22.079 4.694 19.704 4.694 QT
19.704 3.881 L
28.173 3.881 L
29.329 3.881 30.524 4.342 QT
31.72 4.803 32.501 5.694 QT
33.282 6.584 33.282 7.803 QT
33.282 9.194 32.126 10.147 QT
30.97 11.1 29.438 11.397 QT
30.438 11.397 31.493 11.944 QT
32.548 12.491 33.22 13.412 QT
33.891 14.334 33.891 15.366 QT
33.891 16.631 33.149 17.592 QT
32.407 18.553 31.212 19.076 QT
30.016 19.6 28.813 19.6 QT
19.704 19.6 L
cp
24.079 18.069 M
24.079 18.553 24.36 18.67 QT
24.641 18.787 25.251 18.787 QT
28.173 18.787 L
29.063 18.787 29.837 18.319 QT
30.61 17.85 31.056 17.061 QT
31.501 16.272 31.501 15.366 QT
31.501 14.491 31.134 13.655 QT
30.766 12.819 30.071 12.28 QT
29.376 11.741 28.485 11.741 QT
24.079 11.741 L
24.079 18.069 L
cp
24.079 11.131 M
27.532 11.131 L
28.22 11.131 28.829 10.881 QT
29.438 10.631 29.931 10.155 QT
30.423 9.678 30.688 9.076 QT
30.954 8.475 30.954 7.803 QT
30.954 7.194 30.759 6.647 QT
30.563 6.1 30.181 5.655 QT
29.798 5.209 29.282 4.951 QT
28.766 4.694 28.173 4.694 QT
25.251 4.694 L
24.829 4.694 24.602 4.733 QT
24.376 4.772 24.227 4.928 QT
24.079 5.084 24.079 5.428 QT
24.079 11.131 L
cp
f
GR
GS
[0.60056 0 0 0.60056 147.73799 266.78487] CT
0.149 GC
N
35.951 25.35 M
35.951 24.428 L
38.185 24.428 L
38.185 3.272 L
35.951 3.272 L
35.951 2.35 L
39.107 2.35 L
39.107 25.35 L
35.951 25.35 L
cp
f
GR
GS
[0.60056 0 0 0.60056 0 -0.46457] CT
0.149 GC
2 setlinecap
1 LJ
0.833 LW
N
64 415 M
64 35 L
S
GR
GS
[0.60056 0 0 0.60056 0 -0.46457] CT
0.149 GC
2 setlinecap
1 LJ
0.833 LW
N
64 415 M
67.797 415 L
S
GR
GS
[0.60056 0 0 0.60056 0 -0.46457] CT
0.149 GC
2 setlinecap
1 LJ
0.833 LW
N
64 351.667 M
67.797 351.667 L
S
GR
GS
[0.60056 0 0 0.60056 0 -0.46457] CT
0.149 GC
2 setlinecap
1 LJ
0.833 LW
N
64 288.333 M
67.797 288.333 L
S
GR
GS
[0.60056 0 0 0.60056 0 -0.46457] CT
0.149 GC
2 setlinecap
1 LJ
0.833 LW
N
64 225 M
67.797 225 L
S
GR
GS
[0.60056 0 0 0.60056 0 -0.46457] CT
0.149 GC
2 setlinecap
1 LJ
0.833 LW
N
64 161.667 M
67.797 161.667 L
S
GR
GS
[0.60056 0 0 0.60056 0 -0.46457] CT
0.149 GC
2 setlinecap
1 LJ
0.833 LW
N
64 98.333 M
67.797 98.333 L
S
GR
GS
[0.60056 0 0 0.60056 0 -0.46457] CT
0.149 GC
2 setlinecap
1 LJ
0.833 LW
N
64 35 M
67.797 35 L
S
GR
GS
[0.60056 0 0 0.60056 34.43213 248.76805] CT
0.149 GC
/Helvetica 16.667 F
GS
[1 0 0 1 0 0] CT
-10 7 moveto 
1 -1 scale
(0) t 
GR
GR
GS
[0.60056 0 0 0.60056 34.43213 210.73254] CT
0.149 GC
/Helvetica 16.667 F
GS
[1 0 0 1 0 0] CT
-24 7 moveto 
1 -1 scale
(0.2) t 
GR
GR
GS
[0.60056 0 0 0.60056 34.43213 172.69706] CT
0.149 GC
/Helvetica 16.667 F
GS
[1 0 0 1 0 0] CT
-24 7 moveto 
1 -1 scale
(0.4) t 
GR
GR
GS
[0.60056 0 0 0.60056 34.43213 134.66155] CT
0.149 GC
/Helvetica 16.667 F
GS
[1 0 0 1 0 0] CT
-24 7 moveto 
1 -1 scale
(0.6) t 
GR
GR
GS
[0.60056 0 0 0.60056 34.43213 96.62604] CT
0.149 GC
/Helvetica 16.667 F
GS
[1 0 0 1 0 0] CT
-24 7 moveto 
1 -1 scale
(0.8) t 
GR
GR
GS
[0.60056 0 0 0.60056 34.43213 58.59055] CT
0.149 GC
/Helvetica 16.667 F
GS
[1 0 0 1 0 0] CT
-10 7 moveto 
1 -1 scale
(1) t 
GR
GR
GS
[0.60056 0 0 0.60056 34.43213 20.55504] CT
0.149 GC
/Helvetica 16.667 F
GS
[1 0 0 1 0 0] CT
-24 7 moveto 
1 -1 scale
(1.2) t 
GR
GR
GS
[0 -0.60056 0.60056 0 16.81569 134.66143] CT
0.149 GC
N
-58.743 -13.369 M
-58.743 -11.978 -58.212 -10.931 QT
-57.681 -9.884 -56.665 -9.291 QT
-55.649 -8.697 -54.259 -8.697 QT
-52.821 -8.697 -51.477 -9.439 QT
-50.134 -10.181 -49.181 -11.424 QT
-48.227 -12.666 -47.884 -14.056 QT
-47.837 -14.197 -47.712 -14.197 QT
-47.431 -14.197 L
-47.337 -14.197 -47.282 -14.134 QT
-47.227 -14.072 -47.227 -13.994 QT
-47.227 -13.978 -47.243 -13.931 QT
-47.634 -12.338 -48.766 -10.939 QT
-49.899 -9.541 -51.47 -8.72 QT
-53.04 -7.9 -54.696 -7.9 QT
-56.493 -7.9 -57.923 -8.705 QT
-59.352 -9.509 -60.141 -10.947 QT
-60.931 -12.384 -60.931 -14.197 QT
-60.931 -16.134 -60.071 -18.025 QT
-59.212 -19.916 -57.751 -21.392 QT
-56.29 -22.869 -54.415 -23.744 QT
-52.54 -24.619 -50.618 -24.619 QT
-49.868 -24.619 -49.165 -24.384 QT
-48.462 -24.15 -47.868 -23.681 QT
-47.274 -23.213 -46.899 -22.603 QT
-45.071 -24.572 L
-45.071 -24.619 -44.962 -24.619 QT
-44.837 -24.619 L
-44.743 -24.619 -44.688 -24.541 QT
-44.634 -24.463 -44.634 -24.384 QT
-46.196 -18.166 L
-46.196 -18.009 -46.368 -18.009 QT
-46.79 -18.009 L
-46.962 -18.009 -46.962 -18.275 QT
-46.868 -18.775 -46.868 -19.478 QT
-46.868 -20.603 -47.251 -21.603 QT
-47.634 -22.603 -48.438 -23.205 QT
-49.243 -23.806 -50.399 -23.806 QT
-52.274 -23.806 -53.837 -22.861 QT
-55.399 -21.916 -56.485 -20.384 QT
-57.571 -18.853 -58.157 -16.986 QT
-58.743 -15.119 -58.743 -13.369 QT
cp
f
GR
GS
[0 -0.60056 0.60056 0 16.81569 134.66143] CT
0.149 GC
N
-44.707 -4.9 M
-44.863 -4.9 -44.863 -5.119 QT
-44.801 -5.463 -44.66 -5.463 QT
-44.004 -5.463 -43.535 -5.72 QT
-43.066 -5.978 -42.722 -6.525 QT
-42.691 -6.556 -42.691 -6.556 QT
-36.972 -16.181 L
-36.847 -16.353 -36.676 -16.353 QT
-36.457 -16.353 L
-36.41 -16.353 -36.363 -16.338 QT
-36.316 -16.322 -36.285 -16.275 QT
-36.254 -16.228 -36.254 -16.181 QT
-35.285 -5.853 L
-35.285 -5.775 -35.207 -5.634 QT
-35.051 -5.463 -34.019 -5.463 QT
-33.847 -5.463 -33.847 -5.259 QT
-33.91 -5.041 -33.941 -4.97 QT
-33.972 -4.9 -34.129 -4.9 QT
-38.129 -4.9 L
-38.269 -4.9 -38.269 -5.119 QT
-38.191 -5.463 -38.066 -5.463 QT
-36.801 -5.463 -36.722 -5.9 QT
-36.957 -8.541 L
-40.91 -8.541 L
-42.191 -6.384 L
-42.301 -6.213 -42.301 -5.994 QT
-42.301 -5.713 -42.035 -5.588 QT
-41.769 -5.463 -41.441 -5.463 QT
-41.285 -5.463 -41.285 -5.259 QT
-41.332 -5.025 -41.363 -4.963 QT
-41.394 -4.9 -41.551 -4.9 QT
-44.707 -4.9 L
cp
-40.597 -9.103 M
-37.019 -9.103 L
-37.504 -14.275 L
-40.597 -9.103 L
cp
f
GR
GS
[0 -0.60056 0.60056 0 16.81569 134.66143] CT
0.149 GC
N
-21.512 -2.65 M
-21.512 -25.65 L
-18.372 -25.65 L
-18.372 -24.728 L
-20.59 -24.728 L
-20.59 -3.572 L
-18.372 -3.572 L
-18.372 -2.65 L
-21.512 -2.65 L
cp
f
GR
GS
[0 -0.60056 0.60056 0 16.81569 134.66143] CT
0.149 GC
N
-15.359 -8.4 M
-15.359 -22.009 L
-15.359 -22.634 -15.546 -22.908 QT
-15.734 -23.181 -16.078 -23.244 QT
-16.421 -23.306 -17.156 -23.306 QT
-17.156 -24.119 L
-13.75 -24.353 L
-13.75 -17.166 L
-13.375 -17.588 -12.859 -17.908 QT
-12.343 -18.228 -11.765 -18.392 QT
-11.187 -18.556 -10.578 -18.556 QT
-9.546 -18.556 -8.664 -18.142 QT
-7.781 -17.728 -7.125 -17.002 QT
-6.468 -16.275 -6.109 -15.322 QT
-5.75 -14.369 -5.75 -13.369 QT
-5.75 -11.978 -6.429 -10.775 QT
-7.109 -9.572 -8.281 -8.853 QT
-9.453 -8.134 -10.859 -8.134 QT
-11.734 -8.134 -12.554 -8.588 QT
-13.375 -9.041 -13.906 -9.775 QT
-14.687 -8.4 L
-15.359 -8.4 L
cp
-13.687 -10.65 M
-13.296 -9.822 -12.578 -9.283 QT
-11.859 -8.744 -10.984 -8.744 QT
-9.796 -8.744 -9.062 -9.431 QT
-8.328 -10.119 -8.039 -11.166 QT
-7.75 -12.213 -7.75 -13.369 QT
-7.75 -15.306 -8.25 -16.322 QT
-8.468 -16.759 -8.859 -17.142 QT
-9.25 -17.525 -9.726 -17.744 QT
-10.203 -17.963 -10.734 -17.963 QT
-11.656 -17.963 -12.437 -17.478 QT
-13.218 -16.994 -13.687 -16.166 QT
-13.687 -10.65 L
cp
f
GR
GS
[0 -0.60056 0.60056 0 16.81569 134.66143] CT
0.149 GC
N
-3.49 -3.103 M
-3.49 -3.181 -3.474 -3.197 QT
4.526 -25.369 L
4.573 -25.509 4.682 -25.58 QT
4.792 -25.65 4.932 -25.65 QT
5.135 -25.65 5.268 -25.525 QT
5.401 -25.4 5.401 -25.197 QT
5.401 -25.103 L
-2.599 -2.931 L
-2.724 -2.65 -3.037 -2.65 QT
-3.224 -2.65 -3.357 -2.783 QT
-3.49 -2.916 -3.49 -3.103 QT
cp
f
GR
GS
[0 -0.60056 0.60056 0 16.81569 134.66143] CT
0.149 GC
N
7.646 -8.338 M
7.646 -12.088 L
7.646 -12.259 7.849 -12.259 QT
8.13 -12.259 L
8.255 -12.259 8.302 -12.088 QT
8.943 -8.744 11.411 -8.744 QT
12.489 -8.744 13.232 -9.244 QT
13.974 -9.744 13.974 -10.775 QT
13.974 -11.509 13.396 -12.033 QT
12.818 -12.556 12.036 -12.744 QT
10.489 -13.056 L
9.724 -13.213 9.091 -13.564 QT
8.458 -13.916 8.052 -14.494 QT
7.646 -15.072 7.646 -15.838 QT
7.646 -16.853 8.177 -17.494 QT
8.708 -18.134 9.56 -18.424 QT
10.411 -18.713 11.411 -18.713 QT
12.583 -18.713 13.458 -18.088 QT
14.13 -18.65 L
14.13 -18.713 14.239 -18.713 QT
14.411 -18.713 L
14.474 -18.713 14.529 -18.65 QT
14.583 -18.588 14.583 -18.525 QT
14.583 -15.509 L
14.583 -15.291 14.411 -15.291 QT
14.13 -15.291 L
13.927 -15.291 13.927 -15.509 QT
13.927 -16.713 13.255 -17.439 QT
12.583 -18.166 11.38 -18.166 QT
10.349 -18.166 9.591 -17.783 QT
8.833 -17.4 8.833 -16.478 QT
8.833 -15.838 9.38 -15.424 QT
9.927 -15.009 10.661 -14.838 QT
12.208 -14.541 L
13.005 -14.369 13.685 -13.939 QT
14.364 -13.509 14.763 -12.861 QT
15.161 -12.213 15.161 -11.384 QT
15.161 -10.556 14.872 -9.947 QT
14.583 -9.338 14.075 -8.931 QT
13.568 -8.525 12.872 -8.33 QT
12.177 -8.134 11.411 -8.134 QT
9.974 -8.134 8.943 -9.103 QT
8.099 -8.197 L
8.099 -8.134 7.974 -8.134 QT
7.849 -8.134 L
7.646 -8.134 7.646 -8.338 QT
cp
f
GR
GS
[0 -0.60056 0.60056 0 16.81569 134.66143] CT
0.149 GC
N
17.381 -3.103 M
17.381 -3.181 17.396 -3.197 QT
25.396 -25.369 L
25.443 -25.509 25.553 -25.58 QT
25.662 -25.65 25.803 -25.65 QT
26.006 -25.65 26.138 -25.525 QT
26.271 -25.4 26.271 -25.197 QT
26.271 -25.103 L
18.271 -2.931 L
18.146 -2.65 17.834 -2.65 QT
17.646 -2.65 17.513 -2.783 QT
17.381 -2.916 17.381 -3.103 QT
cp
f
GR
GS
[0 -0.60056 0.60056 0 16.81569 134.66143] CT
0.149 GC
N
28.454 -8.4 M
28.454 -9.213 L
30.829 -9.213 30.829 -9.931 QT
30.829 -22.572 L
30.829 -23.306 28.454 -23.306 QT
28.454 -24.119 L
35.344 -24.119 L
35.344 -23.306 L
32.969 -23.306 32.969 -22.572 QT
32.969 -16.978 L
39.75 -16.978 L
39.75 -22.572 L
39.75 -23.306 37.391 -23.306 QT
37.391 -24.119 L
44.266 -24.119 L
44.266 -23.306 L
41.907 -23.306 41.907 -22.572 QT
41.907 -9.931 L
41.907 -9.213 44.266 -9.213 QT
44.266 -8.4 L
37.391 -8.4 L
37.391 -9.213 L
39.75 -9.213 39.75 -9.931 QT
39.75 -16.166 L
32.969 -16.166 L
32.969 -9.931 L
32.969 -9.213 35.344 -9.213 QT
35.344 -8.4 L
28.454 -8.4 L
cp
f
GR
GS
[0 -0.60056 0.60056 0 16.81569 134.66143] CT
0.149 GC
N
46.157 -8.4 M
45.891 -8.4 45.891 -8.666 QT
45.891 -8.838 L
45.891 -8.931 45.954 -8.994 QT
52.376 -17.713 L
50.313 -17.713 L
49.344 -17.713 48.704 -17.588 QT
48.063 -17.463 47.657 -17.119 QT
47.251 -16.775 47.063 -16.174 QT
46.876 -15.572 46.876 -14.525 QT
46.219 -14.525 L
46.469 -18.322 L
54.172 -18.322 L
54.282 -18.322 54.352 -18.244 QT
54.422 -18.166 54.422 -18.056 QT
54.422 -17.931 L
54.422 -17.853 54.376 -17.759 QT
47.954 -9.056 L
50.141 -9.056 L
51.141 -9.056 51.813 -9.181 QT
52.485 -9.306 52.954 -9.775 QT
53.391 -10.213 53.555 -10.955 QT
53.719 -11.697 53.813 -12.791 QT
54.469 -12.791 L
54.079 -8.4 L
46.157 -8.4 L
cp
f
GR
GS
[0 -0.60056 0.60056 0 16.81569 134.66143] CT
0.149 GC
N
56.121 -2.65 M
56.121 -3.572 L
58.355 -3.572 L
58.355 -24.728 L
56.121 -24.728 L
56.121 -25.65 L
59.277 -25.65 L
59.277 -2.65 L
56.121 -2.65 L
cp
f
GR
GS
[0.60056 0 0 0.60056 0 -0.46457] CT
1 LJ
2.5 LW
N
109.5 415 M
118.6 415 L
127.7 415 L
136.8 415 L
145.9 394.402 L
155 366.592 L
164.1 341.804 L
173.2 319.998 L
182.3 301.059 L
191.4 284.809 L
200.5 271.024 L
209.6 259.448 L
218.7 249.816 L
227.8 241.865 L
236.9 235.345 L
246 230.031 L
255.1 225.719 L
264.2 222.235 L
273.3 219.43 L
282.4 217.177 L
291.5 215.371 L
300.6 213.926 L
309.7 212.772 L
318.8 211.851 L
327.9 211.117 L
337 210.532 L
346.1 210.066 L
355.2 209.696 L
364.3 209.401 L
373.4 209.167 L
382.5 208.98 L
391.6 208.832 L
400.7 208.714 L
409.8 208.621 L
418.9 208.547 L
428 208.487 L
S
GR
GS
[0.60056 0 0 0.60056 65.76138 248.76805] CT
10.0 ML
2.5 LW
N
-5 0 M
0 6.65 L
5 0 L
0 -6.65 L
cp
S
GR
GS
[0.60056 0 0 0.60056 71.22648 248.76805] CT
10.0 ML
2.5 LW
N
-5 0 M
0 6.65 L
5 0 L
0 -6.65 L
cp
S
GR
GS
[0.60056 0 0 0.60056 76.69158 248.76805] CT
10.0 ML
2.5 LW
N
-5 0 M
0 6.65 L
5 0 L
0 -6.65 L
cp
S
GR
GS
[0.60056 0 0 0.60056 82.15668 248.76805] CT
10.0 ML
2.5 LW
N
-5 0 M
0 6.65 L
5 0 L
0 -6.65 L
cp
S
GR
GS
[0.60056 0 0 0.60056 87.62178 236.39745] CT
10.0 ML
2.5 LW
N
-5 0 M
0 6.65 L
5 0 L
0 -6.65 L
cp
S
GR
GS
[0.60056 0 0 0.60056 93.08688 219.6964] CT
10.0 ML
2.5 LW
N
-5 0 M
0 6.65 L
5 0 L
0 -6.65 L
cp
S
GR
GS
[0.60056 0 0 0.60056 98.55199 204.80965] CT
10.0 ML
2.5 LW
N
-5 0 M
0 6.65 L
5 0 L
0 -6.65 L
cp
S
GR
GS
[0.60056 0 0 0.60056 104.01708 191.71357] CT
10.0 ML
2.5 LW
N
-5 0 M
0 6.65 L
5 0 L
0 -6.65 L
cp
S
GR
GS
[0.60056 0 0 0.60056 109.48219 180.33952] CT
10.0 ML
2.5 LW
N
-5 0 M
0 6.65 L
5 0 L
0 -6.65 L
cp
S
GR
GS
[0.60056 0 0 0.60056 114.94728 170.58067] CT
10.0 ML
2.5 LW
N
-5 0 M
0 6.65 L
5 0 L
0 -6.65 L
cp
S
GR
GS
[0.60056 0 0 0.60056 120.41239 162.30168] CT
10.0 ML
2.5 LW
N
-5 0 M
0 6.65 L
5 0 L
0 -6.65 L
cp
S
GR
GS
[0.60056 0 0 0.60056 125.87749 155.34977] CT
10.0 ML
2.5 LW
N
-5 0 M
0 6.65 L
5 0 L
0 -6.65 L
cp
S
GR
GS
[0.60056 0 0 0.60056 131.34259 149.56508] CT
10.0 ML
2.5 LW
N
-5 0 M
0 6.65 L
5 0 L
0 -6.65 L
cp
S
GR
GS
[0.60056 0 0 0.60056 136.80769 144.78972] CT
10.0 ML
2.5 LW
N
-5 0 M
0 6.65 L
5 0 L
0 -6.65 L
cp
S
GR
GS
[0.60056 0 0 0.60056 142.27279 140.87439] CT
10.0 ML
2.5 LW
N
-5 0 M
0 6.65 L
5 0 L
0 -6.65 L
cp
S
GR
GS
[0.60056 0 0 0.60056 147.73789 137.68267] CT
10.0 ML
2.5 LW
N
-5 0 M
0 6.65 L
5 0 L
0 -6.65 L
cp
S
GR
GS
[0.60056 0 0 0.60056 153.20299 135.0934] CT
10.0 ML
2.5 LW
N
-5 0 M
0 6.65 L
5 0 L
0 -6.65 L
cp
S
GR
GS
[0.60056 0 0 0.60056 158.6681 133.00127] CT
10.0 ML
2.5 LW
N
-5 0 M
0 6.65 L
5 0 L
0 -6.65 L
cp
S
GR
GS
[0.60056 0 0 0.60056 164.13318 131.31639] CT
10.0 ML
2.5 LW
N
-5 0 M
0 6.65 L
5 0 L
0 -6.65 L
cp
S
GR
GS
[0.60056 0 0 0.60056 169.59829 129.96312] CT
10.0 ML
2.5 LW
N
-5 0 M
0 6.65 L
5 0 L
0 -6.65 L
cp
S
GR
GS
[0.60056 0 0 0.60056 175.06339 128.8786] CT
10.0 ML
2.5 LW
N
-5 0 M
0 6.65 L
5 0 L
0 -6.65 L
cp
S
GR
GS
[0.60056 0 0 0.60056 180.5285 128.01099] CT
10.0 ML
2.5 LW
N
-5 0 M
0 6.65 L
5 0 L
0 -6.65 L
cp
S
GR
GS
[0.60056 0 0 0.60056 185.9936 127.31788] CT
10.0 ML
2.5 LW
N
-5 0 M
0 6.65 L
5 0 L
0 -6.65 L
cp
S
GR
GS
[0.60056 0 0 0.60056 191.45869 126.76481] CT
10.0 ML
2.5 LW
N
-5 0 M
0 6.65 L
5 0 L
0 -6.65 L
cp
S
GR
GS
[0.60056 0 0 0.60056 196.92379 126.32391] CT
10.0 ML
2.5 LW
N
-5 0 M
0 6.65 L
5 0 L
0 -6.65 L
cp
S
GR
GS
[0.60056 0 0 0.60056 202.3889 125.97267] CT
10.0 ML
2.5 LW
N
-5 0 M
0 6.65 L
5 0 L
0 -6.65 L
cp
S
GR
GS
[0.60056 0 0 0.60056 207.854 125.69303] CT
10.0 ML
2.5 LW
N
-5 0 M
0 6.65 L
5 0 L
0 -6.65 L
cp
S
GR
GS
[0.60056 0 0 0.60056 213.31911 125.47049] CT
10.0 ML
2.5 LW
N
-5 0 M
0 6.65 L
5 0 L
0 -6.65 L
cp
S
GR
GS
[0.60056 0 0 0.60056 218.78419 125.29346] CT
10.0 ML
2.5 LW
N
-5 0 M
0 6.65 L
5 0 L
0 -6.65 L
cp
S
GR
GS
[0.60056 0 0 0.60056 224.2493 125.15269] CT
10.0 ML
2.5 LW
N
-5 0 M
0 6.65 L
5 0 L
0 -6.65 L
cp
S
GR
GS
[0.60056 0 0 0.60056 229.7144 125.04076] CT
10.0 ML
2.5 LW
N
-5 0 M
0 6.65 L
5 0 L
0 -6.65 L
cp
S
GR
GS
[0.60056 0 0 0.60056 235.17951 124.95179] CT
10.0 ML
2.5 LW
N
-5 0 M
0 6.65 L
5 0 L
0 -6.65 L
cp
S
GR
GS
[0.60056 0 0 0.60056 240.64461 124.88108] CT
10.0 ML
2.5 LW
N
-5 0 M
0 6.65 L
5 0 L
0 -6.65 L
cp
S
GR
GS
[0.60056 0 0 0.60056 246.1097 124.82489] CT
10.0 ML
2.5 LW
N
-5 0 M
0 6.65 L
5 0 L
0 -6.65 L
cp
S
GR
GS
[0.60056 0 0 0.60056 251.5748 124.78023] CT
10.0 ML
2.5 LW
N
-5 0 M
0 6.65 L
5 0 L
0 -6.65 L
cp
S
GR
GS
[0.60056 0 0 0.60056 257.03991 124.74475] CT
10.0 ML
2.5 LW
N
-5 0 M
0 6.65 L
5 0 L
0 -6.65 L
cp
S
GR
GS
[0.60056 0 0 0.60056 0 -0.46457] CT
1 LJ
2.5 LW
N
109.5 415 M
118.6 415 L
127.7 392.976 L
136.8 359.318 L
145.9 328.527 L
155 300.718 L
164.1 275.93 L
173.2 254.123 L
182.3 235.184 L
191.4 218.935 L
200.5 205.149 L
209.6 193.573 L
218.7 183.941 L
227.8 175.99 L
236.9 169.47 L
246 164.156 L
255.1 159.844 L
264.2 156.361 L
273.3 153.555 L
282.4 151.302 L
291.5 149.496 L
300.6 148.051 L
309.7 146.897 L
318.8 145.976 L
327.9 145.242 L
337 144.657 L
346.1 144.192 L
355.2 143.821 L
364.3 143.526 L
373.4 143.292 L
382.5 143.106 L
391.6 142.957 L
400.7 142.84 L
409.8 142.746 L
418.9 142.672 L
428 142.613 L
S
GR
GS
[0.60056 0 0 0.60056 65.76138 248.76805] CT
10.0 ML
2.5 LW
N
4.5 -0.5 M
4.5 -3.261 2.261 -5.5 -0.5 -5.5 C
-3.261 -5.5 -5.5 -3.261 -5.5 -0.5 C
-5.5 2.261 -3.261 4.5 -0.5 4.5 C
2.261 4.5 4.5 2.261 4.5 -0.5 C
S
GR
GS
[0.60056 0 0 0.60056 71.22648 248.76805] CT
10.0 ML
2.5 LW
N
4.5 -0.5 M
4.5 -3.261 2.261 -5.5 -0.5 -5.5 C
-3.261 -5.5 -5.5 -3.261 -5.5 -0.5 C
-5.5 2.261 -3.261 4.5 -0.5 4.5 C
2.261 4.5 4.5 2.261 4.5 -0.5 C
S
GR
GS
[0.60056 0 0 0.60056 76.69158 235.54113] CT
10.0 ML
2.5 LW
N
4.5 -0.5 M
4.5 -3.261 2.261 -5.5 -0.5 -5.5 C
-3.261 -5.5 -5.5 -3.261 -5.5 -0.5 C
-5.5 2.261 -3.261 4.5 -0.5 4.5 C
2.261 4.5 4.5 2.261 4.5 -0.5 C
S
GR
GS
[0.60056 0 0 0.60056 82.15668 215.32738] CT
10.0 ML
2.5 LW
N
4.5 -0.5 M
4.5 -3.261 2.261 -5.5 -0.5 -5.5 C
-3.261 -5.5 -5.5 -3.261 -5.5 -0.5 C
-5.5 2.261 -3.261 4.5 -0.5 4.5 C
2.261 4.5 4.5 2.261 4.5 -0.5 C
S
GR
GS
[0.60056 0 0 0.60056 87.62178 196.83566] CT
10.0 ML
2.5 LW
N
4.5 -0.5 M
4.5 -3.261 2.261 -5.5 -0.5 -5.5 C
-3.261 -5.5 -5.5 -3.261 -5.5 -0.5 C
-5.5 2.261 -3.261 4.5 -0.5 4.5 C
2.261 4.5 4.5 2.261 4.5 -0.5 C
S
GR
GS
[0.60056 0 0 0.60056 93.08688 180.13458] CT
10.0 ML
2.5 LW
N
4.5 -0.5 M
4.5 -3.261 2.261 -5.5 -0.5 -5.5 C
-3.261 -5.5 -5.5 -3.261 -5.5 -0.5 C
-5.5 2.261 -3.261 4.5 -0.5 4.5 C
2.261 4.5 4.5 2.261 4.5 -0.5 C
S
GR
GS
[0.60056 0 0 0.60056 98.55199 165.24785] CT
10.0 ML
2.5 LW
N
4.5 -0.5 M
4.5 -3.261 2.261 -5.5 -0.5 -5.5 C
-3.261 -5.5 -5.5 -3.261 -5.5 -0.5 C
-5.5 2.261 -3.261 4.5 -0.5 4.5 C
2.261 4.5 4.5 2.261 4.5 -0.5 C
S
GR
GS
[0.60056 0 0 0.60056 104.01708 152.15178] CT
10.0 ML
2.5 LW
N
4.5 -0.5 M
4.5 -3.261 2.261 -5.5 -0.5 -5.5 C
-3.261 -5.5 -5.5 -3.261 -5.5 -0.5 C
-5.5 2.261 -3.261 4.5 -0.5 4.5 C
2.261 4.5 4.5 2.261 4.5 -0.5 C
S
GR
GS
[0.60056 0 0 0.60056 109.48219 140.77773] CT
10.0 ML
2.5 LW
N
4.5 -0.5 M
4.5 -3.261 2.261 -5.5 -0.5 -5.5 C
-3.261 -5.5 -5.5 -3.261 -5.5 -0.5 C
-5.5 2.261 -3.261 4.5 -0.5 4.5 C
2.261 4.5 4.5 2.261 4.5 -0.5 C
S
GR
GS
[0.60056 0 0 0.60056 114.94728 131.01886] CT
10.0 ML
2.5 LW
N
4.5 -0.5 M
4.5 -3.261 2.261 -5.5 -0.5 -5.5 C
-3.261 -5.5 -5.5 -3.261 -5.5 -0.5 C
-5.5 2.261 -3.261 4.5 -0.5 4.5 C
2.261 4.5 4.5 2.261 4.5 -0.5 C
S
GR
GS
[0.60056 0 0 0.60056 120.41239 122.73989] CT
10.0 ML
2.5 LW
N
4.5 -0.5 M
4.5 -3.261 2.261 -5.5 -0.5 -5.5 C
-3.261 -5.5 -5.5 -3.261 -5.5 -0.5 C
-5.5 2.261 -3.261 4.5 -0.5 4.5 C
2.261 4.5 4.5 2.261 4.5 -0.5 C
S
GR
GS
[0.60056 0 0 0.60056 125.87749 115.78796] CT
10.0 ML
2.5 LW
N
4.5 -0.5 M
4.5 -3.261 2.261 -5.5 -0.5 -5.5 C
-3.261 -5.5 -5.5 -3.261 -5.5 -0.5 C
-5.5 2.261 -3.261 4.5 -0.5 4.5 C
2.261 4.5 4.5 2.261 4.5 -0.5 C
S
GR
GS
[0.60056 0 0 0.60056 131.34259 110.00328] CT
10.0 ML
2.5 LW
N
4.5 -0.5 M
4.5 -3.261 2.261 -5.5 -0.5 -5.5 C
-3.261 -5.5 -5.5 -3.261 -5.5 -0.5 C
-5.5 2.261 -3.261 4.5 -0.5 4.5 C
2.261 4.5 4.5 2.261 4.5 -0.5 C
S
GR
GS
[0.60056 0 0 0.60056 136.80769 105.22793] CT
10.0 ML
2.5 LW
N
4.5 -0.5 M
4.5 -3.261 2.261 -5.5 -0.5 -5.5 C
-3.261 -5.5 -5.5 -3.261 -5.5 -0.5 C
-5.5 2.261 -3.261 4.5 -0.5 4.5 C
2.261 4.5 4.5 2.261 4.5 -0.5 C
S
GR
GS
[0.60056 0 0 0.60056 142.27279 101.31259] CT
10.0 ML
2.5 LW
N
4.5 -0.5 M
4.5 -3.261 2.261 -5.5 -0.5 -5.5 C
-3.261 -5.5 -5.5 -3.261 -5.5 -0.5 C
-5.5 2.261 -3.261 4.5 -0.5 4.5 C
2.261 4.5 4.5 2.261 4.5 -0.5 C
S
GR
GS
[0.60056 0 0 0.60056 147.73789 98.12087] CT
10.0 ML
2.5 LW
N
4.5 -0.5 M
4.5 -3.261 2.261 -5.5 -0.5 -5.5 C
-3.261 -5.5 -5.5 -3.261 -5.5 -0.5 C
-5.5 2.261 -3.261 4.5 -0.5 4.5 C
2.261 4.5 4.5 2.261 4.5 -0.5 C
S
GR
GS
[0.60056 0 0 0.60056 153.20299 95.5316] CT
10.0 ML
2.5 LW
N
4.5 -0.5 M
4.5 -3.261 2.261 -5.5 -0.5 -5.5 C
-3.261 -5.5 -5.5 -3.261 -5.5 -0.5 C
-5.5 2.261 -3.261 4.5 -0.5 4.5 C
2.261 4.5 4.5 2.261 4.5 -0.5 C
S
GR
GS
[0.60056 0 0 0.60056 158.6681 93.43947] CT
10.0 ML
2.5 LW
N
4.5 -0.5 M
4.5 -3.261 2.261 -5.5 -0.5 -5.5 C
-3.261 -5.5 -5.5 -3.261 -5.5 -0.5 C
-5.5 2.261 -3.261 4.5 -0.5 4.5 C
2.261 4.5 4.5 2.261 4.5 -0.5 C
S
GR
GS
[0.60056 0 0 0.60056 164.13318 91.75457] CT
10.0 ML
2.5 LW
N
4.5 -0.5 M
4.5 -3.261 2.261 -5.5 -0.5 -5.5 C
-3.261 -5.5 -5.5 -3.261 -5.5 -0.5 C
-5.5 2.261 -3.261 4.5 -0.5 4.5 C
2.261 4.5 4.5 2.261 4.5 -0.5 C
S
GR
GS
[0.60056 0 0 0.60056 169.59829 90.40132] CT
10.0 ML
2.5 LW
N
4.5 -0.5 M
4.5 -3.261 2.261 -5.5 -0.5 -5.5 C
-3.261 -5.5 -5.5 -3.261 -5.5 -0.5 C
-5.5 2.261 -3.261 4.5 -0.5 4.5 C
2.261 4.5 4.5 2.261 4.5 -0.5 C
S
GR
GS
[0.60056 0 0 0.60056 175.06339 89.31679] CT
10.0 ML
2.5 LW
N
4.5 -0.5 M
4.5 -3.261 2.261 -5.5 -0.5 -5.5 C
-3.261 -5.5 -5.5 -3.261 -5.5 -0.5 C
-5.5 2.261 -3.261 4.5 -0.5 4.5 C
2.261 4.5 4.5 2.261 4.5 -0.5 C
S
GR
GS
[0.60056 0 0 0.60056 180.5285 88.44918] CT
10.0 ML
2.5 LW
N
4.5 -0.5 M
4.5 -3.261 2.261 -5.5 -0.5 -5.5 C
-3.261 -5.5 -5.5 -3.261 -5.5 -0.5 C
-5.5 2.261 -3.261 4.5 -0.5 4.5 C
2.261 4.5 4.5 2.261 4.5 -0.5 C
S
GR
GS
[0.60056 0 0 0.60056 185.9936 87.75607] CT
10.0 ML
2.5 LW
N
4.5 -0.5 M
4.5 -3.261 2.261 -5.5 -0.5 -5.5 C
-3.261 -5.5 -5.5 -3.261 -5.5 -0.5 C
-5.5 2.261 -3.261 4.5 -0.5 4.5 C
2.261 4.5 4.5 2.261 4.5 -0.5 C
S
GR
GS
[0.60056 0 0 0.60056 191.45869 87.20301] CT
10.0 ML
2.5 LW
N
4.5 -0.5 M
4.5 -3.261 2.261 -5.5 -0.5 -5.5 C
-3.261 -5.5 -5.5 -3.261 -5.5 -0.5 C
-5.5 2.261 -3.261 4.5 -0.5 4.5 C
2.261 4.5 4.5 2.261 4.5 -0.5 C
S
GR
GS
[0.60056 0 0 0.60056 196.92379 86.7621] CT
10.0 ML
2.5 LW
N
4.5 -0.5 M
4.5 -3.261 2.261 -5.5 -0.5 -5.5 C
-3.261 -5.5 -5.5 -3.261 -5.5 -0.5 C
-5.5 2.261 -3.261 4.5 -0.5 4.5 C
2.261 4.5 4.5 2.261 4.5 -0.5 C
S
GR
GS
[0.60056 0 0 0.60056 202.3889 86.41087] CT
10.0 ML
2.5 LW
N
4.5 -0.5 M
4.5 -3.261 2.261 -5.5 -0.5 -5.5 C
-3.261 -5.5 -5.5 -3.261 -5.5 -0.5 C
-5.5 2.261 -3.261 4.5 -0.5 4.5 C
2.261 4.5 4.5 2.261 4.5 -0.5 C
S
GR
GS
[0.60056 0 0 0.60056 207.854 86.13123] CT
10.0 ML
2.5 LW
N
4.5 -0.5 M
4.5 -3.261 2.261 -5.5 -0.5 -5.5 C
-3.261 -5.5 -5.5 -3.261 -5.5 -0.5 C
-5.5 2.261 -3.261 4.5 -0.5 4.5 C
2.261 4.5 4.5 2.261 4.5 -0.5 C
S
GR
GS
[0.60056 0 0 0.60056 213.31911 85.90868] CT
10.0 ML
2.5 LW
N
4.5 -0.5 M
4.5 -3.261 2.261 -5.5 -0.5 -5.5 C
-3.261 -5.5 -5.5 -3.261 -5.5 -0.5 C
-5.5 2.261 -3.261 4.5 -0.5 4.5 C
2.261 4.5 4.5 2.261 4.5 -0.5 C
S
GR
GS
[0.60056 0 0 0.60056 218.78419 85.73167] CT
10.0 ML
2.5 LW
N
4.5 -0.5 M
4.5 -3.261 2.261 -5.5 -0.5 -5.5 C
-3.261 -5.5 -5.5 -3.261 -5.5 -0.5 C
-5.5 2.261 -3.261 4.5 -0.5 4.5 C
2.261 4.5 4.5 2.261 4.5 -0.5 C
S
GR
GS
[0.60056 0 0 0.60056 224.2493 85.5909] CT
10.0 ML
2.5 LW
N
4.5 -0.5 M
4.5 -3.261 2.261 -5.5 -0.5 -5.5 C
-3.261 -5.5 -5.5 -3.261 -5.5 -0.5 C
-5.5 2.261 -3.261 4.5 -0.5 4.5 C
2.261 4.5 4.5 2.261 4.5 -0.5 C
S
GR
GS
[0.60056 0 0 0.60056 229.7144 85.47897] CT
10.0 ML
2.5 LW
N
4.5 -0.5 M
4.5 -3.261 2.261 -5.5 -0.5 -5.5 C
-3.261 -5.5 -5.5 -3.261 -5.5 -0.5 C
-5.5 2.261 -3.261 4.5 -0.5 4.5 C
2.261 4.5 4.5 2.261 4.5 -0.5 C
S
GR
GS
[0.60056 0 0 0.60056 235.17951 85.39] CT
10.0 ML
2.5 LW
N
4.5 -0.5 M
4.5 -3.261 2.261 -5.5 -0.5 -5.5 C
-3.261 -5.5 -5.5 -3.261 -5.5 -0.5 C
-5.5 2.261 -3.261 4.5 -0.5 4.5 C
2.261 4.5 4.5 2.261 4.5 -0.5 C
S
GR
GS
[0.60056 0 0 0.60056 240.64461 85.31928] CT
10.0 ML
2.5 LW
N
4.5 -0.5 M
4.5 -3.261 2.261 -5.5 -0.5 -5.5 C
-3.261 -5.5 -5.5 -3.261 -5.5 -0.5 C
-5.5 2.261 -3.261 4.5 -0.5 4.5 C
2.261 4.5 4.5 2.261 4.5 -0.5 C
S
GR
GS
[0.60056 0 0 0.60056 246.1097 85.26308] CT
10.0 ML
2.5 LW
N
4.5 -0.5 M
4.5 -3.261 2.261 -5.5 -0.5 -5.5 C
-3.261 -5.5 -5.5 -3.261 -5.5 -0.5 C
-5.5 2.261 -3.261 4.5 -0.5 4.5 C
2.261 4.5 4.5 2.261 4.5 -0.5 C
S
GR
GS
[0.60056 0 0 0.60056 251.5748 85.21844] CT
10.0 ML
2.5 LW
N
4.5 -0.5 M
4.5 -3.261 2.261 -5.5 -0.5 -5.5 C
-3.261 -5.5 -5.5 -3.261 -5.5 -0.5 C
-5.5 2.261 -3.261 4.5 -0.5 4.5 C
2.261 4.5 4.5 2.261 4.5 -0.5 C
S
GR
GS
[0.60056 0 0 0.60056 257.03991 85.18295] CT
10.0 ML
2.5 LW
N
4.5 -0.5 M
4.5 -3.261 2.261 -5.5 -0.5 -5.5 C
-3.261 -5.5 -5.5 -3.261 -5.5 -0.5 C
-5.5 2.261 -3.261 4.5 -0.5 4.5 C
2.261 4.5 4.5 2.261 4.5 -0.5 C
S
GR
GS
[0.60056 0 0 0.60056 0 -0.46457] CT
[8 8] 0 setdash
2 LJ
2.5 LW
N
109.5 415 M
118.6 395.327 L
127.7 358.98 L
136.8 325.322 L
145.9 294.531 L
155 266.722 L
164.1 241.934 L
173.2 220.127 L
182.3 201.188 L
191.4 184.939 L
200.5 171.153 L
209.6 159.577 L
218.7 149.945 L
227.8 141.994 L
236.9 135.474 L
246 130.16 L
255.1 125.848 L
264.2 122.365 L
273.3 119.559 L
282.4 117.306 L
291.5 115.5 L
300.6 114.055 L
309.7 112.901 L
318.8 111.98 L
327.9 111.246 L
337 110.661 L
346.1 110.196 L
355.2 109.825 L
364.3 109.53 L
373.4 109.296 L
382.5 109.11 L
391.6 108.961 L
400.7 108.844 L
409.8 108.75 L
418.9 108.676 L
428 108.617 L
S
GR
GS
[0.60056 0 0 0.60056 0 -0.46457] CT
1 LJ
2.5 LW
N
109.5 415 M
118.6 376.188 L
127.7 339.841 L
136.8 306.182 L
145.9 275.392 L
155 247.583 L
164.1 222.795 L
173.2 200.988 L
182.3 182.049 L
191.4 165.799 L
200.5 152.014 L
209.6 140.438 L
218.7 130.806 L
227.8 122.855 L
236.9 116.335 L
246 111.021 L
255.1 106.709 L
264.2 103.226 L
273.3 100.42 L
282.4 98.167 L
291.5 96.361 L
300.6 94.916 L
309.7 93.762 L
318.8 92.841 L
327.9 92.107 L
337 91.522 L
346.1 91.057 L
355.2 90.686 L
364.3 90.391 L
373.4 90.157 L
382.5 89.97 L
391.6 89.822 L
400.7 89.705 L
409.8 89.611 L
418.9 89.537 L
428 89.478 L
S
GR
GS
[0.60056 0 0 0.60056 0 -0.46457] CT
1 GC
N
69 147 M
69 44 L
188 44 L
188 147 L
cp
f
GR
GS
[0.60056 0 0 0.60056 76.72167 34.6788] CT
N
2.078 4.8 M
2.078 -7.044 L
2.078 -7.575 1.922 -7.817 QT
1.766 -8.059 1.461 -8.106 QT
1.156 -8.153 0.516 -8.153 QT
0.516 -8.856 L
3.484 -9.075 L
3.484 -2.825 L
3.813 -3.184 4.258 -3.466 QT
4.703 -3.747 5.211 -3.895 QT
5.719 -4.044 6.234 -4.044 QT
7.141 -4.044 7.906 -3.677 QT
8.672 -3.309 9.242 -2.677 QT
9.813 -2.044 10.125 -1.224 QT
10.438 -0.403 10.438 0.487 QT
10.438 1.691 9.852 2.737 QT
9.266 3.784 8.242 4.401 QT
7.219 5.019 6 5.019 QT
5.234 5.019 4.523 4.628 QT
3.813 4.237 3.344 3.597 QT
2.656 4.8 L
2.078 4.8 L
cp
3.531 2.831 M
3.875 3.566 4.5 4.034 QT
5.125 4.503 5.875 4.503 QT
6.922 4.503 7.555 3.901 QT
8.188 3.3 8.445 2.394 QT
8.703 1.487 8.703 0.487 QT
8.703 -1.2 8.266 -2.091 QT
8.063 -2.481 7.727 -2.809 QT
7.391 -3.138 6.977 -3.333 QT
6.563 -3.528 6.109 -3.528 QT
5.297 -3.528 4.617 -3.099 QT
3.938 -2.669 3.531 -1.966 QT
3.531 2.831 L
cp
f
GR
GS
[0.60056 0 0 0.60056 76.72167 34.6788] CT
N
12.611 2.144 M
12.455 2.144 12.346 2.019 QT
12.236 1.894 12.236 1.737 QT
12.236 1.581 12.346 1.464 QT
12.455 1.347 12.611 1.347 QT
25.174 1.347 L
25.314 1.347 25.424 1.464 QT
25.533 1.581 25.533 1.737 QT
25.533 1.894 25.424 2.019 QT
25.314 2.144 25.174 2.144 QT
12.611 2.144 L
cp
12.611 -1.747 M
12.455 -1.747 12.346 -1.864 QT
12.236 -1.981 12.236 -2.138 QT
12.236 -2.294 12.346 -2.419 QT
12.455 -2.544 12.611 -2.544 QT
25.174 -2.544 L
25.314 -2.544 25.424 -2.419 QT
25.533 -2.294 25.533 -2.138 QT
25.533 -1.981 25.424 -1.864 QT
25.314 -1.747 25.174 -1.747 QT
12.611 -1.747 L
cp
f
GR
GS
[0.60056 0 0 0.60056 76.72167 34.6788] CT
N
35.193 4.8 M
35.193 4.097 L
37.693 4.097 37.693 3.456 QT
37.693 -7.044 L
36.662 -6.544 35.068 -6.544 QT
35.068 -7.247 L
37.521 -7.247 38.771 -8.528 QT
39.052 -8.528 L
39.13 -8.528 39.193 -8.474 QT
39.255 -8.419 39.255 -8.341 QT
39.255 3.456 L
39.255 4.097 41.755 4.097 QT
41.755 4.8 L
35.193 4.8 L
cp
f
GR
GS
[0.60056 0 0 0.60056 0 -0.46457] CT
1 LJ
2.5 LW
N
74 58.518 M
124 58.518 L
S
GR
GS
[0.60056 0 0 0.60056 59.45552 34.6788] CT
10.0 ML
2.5 LW
N
-5 0 M
0 6.65 L
5 0 L
0 -6.65 L
cp
S
GR
GS
[0.60056 0 0 0.60056 76.72167 49.48557] CT
N
/f1616265672{2.078 4.8 M
2.078 -7.044 L
2.078 -7.575 1.922 -7.817 QT
1.766 -8.059 1.461 -8.106 QT
1.156 -8.153 0.516 -8.153 QT
0.516 -8.856 L
3.484 -9.075 L
3.484 -2.825 L
3.813 -3.184 4.258 -3.466 QT
4.703 -3.747 5.211 -3.895 QT
5.719 -4.044 6.234 -4.044 QT
7.141 -4.044 7.906 -3.677 QT
8.672 -3.309 9.242 -2.677 QT
9.813 -2.044 10.125 -1.224 QT
10.438 -0.403 10.438 0.487 QT
10.438 1.691 9.852 2.737 QT
9.266 3.784 8.242 4.401 QT
7.219 5.019 6 5.019 QT
5.234 5.019 4.523 4.628 QT
3.813 4.237 3.344 3.597 QT
2.656 4.8 L
2.078 4.8 L
cp
3.531 2.831 M
3.875 3.566 4.5 4.034 QT
5.125 4.503 5.875 4.503 QT
6.922 4.503 7.555 3.901 QT
8.188 3.3 8.445 2.394 QT
8.703 1.487 8.703 0.487 QT
8.703 -1.2 8.266 -2.091 QT
8.063 -2.481 7.727 -2.809 QT
7.391 -3.138 6.977 -3.333 QT
6.563 -3.528 6.109 -3.528 QT
5.297 -3.528 4.617 -3.099 QT
3.938 -2.669 3.531 -1.966 QT
3.531 2.831 L
cp}def
f1616265672
f
GR
GS
[0.60056 0 0 0.60056 76.72167 49.48557] CT
N
/f1224715763{12.611 2.144 M
12.455 2.144 12.346 2.019 QT
12.236 1.894 12.236 1.737 QT
12.236 1.581 12.346 1.464 QT
12.455 1.347 12.611 1.347 QT
25.174 1.347 L
25.314 1.347 25.424 1.464 QT
25.533 1.581 25.533 1.737 QT
25.533 1.894 25.424 2.019 QT
25.314 2.144 25.174 2.144 QT
12.611 2.144 L
cp
12.611 -1.747 M
12.455 -1.747 12.346 -1.864 QT
12.236 -1.981 12.236 -2.138 QT
12.236 -2.294 12.346 -2.419 QT
12.455 -2.544 12.611 -2.544 QT
25.174 -2.544 L
25.314 -2.544 25.424 -2.419 QT
25.533 -2.294 25.533 -2.138 QT
25.533 -1.981 25.424 -1.864 QT
25.314 -1.747 25.174 -1.747 QT
12.611 -1.747 L
cp}def
f1224715763
f
GR
GS
[0.60056 0 0 0.60056 76.72167 49.48557] CT
N
/f1360365399{34.333 4.8 M
34.333 4.269 L
34.333 4.206 34.365 4.159 QT
37.474 0.722 L
38.177 -0.044 38.615 -0.559 QT
39.052 -1.075 39.482 -1.755 QT
39.912 -2.434 40.162 -3.13 QT
40.412 -3.825 40.412 -4.606 QT
40.412 -5.419 40.107 -6.169 QT
39.802 -6.919 39.208 -7.372 QT
38.615 -7.825 37.755 -7.825 QT
36.896 -7.825 36.201 -7.302 QT
35.505 -6.778 35.224 -5.95 QT
35.302 -5.966 35.427 -5.966 QT
35.88 -5.966 36.201 -5.661 QT
36.521 -5.356 36.521 -4.872 QT
36.521 -4.419 36.201 -4.099 QT
35.88 -3.778 35.427 -3.778 QT
34.958 -3.778 34.646 -4.106 QT
34.333 -4.434 34.333 -4.872 QT
34.333 -5.638 34.615 -6.294 QT
34.896 -6.95 35.427 -7.466 QT
35.958 -7.981 36.63 -8.255 QT
37.302 -8.528 38.052 -8.528 QT
39.193 -8.528 40.177 -8.044 QT
41.162 -7.559 41.74 -6.677 QT
42.318 -5.794 42.318 -4.606 QT
42.318 -3.731 41.935 -2.95 QT
41.552 -2.169 40.958 -1.528 QT
40.365 -0.888 39.435 -0.083 QT
38.505 0.722 38.224 1.003 QT
35.958 3.175 L
37.88 3.175 L
39.287 3.175 40.24 3.151 QT
41.193 3.128 41.255 3.081 QT
41.49 2.831 41.74 1.237 QT
42.318 1.237 L
41.755 4.8 L
34.333 4.8 L
cp}def
f1360365399
f
GR
GS
[0.60056 0 0 0.60056 0 -0.46457] CT
1 LJ
2.5 LW
N
74 83.173 M
124 83.173 L
S
GR
GS
[0.60056 0 0 0.60056 59.45552 49.48557] CT
10.0 ML
2.5 LW
N
4.5 -0.5 M
4.5 -3.261 2.261 -5.5 -0.5 -5.5 C
-3.261 -5.5 -5.5 -3.261 -5.5 -0.5 C
-5.5 2.261 -3.261 4.5 -0.5 4.5 C
2.261 4.5 4.5 2.261 4.5 -0.5 C
S
GR
GS
[0.60056 0 0 0.60056 76.72167 64.29235] CT
N
f1616265672
f
GR
GS
[0.60056 0 0 0.60056 76.72167 64.29235] CT
N
f1224715763
f
GR
GS
[0.60056 0 0 0.60056 76.72167 64.29235] CT
N
/f1176887359{35.24 3.253 M
35.708 3.941 36.497 4.269 QT
37.287 4.597 38.193 4.597 QT
39.365 4.597 39.849 3.612 QT
40.333 2.628 40.333 1.362 QT
40.333 0.8 40.232 0.23 QT
40.13 -0.341 39.888 -0.825 QT
39.646 -1.309 39.216 -1.606 QT
38.787 -1.903 38.177 -1.903 QT
36.849 -1.903 L
36.677 -1.903 36.677 -2.091 QT
36.677 -2.263 L
36.677 -2.419 36.849 -2.419 QT
37.958 -2.513 L
38.662 -2.513 39.122 -3.036 QT
39.583 -3.559 39.802 -4.317 QT
40.021 -5.075 40.021 -5.763 QT
40.021 -6.716 39.568 -7.333 QT
39.115 -7.95 38.193 -7.95 QT
37.443 -7.95 36.747 -7.661 QT
36.052 -7.372 35.646 -6.778 QT
35.677 -6.794 35.708 -6.802 QT
35.74 -6.809 35.771 -6.809 QT
36.224 -6.809 36.529 -6.497 QT
36.833 -6.184 36.833 -5.731 QT
36.833 -5.309 36.529 -4.997 QT
36.224 -4.684 35.771 -4.684 QT
35.333 -4.684 35.021 -4.997 QT
34.708 -5.309 34.708 -5.731 QT
34.708 -6.591 35.224 -7.231 QT
35.74 -7.872 36.56 -8.2 QT
37.38 -8.528 38.193 -8.528 QT
38.802 -8.528 39.474 -8.341 QT
40.146 -8.153 40.693 -7.817 QT
41.24 -7.481 41.591 -6.958 QT
41.943 -6.434 41.943 -5.763 QT
41.943 -4.919 41.568 -4.208 QT
41.193 -3.497 40.537 -2.974 QT
39.88 -2.45 39.099 -2.2 QT
39.958 -2.044 40.74 -1.552 QT
41.521 -1.059 41.997 -0.302 QT
42.474 0.456 42.474 1.347 QT
42.474 2.441 41.872 3.339 QT
41.271 4.237 40.279 4.737 QT
39.287 5.237 38.193 5.237 QT
37.255 5.237 36.318 4.878 QT
35.38 4.519 34.779 3.808 QT
34.177 3.097 34.177 2.097 QT
34.177 1.612 34.505 1.276 QT
34.833 0.941 35.333 0.941 QT
35.662 0.941 35.927 1.089 QT
36.193 1.237 36.349 1.511 QT
36.505 1.784 36.505 2.097 QT
36.505 2.597 36.162 2.925 QT
35.818 3.253 35.333 3.253 QT
35.24 3.253 L
cp}def
f1176887359
f
GR
GS
[0.60056 0 0 0.60056 0 -0.46457] CT
[8 8] 0 setdash
2 LJ
2.5 LW
N
74 107.827 M
124 107.827 L
S
GR
GS
[0.60056 0 0 0.60056 76.72167 79.09912] CT
N
/f-1445923947{3.453 5.019 M
2.25 5.019 1.578 4.073 QT
0.906 3.128 0.906 1.862 QT
0.906 1.675 0.992 1.136 QT
1.078 0.597 1.078 0.456 QT
3.016 -7.294 L
3.094 -7.638 3.109 -7.841 QT
3.109 -8.153 1.813 -8.153 QT
1.625 -8.153 1.625 -8.419 QT
1.625 -8.466 1.664 -8.599 QT
1.703 -8.731 1.758 -8.794 QT
1.813 -8.856 1.906 -8.856 QT
4.594 -9.075 L
4.844 -9.075 4.844 -8.825 QT
3.359 -2.919 L
4.5 -4.044 5.641 -4.044 QT
6.5 -4.044 7.109 -3.591 QT
7.719 -3.138 8.023 -2.403 QT
8.328 -1.669 8.328 -0.841 QT
8.328 0.128 7.945 1.151 QT
7.563 2.175 6.898 3.066 QT
6.234 3.956 5.352 4.487 QT
4.469 5.019 3.453 5.019 QT
cp
3.5 4.503 M
4.188 4.503 4.781 3.925 QT
5.375 3.347 5.75 2.644 QT
6.141 1.847 6.492 0.472 QT
6.844 -0.903 6.844 -1.731 QT
6.844 -2.434 6.539 -2.981 QT
6.234 -3.528 5.594 -3.528 QT
4.875 -3.528 4.219 -2.989 QT
3.563 -2.45 3.063 -1.731 QT
2.5 0.534 L
2.172 1.8 2.156 2.566 QT
2.156 3.316 2.484 3.909 QT
2.813 4.503 3.5 4.503 QT
cp}def
f-1445923947
f
GR
GS
[0.60056 0 0 0.60056 76.72167 79.09912] CT
N
/f739849597{15.639 2.144 M
15.482 2.144 15.373 2.019 QT
15.264 1.894 15.264 1.737 QT
15.264 1.581 15.373 1.464 QT
15.482 1.347 15.639 1.347 QT
28.201 1.347 L
28.342 1.347 28.451 1.464 QT
28.561 1.581 28.561 1.737 QT
28.561 1.894 28.451 2.019 QT
28.342 2.144 28.201 2.144 QT
15.639 2.144 L
cp
15.639 -1.747 M
15.482 -1.747 15.373 -1.864 QT
15.264 -1.981 15.264 -2.138 QT
15.264 -2.294 15.373 -2.419 QT
15.482 -2.544 15.639 -2.544 QT
28.201 -2.544 L
28.342 -2.544 28.451 -2.419 QT
28.561 -2.294 28.561 -2.138 QT
28.561 -1.981 28.451 -1.864 QT
28.342 -1.747 28.201 -1.747 QT
15.639 -1.747 L
cp}def
f739849597
f
GR
GS
[0.60056 0 0 0.60056 76.72167 79.09912] CT
N
/f-452469186{40.172 5.019 M
39.047 5.019 38.172 4.355 QT
37.297 3.691 36.836 2.636 QT
36.375 1.581 36.375 0.487 QT
36.375 -0.372 36.64 -1.177 QT
36.906 -1.981 37.414 -2.63 QT
37.922 -3.278 38.64 -3.661 QT
39.359 -4.044 40.234 -4.044 QT
41.125 -4.044 41.969 -3.7 QT
42.812 -3.356 43.508 -2.786 QT
44.203 -2.216 44.812 -1.481 QT
45.406 -0.684 L
46 -1.622 46.726 -2.372 QT
47.453 -3.122 48.367 -3.583 QT
49.281 -4.044 50.312 -4.044 QT
51.172 -4.044 51.89 -3.653 QT
52.609 -3.263 53.101 -2.599 QT
53.594 -1.934 53.851 -1.13 QT
54.109 -0.325 54.109 0.487 QT
54.109 1.612 53.633 2.667 QT
53.156 3.722 52.281 4.37 QT
51.406 5.019 50.25 5.019 QT
48.937 5.019 47.765 4.316 QT
46.594 3.612 45.672 2.456 QT
45.078 1.659 L
44.156 3.144 42.914 4.081 QT
41.672 5.019 40.172 5.019 QT
cp
39.969 4.316 M
42.5 4.316 44.515 0.925 QT
43.453 -0.419 L
42.531 -1.638 41.742 -2.317 QT
40.953 -2.997 39.906 -2.997 QT
39.015 -2.997 38.328 -2.497 QT
37.64 -1.997 37.265 -1.184 QT
36.89 -0.372 36.89 0.503 QT
36.89 1.175 37.101 1.855 QT
37.312 2.534 37.711 3.089 QT
38.109 3.644 38.679 3.98 QT
39.25 4.316 39.969 4.316 QT
cp
47.031 1.394 M
47.953 2.612 48.742 3.292 QT
49.531 3.972 50.578 3.972 QT
51.234 3.972 51.789 3.683 QT
52.344 3.394 52.75 2.894 QT
53.156 2.394 53.375 1.769 QT
53.594 1.144 53.594 0.487 QT
53.594 -0.45 53.219 -1.333 QT
52.844 -2.216 52.148 -2.778 QT
51.453 -3.341 50.515 -3.341 QT
47.969 -3.341 45.969 0.066 QT
47.031 1.394 L
cp}def
f-452469186
f
GR
GS
[0.60056 0 0 0.60056 0 -0.46457] CT
1 LJ
2.5 LW
N
74 132.482 M
124 132.482 L
S
GR
GS
[0.60056 0 0 0.60056 0 -0.46457] CT
0.149 GC
10.0 ML
0.833 LW
N
69 147 M
69 44 L
188 44 L
188 147 L
cp
S
GR
%%Trailer
%%Pages: 1
%%EOF
