%!PS-Adobe-3.0 EPSF-3.0
%%Creator: (MATLAB, The Mathworks, Inc. Version 9.2.0.538062 \(R2017a\). Operating System: Windows 8)
%%Title: C:/Users/chees/Documents/DottoratoLoc/GNSS/authProtocol/latex/figures/secrectCapacity.eps
%%CreationDate: 2017-11-03T09:12:35
%%Pages: (atend)
%%BoundingBox: 0 0 568 567
%%LanguageLevel: 3
%%EndComments
%%BeginProlog
%%BeginResource: procset (Apache XML Graphics Std ProcSet) 1.2 0
%%Version: 1.2 0
%%Copyright: (Copyright 2001-2003,2010 The Apache Software Foundation. License terms: http://www.apache.org/licenses/LICENSE-2.0)
/bd{bind def}bind def
/ld{load def}bd
/GR/grestore ld
/M/moveto ld
/LJ/setlinejoin ld
/C/curveto ld
/f/fill ld
/LW/setlinewidth ld
/GC/setgray ld
/t/show ld
/N/newpath ld
/CT/concat ld
/cp/closepath ld
/S/stroke ld
/L/lineto ld
/CC/setcmykcolor ld
/A/ashow ld
/GS/gsave ld
/RC/setrgbcolor ld
/RM/rmoveto ld
/ML/setmiterlimit ld
/re {4 2 roll M
1 index 0 rlineto
0 exch rlineto
neg 0 rlineto
cp } bd
/_ctm matrix def
/_tm matrix def
/BT { _ctm currentmatrix pop matrix _tm copy pop 0 0 moveto } bd
/ET { _ctm setmatrix } bd
/iTm { _ctm setmatrix _tm concat } bd
/Tm { _tm astore pop iTm 0 0 moveto } bd
/ux 0.0 def
/uy 0.0 def
/F {
  /Tp exch def
  /Tf exch def
  Tf findfont Tp scalefont setfont
  /cf Tf def  /cs Tp def
} bd
/ULS {currentpoint /uy exch def /ux exch def} bd
/ULE {
  /Tcx currentpoint pop def
  gsave
  newpath
  cf findfont cs scalefont dup
  /FontMatrix get 0 get /Ts exch def /FontInfo get dup
  /UnderlinePosition get Ts mul /To exch def
  /UnderlineThickness get Ts mul /Tt exch def
  ux uy To add moveto  Tcx uy To add lineto
  Tt setlinewidth stroke
  grestore
} bd
/OLE {
  /Tcx currentpoint pop def
  gsave
  newpath
  cf findfont cs scalefont dup
  /FontMatrix get 0 get /Ts exch def /FontInfo get dup
  /UnderlinePosition get Ts mul /To exch def
  /UnderlineThickness get Ts mul /Tt exch def
  ux uy To add cs add moveto Tcx uy To add cs add lineto
  Tt setlinewidth stroke
  grestore
} bd
/SOE {
  /Tcx currentpoint pop def
  gsave
  newpath
  cf findfont cs scalefont dup
  /FontMatrix get 0 get /Ts exch def /FontInfo get dup
  /UnderlinePosition get Ts mul /To exch def
  /UnderlineThickness get Ts mul /Tt exch def
  ux uy To add cs 10 mul 26 idiv add moveto Tcx uy To add cs 10 mul 26 idiv add lineto
  Tt setlinewidth stroke
  grestore
} bd
/QT {
/Y22 exch store
/X22 exch store
/Y21 exch store
/X21 exch store
currentpoint
/Y21 load 2 mul add 3 div exch
/X21 load 2 mul add 3 div exch
/X21 load 2 mul /X22 load add 3 div
/Y21 load 2 mul /Y22 load add 3 div
/X22 load /Y22 load curveto
} bd
/SSPD {
dup length /d exch dict def
{
/v exch def
/k exch def
currentpagedevice k known {
/cpdv currentpagedevice k get def
v cpdv ne {
/upd false def
/nullv v type /nulltype eq def
/nullcpdv cpdv type /nulltype eq def
nullv nullcpdv or
{
/upd true def
} {
/sametype v type cpdv type eq def
sametype {
v type /arraytype eq {
/vlen v length def
/cpdvlen cpdv length def
vlen cpdvlen eq {
0 1 vlen 1 sub {
/i exch def
/obj v i get def
/cpdobj cpdv i get def
obj cpdobj ne {
/upd true def
exit
} if
} for
} {
/upd true def
} ifelse
} {
v type /dicttype eq {
v {
/dv exch def
/dk exch def
/cpddv cpdv dk get def
dv cpddv ne {
/upd true def
exit
} if
} forall
} {
/upd true def
} ifelse
} ifelse
} if
} ifelse
upd true eq {
d k v put
} if
} if
} if
} forall
d length 0 gt {
d setpagedevice
} if
} bd
/RE { % /NewFontName [NewEncodingArray] /FontName RE -
  findfont dup length dict begin
  {
    1 index /FID ne
    {def} {pop pop} ifelse
  } forall
  /Encoding exch def
  /FontName 1 index def
  currentdict definefont pop
  end
} bind def
%%EndResource
%%BeginResource: procset (Apache XML Graphics EPS ProcSet) 1.0 0
%%Version: 1.0 0
%%Copyright: (Copyright 2002-2003 The Apache Software Foundation. License terms: http://www.apache.org/licenses/LICENSE-2.0)
/BeginEPSF { %def
/b4_Inc_state save def         % Save state for cleanup
/dict_count countdictstack def % Count objects on dict stack
/op_count count 1 sub def      % Count objects on operand stack
userdict begin                 % Push userdict on dict stack
/showpage { } def              % Redefine showpage, { } = null proc
0 setgray 0 setlinecap         % Prepare graphics state
1 setlinewidth 0 setlinejoin
10 setmiterlimit [ ] 0 setdash newpath
/languagelevel where           % If level not equal to 1 then
{pop languagelevel             % set strokeadjust and
1 ne                           % overprint to their defaults.
{false setstrokeadjust false setoverprint
} if
} if
} bd
/EndEPSF { %def
count op_count sub {pop} repeat            % Clean up stacks
countdictstack dict_count sub {end} repeat
b4_Inc_state restore
} bd
%%EndResource
%FOPBeginFontDict
%%IncludeResource: font Courier-Bold
%%IncludeResource: font Helvetica
%%IncludeResource: font Courier-BoldOblique
%%IncludeResource: font Courier-Oblique
%%IncludeResource: font Times-Roman
%%IncludeResource: font Helvetica-BoldOblique
%%IncludeResource: font Helvetica-Bold
%%IncludeResource: font Helvetica-Oblique
%%IncludeResource: font Times-BoldItalic
%%IncludeResource: font Courier
%%IncludeResource: font Times-Italic
%%IncludeResource: font Times-Bold
%%IncludeResource: font Symbol
%%IncludeResource: font ZapfDingbats
%FOPEndFontDict
%%BeginResource: encoding WinAnsiEncoding
/WinAnsiEncoding [
/.notdef /.notdef /.notdef /.notdef /.notdef
/.notdef /.notdef /.notdef /.notdef /.notdef
/.notdef /.notdef /.notdef /.notdef /.notdef
/.notdef /.notdef /.notdef /.notdef /.notdef
/.notdef /.notdef /.notdef /.notdef /.notdef
/.notdef /.notdef /.notdef /.notdef /.notdef
/.notdef /.notdef /space /exclam /quotedbl
/numbersign /dollar /percent /ampersand /quotesingle
/parenleft /parenright /asterisk /plus /comma
/hyphen /period /slash /zero /one
/two /three /four /five /six
/seven /eight /nine /colon /semicolon
/less /equal /greater /question /at
/A /B /C /D /E
/F /G /H /I /J
/K /L /M /N /O
/P /Q /R /S /T
/U /V /W /X /Y
/Z /bracketleft /backslash /bracketright /asciicircum
/underscore /quoteleft /a /b /c
/d /e /f /g /h
/i /j /k /l /m
/n /o /p /q /r
/s /t /u /v /w
/x /y /z /braceleft /bar
/braceright /asciitilde /bullet /Euro /bullet
/quotesinglbase /florin /quotedblbase /ellipsis /dagger
/daggerdbl /circumflex /perthousand /Scaron /guilsinglleft
/OE /bullet /Zcaron /bullet /bullet
/quoteleft /quoteright /quotedblleft /quotedblright /bullet
/endash /emdash /asciitilde /trademark /scaron
/guilsinglright /oe /bullet /zcaron /Ydieresis
/space /exclamdown /cent /sterling /currency
/yen /brokenbar /section /dieresis /copyright
/ordfeminine /guillemotleft /logicalnot /sfthyphen /registered
/macron /degree /plusminus /twosuperior /threesuperior
/acute /mu /paragraph /middot /cedilla
/onesuperior /ordmasculine /guillemotright /onequarter /onehalf
/threequarters /questiondown /Agrave /Aacute /Acircumflex
/Atilde /Adieresis /Aring /AE /Ccedilla
/Egrave /Eacute /Ecircumflex /Edieresis /Igrave
/Iacute /Icircumflex /Idieresis /Eth /Ntilde
/Ograve /Oacute /Ocircumflex /Otilde /Odieresis
/multiply /Oslash /Ugrave /Uacute /Ucircumflex
/Udieresis /Yacute /Thorn /germandbls /agrave
/aacute /acircumflex /atilde /adieresis /aring
/ae /ccedilla /egrave /eacute /ecircumflex
/edieresis /igrave /iacute /icircumflex /idieresis
/eth /ntilde /ograve /oacute /ocircumflex
/otilde /odieresis /divide /oslash /ugrave
/uacute /ucircumflex /udieresis /yacute /thorn
/ydieresis
] def
%%EndResource
%FOPBeginFontReencode
/Courier-Bold findfont
dup length dict begin
  {1 index /FID ne {def} {pop pop} ifelse} forall
  /Encoding WinAnsiEncoding def
  currentdict
end
/Courier-Bold exch definefont pop
/Helvetica findfont
dup length dict begin
  {1 index /FID ne {def} {pop pop} ifelse} forall
  /Encoding WinAnsiEncoding def
  currentdict
end
/Helvetica exch definefont pop
/Courier-BoldOblique findfont
dup length dict begin
  {1 index /FID ne {def} {pop pop} ifelse} forall
  /Encoding WinAnsiEncoding def
  currentdict
end
/Courier-BoldOblique exch definefont pop
/Courier-Oblique findfont
dup length dict begin
  {1 index /FID ne {def} {pop pop} ifelse} forall
  /Encoding WinAnsiEncoding def
  currentdict
end
/Courier-Oblique exch definefont pop
/Times-Roman findfont
dup length dict begin
  {1 index /FID ne {def} {pop pop} ifelse} forall
  /Encoding WinAnsiEncoding def
  currentdict
end
/Times-Roman exch definefont pop
/Helvetica-BoldOblique findfont
dup length dict begin
  {1 index /FID ne {def} {pop pop} ifelse} forall
  /Encoding WinAnsiEncoding def
  currentdict
end
/Helvetica-BoldOblique exch definefont pop
/Helvetica-Bold findfont
dup length dict begin
  {1 index /FID ne {def} {pop pop} ifelse} forall
  /Encoding WinAnsiEncoding def
  currentdict
end
/Helvetica-Bold exch definefont pop
/Helvetica-Oblique findfont
dup length dict begin
  {1 index /FID ne {def} {pop pop} ifelse} forall
  /Encoding WinAnsiEncoding def
  currentdict
end
/Helvetica-Oblique exch definefont pop
/Times-BoldItalic findfont
dup length dict begin
  {1 index /FID ne {def} {pop pop} ifelse} forall
  /Encoding WinAnsiEncoding def
  currentdict
end
/Times-BoldItalic exch definefont pop
/Courier findfont
dup length dict begin
  {1 index /FID ne {def} {pop pop} ifelse} forall
  /Encoding WinAnsiEncoding def
  currentdict
end
/Courier exch definefont pop
/Times-Italic findfont
dup length dict begin
  {1 index /FID ne {def} {pop pop} ifelse} forall
  /Encoding WinAnsiEncoding def
  currentdict
end
/Times-Italic exch definefont pop
/Times-Bold findfont
dup length dict begin
  {1 index /FID ne {def} {pop pop} ifelse} forall
  /Encoding WinAnsiEncoding def
  currentdict
end
/Times-Bold exch definefont pop
%FOPEndFontReencode
%%EndProlog
%%Page: 1 1
%%PageBoundingBox: 0 0 568 567
%%BeginPageSetup
[1 0 0 -1 0 567] CT
%%EndPageSetup
GS
[0.6 0 0 0.6 0 0] CT
N
0 0 M
946 0 L
946 945 L
0 945 L
0 0 L
cp
clip
1 GC
N
0 0 946 945 re
f
GR
GS
[0.6 0 0 0.6 0 0] CT
1 GC
N
0 0 946 945 re
f
GR
GS
[0.6 0 0 0.6 0 0] CT
1 GC
N
123 822.5 M
856 822.5 L
856 89.5 L
123 89.5 L
cp
f
GR
GS
[0.6 0 0 0.6 0 0] CT
0.873 GC
1 LJ
0.833 LW
N
174.14 822.5 M
174.14 89.5 L
S
GR
GS
[0.6 0 0 0.6 0 0] CT
0.873 GC
1 LJ
0.833 LW
N
259.372 822.5 M
259.372 89.5 L
S
GR
GS
[0.6 0 0 0.6 0 0] CT
0.873 GC
1 LJ
0.833 LW
N
344.605 822.5 M
344.605 89.5 L
S
GR
GS
[0.6 0 0 0.6 0 0] CT
0.873 GC
1 LJ
0.833 LW
N
429.837 822.5 M
429.837 89.5 L
S
GR
GS
[0.6 0 0 0.6 0 0] CT
0.873 GC
1 LJ
0.833 LW
N
515.07 822.5 M
515.07 89.5 L
S
GR
GS
[0.6 0 0 0.6 0 0] CT
0.873 GC
1 LJ
0.833 LW
N
600.302 822.5 M
600.302 89.5 L
S
GR
GS
[0.6 0 0 0.6 0 0] CT
0.873 GC
1 LJ
0.833 LW
N
685.535 822.5 M
685.535 89.5 L
S
GR
GS
[0.6 0 0 0.6 0 0] CT
0.873 GC
1 LJ
0.833 LW
N
770.767 822.5 M
770.767 89.5 L
S
GR
GS
[0.6 0 0 0.6 0 0] CT
0.873 GC
1 LJ
0.833 LW
N
856 822.5 M
856 89.5 L
S
GR
GS
[0.6 0 0 0.6 0 0] CT
0.873 GC
1 LJ
0.833 LW
N
856 822.5 M
123 822.5 L
S
GR
GS
[0.6 0 0 0.6 0 0] CT
0.873 GC
1 LJ
0.833 LW
N
856 741.056 M
123 741.056 L
S
GR
GS
[0.6 0 0 0.6 0 0] CT
0.873 GC
1 LJ
0.833 LW
N
856 659.611 M
123 659.611 L
S
GR
GS
[0.6 0 0 0.6 0 0] CT
0.873 GC
1 LJ
0.833 LW
N
856 578.167 M
123 578.167 L
S
GR
GS
[0.6 0 0 0.6 0 0] CT
0.873 GC
1 LJ
0.833 LW
N
856 496.722 M
123 496.722 L
S
GR
GS
[0.6 0 0 0.6 0 0] CT
0.873 GC
1 LJ
0.833 LW
N
856 415.278 M
123 415.278 L
S
GR
GS
[0.6 0 0 0.6 0 0] CT
0.873 GC
1 LJ
0.833 LW
N
856 333.833 M
123 333.833 L
S
GR
GS
[0.6 0 0 0.6 0 0] CT
0.873 GC
1 LJ
0.833 LW
N
856 252.389 M
123 252.389 L
S
GR
GS
[0.6 0 0 0.6 0 0] CT
0.873 GC
1 LJ
0.833 LW
N
856 170.944 M
123 170.944 L
S
GR
GS
[0.6 0 0 0.6 0 0] CT
0.873 GC
1 LJ
0.833 LW
N
856 89.5 M
123 89.5 L
S
GR
GS
[0.6 0 0 0.6 0 0] CT
0.149 GC
2 setlinecap
1 LJ
0.833 LW
N
123 822.5 M
856 822.5 L
S
GR
GS
[0.6 0 0 0.6 0 0] CT
0.149 GC
2 setlinecap
1 LJ
0.833 LW
N
174.14 822.5 M
174.14 815.17 L
S
GR
GS
[0.6 0 0 0.6 0 0] CT
0.149 GC
2 setlinecap
1 LJ
0.833 LW
N
259.372 822.5 M
259.372 815.17 L
S
GR
GS
[0.6 0 0 0.6 0 0] CT
0.149 GC
2 setlinecap
1 LJ
0.833 LW
N
344.605 822.5 M
344.605 815.17 L
S
GR
GS
[0.6 0 0 0.6 0 0] CT
0.149 GC
2 setlinecap
1 LJ
0.833 LW
N
429.837 822.5 M
429.837 815.17 L
S
GR
GS
[0.6 0 0 0.6 0 0] CT
0.149 GC
2 setlinecap
1 LJ
0.833 LW
N
515.07 822.5 M
515.07 815.17 L
S
GR
GS
[0.6 0 0 0.6 0 0] CT
0.149 GC
2 setlinecap
1 LJ
0.833 LW
N
600.302 822.5 M
600.302 815.17 L
S
GR
GS
[0.6 0 0 0.6 0 0] CT
0.149 GC
2 setlinecap
1 LJ
0.833 LW
N
685.535 822.5 M
685.535 815.17 L
S
GR
GS
[0.6 0 0 0.6 0 0] CT
0.149 GC
2 setlinecap
1 LJ
0.833 LW
N
770.767 822.5 M
770.767 815.17 L
S
GR
GS
[0.6 0 0 0.6 0 0] CT
0.149 GC
2 setlinecap
1 LJ
0.833 LW
N
856 822.5 M
856 815.17 L
S
GR
GS
[0.6 0 0 0.6 104.48372 498.3] CT
0.149 GC
/Helvetica 23.333 F
GS
[1 0 0 1 0 0] CT
-17 24 moveto 
1 -1 scale
(-10) t 
GR
GR
GS
[0.6 0 0 0.6 155.62325 498.3] CT
0.149 GC
/Helvetica 23.333 F
GS
[1 0 0 1 0 0] CT
-10.5 24 moveto 
1 -1 scale
(-5) t 
GR
GR
GS
[0.6 0 0 0.6 206.76278 498.3] CT
0.149 GC
/Helvetica 23.333 F
GS
[1 0 0 1 0 0] CT
-6.5 24 moveto 
1 -1 scale
(0) t 
GR
GR
GS
[0.6 0 0 0.6 257.90232 498.3] CT
0.149 GC
/Helvetica 23.333 F
GS
[1 0 0 1 0 0] CT
-6.5 24 moveto 
1 -1 scale
(5) t 
GR
GR
GS
[0.6 0 0 0.6 309.04184 498.3] CT
0.149 GC
/Helvetica 23.333 F
GS
[1 0 0 1 0 0] CT
-13 24 moveto 
1 -1 scale
(10) t 
GR
GR
GS
[0.6 0 0 0.6 360.18137 498.3] CT
0.149 GC
/Helvetica 23.333 F
GS
[1 0 0 1 0 0] CT
-13 24 moveto 
1 -1 scale
(15) t 
GR
GR
GS
[0.6 0 0 0.6 411.32093 498.3] CT
0.149 GC
/Helvetica 23.333 F
GS
[1 0 0 1 0 0] CT
-13 24 moveto 
1 -1 scale
(20) t 
GR
GR
GS
[0.6 0 0 0.6 462.46045 498.3] CT
0.149 GC
/Helvetica 23.333 F
GS
[1 0 0 1 0 0] CT
-13 24 moveto 
1 -1 scale
(25) t 
GR
GR
GS
[0.6 0 0 0.6 513.59998 498.3] CT
0.149 GC
/Helvetica 23.333 F
GS
[1 0 0 1 0 0] CT
-13 24 moveto 
1 -1 scale
(30) t 
GR
GR
GS
[0.6 0 0 0.6 293.70021 517.30001] CT
0.149 GC
N
-17.851 28.375 M
-19.32 28.375 -20.453 27.672 QT
-21.586 26.969 -22.211 25.773 QT
-22.836 24.578 -22.836 23.156 QT
-22.836 21.625 -22.14 19.93 QT
-21.445 18.234 -20.242 16.836 QT
-19.039 15.437 -17.523 14.601 QT
-16.008 13.766 -14.414 13.766 QT
-6.101 13.766 L
-5.773 13.766 -5.531 13.992 QT
-5.289 14.219 -5.289 14.609 QT
-5.289 15.094 -5.633 15.453 QT
-5.976 15.812 -6.461 15.812 QT
-10.492 15.812 L
-9.539 17.234 -9.539 19.25 QT
-9.539 20.906 -10.179 22.516 QT
-10.82 24.125 -11.968 25.461 QT
-13.117 26.797 -14.64 27.586 QT
-16.164 28.375 -17.851 28.375 QT
cp
-17.82 27.5 M
-16.008 27.5 -14.617 26.094 QT
-13.226 24.687 -12.484 22.648 QT
-11.742 20.609 -11.742 18.859 QT
-11.742 17.453 -12.523 16.633 QT
-13.304 15.812 -14.711 15.812 QT
-16.633 15.812 -17.976 17.101 QT
-19.32 18.391 -19.984 20.344 QT
-20.648 22.297 -20.648 24.094 QT
-20.648 25.516 -19.906 26.508 QT
-19.164 27.5 -17.82 27.5 QT
cp
f
GR
GS
[0.6 0 0 0.6 293.70021 517.30001] CT
0.149 GC
N
-2.639 15.903 M
-2.639 15.278 L
-2.639 15.232 -2.593 15.169 QT
0.986 11.216 L
1.798 10.325 2.298 9.732 QT
2.798 9.138 3.29 8.364 QT
3.782 7.591 4.071 6.786 QT
4.361 5.982 4.361 5.091 QT
4.361 4.138 4.017 3.278 QT
3.673 2.419 2.978 1.903 QT
2.282 1.388 1.314 1.388 QT
0.314 1.388 -0.483 1.989 QT
-1.28 2.591 -1.608 3.544 QT
-1.53 3.528 -1.358 3.528 QT
-0.843 3.528 -0.483 3.872 QT
-0.124 4.216 -0.124 4.778 QT
-0.124 5.294 -0.483 5.661 QT
-0.843 6.028 -1.358 6.028 QT
-1.905 6.028 -2.272 5.653 QT
-2.639 5.278 -2.639 4.778 QT
-2.639 3.903 -2.311 3.146 QT
-1.983 2.388 -1.374 1.802 QT
-0.764 1.216 0.009 0.903 QT
0.782 0.591 1.642 0.591 QT
2.954 0.591 4.087 1.146 QT
5.22 1.7 5.884 2.716 QT
6.548 3.732 6.548 5.091 QT
6.548 6.091 6.111 6.989 QT
5.673 7.888 4.993 8.622 QT
4.314 9.357 3.243 10.286 QT
2.173 11.216 1.829 11.528 QT
-0.764 14.044 L
1.439 14.044 L
3.064 14.044 4.165 14.013 QT
5.267 13.982 5.329 13.919 QT
5.595 13.638 5.876 11.81 QT
6.548 11.81 L
5.907 15.903 L
-2.639 15.903 L
cp
f
GR
GS
[0.6 0 0 0.6 293.70021 517.30001] CT
0.149 GC
N
-2.492 33.569 M
-2.492 33.084 -2.367 32.459 QT
-2.242 31.834 -2.078 31.342 QT
-1.914 30.85 -1.539 29.842 QT
-1.164 28.834 -1.132 28.74 QT
-0.835 27.897 -0.835 27.35 QT
-0.835 26.678 -1.335 26.678 QT
-2.242 26.678 -2.835 27.615 QT
-3.429 28.553 -3.71 29.709 QT
-3.757 29.85 -3.898 29.85 QT
-4.164 29.85 L
-4.351 29.85 -4.351 29.631 QT
-4.351 29.569 L
-3.992 28.194 -3.226 27.139 QT
-2.46 26.084 -1.289 26.084 QT
-0.476 26.084 0.094 26.623 QT
0.665 27.162 0.665 27.99 QT
0.665 28.412 0.477 28.881 QT
0.196 29.584 -0.164 30.561 QT
-0.523 31.537 -0.726 32.334 QT
-0.929 33.131 -0.929 33.865 QT
-0.929 34.772 -0.46 35.334 QT
0.008 35.897 0.915 35.897 QT
2.133 35.897 2.946 34.022 QT
2.915 33.897 2.915 33.647 QT
2.915 33.022 3.102 32.24 QT
4.383 27.069 L
4.461 26.756 4.743 26.537 QT
5.024 26.319 5.352 26.319 QT
5.633 26.319 5.836 26.498 QT
6.04 26.678 6.04 26.975 QT
6.04 27.115 6.024 27.162 QT
4.727 32.287 L
4.508 33.209 4.508 33.944 QT
4.508 34.803 4.907 35.35 QT
5.305 35.897 6.149 35.897 QT
7.633 35.897 8.586 33.944 QT
8.946 33.24 9.391 31.881 QT
9.836 30.522 9.836 29.803 QT
9.836 29.147 9.626 28.756 QT
9.415 28.365 9.04 27.92 QT
8.665 27.475 8.665 27.24 QT
8.665 26.803 9.04 26.428 QT
9.415 26.053 9.852 26.053 QT
10.415 26.053 10.657 26.561 QT
10.899 27.069 10.899 27.709 QT
10.899 28.475 10.641 29.67 QT
10.383 30.865 9.985 32.076 QT
9.586 33.287 9.243 34.006 QT
7.977 36.506 6.102 36.506 QT
5.149 36.506 4.352 36.131 QT
3.555 35.756 3.165 34.944 QT
2.79 35.615 2.188 36.061 QT
1.586 36.506 0.868 36.506 QT
-0.648 36.506 -1.57 35.779 QT
-2.492 35.053 -2.492 33.569 QT
cp
f
GR
GS
[0.6 0 0 0.6 293.70021 517.30001] CT
0.149 GC
N
13.966 27.343 M
13.763 27.343 13.614 27.179 QT
13.466 27.015 13.466 26.828 QT
13.466 26.531 13.7 26.422 QT
16.153 25.25 L
13.7 24.093 L
13.466 24 13.466 23.687 QT
13.466 23.5 13.614 23.336 QT
13.763 23.172 13.966 23.172 QT
14.091 23.172 14.185 23.25 QT
16.372 24.843 L
16.122 22.078 L
16.122 21.859 16.263 21.726 QT
16.403 21.593 16.607 21.593 QT
16.81 21.593 16.942 21.718 QT
17.075 21.843 17.075 22.031 QT
17.075 22.078 L
16.825 24.843 L
19.013 23.25 L
19.107 23.172 19.232 23.172 QT
19.45 23.172 19.591 23.336 QT
19.732 23.5 19.732 23.687 QT
19.732 24 19.497 24.093 QT
17.044 25.25 L
19.497 26.422 L
19.732 26.531 19.732 26.828 QT
19.732 27.015 19.591 27.179 QT
19.45 27.343 19.232 27.343 QT
19.107 27.343 19.013 27.265 QT
16.825 25.672 L
17.075 28.422 L
17.075 28.484 L
17.075 28.672 16.935 28.797 QT
16.794 28.922 16.607 28.922 QT
16.403 28.922 16.263 28.781 QT
16.122 28.64 16.122 28.453 QT
16.372 25.672 L
14.185 27.265 L
14.091 27.343 13.966 27.343 QT
cp
f
GR
GS
[0.6 0 0 0.6 0 0] CT
0.149 GC
2 setlinecap
1 LJ
0.833 LW
N
123 822.5 M
123 89.5 L
S
GR
GS
[0.6 0 0 0.6 0 0] CT
0.149 GC
2 setlinecap
1 LJ
0.833 LW
N
123 822.5 M
130.33 822.5 L
S
GR
GS
[0.6 0 0 0.6 0 0] CT
0.149 GC
2 setlinecap
1 LJ
0.833 LW
N
123 741.056 M
130.33 741.056 L
S
GR
GS
[0.6 0 0 0.6 0 0] CT
0.149 GC
2 setlinecap
1 LJ
0.833 LW
N
123 659.611 M
130.33 659.611 L
S
GR
GS
[0.6 0 0 0.6 0 0] CT
0.149 GC
2 setlinecap
1 LJ
0.833 LW
N
123 578.167 M
130.33 578.167 L
S
GR
GS
[0.6 0 0 0.6 0 0] CT
0.149 GC
2 setlinecap
1 LJ
0.833 LW
N
123 496.722 M
130.33 496.722 L
S
GR
GS
[0.6 0 0 0.6 0 0] CT
0.149 GC
2 setlinecap
1 LJ
0.833 LW
N
123 415.278 M
130.33 415.278 L
S
GR
GS
[0.6 0 0 0.6 0 0] CT
0.149 GC
2 setlinecap
1 LJ
0.833 LW
N
123 333.833 M
130.33 333.833 L
S
GR
GS
[0.6 0 0 0.6 0 0] CT
0.149 GC
2 setlinecap
1 LJ
0.833 LW
N
123 252.389 M
130.33 252.389 L
S
GR
GS
[0.6 0 0 0.6 0 0] CT
0.149 GC
2 setlinecap
1 LJ
0.833 LW
N
123 170.944 M
130.33 170.944 L
S
GR
GS
[0.6 0 0 0.6 0 0] CT
0.149 GC
2 setlinecap
1 LJ
0.833 LW
N
123 89.5 M
130.33 89.5 L
S
GR
GS
[0.6 0 0 0.6 69 493.5] CT
0.149 GC
/Helvetica 23.333 F
GS
[1 0 0 1 0 0] CT
-13 9 moveto 
1 -1 scale
(0) t 
GR
GR
GS
[0.6 0 0 0.6 69 444.63333] CT
0.149 GC
/Helvetica 23.333 F
GS
[1 0 0 1 0 0] CT
-32 9 moveto 
1 -1 scale
(0.2) t 
GR
GR
GS
[0.6 0 0 0.6 69 395.76665] CT
0.149 GC
/Helvetica 23.333 F
GS
[1 0 0 1 0 0] CT
-32 9 moveto 
1 -1 scale
(0.4) t 
GR
GR
GS
[0.6 0 0 0.6 69 346.90001] CT
0.149 GC
/Helvetica 23.333 F
GS
[1 0 0 1 0 0] CT
-32 9 moveto 
1 -1 scale
(0.6) t 
GR
GR
GS
[0.6 0 0 0.6 69 298.03334] CT
0.149 GC
/Helvetica 23.333 F
GS
[1 0 0 1 0 0] CT
-32 9 moveto 
1 -1 scale
(0.8) t 
GR
GR
GS
[0.6 0 0 0.6 69 249.16666] CT
0.149 GC
/Helvetica 23.333 F
GS
[1 0 0 1 0 0] CT
-13 9 moveto 
1 -1 scale
(1) t 
GR
GR
GS
[0.6 0 0 0.6 69 200.29999] CT
0.149 GC
/Helvetica 23.333 F
GS
[1 0 0 1 0 0] CT
-32 9 moveto 
1 -1 scale
(1.2) t 
GR
GR
GS
[0.6 0 0 0.6 69 151.43334] CT
0.149 GC
/Helvetica 23.333 F
GS
[1 0 0 1 0 0] CT
-32 9 moveto 
1 -1 scale
(1.4) t 
GR
GR
GS
[0.6 0 0 0.6 69 102.56666] CT
0.149 GC
/Helvetica 23.333 F
GS
[1 0 0 1 0 0] CT
-32 9 moveto 
1 -1 scale
(1.6) t 
GR
GR
GS
[0.6 0 0 0.6 69 53.70001] CT
0.149 GC
/Helvetica 23.333 F
GS
[1 0 0 1 0 0] CT
-32 9 moveto 
1 -1 scale
(1.8) t 
GR
GR
GS
[0 -0.6 0.6 0 46.8 273.5998] CT
0.149 GC
N
-91.735 -19.125 M
-91.735 -17.141 -90.969 -15.633 QT
-90.204 -14.125 -88.743 -13.281 QT
-87.282 -12.438 -85.298 -12.438 QT
-83.219 -12.438 -81.298 -13.5 QT
-79.376 -14.563 -78.009 -16.344 QT
-76.641 -18.125 -76.141 -20.125 QT
-76.079 -20.313 -75.891 -20.313 QT
-75.485 -20.313 L
-75.36 -20.313 -75.282 -20.227 QT
-75.204 -20.141 -75.204 -20.031 QT
-75.204 -20 -75.235 -19.922 QT
-75.798 -17.641 -77.415 -15.633 QT
-79.032 -13.625 -81.29 -12.453 QT
-83.548 -11.281 -85.923 -11.281 QT
-88.501 -11.281 -90.548 -12.438 QT
-92.594 -13.594 -93.735 -15.656 QT
-94.876 -17.719 -94.876 -20.313 QT
-94.876 -23.094 -93.634 -25.805 QT
-92.391 -28.516 -90.298 -30.633 QT
-88.204 -32.75 -85.516 -34.008 QT
-82.829 -35.266 -80.079 -35.266 QT
-78.985 -35.266 -77.985 -34.938 QT
-76.985 -34.609 -76.134 -33.93 QT
-75.282 -33.25 -74.735 -32.375 QT
-72.126 -35.203 L
-72.126 -35.266 -71.954 -35.266 QT
-71.766 -35.266 L
-71.641 -35.266 -71.555 -35.156 QT
-71.469 -35.047 -71.469 -34.922 QT
-73.719 -26.016 L
-73.719 -25.797 -73.969 -25.797 QT
-74.563 -25.797 L
-74.829 -25.797 -74.829 -26.156 QT
-74.704 -26.891 -74.704 -27.906 QT
-74.704 -29.516 -75.251 -30.945 QT
-75.798 -32.375 -76.946 -33.242 QT
-78.094 -34.109 -79.751 -34.109 QT
-82.454 -34.109 -84.688 -32.758 QT
-86.923 -31.406 -88.477 -29.203 QT
-90.032 -27 -90.884 -24.32 QT
-91.735 -21.641 -91.735 -19.125 QT
cp
f
GR
GS
[0 -0.6 0.6 0 46.8 273.5998] CT
0.149 GC
N
-70.724 -8.406 M
-70.114 -7.344 -68.239 -7.344 QT
-67.427 -7.344 -66.7 -7.625 QT
-65.974 -7.906 -65.497 -8.453 QT
-65.02 -9 -65.02 -9.781 QT
-65.02 -10.375 -65.45 -10.758 QT
-65.88 -11.141 -66.489 -11.281 QT
-67.739 -11.531 L
-68.583 -11.735 -69.138 -12.32 QT
-69.692 -12.906 -69.692 -13.735 QT
-69.692 -14.766 -69.138 -15.547 QT
-68.583 -16.328 -67.669 -16.742 QT
-66.755 -17.156 -65.786 -17.156 QT
-64.739 -17.156 -63.911 -16.664 QT
-63.083 -16.172 -63.083 -15.188 QT
-63.083 -14.656 -63.38 -14.25 QT
-63.677 -13.844 -64.208 -13.844 QT
-64.52 -13.844 -64.739 -14.047 QT
-64.958 -14.25 -64.958 -14.547 QT
-64.958 -14.813 -64.802 -15.07 QT
-64.645 -15.328 -64.395 -15.477 QT
-64.145 -15.625 -63.88 -15.625 QT
-64.083 -16.125 -64.638 -16.344 QT
-65.192 -16.563 -65.833 -16.563 QT
-66.411 -16.563 -66.997 -16.328 QT
-67.583 -16.094 -67.934 -15.641 QT
-68.286 -15.188 -68.286 -14.563 QT
-68.286 -14.156 -67.997 -13.844 QT
-67.708 -13.531 -67.27 -13.391 QT
-65.942 -13.125 L
-65.302 -12.985 -64.77 -12.641 QT
-64.239 -12.297 -63.927 -11.774 QT
-63.614 -11.25 -63.614 -10.578 QT
-63.614 -9.735 -64.091 -8.899 QT
-64.567 -8.063 -65.27 -7.578 QT
-66.489 -6.735 -68.27 -6.735 QT
-69.489 -6.735 -70.513 -7.297 QT
-71.536 -7.86 -71.536 -8.985 QT
-71.536 -9.61 -71.169 -10.07 QT
-70.802 -10.531 -70.177 -10.531 QT
-69.802 -10.531 -69.552 -10.313 QT
-69.302 -10.094 -69.302 -9.719 QT
-69.302 -9.188 -69.692 -8.797 QT
-70.083 -8.406 -70.614 -8.406 QT
-70.724 -8.406 L
cp
f
GR
GS
[0 -0.6 0.6 0 46.8 273.5998] CT
0.149 GC
N
-45.102 -3.75 M
-45.102 -36.75 L
-40.602 -36.75 L
-40.602 -35.422 L
-43.79 -35.422 L
-43.79 -5.078 L
-40.602 -5.078 L
-40.602 -3.75 L
-45.102 -3.75 L
cp
f
GR
GS
[0 -0.6 0.6 0 46.8 273.5998] CT
0.149 GC
N
-36.311 -12 M
-36.311 -31.531 L
-36.311 -32.422 -36.577 -32.813 QT
-36.843 -33.203 -37.343 -33.289 QT
-37.843 -33.375 -38.89 -33.375 QT
-38.89 -34.547 L
-34.015 -34.891 L
-34.015 -24.563 L
-33.468 -25.188 -32.733 -25.641 QT
-31.999 -26.094 -31.163 -26.336 QT
-30.327 -26.578 -29.452 -26.578 QT
-27.968 -26.578 -26.702 -25.984 QT
-25.436 -25.391 -24.507 -24.344 QT
-23.577 -23.297 -23.054 -21.938 QT
-22.53 -20.578 -22.53 -19.125 QT
-22.53 -17.125 -23.499 -15.399 QT
-24.468 -13.672 -26.155 -12.649 QT
-27.843 -11.625 -29.858 -11.625 QT
-31.108 -11.625 -32.288 -12.274 QT
-33.468 -12.922 -34.233 -13.984 QT
-35.358 -12 L
-36.311 -12 L
cp
-33.921 -15.234 M
-33.374 -14.031 -32.343 -13.266 QT
-31.311 -12.5 -30.046 -12.5 QT
-28.343 -12.5 -27.288 -13.484 QT
-26.233 -14.469 -25.811 -15.969 QT
-25.39 -17.469 -25.39 -19.125 QT
-25.39 -21.906 -26.124 -23.359 QT
-26.436 -24 -26.991 -24.547 QT
-27.546 -25.094 -28.233 -25.414 QT
-28.921 -25.734 -29.671 -25.734 QT
-30.999 -25.734 -32.124 -25.031 QT
-33.249 -24.328 -33.921 -23.156 QT
-33.921 -15.234 L
cp
f
GR
GS
[0 -0.6 0.6 0 46.8 273.5998] CT
0.149 GC
N
-20.215 -12 M
-20.215 -13.156 L
-19.09 -13.156 -18.363 -13.336 QT
-17.637 -13.516 -17.637 -14.203 QT
-17.637 -23.219 L
-17.637 -24.484 -18.129 -24.774 QT
-18.621 -25.063 -20.074 -25.063 QT
-20.074 -26.234 L
-15.324 -26.578 L
-15.324 -14.203 L
-15.324 -13.516 -14.691 -13.336 QT
-14.059 -13.156 -13.012 -13.156 QT
-13.012 -12 L
-20.215 -12 L
cp
-18.809 -32.25 M
-18.809 -32.984 -18.262 -33.531 QT
-17.715 -34.078 -17.012 -34.078 QT
-16.543 -34.078 -16.105 -33.836 QT
-15.668 -33.594 -15.426 -33.156 QT
-15.184 -32.719 -15.184 -32.25 QT
-15.184 -31.547 -15.73 -31 QT
-16.277 -30.453 -17.012 -30.453 QT
-17.715 -30.453 -18.262 -31 QT
-18.809 -31.547 -18.809 -32.25 QT
cp
f
GR
GS
[0 -0.6 0.6 0 46.8 273.5998] CT
0.149 GC
N
-8.596 -15.969 M
-8.596 -25.063 L
-11.346 -25.063 L
-11.346 -25.922 L
-9.19 -25.922 -8.174 -27.938 QT
-7.159 -29.953 -7.159 -32.297 QT
-6.206 -32.297 L
-6.206 -26.234 L
-1.549 -26.234 L
-1.549 -25.063 L
-6.206 -25.063 L
-6.206 -16.031 L
-6.206 -14.656 -5.745 -13.625 QT
-5.284 -12.594 -4.096 -12.594 QT
-2.971 -12.594 -2.471 -13.68 QT
-1.971 -14.766 -1.971 -16.031 QT
-1.971 -17.984 L
-1.018 -17.984 L
-1.018 -15.969 L
-1.018 -14.938 -1.393 -13.93 QT
-1.768 -12.922 -2.51 -12.274 QT
-3.252 -11.625 -4.315 -11.625 QT
-6.299 -11.625 -7.448 -12.813 QT
-8.596 -14 -8.596 -15.969 QT
cp
f
GR
GS
[0 -0.6 0.6 0 46.8 273.5998] CT
0.149 GC
N
2.851 -4.406 M
2.851 -4.5 2.882 -4.547 QT
14.351 -36.344 L
14.414 -36.547 14.578 -36.649 QT
14.742 -36.75 14.945 -36.75 QT
15.242 -36.75 15.422 -36.57 QT
15.601 -36.391 15.601 -36.094 QT
15.601 -35.953 L
4.132 -4.156 L
3.945 -3.75 3.507 -3.75 QT
3.226 -3.75 3.039 -3.945 QT
2.851 -4.141 2.851 -4.406 QT
cp
f
GR
GS
[0 -0.6 0.6 0 46.8 273.5998] CT
0.149 GC
N
18.752 -11.906 M
18.752 -17.281 L
18.752 -17.547 19.049 -17.547 QT
19.44 -17.547 L
19.643 -17.547 19.705 -17.281 QT
20.627 -12.5 24.159 -12.5 QT
25.721 -12.5 26.776 -13.211 QT
27.83 -13.922 27.83 -15.406 QT
27.83 -16.469 27.01 -17.219 QT
26.19 -17.969 25.049 -18.234 QT
22.846 -18.672 L
21.737 -18.906 20.823 -19.406 QT
19.909 -19.906 19.33 -20.742 QT
18.752 -21.578 18.752 -22.672 QT
18.752 -24.125 19.518 -25.047 QT
20.284 -25.969 21.51 -26.383 QT
22.737 -26.797 24.159 -26.797 QT
25.846 -26.797 27.096 -25.891 QT
28.049 -26.719 L
28.049 -26.797 28.205 -26.797 QT
28.455 -26.797 L
28.549 -26.797 28.627 -26.703 QT
28.705 -26.609 28.705 -26.516 QT
28.705 -22.203 L
28.705 -21.891 28.455 -21.891 QT
28.049 -21.891 L
27.768 -21.891 27.768 -22.203 QT
27.768 -23.922 26.807 -24.969 QT
25.846 -26.016 24.127 -26.016 QT
22.643 -26.016 21.549 -25.469 QT
20.455 -24.922 20.455 -23.578 QT
20.455 -22.672 21.237 -22.078 QT
22.018 -21.484 23.08 -21.234 QT
25.315 -20.813 L
26.44 -20.563 27.416 -19.945 QT
28.393 -19.328 28.963 -18.399 QT
29.534 -17.469 29.534 -16.281 QT
29.534 -15.094 29.12 -14.219 QT
28.705 -13.344 27.979 -12.758 QT
27.252 -12.172 26.252 -11.899 QT
25.252 -11.625 24.159 -11.625 QT
22.096 -11.625 20.627 -13.016 QT
19.409 -11.703 L
19.409 -11.625 19.237 -11.625 QT
19.049 -11.625 L
18.752 -11.625 18.752 -11.906 QT
cp
f
GR
GS
[0 -0.6 0.6 0 46.8 273.5998] CT
0.149 GC
N
32.666 -4.406 M
32.666 -4.5 32.697 -4.547 QT
44.166 -36.344 L
44.229 -36.547 44.393 -36.649 QT
44.557 -36.75 44.76 -36.75 QT
45.057 -36.75 45.236 -36.57 QT
45.416 -36.391 45.416 -36.094 QT
45.416 -35.953 L
33.947 -4.156 L
33.76 -3.75 33.322 -3.75 QT
33.041 -3.75 32.854 -3.945 QT
32.666 -4.141 32.666 -4.406 QT
cp
f
GR
GS
[0 -0.6 0.6 0 46.8 273.5998] CT
0.149 GC
N
48.489 -12 M
48.489 -13.156 L
51.895 -13.156 51.895 -14.203 QT
51.895 -32.328 L
51.895 -33.375 48.489 -33.375 QT
48.489 -34.547 L
58.364 -34.547 L
58.364 -33.375 L
54.973 -33.375 54.973 -32.328 QT
54.973 -24.313 L
64.692 -24.313 L
64.692 -32.328 L
64.692 -33.375 61.302 -33.375 QT
61.302 -34.547 L
71.161 -34.547 L
71.161 -33.375 L
67.77 -33.375 67.77 -32.328 QT
67.77 -14.203 L
67.77 -13.156 71.161 -13.156 QT
71.161 -12 L
61.302 -12 L
61.302 -13.156 L
64.692 -13.156 64.692 -14.203 QT
64.692 -23.156 L
54.973 -23.156 L
54.973 -14.203 L
54.973 -13.156 58.364 -13.156 QT
58.364 -12 L
48.489 -12 L
cp
f
GR
GS
[0 -0.6 0.6 0 46.8 273.5998] CT
0.149 GC
N
73.77 -12 M
73.395 -12 73.395 -12.375 QT
73.395 -12.625 L
73.395 -12.75 73.489 -12.859 QT
82.708 -25.359 L
79.739 -25.359 L
78.333 -25.359 77.427 -25.18 QT
76.52 -25 75.934 -24.508 QT
75.348 -24.016 75.083 -23.156 QT
74.817 -22.297 74.817 -20.781 QT
73.864 -20.781 L
74.223 -26.234 L
85.286 -26.234 L
85.427 -26.234 85.536 -26.125 QT
85.645 -26.016 85.645 -25.859 QT
85.645 -25.672 L
85.645 -25.563 85.567 -25.438 QT
76.348 -12.953 L
79.505 -12.953 L
80.927 -12.953 81.888 -13.133 QT
82.848 -13.313 83.52 -13.984 QT
84.161 -14.609 84.395 -15.672 QT
84.63 -16.734 84.755 -18.297 QT
85.708 -18.297 L
85.145 -12 L
73.77 -12 L
cp
f
GR
GS
[0 -0.6 0.6 0 46.8 273.5998] CT
0.149 GC
N
88.007 -3.75 M
88.007 -5.078 L
91.226 -5.078 L
91.226 -35.422 L
88.007 -35.422 L
88.007 -36.75 L
92.538 -36.75 L
92.538 -3.75 L
88.007 -3.75 L
cp
f
GR
GS
[0.6 0 0 0.6 0 0] CT
0 0.447 0.741 RC
1 LJ
2.5 LW
N
123 822.5 M
140.047 822.5 L
157.093 822.5 L
174.14 822.5 L
191.186 822.5 L
208.233 822.5 L
225.279 822.5 L
242.326 822.5 L
259.372 822.5 L
276.419 822.5 L
293.465 822.5 L
310.512 822.5 L
327.558 822.5 L
344.605 822.5 L
361.651 790.623 L
378.698 762.581 L
395.744 738.226 L
412.791 717.33 L
429.837 699.602 L
446.884 684.716 L
463.93 672.33 L
480.977 662.104 L
498.023 653.72 L
515.07 646.886 L
532.116 641.342 L
549.163 636.862 L
566.209 633.254 L
583.256 630.356 L
600.302 628.034 L
617.349 626.176 L
634.395 624.692 L
651.442 623.508 L
668.488 622.564 L
685.535 621.812 L
702.581 621.213 L
719.628 620.737 L
736.674 620.357 L
753.721 620.056 L
770.767 619.816 L
787.814 619.626 L
804.86 619.474 L
821.907 619.354 L
838.953 619.258 L
856 619.182 L
S
GR
GS
[0.6 0 0 0.6 0 0] CT
0.851 0.325 0.098 RC
[8 8] 0 setdash
2 LJ
2.5 LW
N
123 822.5 M
140.047 822.5 L
157.093 822.5 L
174.14 822.5 L
191.186 822.5 L
208.233 822.5 L
225.279 822.5 L
242.326 822.5 L
259.372 822.5 L
276.419 772.589 L
293.465 725.848 L
310.512 682.565 L
327.558 642.969 L
344.605 607.207 L
361.651 575.331 L
378.698 547.288 L
395.744 522.933 L
412.791 502.037 L
429.837 484.309 L
446.884 469.423 L
463.93 457.037 L
480.977 446.811 L
498.023 438.428 L
515.07 431.593 L
532.116 426.049 L
549.163 421.569 L
566.209 417.961 L
583.256 415.064 L
600.302 412.741 L
617.349 410.883 L
634.395 409.399 L
651.442 408.215 L
668.488 407.271 L
685.535 406.519 L
702.581 405.92 L
719.628 405.444 L
736.674 405.065 L
753.721 404.763 L
770.767 404.523 L
787.814 404.333 L
804.86 404.181 L
821.907 404.061 L
838.953 403.966 L
856 403.89 L
S
GR
GS
[0.6 0 0 0.6 0 0] CT
0.929 0.694 0.125 RC
1 LJ
2.5 LW
N
123 822.5 M
140.047 822.5 L
157.093 822.5 L
174.14 822.5 L
191.186 761.696 L
208.233 702.442 L
225.279 645.029 L
242.326 589.778 L
259.372 537.025 L
276.419 487.115 L
293.465 440.373 L
310.512 397.09 L
327.558 357.494 L
344.605 321.732 L
361.651 289.856 L
378.698 261.814 L
395.744 237.459 L
412.791 216.562 L
429.837 198.835 L
446.884 183.949 L
463.93 171.562 L
480.977 161.337 L
498.023 152.953 L
515.07 146.119 L
532.116 140.574 L
549.163 136.094 L
566.209 132.487 L
583.256 129.589 L
600.302 127.267 L
617.349 125.409 L
634.395 123.925 L
651.442 122.74 L
668.488 121.796 L
685.535 121.044 L
702.581 120.445 L
719.628 119.969 L
736.674 119.59 L
753.721 119.288 L
770.767 119.049 L
787.814 118.858 L
804.86 118.707 L
821.907 118.586 L
838.953 118.491 L
856 118.415 L
S
GR
GS
[0.6 0 0 0.6 73.8 493.5] CT
0.929 0.694 0.125 RC
10.0 ML
2.5 LW
N
-5 0 M
0 6.65 L
5 0 L
0 -6.65 L
cp
S
GR
GS
[0.6 0 0 0.6 84.0279 493.5] CT
0.929 0.694 0.125 RC
10.0 ML
2.5 LW
N
-5 0 M
0 6.65 L
5 0 L
0 -6.65 L
cp
S
GR
GS
[0.6 0 0 0.6 94.25581 493.5] CT
0.929 0.694 0.125 RC
10.0 ML
2.5 LW
N
-5 0 M
0 6.65 L
5 0 L
0 -6.65 L
cp
S
GR
GS
[0.6 0 0 0.6 104.48372 493.5] CT
0.929 0.694 0.125 RC
10.0 ML
2.5 LW
N
-5 0 M
0 6.65 L
5 0 L
0 -6.65 L
cp
S
GR
GS
[0.6 0 0 0.6 114.71163 457.0177] CT
0.929 0.694 0.125 RC
10.0 ML
2.5 LW
N
-5 0 M
0 6.65 L
5 0 L
0 -6.65 L
cp
S
GR
GS
[0.6 0 0 0.6 124.93953 421.4651] CT
0.929 0.694 0.125 RC
10.0 ML
2.5 LW
N
-5 0 M
0 6.65 L
5 0 L
0 -6.65 L
cp
S
GR
GS
[0.6 0 0 0.6 135.16743 387.01743] CT
0.929 0.694 0.125 RC
10.0 ML
2.5 LW
N
-5 0 M
0 6.65 L
5 0 L
0 -6.65 L
cp
S
GR
GS
[0.6 0 0 0.6 145.39534 353.86652] CT
0.929 0.694 0.125 RC
10.0 ML
2.5 LW
N
-5 0 M
0 6.65 L
5 0 L
0 -6.65 L
cp
S
GR
GS
[0.6 0 0 0.6 155.62325 322.2152] CT
0.929 0.694 0.125 RC
10.0 ML
2.5 LW
N
-5 0 M
0 6.65 L
5 0 L
0 -6.65 L
cp
S
GR
GS
[0.6 0 0 0.6 165.85116 292.26885] CT
0.929 0.694 0.125 RC
10.0 ML
2.5 LW
N
-5 0 M
0 6.65 L
5 0 L
0 -6.65 L
cp
S
GR
GS
[0.6 0 0 0.6 176.07906 264.22379] CT
0.929 0.694 0.125 RC
10.0 ML
2.5 LW
N
-5 0 M
0 6.65 L
5 0 L
0 -6.65 L
cp
S
GR
GS
[0.6 0 0 0.6 186.30697 238.25391] CT
0.929 0.694 0.125 RC
10.0 ML
2.5 LW
N
-5 0 M
0 6.65 L
5 0 L
0 -6.65 L
cp
S
GR
GS
[0.6 0 0 0.6 196.53487 214.49639] CT
0.929 0.694 0.125 RC
10.0 ML
2.5 LW
N
-5 0 M
0 6.65 L
5 0 L
0 -6.65 L
cp
S
GR
GS
[0.6 0 0 0.6 206.76278 193.03943] CT
0.929 0.694 0.125 RC
10.0 ML
2.5 LW
N
-5 0 M
0 6.65 L
5 0 L
0 -6.65 L
cp
S
GR
GS
[0.6 0 0 0.6 216.99068 173.9135] CT
0.929 0.694 0.125 RC
10.0 ML
2.5 LW
N
-5 0 M
0 6.65 L
5 0 L
0 -6.65 L
cp
S
GR
GS
[0.6 0 0 0.6 227.21859 157.0881] CT
0.929 0.694 0.125 RC
10.0 ML
2.5 LW
N
-5 0 M
0 6.65 L
5 0 L
0 -6.65 L
cp
S
GR
GS
[0.6 0 0 0.6 237.44649 142.47513] CT
0.929 0.694 0.125 RC
10.0 ML
2.5 LW
N
-5 0 M
0 6.65 L
5 0 L
0 -6.65 L
cp
S
GR
GS
[0.6 0 0 0.6 247.67442 129.93729] CT
0.929 0.694 0.125 RC
10.0 ML
2.5 LW
N
-5 0 M
0 6.65 L
5 0 L
0 -6.65 L
cp
S
GR
GS
[0.6 0 0 0.6 257.90232 119.30077] CT
0.929 0.694 0.125 RC
10.0 ML
2.5 LW
N
-5 0 M
0 6.65 L
5 0 L
0 -6.65 L
cp
S
GR
GS
[0.6 0 0 0.6 268.13023 110.36917] CT
0.929 0.694 0.125 RC
10.0 ML
2.5 LW
N
-5 0 M
0 6.65 L
5 0 L
0 -6.65 L
cp
S
GR
GS
[0.6 0 0 0.6 278.35813 102.93722] CT
0.929 0.694 0.125 RC
10.0 ML
2.5 LW
N
-5 0 M
0 6.65 L
5 0 L
0 -6.65 L
cp
S
GR
GS
[0.6 0 0 0.6 288.58603 96.802] CT
0.929 0.694 0.125 RC
10.0 ML
2.5 LW
N
-5 0 M
0 6.65 L
5 0 L
0 -6.65 L
cp
S
GR
GS
[0.6 0 0 0.6 298.81394 91.77171] CT
0.929 0.694 0.125 RC
10.0 ML
2.5 LW
N
-5 0 M
0 6.65 L
5 0 L
0 -6.65 L
cp
S
GR
GS
[0.6 0 0 0.6 309.04184 87.67113] CT
0.929 0.694 0.125 RC
10.0 ML
2.5 LW
N
-5 0 M
0 6.65 L
5 0 L
0 -6.65 L
cp
S
GR
GS
[0.6 0 0 0.6 319.26975 84.34452] CT
0.929 0.694 0.125 RC
10.0 ML
2.5 LW
N
-5 0 M
0 6.65 L
5 0 L
0 -6.65 L
cp
S
GR
GS
[0.6 0 0 0.6 329.49765 81.65662] CT
0.929 0.694 0.125 RC
10.0 ML
2.5 LW
N
-5 0 M
0 6.65 L
5 0 L
0 -6.65 L
cp
S
GR
GS
[0.6 0 0 0.6 339.72556 79.49194] CT
0.929 0.694 0.125 RC
10.0 ML
2.5 LW
N
-5 0 M
0 6.65 L
5 0 L
0 -6.65 L
cp
S
GR
GS
[0.6 0 0 0.6 349.95346 77.7533] CT
0.929 0.694 0.125 RC
10.0 ML
2.5 LW
N
-5 0 M
0 6.65 L
5 0 L
0 -6.65 L
cp
S
GR
GS
[0.6 0 0 0.6 360.18137 76.35997] CT
0.929 0.694 0.125 RC
10.0 ML
2.5 LW
N
-5 0 M
0 6.65 L
5 0 L
0 -6.65 L
cp
S
GR
GS
[0.6 0 0 0.6 370.40927 75.24525] CT
0.929 0.694 0.125 RC
10.0 ML
2.5 LW
N
-5 0 M
0 6.65 L
5 0 L
0 -6.65 L
cp
S
GR
GS
[0.6 0 0 0.6 380.63718 74.35479] CT
0.929 0.694 0.125 RC
10.0 ML
2.5 LW
N
-5 0 M
0 6.65 L
5 0 L
0 -6.65 L
cp
S
GR
GS
[0.6 0 0 0.6 390.86508 73.64424] CT
0.929 0.694 0.125 RC
10.0 ML
2.5 LW
N
-5 0 M
0 6.65 L
5 0 L
0 -6.65 L
cp
S
GR
GS
[0.6 0 0 0.6 401.09299 73.07775] CT
0.929 0.694 0.125 RC
10.0 ML
2.5 LW
N
-5 0 M
0 6.65 L
5 0 L
0 -6.65 L
cp
S
GR
GS
[0.6 0 0 0.6 411.32093 72.62652] CT
0.929 0.694 0.125 RC
10.0 ML
2.5 LW
N
-5 0 M
0 6.65 L
5 0 L
0 -6.65 L
cp
S
GR
GS
[0.6 0 0 0.6 421.54883 72.26724] CT
0.929 0.694 0.125 RC
10.0 ML
2.5 LW
N
-5 0 M
0 6.65 L
5 0 L
0 -6.65 L
cp
S
GR
GS
[0.6 0 0 0.6 431.77674 71.98133] CT
0.929 0.694 0.125 RC
10.0 ML
2.5 LW
N
-5 0 M
0 6.65 L
5 0 L
0 -6.65 L
cp
S
GR
GS
[0.6 0 0 0.6 442.00464 71.75391] CT
0.929 0.694 0.125 RC
10.0 ML
2.5 LW
N
-5 0 M
0 6.65 L
5 0 L
0 -6.65 L
cp
S
GR
GS
[0.6 0 0 0.6 452.23255 71.57303] CT
0.929 0.694 0.125 RC
10.0 ML
2.5 LW
N
-5 0 M
0 6.65 L
5 0 L
0 -6.65 L
cp
S
GR
GS
[0.6 0 0 0.6 462.46045 71.42923] CT
0.929 0.694 0.125 RC
10.0 ML
2.5 LW
N
-5 0 M
0 6.65 L
5 0 L
0 -6.65 L
cp
S
GR
GS
[0.6 0 0 0.6 472.68836 71.31494] CT
0.929 0.694 0.125 RC
10.0 ML
2.5 LW
N
-5 0 M
0 6.65 L
5 0 L
0 -6.65 L
cp
S
GR
GS
[0.6 0 0 0.6 482.91626 71.2241] CT
0.929 0.694 0.125 RC
10.0 ML
2.5 LW
N
-5 0 M
0 6.65 L
5 0 L
0 -6.65 L
cp
S
GR
GS
[0.6 0 0 0.6 493.14417 71.15189] CT
0.929 0.694 0.125 RC
10.0 ML
2.5 LW
N
-5 0 M
0 6.65 L
5 0 L
0 -6.65 L
cp
S
GR
GS
[0.6 0 0 0.6 503.37207 71.09451] CT
0.929 0.694 0.125 RC
10.0 ML
2.5 LW
N
-5 0 M
0 6.65 L
5 0 L
0 -6.65 L
cp
S
GR
GS
[0.6 0 0 0.6 513.59998 71.04893] CT
0.929 0.694 0.125 RC
10.0 ML
2.5 LW
N
-5 0 M
0 6.65 L
5 0 L
0 -6.65 L
cp
S
GR
GS
[0.6 0 0 0.6 0 0] CT
1 GC
N
636 254 M
636 158 L
830 158 L
830 254 L
cp
f
GR
GS
[0.6 0 0 0.6 416.76085 105.27273] CT
N
4.672 6.281 M
3.563 6.281 2.703 5.75 QT
1.844 5.219 1.375 4.312 QT
0.906 3.406 0.906 2.328 QT
0.906 1.172 1.43 -0.109 QT
1.953 -1.391 2.859 -2.453 QT
3.766 -3.516 4.914 -4.149 QT
6.063 -4.781 7.281 -4.781 QT
13.578 -4.781 L
13.828 -4.781 14.016 -4.609 QT
14.203 -4.438 14.203 -4.141 QT
14.203 -3.781 13.938 -3.508 QT
13.672 -3.234 13.313 -3.234 QT
10.25 -3.234 L
10.969 -2.156 10.969 -0.625 QT
10.969 0.625 10.484 1.844 QT
10 3.062 9.133 4.07 QT
8.266 5.078 7.109 5.68 QT
5.953 6.281 4.672 6.281 QT
cp
4.703 5.625 M
6.063 5.625 7.117 4.555 QT
8.172 3.484 8.734 1.937 QT
9.297 0.391 9.297 -0.922 QT
9.297 -2 8.711 -2.617 QT
8.125 -3.234 7.063 -3.234 QT
5.609 -3.234 4.586 -2.258 QT
3.563 -1.281 3.055 0.195 QT
2.547 1.672 2.547 3.047 QT
2.547 4.125 3.117 4.875 QT
3.688 5.625 4.703 5.625 QT
cp
f
GR
GS
[0.6 0 0 0.6 416.76085 105.27273] CT
N
16.073 -3.072 M
16.073 -3.557 L
16.073 -3.604 16.12 -3.651 QT
18.917 -6.744 L
19.542 -7.432 19.94 -7.901 QT
20.339 -8.369 20.721 -8.971 QT
21.104 -9.572 21.331 -10.205 QT
21.557 -10.838 21.557 -11.541 QT
21.557 -12.276 21.284 -12.947 QT
21.01 -13.619 20.471 -14.026 QT
19.932 -14.432 19.167 -14.432 QT
18.385 -14.432 17.76 -13.963 QT
17.135 -13.494 16.885 -12.744 QT
16.948 -12.76 17.073 -12.76 QT
17.479 -12.76 17.76 -12.486 QT
18.042 -12.213 18.042 -11.776 QT
18.042 -11.369 17.76 -11.08 QT
17.479 -10.791 17.073 -10.791 QT
16.651 -10.791 16.362 -11.088 QT
16.073 -11.385 16.073 -11.776 QT
16.073 -12.463 16.331 -13.057 QT
16.589 -13.651 17.065 -14.111 QT
17.542 -14.572 18.143 -14.815 QT
18.745 -15.057 19.432 -15.057 QT
20.464 -15.057 21.346 -14.627 QT
22.229 -14.197 22.753 -13.401 QT
23.276 -12.604 23.276 -11.541 QT
23.276 -10.76 22.932 -10.057 QT
22.589 -9.354 22.049 -8.776 QT
21.51 -8.197 20.674 -7.471 QT
19.839 -6.744 19.573 -6.494 QT
17.542 -4.526 L
19.276 -4.526 L
20.542 -4.526 21.401 -4.549 QT
22.26 -4.572 22.307 -4.619 QT
22.526 -4.854 22.745 -6.276 QT
23.276 -6.276 L
22.76 -3.072 L
16.073 -3.072 L
cp
f
GR
GS
[0.6 0 0 0.6 416.76085 105.27273] CT
N
16.223 10.087 M
16.223 9.712 16.324 9.219 QT
16.426 8.727 16.551 8.344 QT
16.676 7.962 16.973 7.173 QT
17.27 6.383 17.285 6.305 QT
17.535 5.649 17.535 5.227 QT
17.535 4.696 17.129 4.696 QT
16.426 4.696 15.965 5.43 QT
15.504 6.165 15.285 7.071 QT
15.238 7.18 15.129 7.18 QT
14.926 7.18 L
14.77 7.18 14.77 7.008 QT
14.77 6.962 L
15.067 5.883 15.66 5.055 QT
16.254 4.227 17.176 4.227 QT
17.817 4.227 18.254 4.649 QT
18.692 5.071 18.692 5.727 QT
18.692 6.055 18.551 6.43 QT
18.332 6.962 18.051 7.727 QT
17.77 8.493 17.613 9.118 QT
17.457 9.743 17.457 10.321 QT
17.457 11.024 17.824 11.469 QT
18.192 11.915 18.895 11.915 QT
19.848 11.915 20.488 10.446 QT
20.457 10.337 20.457 10.149 QT
20.457 9.665 20.598 9.055 QT
21.613 4.993 L
21.676 4.758 21.895 4.587 QT
22.113 4.415 22.379 4.415 QT
22.582 4.415 22.746 4.555 QT
22.91 4.696 22.91 4.93 QT
22.91 5.04 22.895 5.071 QT
21.879 9.087 L
21.707 9.805 21.707 10.383 QT
21.707 11.055 22.02 11.485 QT
22.332 11.915 22.988 11.915 QT
24.16 11.915 24.91 10.383 QT
25.192 9.837 25.535 8.774 QT
25.879 7.712 25.879 7.149 QT
25.879 6.618 25.715 6.321 QT
25.551 6.024 25.254 5.673 QT
24.957 5.321 24.957 5.133 QT
24.957 4.79 25.254 4.501 QT
25.551 4.212 25.895 4.212 QT
26.332 4.212 26.52 4.602 QT
26.707 4.993 26.707 5.493 QT
26.707 6.102 26.504 7.04 QT
26.301 7.977 25.996 8.923 QT
25.692 9.868 25.41 10.43 QT
24.426 12.383 22.957 12.383 QT
22.207 12.383 21.582 12.094 QT
20.957 11.805 20.66 11.165 QT
20.363 11.68 19.895 12.032 QT
19.426 12.383 18.863 12.383 QT
17.676 12.383 16.949 11.813 QT
16.223 11.243 16.223 10.087 QT
cp
f
GR
GS
[0.6 0 0 0.6 416.76085 105.27273] CT
N
27.454 14.805 M
27.329 14.805 27.329 14.633 QT
27.345 14.602 27.361 14.524 QT
27.376 14.446 27.408 14.399 QT
27.439 14.352 27.501 14.352 QT
27.876 14.352 28.15 14.329 QT
28.423 14.305 28.611 14.258 QT
28.767 14.196 28.861 13.915 QT
30.642 6.774 L
30.658 6.649 30.658 6.587 QT
30.658 6.446 30.501 6.43 QT
30.267 6.383 29.564 6.383 QT
29.439 6.383 29.439 6.212 QT
29.454 6.18 29.47 6.102 QT
29.486 6.024 29.525 5.977 QT
29.564 5.93 29.611 5.93 QT
34.267 5.93 L
34.689 5.93 35.103 6.032 QT
35.517 6.133 35.869 6.36 QT
36.22 6.587 36.431 6.93 QT
36.642 7.274 36.642 7.727 QT
36.642 8.212 36.392 8.633 QT
36.142 9.055 35.744 9.36 QT
35.345 9.665 34.884 9.868 QT
34.423 10.071 33.923 10.165 QT
34.283 10.165 34.642 10.305 QT
35.001 10.446 35.29 10.688 QT
35.579 10.93 35.751 11.266 QT
35.923 11.602 35.923 11.993 QT
35.923 12.774 35.384 13.415 QT
34.845 14.055 34.009 14.43 QT
33.173 14.805 32.408 14.805 QT
27.454 14.805 L
cp
29.861 14.243 M
29.861 14.352 30.298 14.352 QT
32.158 14.352 L
32.798 14.352 33.376 14.001 QT
33.954 13.649 34.314 13.063 QT
34.673 12.477 34.673 11.837 QT
34.673 11.446 34.509 11.102 QT
34.345 10.758 34.04 10.563 QT
33.736 10.368 33.345 10.368 QT
30.814 10.368 L
29.908 13.962 L
29.861 14.133 29.861 14.243 QT
cp
30.892 10.024 M
32.876 10.024 L
33.486 10.024 34.079 9.704 QT
34.673 9.383 35.04 8.837 QT
35.408 8.29 35.408 7.68 QT
35.408 7.118 35.056 6.751 QT
34.704 6.383 34.142 6.383 QT
32.361 6.383 L
32.017 6.383 31.892 6.446 QT
31.767 6.508 31.689 6.821 QT
30.892 10.024 L
cp
f
GR
GS
[0.6 0 0 0.6 416.76085 105.27273] CT
N
48.242 2.672 M
48.038 2.672 47.906 2.516 QT
47.773 2.359 47.773 2.172 QT
47.773 1.969 47.906 1.82 QT
48.038 1.672 48.242 1.672 QT
63.945 1.672 L
64.132 1.672 64.265 1.82 QT
64.398 1.969 64.398 2.172 QT
64.398 2.359 64.265 2.516 QT
64.132 2.672 63.945 2.672 QT
48.242 2.672 L
cp
48.242 -2.172 M
48.038 -2.172 47.906 -2.32 QT
47.773 -2.469 47.773 -2.672 QT
47.773 -2.859 47.906 -3.024 QT
48.038 -3.188 48.242 -3.188 QT
63.945 -3.188 L
64.132 -3.188 64.265 -3.024 QT
64.398 -2.859 64.398 -2.672 QT
64.398 -2.469 64.265 -2.32 QT
64.132 -2.172 63.945 -2.172 QT
48.242 -2.172 L
cp
f
GR
GS
[0.6 0 0 0.6 416.76085 105.27273] CT
N
72.061 6.547 M
68.999 6.547 67.897 4.023 QT
66.795 1.5 66.795 -1.969 QT
66.795 -4.141 67.186 -6.063 QT
67.577 -7.984 68.756 -9.32 QT
69.936 -10.656 72.061 -10.656 QT
73.702 -10.656 74.756 -9.852 QT
75.811 -9.047 76.358 -7.766 QT
76.905 -6.484 77.108 -5.031 QT
77.311 -3.578 77.311 -1.969 QT
77.311 0.172 76.913 2.047 QT
76.514 3.922 75.358 5.234 QT
74.202 6.547 72.061 6.547 QT
cp
72.061 5.906 M
73.452 5.906 74.139 4.476 QT
74.827 3.047 74.983 1.312 QT
75.139 -0.422 75.139 -2.375 QT
75.139 -4.25 74.983 -5.836 QT
74.827 -7.422 74.147 -8.711 QT
73.467 -10 72.061 -10 QT
70.639 -10 69.96 -8.711 QT
69.28 -7.422 69.124 -5.836 QT
68.967 -4.25 68.967 -2.375 QT
68.967 -0.984 69.03 0.25 QT
69.092 1.484 69.389 2.797 QT
69.686 4.109 70.335 5.008 QT
70.983 5.906 72.061 5.906 QT
cp
f
GR
GS
[0.6 0 0 0.6 416.76085 105.27273] CT
N
92.754 6.281 M
91.269 6.281 90.051 5.484 QT
88.832 4.687 88.152 3.375 QT
87.473 2.062 87.473 0.609 QT
87.473 -0.906 88.215 -2.211 QT
88.957 -3.516 90.223 -4.281 QT
91.488 -5.047 93.019 -5.047 QT
93.926 -5.047 94.746 -4.664 QT
95.566 -4.281 96.16 -3.594 QT
96.16 -8.797 L
96.16 -9.469 95.965 -9.766 QT
95.769 -10.063 95.394 -10.133 QT
95.019 -10.203 94.223 -10.203 QT
94.223 -11.078 L
97.926 -11.344 L
97.926 3.734 L
97.926 4.391 98.129 4.687 QT
98.332 4.984 98.699 5.055 QT
99.066 5.125 99.863 5.125 QT
99.863 6 L
96.098 6.281 L
96.098 4.703 L
95.441 5.453 94.551 5.867 QT
93.66 6.281 92.754 6.281 QT
cp
90.191 3.828 M
90.629 4.641 91.34 5.133 QT
92.051 5.625 92.894 5.625 QT
93.926 5.625 94.793 5.023 QT
95.66 4.422 96.098 3.469 QT
96.098 -2.516 L
95.801 -3.063 95.355 -3.5 QT
94.91 -3.938 94.355 -4.172 QT
93.801 -4.406 93.176 -4.406 QT
91.863 -4.406 91.074 -3.664 QT
90.285 -2.922 89.965 -1.774 QT
89.644 -0.625 89.644 0.625 QT
89.644 1.625 89.746 2.375 QT
89.848 3.125 90.191 3.828 QT
cp
f
GR
GS
[0.6 0 0 0.6 416.76085 105.27273] CT
N
101.393 6 M
101.393 5.125 L
103.971 5.125 103.971 4.328 QT
103.971 -9.406 L
103.971 -10.203 101.393 -10.203 QT
101.393 -11.078 L
110.58 -11.078 L
111.846 -11.078 113.143 -10.586 QT
114.44 -10.094 115.283 -9.117 QT
116.127 -8.141 116.127 -6.828 QT
116.127 -5.297 114.877 -4.266 QT
113.627 -3.234 111.955 -2.922 QT
113.049 -2.922 114.197 -2.328 QT
115.346 -1.734 116.072 -0.727 QT
116.799 0.281 116.799 1.391 QT
116.799 2.766 115.994 3.812 QT
115.19 4.859 113.893 5.43 QT
112.596 6 111.283 6 QT
101.393 6 L
cp
106.143 4.328 M
106.143 4.859 106.447 4.992 QT
106.752 5.125 107.408 5.125 QT
110.58 5.125 L
111.549 5.125 112.393 4.609 QT
113.237 4.094 113.721 3.234 QT
114.205 2.375 114.205 1.391 QT
114.205 0.453 113.799 -0.461 QT
113.393 -1.375 112.643 -1.961 QT
111.893 -2.547 110.94 -2.547 QT
106.143 -2.547 L
106.143 4.328 L
cp
106.143 -3.203 M
109.877 -3.203 L
110.643 -3.203 111.307 -3.477 QT
111.971 -3.75 112.502 -4.274 QT
113.033 -4.797 113.322 -5.445 QT
113.612 -6.094 113.612 -6.828 QT
113.612 -7.484 113.393 -8.078 QT
113.174 -8.672 112.76 -9.164 QT
112.346 -9.656 111.783 -9.93 QT
111.221 -10.203 110.58 -10.203 QT
107.408 -10.203 L
106.955 -10.203 106.705 -10.164 QT
106.455 -10.125 106.299 -9.945 QT
106.143 -9.766 106.143 -9.406 QT
106.143 -3.203 L
cp
f
GR
GS
[0.6 0 0 0.6 0 0] CT
0 0.447 0.741 RC
1 LJ
2.5 LW
N
640.987 175.455 M
690.861 175.455 L
S
GR
GS
[0.6 0 0 0.6 416.76085 123.6] CT
N
/f-858680263{4.672 6.281 M
3.563 6.281 2.703 5.75 QT
1.844 5.219 1.375 4.312 QT
0.906 3.406 0.906 2.328 QT
0.906 1.172 1.43 -0.109 QT
1.953 -1.391 2.859 -2.453 QT
3.766 -3.516 4.914 -4.149 QT
6.063 -4.781 7.281 -4.781 QT
13.578 -4.781 L
13.828 -4.781 14.016 -4.609 QT
14.203 -4.438 14.203 -4.141 QT
14.203 -3.781 13.938 -3.508 QT
13.672 -3.234 13.313 -3.234 QT
10.25 -3.234 L
10.969 -2.156 10.969 -0.625 QT
10.969 0.625 10.484 1.844 QT
10 3.062 9.133 4.07 QT
8.266 5.078 7.109 5.68 QT
5.953 6.281 4.672 6.281 QT
cp
4.703 5.625 M
6.063 5.625 7.117 4.555 QT
8.172 3.484 8.734 1.937 QT
9.297 0.391 9.297 -0.922 QT
9.297 -2 8.711 -2.617 QT
8.125 -3.234 7.063 -3.234 QT
5.609 -3.234 4.586 -2.258 QT
3.563 -1.281 3.055 0.195 QT
2.547 1.672 2.547 3.047 QT
2.547 4.125 3.117 4.875 QT
3.688 5.625 4.703 5.625 QT
cp}def
f-858680263
f
GR
GS
[0.6 0 0 0.6 416.76085 123.6] CT
N
/f-1415877989{16.073 -3.072 M
16.073 -3.557 L
16.073 -3.604 16.12 -3.651 QT
18.917 -6.744 L
19.542 -7.432 19.94 -7.901 QT
20.339 -8.369 20.721 -8.971 QT
21.104 -9.572 21.331 -10.205 QT
21.557 -10.838 21.557 -11.541 QT
21.557 -12.276 21.284 -12.947 QT
21.01 -13.619 20.471 -14.026 QT
19.932 -14.432 19.167 -14.432 QT
18.385 -14.432 17.76 -13.963 QT
17.135 -13.494 16.885 -12.744 QT
16.948 -12.76 17.073 -12.76 QT
17.479 -12.76 17.76 -12.486 QT
18.042 -12.213 18.042 -11.776 QT
18.042 -11.369 17.76 -11.08 QT
17.479 -10.791 17.073 -10.791 QT
16.651 -10.791 16.362 -11.088 QT
16.073 -11.385 16.073 -11.776 QT
16.073 -12.463 16.331 -13.057 QT
16.589 -13.651 17.065 -14.111 QT
17.542 -14.572 18.143 -14.815 QT
18.745 -15.057 19.432 -15.057 QT
20.464 -15.057 21.346 -14.627 QT
22.229 -14.197 22.753 -13.401 QT
23.276 -12.604 23.276 -11.541 QT
23.276 -10.76 22.932 -10.057 QT
22.589 -9.354 22.049 -8.776 QT
21.51 -8.197 20.674 -7.471 QT
19.839 -6.744 19.573 -6.494 QT
17.542 -4.526 L
19.276 -4.526 L
20.542 -4.526 21.401 -4.549 QT
22.26 -4.572 22.307 -4.619 QT
22.526 -4.854 22.745 -6.276 QT
23.276 -6.276 L
22.76 -3.072 L
16.073 -3.072 L
cp}def
f-1415877989
f
GR
GS
[0.6 0 0 0.6 416.76085 123.6] CT
N
/f-1000751019{16.223 10.087 M
16.223 9.712 16.324 9.219 QT
16.426 8.727 16.551 8.344 QT
16.676 7.962 16.973 7.173 QT
17.27 6.383 17.285 6.305 QT
17.535 5.649 17.535 5.227 QT
17.535 4.696 17.129 4.696 QT
16.426 4.696 15.965 5.43 QT
15.504 6.165 15.285 7.071 QT
15.238 7.18 15.129 7.18 QT
14.926 7.18 L
14.77 7.18 14.77 7.008 QT
14.77 6.962 L
15.067 5.883 15.66 5.055 QT
16.254 4.227 17.176 4.227 QT
17.817 4.227 18.254 4.649 QT
18.692 5.071 18.692 5.727 QT
18.692 6.055 18.551 6.43 QT
18.332 6.962 18.051 7.727 QT
17.77 8.493 17.613 9.118 QT
17.457 9.743 17.457 10.321 QT
17.457 11.024 17.824 11.469 QT
18.192 11.915 18.895 11.915 QT
19.848 11.915 20.488 10.446 QT
20.457 10.337 20.457 10.149 QT
20.457 9.665 20.598 9.055 QT
21.613 4.993 L
21.676 4.758 21.895 4.587 QT
22.113 4.415 22.379 4.415 QT
22.582 4.415 22.746 4.555 QT
22.91 4.696 22.91 4.93 QT
22.91 5.04 22.895 5.071 QT
21.879 9.087 L
21.707 9.805 21.707 10.383 QT
21.707 11.055 22.02 11.485 QT
22.332 11.915 22.988 11.915 QT
24.16 11.915 24.91 10.383 QT
25.192 9.837 25.535 8.774 QT
25.879 7.712 25.879 7.149 QT
25.879 6.618 25.715 6.321 QT
25.551 6.024 25.254 5.673 QT
24.957 5.321 24.957 5.133 QT
24.957 4.79 25.254 4.501 QT
25.551 4.212 25.895 4.212 QT
26.332 4.212 26.52 4.602 QT
26.707 4.993 26.707 5.493 QT
26.707 6.102 26.504 7.04 QT
26.301 7.977 25.996 8.923 QT
25.692 9.868 25.41 10.43 QT
24.426 12.383 22.957 12.383 QT
22.207 12.383 21.582 12.094 QT
20.957 11.805 20.66 11.165 QT
20.363 11.68 19.895 12.032 QT
19.426 12.383 18.863 12.383 QT
17.676 12.383 16.949 11.813 QT
16.223 11.243 16.223 10.087 QT
cp}def
f-1000751019
f
GR
GS
[0.6 0 0 0.6 416.76085 123.6] CT
N
/f885667491{27.454 14.805 M
27.329 14.805 27.329 14.633 QT
27.345 14.602 27.361 14.524 QT
27.376 14.446 27.408 14.399 QT
27.439 14.352 27.501 14.352 QT
27.876 14.352 28.15 14.329 QT
28.423 14.305 28.611 14.258 QT
28.767 14.196 28.861 13.915 QT
30.642 6.774 L
30.658 6.649 30.658 6.587 QT
30.658 6.446 30.501 6.43 QT
30.267 6.383 29.564 6.383 QT
29.439 6.383 29.439 6.212 QT
29.454 6.18 29.47 6.102 QT
29.486 6.024 29.525 5.977 QT
29.564 5.93 29.611 5.93 QT
34.267 5.93 L
34.689 5.93 35.103 6.032 QT
35.517 6.133 35.869 6.36 QT
36.22 6.587 36.431 6.93 QT
36.642 7.274 36.642 7.727 QT
36.642 8.212 36.392 8.633 QT
36.142 9.055 35.744 9.36 QT
35.345 9.665 34.884 9.868 QT
34.423 10.071 33.923 10.165 QT
34.283 10.165 34.642 10.305 QT
35.001 10.446 35.29 10.688 QT
35.579 10.93 35.751 11.266 QT
35.923 11.602 35.923 11.993 QT
35.923 12.774 35.384 13.415 QT
34.845 14.055 34.009 14.43 QT
33.173 14.805 32.408 14.805 QT
27.454 14.805 L
cp
29.861 14.243 M
29.861 14.352 30.298 14.352 QT
32.158 14.352 L
32.798 14.352 33.376 14.001 QT
33.954 13.649 34.314 13.063 QT
34.673 12.477 34.673 11.837 QT
34.673 11.446 34.509 11.102 QT
34.345 10.758 34.04 10.563 QT
33.736 10.368 33.345 10.368 QT
30.814 10.368 L
29.908 13.962 L
29.861 14.133 29.861 14.243 QT
cp
30.892 10.024 M
32.876 10.024 L
33.486 10.024 34.079 9.704 QT
34.673 9.383 35.04 8.837 QT
35.408 8.29 35.408 7.68 QT
35.408 7.118 35.056 6.751 QT
34.704 6.383 34.142 6.383 QT
32.361 6.383 L
32.017 6.383 31.892 6.446 QT
31.767 6.508 31.689 6.821 QT
30.892 10.024 L
cp}def
f885667491
f
GR
GS
[0.6 0 0 0.6 416.76085 123.6] CT
N
/f606439452{48.242 2.672 M
48.038 2.672 47.906 2.516 QT
47.773 2.359 47.773 2.172 QT
47.773 1.969 47.906 1.82 QT
48.038 1.672 48.242 1.672 QT
63.945 1.672 L
64.132 1.672 64.265 1.82 QT
64.398 1.969 64.398 2.172 QT
64.398 2.359 64.265 2.516 QT
64.132 2.672 63.945 2.672 QT
48.242 2.672 L
cp
48.242 -2.172 M
48.038 -2.172 47.906 -2.32 QT
47.773 -2.469 47.773 -2.672 QT
47.773 -2.859 47.906 -3.024 QT
48.038 -3.188 48.242 -3.188 QT
63.945 -3.188 L
64.132 -3.188 64.265 -3.024 QT
64.398 -2.859 64.398 -2.672 QT
64.398 -2.469 64.265 -2.32 QT
64.132 -2.172 63.945 -2.172 QT
48.242 -2.172 L
cp}def
f606439452
f
GR
GS
[0.6 0 0 0.6 416.76085 123.6] CT
N
/f-2085973897{67.983 3.156 M
68.233 3.891 68.764 4.484 QT
69.295 5.078 70.022 5.414 QT
70.749 5.75 71.53 5.75 QT
73.342 5.75 74.03 4.351 QT
74.717 2.953 74.717 0.953 QT
74.717 0.078 74.686 -0.516 QT
74.655 -1.109 74.514 -1.656 QT
74.28 -2.531 73.702 -3.188 QT
73.124 -3.844 72.28 -3.844 QT
71.436 -3.844 70.835 -3.594 QT
70.233 -3.344 69.85 -3 QT
69.467 -2.656 69.178 -2.274 QT
68.889 -1.891 68.811 -1.875 QT
68.53 -1.875 L
68.467 -1.875 68.381 -1.953 QT
68.295 -2.031 68.295 -2.109 QT
68.295 -10.453 L
68.295 -10.516 68.374 -10.586 QT
68.452 -10.656 68.53 -10.656 QT
68.608 -10.656 L
70.295 -9.844 72.186 -9.844 QT
74.045 -9.844 75.764 -10.656 QT
75.827 -10.656 L
75.92 -10.656 75.991 -10.594 QT
76.061 -10.531 76.061 -10.453 QT
76.061 -10.219 L
76.061 -10.094 76.014 -10.094 QT
75.155 -8.969 73.874 -8.336 QT
72.592 -7.703 71.202 -7.703 QT
70.202 -7.703 69.155 -7.984 QT
69.155 -3.25 L
69.983 -3.922 70.639 -4.211 QT
71.295 -4.5 72.311 -4.5 QT
73.686 -4.5 74.78 -3.703 QT
75.874 -2.906 76.46 -1.633 QT
77.045 -0.359 77.045 0.969 QT
77.045 2.469 76.303 3.75 QT
75.561 5.031 74.295 5.789 QT
73.03 6.547 71.53 6.547 QT
70.311 6.547 69.272 5.914 QT
68.233 5.281 67.647 4.203 QT
67.061 3.125 67.061 1.922 QT
67.061 1.359 67.428 1.008 QT
67.795 0.656 68.342 0.656 QT
68.889 0.656 69.264 1.016 QT
69.639 1.375 69.639 1.922 QT
69.639 2.453 69.264 2.828 QT
68.889 3.203 68.342 3.203 QT
68.249 3.203 68.139 3.187 QT
68.03 3.172 67.983 3.156 QT
cp}def
f-2085973897
f
GR
GS
[0.6 0 0 0.6 416.76085 123.6] CT
N
/f-268600554{92.754 6.281 M
91.269 6.281 90.051 5.484 QT
88.832 4.687 88.152 3.375 QT
87.473 2.062 87.473 0.609 QT
87.473 -0.906 88.215 -2.211 QT
88.957 -3.516 90.223 -4.281 QT
91.488 -5.047 93.019 -5.047 QT
93.926 -5.047 94.746 -4.664 QT
95.566 -4.281 96.16 -3.594 QT
96.16 -8.797 L
96.16 -9.469 95.965 -9.766 QT
95.769 -10.063 95.394 -10.133 QT
95.019 -10.203 94.223 -10.203 QT
94.223 -11.078 L
97.926 -11.344 L
97.926 3.734 L
97.926 4.391 98.129 4.687 QT
98.332 4.984 98.699 5.055 QT
99.066 5.125 99.863 5.125 QT
99.863 6 L
96.098 6.281 L
96.098 4.703 L
95.441 5.453 94.551 5.867 QT
93.66 6.281 92.754 6.281 QT
cp
90.191 3.828 M
90.629 4.641 91.34 5.133 QT
92.051 5.625 92.894 5.625 QT
93.926 5.625 94.793 5.023 QT
95.66 4.422 96.098 3.469 QT
96.098 -2.516 L
95.801 -3.063 95.355 -3.5 QT
94.91 -3.938 94.355 -4.172 QT
93.801 -4.406 93.176 -4.406 QT
91.863 -4.406 91.074 -3.664 QT
90.285 -2.922 89.965 -1.774 QT
89.644 -0.625 89.644 0.625 QT
89.644 1.625 89.746 2.375 QT
89.848 3.125 90.191 3.828 QT
cp}def
f-268600554
f
GR
GS
[0.6 0 0 0.6 416.76085 123.6] CT
N
/f737597722{101.393 6 M
101.393 5.125 L
103.971 5.125 103.971 4.328 QT
103.971 -9.406 L
103.971 -10.203 101.393 -10.203 QT
101.393 -11.078 L
110.58 -11.078 L
111.846 -11.078 113.143 -10.586 QT
114.44 -10.094 115.283 -9.117 QT
116.127 -8.141 116.127 -6.828 QT
116.127 -5.297 114.877 -4.266 QT
113.627 -3.234 111.955 -2.922 QT
113.049 -2.922 114.197 -2.328 QT
115.346 -1.734 116.072 -0.727 QT
116.799 0.281 116.799 1.391 QT
116.799 2.766 115.994 3.812 QT
115.19 4.859 113.893 5.43 QT
112.596 6 111.283 6 QT
101.393 6 L
cp
106.143 4.328 M
106.143 4.859 106.447 4.992 QT
106.752 5.125 107.408 5.125 QT
110.58 5.125 L
111.549 5.125 112.393 4.609 QT
113.237 4.094 113.721 3.234 QT
114.205 2.375 114.205 1.391 QT
114.205 0.453 113.799 -0.461 QT
113.393 -1.375 112.643 -1.961 QT
111.893 -2.547 110.94 -2.547 QT
106.143 -2.547 L
106.143 4.328 L
cp
106.143 -3.203 M
109.877 -3.203 L
110.643 -3.203 111.307 -3.477 QT
111.971 -3.75 112.502 -4.274 QT
113.033 -4.797 113.322 -5.445 QT
113.612 -6.094 113.612 -6.828 QT
113.612 -7.484 113.393 -8.078 QT
113.174 -8.672 112.76 -9.164 QT
112.346 -9.656 111.783 -9.93 QT
111.221 -10.203 110.58 -10.203 QT
107.408 -10.203 L
106.955 -10.203 106.705 -10.164 QT
106.455 -10.125 106.299 -9.945 QT
106.143 -9.766 106.143 -9.406 QT
106.143 -3.203 L
cp}def
f737597722
f
GR
GS
[0.6 0 0 0.6 0 0] CT
0.851 0.325 0.098 RC
[8 8] 0 setdash
2 LJ
2.5 LW
N
640.987 206 M
690.861 206 L
S
GR
GS
[0.6 0 0 0.6 416.76085 141.92727] CT
N
f-858680263
f
GR
GS
[0.6 0 0 0.6 416.76085 141.92727] CT
N
f-1415877989
f
GR
GS
[0.6 0 0 0.6 416.76085 141.92727] CT
N
f-1000751019
f
GR
GS
[0.6 0 0 0.6 416.76085 141.92727] CT
N
f885667491
f
GR
GS
[0.6 0 0 0.6 416.76085 141.92727] CT
N
f606439452
f
GR
GS
[0.6 0 0 0.6 416.76085 141.92727] CT
N
/f-1649898601{68.124 6 M
68.124 5.125 L
71.249 5.125 71.249 4.328 QT
71.249 -8.797 L
69.967 -8.172 67.983 -8.172 QT
67.983 -9.047 L
71.045 -9.047 72.608 -10.656 QT
72.967 -10.656 L
73.045 -10.656 73.124 -10.586 QT
73.202 -10.516 73.202 -10.438 QT
73.202 4.328 L
73.202 5.125 76.327 5.125 QT
76.327 6 L
68.124 6 L
cp}def
f-1649898601
f
GR
GS
[0.6 0 0 0.6 416.76085 141.92727] CT
N
/f-702982122{84.561 6.547 M
81.499 6.547 80.397 4.023 QT
79.296 1.5 79.296 -1.969 QT
79.296 -4.141 79.686 -6.063 QT
80.077 -7.984 81.256 -9.32 QT
82.436 -10.656 84.561 -10.656 QT
86.202 -10.656 87.256 -9.852 QT
88.311 -9.047 88.858 -7.766 QT
89.405 -6.484 89.608 -5.031 QT
89.811 -3.578 89.811 -1.969 QT
89.811 0.172 89.413 2.047 QT
89.014 3.922 87.858 5.234 QT
86.702 6.547 84.561 6.547 QT
cp
84.561 5.906 M
85.952 5.906 86.639 4.476 QT
87.327 3.047 87.483 1.312 QT
87.639 -0.422 87.639 -2.375 QT
87.639 -4.25 87.483 -5.836 QT
87.327 -7.422 86.647 -8.711 QT
85.967 -10 84.561 -10 QT
83.139 -10 82.46 -8.711 QT
81.78 -7.422 81.624 -5.836 QT
81.467 -4.25 81.467 -2.375 QT
81.467 -0.984 81.53 0.25 QT
81.592 1.484 81.889 2.797 QT
82.186 4.109 82.835 5.008 QT
83.483 5.906 84.561 5.906 QT
cp}def
f-702982122
f
GR
GS
[0.6 0 0 0.6 416.76085 141.92727] CT
N
/f-1006358353{105.254 6.281 M
103.77 6.281 102.551 5.484 QT
101.332 4.687 100.652 3.375 QT
99.973 2.062 99.973 0.609 QT
99.973 -0.906 100.715 -2.211 QT
101.457 -3.516 102.723 -4.281 QT
103.988 -5.047 105.52 -5.047 QT
106.426 -5.047 107.246 -4.664 QT
108.066 -4.281 108.66 -3.594 QT
108.66 -8.797 L
108.66 -9.469 108.465 -9.766 QT
108.27 -10.063 107.895 -10.133 QT
107.52 -10.203 106.723 -10.203 QT
106.723 -11.078 L
110.426 -11.344 L
110.426 3.734 L
110.426 4.391 110.629 4.687 QT
110.832 4.984 111.199 5.055 QT
111.566 5.125 112.363 5.125 QT
112.363 6 L
108.598 6.281 L
108.598 4.703 L
107.941 5.453 107.051 5.867 QT
106.16 6.281 105.254 6.281 QT
cp
102.691 3.828 M
103.129 4.641 103.84 5.133 QT
104.551 5.625 105.395 5.625 QT
106.426 5.625 107.293 5.023 QT
108.16 4.422 108.598 3.469 QT
108.598 -2.516 L
108.301 -3.063 107.855 -3.5 QT
107.41 -3.938 106.855 -4.172 QT
106.301 -4.406 105.676 -4.406 QT
104.363 -4.406 103.574 -3.664 QT
102.785 -2.922 102.465 -1.774 QT
102.145 -0.625 102.145 0.625 QT
102.145 1.625 102.246 2.375 QT
102.348 3.125 102.691 3.828 QT
cp}def
f-1006358353
f
GR
GS
[0.6 0 0 0.6 416.76085 141.92727] CT
N
/f1643764256{113.893 6 M
113.893 5.125 L
116.471 5.125 116.471 4.328 QT
116.471 -9.406 L
116.471 -10.203 113.893 -10.203 QT
113.893 -11.078 L
123.08 -11.078 L
124.346 -11.078 125.643 -10.586 QT
126.94 -10.094 127.783 -9.117 QT
128.627 -8.141 128.627 -6.828 QT
128.627 -5.297 127.377 -4.266 QT
126.127 -3.234 124.455 -2.922 QT
125.549 -2.922 126.698 -2.328 QT
127.846 -1.734 128.573 -0.727 QT
129.299 0.281 129.299 1.391 QT
129.299 2.766 128.494 3.812 QT
127.69 4.859 126.393 5.43 QT
125.096 6 123.783 6 QT
113.893 6 L
cp
118.643 4.328 M
118.643 4.859 118.948 4.992 QT
119.252 5.125 119.908 5.125 QT
123.08 5.125 L
124.049 5.125 124.893 4.609 QT
125.737 4.094 126.221 3.234 QT
126.705 2.375 126.705 1.391 QT
126.705 0.453 126.299 -0.461 QT
125.893 -1.375 125.143 -1.961 QT
124.393 -2.547 123.44 -2.547 QT
118.643 -2.547 L
118.643 4.328 L
cp
118.643 -3.203 M
122.377 -3.203 L
123.143 -3.203 123.807 -3.477 QT
124.471 -3.75 125.002 -4.274 QT
125.533 -4.797 125.823 -5.445 QT
126.112 -6.094 126.112 -6.828 QT
126.112 -7.484 125.893 -8.078 QT
125.674 -8.672 125.26 -9.164 QT
124.846 -9.656 124.283 -9.93 QT
123.721 -10.203 123.08 -10.203 QT
119.908 -10.203 L
119.455 -10.203 119.205 -10.164 QT
118.955 -10.125 118.799 -9.945 QT
118.643 -9.766 118.643 -9.406 QT
118.643 -3.203 L
cp}def
f1643764256
f
GR
GS
[0.6 0 0 0.6 0 0] CT
0.929 0.694 0.125 RC
1 LJ
2.5 LW
N
640.987 236.545 M
690.861 236.545 L
S
GR
GS
[0.6 0 0 0.6 399.55446 141.92727] CT
0.929 0.694 0.125 RC
10.0 ML
2.5 LW
N
-5 0 M
0 6.65 L
5 0 L
0 -6.65 L
cp
S
GR
GS
[0.6 0 0 0.6 0 0] CT
0.149 GC
10.0 ML
0.833 LW
N
636 254 M
636 158 L
830 158 L
830 254 L
cp
S
GR
%%Trailer
%%Pages: 1
%%EOF
