%!PS-Adobe-3.0 EPSF-3.0
%%Creator: (MATLAB, The Mathworks, Inc. Version 9.2.0.538062 \(R2017a\). Operating System: Windows 8)
%%Title: C:/Users/chees/Documents/DottoratoLoc/GNSS/authProtocol/latex/figures/SecrecyCapacityPsk.eps
%%CreationDate: 2017-10-17T08:56:22
%%Pages: (atend)
%%BoundingBox: 0 0 284 284
%%LanguageLevel: 3
%%EndComments
%%BeginProlog
%%BeginResource: procset (Apache XML Graphics Std ProcSet) 1.2 0
%%Version: 1.2 0
%%Copyright: (Copyright 2001-2003,2010 The Apache Software Foundation. License terms: http://www.apache.org/licenses/LICENSE-2.0)
/bd{bind def}bind def
/ld{load def}bd
/GR/grestore ld
/M/moveto ld
/LJ/setlinejoin ld
/C/curveto ld
/f/fill ld
/LW/setlinewidth ld
/GC/setgray ld
/t/show ld
/N/newpath ld
/CT/concat ld
/cp/closepath ld
/S/stroke ld
/L/lineto ld
/CC/setcmykcolor ld
/A/ashow ld
/GS/gsave ld
/RC/setrgbcolor ld
/RM/rmoveto ld
/ML/setmiterlimit ld
/re {4 2 roll M
1 index 0 rlineto
0 exch rlineto
neg 0 rlineto
cp } bd
/_ctm matrix def
/_tm matrix def
/BT { _ctm currentmatrix pop matrix _tm copy pop 0 0 moveto } bd
/ET { _ctm setmatrix } bd
/iTm { _ctm setmatrix _tm concat } bd
/Tm { _tm astore pop iTm 0 0 moveto } bd
/ux 0.0 def
/uy 0.0 def
/F {
  /Tp exch def
  /Tf exch def
  Tf findfont Tp scalefont setfont
  /cf Tf def  /cs Tp def
} bd
/ULS {currentpoint /uy exch def /ux exch def} bd
/ULE {
  /Tcx currentpoint pop def
  gsave
  newpath
  cf findfont cs scalefont dup
  /FontMatrix get 0 get /Ts exch def /FontInfo get dup
  /UnderlinePosition get Ts mul /To exch def
  /UnderlineThickness get Ts mul /Tt exch def
  ux uy To add moveto  Tcx uy To add lineto
  Tt setlinewidth stroke
  grestore
} bd
/OLE {
  /Tcx currentpoint pop def
  gsave
  newpath
  cf findfont cs scalefont dup
  /FontMatrix get 0 get /Ts exch def /FontInfo get dup
  /UnderlinePosition get Ts mul /To exch def
  /UnderlineThickness get Ts mul /Tt exch def
  ux uy To add cs add moveto Tcx uy To add cs add lineto
  Tt setlinewidth stroke
  grestore
} bd
/SOE {
  /Tcx currentpoint pop def
  gsave
  newpath
  cf findfont cs scalefont dup
  /FontMatrix get 0 get /Ts exch def /FontInfo get dup
  /UnderlinePosition get Ts mul /To exch def
  /UnderlineThickness get Ts mul /Tt exch def
  ux uy To add cs 10 mul 26 idiv add moveto Tcx uy To add cs 10 mul 26 idiv add lineto
  Tt setlinewidth stroke
  grestore
} bd
/QT {
/Y22 exch store
/X22 exch store
/Y21 exch store
/X21 exch store
currentpoint
/Y21 load 2 mul add 3 div exch
/X21 load 2 mul add 3 div exch
/X21 load 2 mul /X22 load add 3 div
/Y21 load 2 mul /Y22 load add 3 div
/X22 load /Y22 load curveto
} bd
/SSPD {
dup length /d exch dict def
{
/v exch def
/k exch def
currentpagedevice k known {
/cpdv currentpagedevice k get def
v cpdv ne {
/upd false def
/nullv v type /nulltype eq def
/nullcpdv cpdv type /nulltype eq def
nullv nullcpdv or
{
/upd true def
} {
/sametype v type cpdv type eq def
sametype {
v type /arraytype eq {
/vlen v length def
/cpdvlen cpdv length def
vlen cpdvlen eq {
0 1 vlen 1 sub {
/i exch def
/obj v i get def
/cpdobj cpdv i get def
obj cpdobj ne {
/upd true def
exit
} if
} for
} {
/upd true def
} ifelse
} {
v type /dicttype eq {
v {
/dv exch def
/dk exch def
/cpddv cpdv dk get def
dv cpddv ne {
/upd true def
exit
} if
} forall
} {
/upd true def
} ifelse
} ifelse
} if
} ifelse
upd true eq {
d k v put
} if
} if
} if
} forall
d length 0 gt {
d setpagedevice
} if
} bd
/RE { % /NewFontName [NewEncodingArray] /FontName RE -
  findfont dup length dict begin
  {
    1 index /FID ne
    {def} {pop pop} ifelse
  } forall
  /Encoding exch def
  /FontName 1 index def
  currentdict definefont pop
  end
} bind def
%%EndResource
%%BeginResource: procset (Apache XML Graphics EPS ProcSet) 1.0 0
%%Version: 1.0 0
%%Copyright: (Copyright 2002-2003 The Apache Software Foundation. License terms: http://www.apache.org/licenses/LICENSE-2.0)
/BeginEPSF { %def
/b4_Inc_state save def         % Save state for cleanup
/dict_count countdictstack def % Count objects on dict stack
/op_count count 1 sub def      % Count objects on operand stack
userdict begin                 % Push userdict on dict stack
/showpage { } def              % Redefine showpage, { } = null proc
0 setgray 0 setlinecap         % Prepare graphics state
1 setlinewidth 0 setlinejoin
10 setmiterlimit [ ] 0 setdash newpath
/languagelevel where           % If level not equal to 1 then
{pop languagelevel             % set strokeadjust and
1 ne                           % overprint to their defaults.
{false setstrokeadjust false setoverprint
} if
} if
} bd
/EndEPSF { %def
count op_count sub {pop} repeat            % Clean up stacks
countdictstack dict_count sub {end} repeat
b4_Inc_state restore
} bd
%%EndResource
%FOPBeginFontDict
%%IncludeResource: font Courier-Bold
%%IncludeResource: font Helvetica
%%IncludeResource: font Courier-BoldOblique
%%IncludeResource: font Courier-Oblique
%%IncludeResource: font Times-Roman
%%IncludeResource: font Helvetica-BoldOblique
%%IncludeResource: font Helvetica-Bold
%%IncludeResource: font Helvetica-Oblique
%%IncludeResource: font Times-BoldItalic
%%IncludeResource: font Courier
%%IncludeResource: font Times-Italic
%%IncludeResource: font Times-Bold
%%IncludeResource: font Symbol
%%IncludeResource: font ZapfDingbats
%FOPEndFontDict
%%BeginResource: encoding WinAnsiEncoding
/WinAnsiEncoding [
/.notdef /.notdef /.notdef /.notdef /.notdef
/.notdef /.notdef /.notdef /.notdef /.notdef
/.notdef /.notdef /.notdef /.notdef /.notdef
/.notdef /.notdef /.notdef /.notdef /.notdef
/.notdef /.notdef /.notdef /.notdef /.notdef
/.notdef /.notdef /.notdef /.notdef /.notdef
/.notdef /.notdef /space /exclam /quotedbl
/numbersign /dollar /percent /ampersand /quotesingle
/parenleft /parenright /asterisk /plus /comma
/hyphen /period /slash /zero /one
/two /three /four /five /six
/seven /eight /nine /colon /semicolon
/less /equal /greater /question /at
/A /B /C /D /E
/F /G /H /I /J
/K /L /M /N /O
/P /Q /R /S /T
/U /V /W /X /Y
/Z /bracketleft /backslash /bracketright /asciicircum
/underscore /quoteleft /a /b /c
/d /e /f /g /h
/i /j /k /l /m
/n /o /p /q /r
/s /t /u /v /w
/x /y /z /braceleft /bar
/braceright /asciitilde /bullet /Euro /bullet
/quotesinglbase /florin /quotedblbase /ellipsis /dagger
/daggerdbl /circumflex /perthousand /Scaron /guilsinglleft
/OE /bullet /Zcaron /bullet /bullet
/quoteleft /quoteright /quotedblleft /quotedblright /bullet
/endash /emdash /asciitilde /trademark /scaron
/guilsinglright /oe /bullet /zcaron /Ydieresis
/space /exclamdown /cent /sterling /currency
/yen /brokenbar /section /dieresis /copyright
/ordfeminine /guillemotleft /logicalnot /sfthyphen /registered
/macron /degree /plusminus /twosuperior /threesuperior
/acute /mu /paragraph /middot /cedilla
/onesuperior /ordmasculine /guillemotright /onequarter /onehalf
/threequarters /questiondown /Agrave /Aacute /Acircumflex
/Atilde /Adieresis /Aring /AE /Ccedilla
/Egrave /Eacute /Ecircumflex /Edieresis /Igrave
/Iacute /Icircumflex /Idieresis /Eth /Ntilde
/Ograve /Oacute /Ocircumflex /Otilde /Odieresis
/multiply /Oslash /Ugrave /Uacute /Ucircumflex
/Udieresis /Yacute /Thorn /germandbls /agrave
/aacute /acircumflex /atilde /adieresis /aring
/ae /ccedilla /egrave /eacute /ecircumflex
/edieresis /igrave /iacute /icircumflex /idieresis
/eth /ntilde /ograve /oacute /ocircumflex
/otilde /odieresis /divide /oslash /ugrave
/uacute /ucircumflex /udieresis /yacute /thorn
/ydieresis
] def
%%EndResource
%FOPBeginFontReencode
/Courier-Bold findfont
dup length dict begin
  {1 index /FID ne {def} {pop pop} ifelse} forall
  /Encoding WinAnsiEncoding def
  currentdict
end
/Courier-Bold exch definefont pop
/Helvetica findfont
dup length dict begin
  {1 index /FID ne {def} {pop pop} ifelse} forall
  /Encoding WinAnsiEncoding def
  currentdict
end
/Helvetica exch definefont pop
/Courier-BoldOblique findfont
dup length dict begin
  {1 index /FID ne {def} {pop pop} ifelse} forall
  /Encoding WinAnsiEncoding def
  currentdict
end
/Courier-BoldOblique exch definefont pop
/Courier-Oblique findfont
dup length dict begin
  {1 index /FID ne {def} {pop pop} ifelse} forall
  /Encoding WinAnsiEncoding def
  currentdict
end
/Courier-Oblique exch definefont pop
/Times-Roman findfont
dup length dict begin
  {1 index /FID ne {def} {pop pop} ifelse} forall
  /Encoding WinAnsiEncoding def
  currentdict
end
/Times-Roman exch definefont pop
/Helvetica-BoldOblique findfont
dup length dict begin
  {1 index /FID ne {def} {pop pop} ifelse} forall
  /Encoding WinAnsiEncoding def
  currentdict
end
/Helvetica-BoldOblique exch definefont pop
/Helvetica-Bold findfont
dup length dict begin
  {1 index /FID ne {def} {pop pop} ifelse} forall
  /Encoding WinAnsiEncoding def
  currentdict
end
/Helvetica-Bold exch definefont pop
/Helvetica-Oblique findfont
dup length dict begin
  {1 index /FID ne {def} {pop pop} ifelse} forall
  /Encoding WinAnsiEncoding def
  currentdict
end
/Helvetica-Oblique exch definefont pop
/Times-BoldItalic findfont
dup length dict begin
  {1 index /FID ne {def} {pop pop} ifelse} forall
  /Encoding WinAnsiEncoding def
  currentdict
end
/Times-BoldItalic exch definefont pop
/Courier findfont
dup length dict begin
  {1 index /FID ne {def} {pop pop} ifelse} forall
  /Encoding WinAnsiEncoding def
  currentdict
end
/Courier exch definefont pop
/Times-Italic findfont
dup length dict begin
  {1 index /FID ne {def} {pop pop} ifelse} forall
  /Encoding WinAnsiEncoding def
  currentdict
end
/Times-Italic exch definefont pop
/Times-Bold findfont
dup length dict begin
  {1 index /FID ne {def} {pop pop} ifelse} forall
  /Encoding WinAnsiEncoding def
  currentdict
end
/Times-Bold exch definefont pop
%FOPEndFontReencode
%%EndProlog
%%Page: 1 1
%%PageBoundingBox: 0 0 284 284
%%BeginPageSetup
[1 0 0 -1 0 284] CT
%%EndPageSetup
GS
[0.60127 0 0 0.60127 0 0.20001] CT
N
0 0 M
472 0 L
472 472 L
0 472 L
0 0 L
cp
clip
1 GC
N
0 0 472 472 re
f
GR
GS
[0.60127 0 0 0.60127 0 0.20001] CT
1 GC
N
0 0 472 472 re
f
GR
GS
[0.60127 0 0 0.60127 0 0.20001] CT
1 GC
N
64 415 M
428 415 L
428 35 L
64 35 L
cp
f
GR
GS
[0.60127 0 0 0.60127 0 0.20001] CT
0.873 GC
1 LJ
0.833 LW
N
74.111 415 M
74.111 35 L
S
GR
GS
[0.60127 0 0 0.60127 0 0.20001] CT
0.873 GC
1 LJ
0.833 LW
N
124.667 415 M
124.667 35 L
S
GR
GS
[0.60127 0 0 0.60127 0 0.20001] CT
0.873 GC
1 LJ
0.833 LW
N
175.222 415 M
175.222 35 L
S
GR
GS
[0.60127 0 0 0.60127 0 0.20001] CT
0.873 GC
1 LJ
0.833 LW
N
225.778 415 M
225.778 35 L
S
GR
GS
[0.60127 0 0 0.60127 0 0.20001] CT
0.873 GC
1 LJ
0.833 LW
N
276.333 415 M
276.333 35 L
S
GR
GS
[0.60127 0 0 0.60127 0 0.20001] CT
0.873 GC
1 LJ
0.833 LW
N
326.889 415 M
326.889 35 L
S
GR
GS
[0.60127 0 0 0.60127 0 0.20001] CT
0.873 GC
1 LJ
0.833 LW
N
377.444 415 M
377.444 35 L
S
GR
GS
[0.60127 0 0 0.60127 0 0.20001] CT
0.873 GC
1 LJ
0.833 LW
N
428 415 M
428 35 L
S
GR
GS
[0.60127 0 0 0.60127 0 0.20001] CT
0.873 GC
1 LJ
0.833 LW
N
428 415 M
64 415 L
S
GR
GS
[0.60127 0 0 0.60127 0 0.20001] CT
0.873 GC
1 LJ
0.833 LW
N
428 367.5 M
64 367.5 L
S
GR
GS
[0.60127 0 0 0.60127 0 0.20001] CT
0.873 GC
1 LJ
0.833 LW
N
428 320 M
64 320 L
S
GR
GS
[0.60127 0 0 0.60127 0 0.20001] CT
0.873 GC
1 LJ
0.833 LW
N
428 272.5 M
64 272.5 L
S
GR
GS
[0.60127 0 0 0.60127 0 0.20001] CT
0.873 GC
1 LJ
0.833 LW
N
428 225 M
64 225 L
S
GR
GS
[0.60127 0 0 0.60127 0 0.20001] CT
0.873 GC
1 LJ
0.833 LW
N
428 177.5 M
64 177.5 L
S
GR
GS
[0.60127 0 0 0.60127 0 0.20001] CT
0.873 GC
1 LJ
0.833 LW
N
428 130 M
64 130 L
S
GR
GS
[0.60127 0 0 0.60127 0 0.20001] CT
0.873 GC
1 LJ
0.833 LW
N
428 82.5 M
64 82.5 L
S
GR
GS
[0.60127 0 0 0.60127 0 0.20001] CT
0.873 GC
1 LJ
0.833 LW
N
428 35 M
64 35 L
S
GR
GS
[0.60127 0 0 0.60127 0 0.20001] CT
0.149 GC
2 setlinecap
1 LJ
0.833 LW
N
64 415 M
428 415 L
S
GR
GS
[0.60127 0 0 0.60127 0 0.20001] CT
0.149 GC
2 setlinecap
1 LJ
0.833 LW
N
74.111 415 M
74.111 411.203 L
S
GR
GS
[0.60127 0 0 0.60127 0 0.20001] CT
0.149 GC
2 setlinecap
1 LJ
0.833 LW
N
124.667 415 M
124.667 411.203 L
S
GR
GS
[0.60127 0 0 0.60127 0 0.20001] CT
0.149 GC
2 setlinecap
1 LJ
0.833 LW
N
175.222 415 M
175.222 411.203 L
S
GR
GS
[0.60127 0 0 0.60127 0 0.20001] CT
0.149 GC
2 setlinecap
1 LJ
0.833 LW
N
225.778 415 M
225.778 411.203 L
S
GR
GS
[0.60127 0 0 0.60127 0 0.20001] CT
0.149 GC
2 setlinecap
1 LJ
0.833 LW
N
276.333 415 M
276.333 411.203 L
S
GR
GS
[0.60127 0 0 0.60127 0 0.20001] CT
0.149 GC
2 setlinecap
1 LJ
0.833 LW
N
326.889 415 M
326.889 411.203 L
S
GR
GS
[0.60127 0 0 0.60127 0 0.20001] CT
0.149 GC
2 setlinecap
1 LJ
0.833 LW
N
377.444 415 M
377.444 411.203 L
S
GR
GS
[0.60127 0 0 0.60127 0 0.20001] CT
0.149 GC
2 setlinecap
1 LJ
0.833 LW
N
428 415 M
428 411.203 L
S
GR
GS
[0.60127 0 0 0.60127 44.56088 253.73601] CT
0.149 GC
/Helvetica 16.667 F
GS
[1 0 0 1 0 0] CT
-12.5 18 moveto 
1 -1 scale
(-15) t 
GR
GR
GS
[0.60127 0 0 0.60127 74.95847 253.73601] CT
0.149 GC
/Helvetica 16.667 F
GS
[1 0 0 1 0 0] CT
-12.5 18 moveto 
1 -1 scale
(-10) t 
GR
GR
GS
[0.60127 0 0 0.60127 105.35607 253.73601] CT
0.149 GC
/Helvetica 16.667 F
GS
[1 0 0 1 0 0] CT
-8 18 moveto 
1 -1 scale
(-5) t 
GR
GR
GS
[0.60127 0 0 0.60127 135.75366 253.73601] CT
0.149 GC
/Helvetica 16.667 F
GS
[1 0 0 1 0 0] CT
-5 18 moveto 
1 -1 scale
(0) t 
GR
GR
GS
[0.60127 0 0 0.60127 166.15127 253.73601] CT
0.149 GC
/Helvetica 16.667 F
GS
[1 0 0 1 0 0] CT
-5 18 moveto 
1 -1 scale
(5) t 
GR
GR
GS
[0.60127 0 0 0.60127 196.54886 253.73601] CT
0.149 GC
/Helvetica 16.667 F
GS
[1 0 0 1 0 0] CT
-9.5 18 moveto 
1 -1 scale
(10) t 
GR
GR
GS
[0.60127 0 0 0.60127 226.94647 253.73601] CT
0.149 GC
/Helvetica 16.667 F
GS
[1 0 0 1 0 0] CT
-9.5 18 moveto 
1 -1 scale
(15) t 
GR
GR
GS
[0.60127 0 0 0.60127 257.34406 253.73601] CT
0.149 GC
/Helvetica 16.667 F
GS
[1 0 0 1 0 0] CT
-9.5 18 moveto 
1 -1 scale
(20) t 
GR
GR
GS
[0.60127 0 0 0.60127 147.91281 267.76568] CT
0.149 GC
N
-37.635 19.866 M
-38.651 19.866 -39.44 19.373 QT
-40.229 18.881 -40.666 18.053 QT
-41.104 17.225 -41.104 16.225 QT
-41.104 15.147 -40.619 13.967 QT
-40.135 12.787 -39.299 11.811 QT
-38.463 10.834 -37.409 10.256 QT
-36.354 9.678 -35.244 9.678 QT
-29.448 9.678 L
-29.213 9.678 -29.041 9.834 QT
-28.869 9.991 -28.869 10.272 QT
-28.869 10.6 -29.112 10.858 QT
-29.354 11.116 -29.698 11.116 QT
-32.494 11.116 L
-31.838 12.1 -31.838 13.506 QT
-31.838 14.662 -32.284 15.78 QT
-32.729 16.897 -33.526 17.826 QT
-34.323 18.756 -35.385 19.311 QT
-36.448 19.866 -37.635 19.866 QT
cp
-37.604 19.256 M
-36.354 19.256 -35.377 18.272 QT
-34.401 17.287 -33.885 15.866 QT
-33.369 14.444 -33.369 13.225 QT
-33.369 12.241 -33.916 11.678 QT
-34.463 11.116 -35.448 11.116 QT
-36.776 11.116 -37.713 12.014 QT
-38.651 12.912 -39.119 14.272 QT
-39.588 15.631 -39.588 16.881 QT
-39.588 17.866 -39.065 18.561 QT
-38.541 19.256 -37.604 19.256 QT
cp
f
GR
GS
[0.60127 0 0 0.60127 147.91281 267.76568] CT
0.149 GC
N
-26.965 11.132 M
-26.965 10.695 L
-26.965 10.664 -26.934 10.617 QT
-24.449 7.867 L
-23.887 7.257 -23.535 6.843 QT
-23.184 6.429 -22.84 5.89 QT
-22.496 5.351 -22.293 4.789 QT
-22.09 4.226 -22.09 3.601 QT
-22.09 2.945 -22.332 2.351 QT
-22.574 1.757 -23.059 1.398 QT
-23.543 1.039 -24.215 1.039 QT
-24.918 1.039 -25.473 1.453 QT
-26.028 1.867 -26.246 2.539 QT
-26.184 2.523 -26.074 2.523 QT
-25.715 2.523 -25.465 2.765 QT
-25.215 3.007 -25.215 3.382 QT
-25.215 3.757 -25.465 4.007 QT
-25.715 4.257 -26.074 4.257 QT
-26.449 4.257 -26.707 4 QT
-26.965 3.742 -26.965 3.382 QT
-26.965 2.789 -26.738 2.257 QT
-26.512 1.726 -26.082 1.32 QT
-25.653 0.914 -25.121 0.695 QT
-24.59 0.476 -23.981 0.476 QT
-23.074 0.476 -22.285 0.859 QT
-21.496 1.242 -21.035 1.953 QT
-20.574 2.664 -20.574 3.601 QT
-20.574 4.304 -20.879 4.929 QT
-21.184 5.554 -21.66 6.062 QT
-22.137 6.57 -22.879 7.218 QT
-23.621 7.867 -23.856 8.086 QT
-25.668 9.836 L
-24.121 9.836 L
-22.996 9.836 -22.231 9.812 QT
-21.465 9.789 -21.418 9.757 QT
-21.231 9.554 -21.043 8.273 QT
-20.574 8.273 L
-21.028 11.132 L
-26.965 11.132 L
cp
f
GR
GS
[0.60127 0 0 0.60127 147.91281 267.76568] CT
0.149 GC
N
-26.865 23.509 M
-26.865 23.165 -26.779 22.728 QT
-26.693 22.29 -26.583 21.954 QT
-26.474 21.618 -26.208 20.915 QT
-25.943 20.212 -25.927 20.15 QT
-25.708 19.556 -25.708 19.181 QT
-25.708 18.712 -26.068 18.712 QT
-26.693 18.712 -27.107 19.36 QT
-27.521 20.009 -27.708 20.821 QT
-27.74 20.915 -27.849 20.915 QT
-28.037 20.915 L
-28.162 20.915 -28.162 20.775 QT
-28.162 20.728 L
-27.912 19.775 -27.38 19.032 QT
-26.849 18.29 -26.037 18.29 QT
-25.458 18.29 -25.068 18.665 QT
-24.677 19.04 -24.677 19.618 QT
-24.677 19.915 -24.802 20.243 QT
-24.99 20.728 -25.247 21.407 QT
-25.505 22.087 -25.646 22.642 QT
-25.787 23.196 -25.787 23.712 QT
-25.787 24.337 -25.458 24.728 QT
-25.13 25.118 -24.505 25.118 QT
-23.646 25.118 -23.083 23.821 QT
-23.115 23.728 -23.115 23.556 QT
-23.115 23.134 -22.974 22.587 QT
-22.083 18.978 L
-22.021 18.775 -21.826 18.618 QT
-21.63 18.462 -21.412 18.462 QT
-21.224 18.462 -21.076 18.587 QT
-20.927 18.712 -20.927 18.915 QT
-20.927 19.009 -20.943 19.04 QT
-21.849 22.618 L
-22.005 23.259 -22.005 23.759 QT
-22.005 24.368 -21.724 24.743 QT
-21.443 25.118 -20.849 25.118 QT
-19.818 25.118 -19.162 23.759 QT
-18.912 23.275 -18.599 22.329 QT
-18.287 21.384 -18.287 20.884 QT
-18.287 20.431 -18.435 20.157 QT
-18.583 19.884 -18.849 19.571 QT
-19.115 19.259 -19.115 19.103 QT
-19.115 18.806 -18.849 18.54 QT
-18.583 18.275 -18.271 18.275 QT
-17.896 18.275 -17.724 18.626 QT
-17.552 18.978 -17.552 19.431 QT
-17.552 19.962 -17.732 20.798 QT
-17.912 21.634 -18.185 22.47 QT
-18.458 23.306 -18.708 23.806 QT
-19.583 25.556 -20.88 25.556 QT
-21.552 25.556 -22.107 25.29 QT
-22.662 25.025 -22.927 24.462 QT
-23.193 24.931 -23.607 25.243 QT
-24.021 25.556 -24.537 25.556 QT
-25.583 25.556 -26.224 25.048 QT
-26.865 24.54 -26.865 23.509 QT
cp
f
GR
GS
[0.60127 0 0 0.60127 147.91281 267.76568] CT
0.149 GC
N
-15.341 19.119 M
-15.466 19.119 -15.576 19.009 QT
-15.685 18.9 -15.685 18.759 QT
-15.685 18.556 -15.513 18.478 QT
-13.794 17.65 L
-15.513 16.837 L
-15.685 16.759 -15.685 16.54 QT
-15.685 16.415 -15.576 16.298 QT
-15.466 16.181 -15.341 16.181 QT
-15.247 16.181 -15.169 16.244 QT
-13.638 17.369 L
-13.81 15.4 L
-13.81 15.259 -13.708 15.165 QT
-13.607 15.072 -13.466 15.072 QT
-13.326 15.072 -13.232 15.158 QT
-13.138 15.244 -13.138 15.384 QT
-13.138 15.4 L
-13.31 17.369 L
-11.779 16.244 L
-11.701 16.181 -11.607 16.181 QT
-11.466 16.181 -11.365 16.298 QT
-11.263 16.415 -11.263 16.54 QT
-11.263 16.759 -11.419 16.837 QT
-13.154 17.65 L
-11.419 18.478 L
-11.263 18.556 -11.263 18.759 QT
-11.263 18.9 -11.365 19.009 QT
-11.466 19.119 -11.607 19.119 QT
-11.701 19.119 -11.779 19.072 QT
-13.31 17.947 L
-13.138 19.9 L
-13.138 19.931 L
-13.138 20.056 -13.24 20.15 QT
-13.341 20.244 -13.466 20.244 QT
-13.607 20.244 -13.708 20.142 QT
-13.81 20.04 -13.81 19.9 QT
-13.638 17.947 L
-15.169 19.072 L
-15.247 19.119 -15.341 19.119 QT
cp
f
GR
GS
[0.60127 0 0 0.60127 147.91281 267.76568] CT
0.149 GC
N
2.197 25.35 M
2.197 2.35 L
5.338 2.35 L
5.338 3.272 L
3.119 3.272 L
3.119 24.428 L
5.338 24.428 L
5.338 25.35 L
2.197 25.35 L
cp
f
GR
GS
[0.60127 0 0 0.60127 147.91281 267.76568] CT
0.149 GC
N
11.569 19.866 M
10.21 19.866 9.093 19.123 QT
7.975 18.381 7.35 17.186 QT
6.725 15.991 6.725 14.631 QT
6.725 13.241 7.405 12.045 QT
8.085 10.85 9.249 10.147 QT
10.413 9.444 11.819 9.444 QT
12.663 9.444 13.413 9.795 QT
14.163 10.147 14.725 10.772 QT
14.725 5.991 L
14.725 5.366 14.538 5.092 QT
14.35 4.819 14.007 4.756 QT
13.663 4.694 12.928 4.694 QT
12.928 3.881 L
16.335 3.647 L
16.335 17.506 L
16.335 18.116 16.522 18.389 QT
16.71 18.662 17.053 18.725 QT
17.397 18.787 18.116 18.787 QT
18.116 19.6 L
14.647 19.866 L
14.647 18.412 L
14.053 19.1 13.233 19.483 QT
12.413 19.866 11.569 19.866 QT
cp
9.225 17.6 M
9.616 18.35 10.272 18.803 QT
10.928 19.256 11.71 19.256 QT
12.663 19.256 13.46 18.701 QT
14.257 18.147 14.647 17.272 QT
14.647 11.756 L
14.382 11.256 13.975 10.858 QT
13.569 10.459 13.053 10.248 QT
12.538 10.037 11.975 10.037 QT
10.772 10.037 10.038 10.717 QT
9.303 11.397 9.014 12.451 QT
8.725 13.506 8.725 14.662 QT
8.725 15.584 8.819 16.264 QT
8.913 16.944 9.225 17.6 QT
cp
f
GR
GS
[0.60127 0 0 0.60127 147.91281 267.76568] CT
0.149 GC
N
19.704 19.6 M
19.704 18.787 L
22.079 18.787 22.079 18.069 QT
22.079 5.428 L
22.079 4.694 19.704 4.694 QT
19.704 3.881 L
28.173 3.881 L
29.329 3.881 30.524 4.342 QT
31.72 4.803 32.501 5.694 QT
33.282 6.584 33.282 7.803 QT
33.282 9.194 32.126 10.147 QT
30.97 11.1 29.438 11.397 QT
30.438 11.397 31.493 11.944 QT
32.548 12.491 33.22 13.412 QT
33.891 14.334 33.891 15.366 QT
33.891 16.631 33.149 17.592 QT
32.407 18.553 31.212 19.076 QT
30.016 19.6 28.813 19.6 QT
19.704 19.6 L
cp
24.079 18.069 M
24.079 18.553 24.36 18.67 QT
24.641 18.787 25.251 18.787 QT
28.173 18.787 L
29.063 18.787 29.837 18.319 QT
30.61 17.85 31.056 17.061 QT
31.501 16.272 31.501 15.366 QT
31.501 14.491 31.134 13.655 QT
30.766 12.819 30.071 12.28 QT
29.376 11.741 28.485 11.741 QT
24.079 11.741 L
24.079 18.069 L
cp
24.079 11.131 M
27.532 11.131 L
28.22 11.131 28.829 10.881 QT
29.438 10.631 29.931 10.155 QT
30.423 9.678 30.688 9.076 QT
30.954 8.475 30.954 7.803 QT
30.954 7.194 30.759 6.647 QT
30.563 6.1 30.181 5.655 QT
29.798 5.209 29.282 4.951 QT
28.766 4.694 28.173 4.694 QT
25.251 4.694 L
24.829 4.694 24.602 4.733 QT
24.376 4.772 24.227 4.928 QT
24.079 5.084 24.079 5.428 QT
24.079 11.131 L
cp
f
GR
GS
[0.60127 0 0 0.60127 147.91281 267.76568] CT
0.149 GC
N
35.951 25.35 M
35.951 24.428 L
38.185 24.428 L
38.185 3.272 L
35.951 3.272 L
35.951 2.35 L
39.107 2.35 L
39.107 25.35 L
35.951 25.35 L
cp
f
GR
GS
[0.60127 0 0 0.60127 0 0.20001] CT
0.149 GC
2 setlinecap
1 LJ
0.833 LW
N
64 415 M
64 35 L
S
GR
GS
[0.60127 0 0 0.60127 0 0.20001] CT
0.149 GC
2 setlinecap
1 LJ
0.833 LW
N
64 415 M
67.797 415 L
S
GR
GS
[0.60127 0 0 0.60127 0 0.20001] CT
0.149 GC
2 setlinecap
1 LJ
0.833 LW
N
64 367.5 M
67.797 367.5 L
S
GR
GS
[0.60127 0 0 0.60127 0 0.20001] CT
0.149 GC
2 setlinecap
1 LJ
0.833 LW
N
64 320 M
67.797 320 L
S
GR
GS
[0.60127 0 0 0.60127 0 0.20001] CT
0.149 GC
2 setlinecap
1 LJ
0.833 LW
N
64 272.5 M
67.797 272.5 L
S
GR
GS
[0.60127 0 0 0.60127 0 0.20001] CT
0.149 GC
2 setlinecap
1 LJ
0.833 LW
N
64 225 M
67.797 225 L
S
GR
GS
[0.60127 0 0 0.60127 0 0.20001] CT
0.149 GC
2 setlinecap
1 LJ
0.833 LW
N
64 177.5 M
67.797 177.5 L
S
GR
GS
[0.60127 0 0 0.60127 0 0.20001] CT
0.149 GC
2 setlinecap
1 LJ
0.833 LW
N
64 130 M
67.797 130 L
S
GR
GS
[0.60127 0 0 0.60127 0 0.20001] CT
0.149 GC
2 setlinecap
1 LJ
0.833 LW
N
64 82.5 M
67.797 82.5 L
S
GR
GS
[0.60127 0 0 0.60127 0 0.20001] CT
0.149 GC
2 setlinecap
1 LJ
0.833 LW
N
64 35 M
67.797 35 L
S
GR
GS
[0.60127 0 0 0.60127 34.47288 249.72754] CT
0.149 GC
/Helvetica 16.667 F
GS
[1 0 0 1 0 0] CT
-10 7 moveto 
1 -1 scale
(0) t 
GR
GR
GS
[0.60127 0 0 0.60127 34.47288 221.16716] CT
0.149 GC
/Helvetica 16.667 F
GS
[1 0 0 1 0 0] CT
-24 7 moveto 
1 -1 scale
(0.5) t 
GR
GR
GS
[0.60127 0 0 0.60127 34.47288 192.60678] CT
0.149 GC
/Helvetica 16.667 F
GS
[1 0 0 1 0 0] CT
-10 7 moveto 
1 -1 scale
(1) t 
GR
GR
GS
[0.60127 0 0 0.60127 34.47288 164.0464] CT
0.149 GC
/Helvetica 16.667 F
GS
[1 0 0 1 0 0] CT
-24 7 moveto 
1 -1 scale
(1.5) t 
GR
GR
GS
[0.60127 0 0 0.60127 34.47288 135.48602] CT
0.149 GC
/Helvetica 16.667 F
GS
[1 0 0 1 0 0] CT
-10 7 moveto 
1 -1 scale
(2) t 
GR
GR
GS
[0.60127 0 0 0.60127 34.47288 106.92564] CT
0.149 GC
/Helvetica 16.667 F
GS
[1 0 0 1 0 0] CT
-24 7 moveto 
1 -1 scale
(2.5) t 
GR
GR
GS
[0.60127 0 0 0.60127 34.47288 78.36526] CT
0.149 GC
/Helvetica 16.667 F
GS
[1 0 0 1 0 0] CT
-10 7 moveto 
1 -1 scale
(3) t 
GR
GR
GS
[0.60127 0 0 0.60127 34.47288 49.80488] CT
0.149 GC
/Helvetica 16.667 F
GS
[1 0 0 1 0 0] CT
-24 7 moveto 
1 -1 scale
(3.5) t 
GR
GR
GS
[0.60127 0 0 0.60127 34.47288 21.2445] CT
0.149 GC
/Helvetica 16.667 F
GS
[1 0 0 1 0 0] CT
-10 7 moveto 
1 -1 scale
(4) t 
GR
GR
GS
[0 -0.60127 0.60127 0 16.83559 135.48591] CT
0.149 GC
N
-85.912 -8.072 M
-85.912 -13.447 L
-85.912 -13.619 -85.708 -13.619 QT
-85.427 -13.619 L
-85.365 -13.619 -85.31 -13.564 QT
-85.255 -13.509 -85.255 -13.447 QT
-85.255 -11.181 -83.857 -9.939 QT
-82.458 -8.697 -80.193 -8.697 QT
-79.396 -8.697 -78.716 -9.158 QT
-78.037 -9.619 -77.662 -10.369 QT
-77.287 -11.119 -77.287 -11.916 QT
-77.287 -12.619 -77.568 -13.275 QT
-77.849 -13.931 -78.38 -14.408 QT
-78.912 -14.884 -79.568 -15.056 QT
-82.552 -15.775 L
-84.037 -16.166 -84.974 -17.384 QT
-85.912 -18.603 -85.912 -20.119 QT
-85.912 -21.322 -85.31 -22.361 QT
-84.708 -23.4 -83.677 -24.009 QT
-82.646 -24.619 -81.458 -24.619 QT
-79.162 -24.619 -77.802 -23.056 QT
-76.849 -24.556 L
-76.787 -24.619 -76.693 -24.619 QT
-76.537 -24.619 L
-76.474 -24.619 -76.412 -24.564 QT
-76.349 -24.509 -76.349 -24.431 QT
-76.349 -19.088 L
-76.349 -18.884 -76.537 -18.884 QT
-76.802 -18.884 L
-77.021 -18.884 -77.021 -19.088 QT
-77.021 -19.681 -77.216 -20.377 QT
-77.412 -21.072 -77.763 -21.713 QT
-78.115 -22.353 -78.521 -22.759 QT
-79.63 -23.869 -81.458 -23.869 QT
-82.24 -23.869 -82.904 -23.47 QT
-83.568 -23.072 -83.958 -22.392 QT
-84.349 -21.713 -84.349 -20.963 QT
-84.349 -19.963 -83.74 -19.166 QT
-83.13 -18.369 -82.146 -18.103 QT
-79.162 -17.369 L
-78.412 -17.197 -77.755 -16.728 QT
-77.099 -16.259 -76.662 -15.642 QT
-76.224 -15.025 -75.974 -14.267 QT
-75.724 -13.509 -75.724 -12.697 QT
-75.724 -11.463 -76.302 -10.353 QT
-76.88 -9.244 -77.919 -8.572 QT
-78.958 -7.9 -80.193 -7.9 QT
-80.958 -7.9 -81.755 -8.064 QT
-82.552 -8.228 -83.224 -8.58 QT
-83.896 -8.931 -84.443 -9.478 QT
-85.412 -7.963 L
-85.474 -7.9 -85.583 -7.9 QT
-85.708 -7.9 L
-85.912 -7.9 -85.912 -8.072 QT
cp
f
GR
GS
[0 -0.60127 0.60127 0 16.83559 135.48591] CT
0.149 GC
N
-68.511 -8.134 M
-69.917 -8.134 -71.089 -8.877 QT
-72.261 -9.619 -72.933 -10.845 QT
-73.605 -12.072 -73.605 -13.447 QT
-73.605 -14.791 -72.995 -16.002 QT
-72.386 -17.213 -71.292 -17.963 QT
-70.199 -18.713 -68.839 -18.713 QT
-67.792 -18.713 -67.011 -18.361 QT
-66.23 -18.009 -65.722 -17.377 QT
-65.214 -16.744 -64.956 -15.892 QT
-64.699 -15.041 -64.699 -14.009 QT
-64.699 -13.713 -64.933 -13.713 QT
-71.589 -13.713 L
-71.589 -13.463 L
-71.589 -11.556 -70.824 -10.189 QT
-70.058 -8.822 -68.308 -8.822 QT
-67.605 -8.822 -67.003 -9.134 QT
-66.402 -9.447 -65.964 -10.009 QT
-65.527 -10.572 -65.355 -11.213 QT
-65.339 -11.291 -65.277 -11.353 QT
-65.214 -11.416 -65.136 -11.416 QT
-64.933 -11.416 L
-64.699 -11.416 -64.699 -11.119 QT
-65.027 -9.822 -66.105 -8.978 QT
-67.183 -8.134 -68.511 -8.134 QT
cp
-71.574 -14.291 M
-66.324 -14.291 L
-66.324 -15.15 -66.566 -16.041 QT
-66.808 -16.931 -67.37 -17.517 QT
-67.933 -18.103 -68.839 -18.103 QT
-70.152 -18.103 -70.863 -16.884 QT
-71.574 -15.666 -71.574 -14.291 QT
cp
f
GR
GS
[0 -0.60127 0.60127 0 16.83559 135.48591] CT
0.149 GC
N
-58.141 -8.134 M
-59.547 -8.134 -60.68 -8.861 QT
-61.813 -9.588 -62.461 -10.799 QT
-63.109 -12.009 -63.109 -13.369 QT
-63.109 -14.728 -62.461 -15.97 QT
-61.813 -17.213 -60.68 -17.963 QT
-59.547 -18.713 -58.141 -18.713 QT
-56.797 -18.713 -55.695 -18.181 QT
-54.594 -17.65 -54.594 -16.447 QT
-54.594 -16.009 -54.914 -15.674 QT
-55.234 -15.338 -55.688 -15.338 QT
-56.141 -15.338 -56.461 -15.674 QT
-56.781 -16.009 -56.781 -16.447 QT
-56.781 -16.853 -56.524 -17.15 QT
-56.266 -17.447 -55.891 -17.525 QT
-56.688 -18.041 -58.125 -18.041 QT
-59.219 -18.041 -59.899 -17.306 QT
-60.578 -16.572 -60.844 -15.494 QT
-61.109 -14.416 -61.109 -13.369 QT
-61.109 -12.259 -60.781 -11.22 QT
-60.453 -10.181 -59.719 -9.502 QT
-58.984 -8.822 -57.859 -8.822 QT
-56.781 -8.822 -56.016 -9.486 QT
-55.25 -10.15 -54.969 -11.228 QT
-54.969 -11.369 -54.797 -11.369 QT
-54.516 -11.369 L
-54.438 -11.369 -54.383 -11.306 QT
-54.328 -11.244 -54.328 -11.166 QT
-54.328 -11.103 L
-54.672 -9.744 -55.711 -8.939 QT
-56.75 -8.134 -58.141 -8.134 QT
cp
f
GR
GS
[0 -0.60127 0.60127 0 16.83559 135.48591] CT
0.149 GC
N
-52.911 -8.4 M
-52.911 -9.213 L
-52.13 -9.213 -51.622 -9.338 QT
-51.114 -9.463 -51.114 -9.931 QT
-51.114 -16.213 L
-51.114 -16.838 -51.302 -17.111 QT
-51.489 -17.384 -51.833 -17.447 QT
-52.177 -17.509 -52.911 -17.509 QT
-52.911 -18.322 L
-49.614 -18.556 L
-49.614 -16.322 L
-49.255 -17.322 -48.567 -17.939 QT
-47.88 -18.556 -46.895 -18.556 QT
-46.223 -18.556 -45.684 -18.158 QT
-45.145 -17.759 -45.145 -17.088 QT
-45.145 -16.681 -45.442 -16.369 QT
-45.739 -16.056 -46.177 -16.056 QT
-46.598 -16.056 -46.903 -16.361 QT
-47.208 -16.666 -47.208 -17.088 QT
-47.208 -17.713 -46.77 -17.963 QT
-46.895 -17.963 L
-47.833 -17.963 -48.419 -17.291 QT
-49.005 -16.619 -49.255 -15.619 QT
-49.505 -14.619 -49.505 -13.713 QT
-49.505 -9.931 L
-49.505 -9.213 -47.27 -9.213 QT
-47.27 -8.4 L
-52.911 -8.4 L
cp
f
GR
GS
[0 -0.60127 0.60127 0 16.83559 135.48591] CT
0.149 GC
N
-38.631 -8.134 M
-40.038 -8.134 -41.21 -8.877 QT
-42.381 -9.619 -43.053 -10.845 QT
-43.725 -12.072 -43.725 -13.447 QT
-43.725 -14.791 -43.116 -16.002 QT
-42.506 -17.213 -41.413 -17.963 QT
-40.319 -18.713 -38.96 -18.713 QT
-37.913 -18.713 -37.131 -18.361 QT
-36.35 -18.009 -35.842 -17.377 QT
-35.335 -16.744 -35.077 -15.892 QT
-34.819 -15.041 -34.819 -14.009 QT
-34.819 -13.713 -35.053 -13.713 QT
-41.71 -13.713 L
-41.71 -13.463 L
-41.71 -11.556 -40.944 -10.189 QT
-40.178 -8.822 -38.428 -8.822 QT
-37.725 -8.822 -37.124 -9.134 QT
-36.522 -9.447 -36.085 -10.009 QT
-35.647 -10.572 -35.475 -11.213 QT
-35.46 -11.291 -35.397 -11.353 QT
-35.335 -11.416 -35.256 -11.416 QT
-35.053 -11.416 L
-34.819 -11.416 -34.819 -11.119 QT
-35.147 -9.822 -36.225 -8.978 QT
-37.303 -8.134 -38.631 -8.134 QT
cp
-41.694 -14.291 M
-36.444 -14.291 L
-36.444 -15.15 -36.686 -16.041 QT
-36.928 -16.931 -37.491 -17.517 QT
-38.053 -18.103 -38.96 -18.103 QT
-40.272 -18.103 -40.983 -16.884 QT
-41.694 -15.666 -41.694 -14.291 QT
cp
f
GR
GS
[0 -0.60127 0.60127 0 16.83559 135.48591] CT
0.149 GC
N
-28.261 -8.134 M
-29.667 -8.134 -30.8 -8.861 QT
-31.933 -9.588 -32.581 -10.799 QT
-33.23 -12.009 -33.23 -13.369 QT
-33.23 -14.728 -32.581 -15.97 QT
-31.933 -17.213 -30.8 -17.963 QT
-29.667 -18.713 -28.261 -18.713 QT
-26.917 -18.713 -25.816 -18.181 QT
-24.714 -17.65 -24.714 -16.447 QT
-24.714 -16.009 -25.035 -15.674 QT
-25.355 -15.338 -25.808 -15.338 QT
-26.261 -15.338 -26.581 -15.674 QT
-26.902 -16.009 -26.902 -16.447 QT
-26.902 -16.853 -26.644 -17.15 QT
-26.386 -17.447 -26.011 -17.525 QT
-26.808 -18.041 -28.245 -18.041 QT
-29.339 -18.041 -30.019 -17.306 QT
-30.699 -16.572 -30.964 -15.494 QT
-31.23 -14.416 -31.23 -13.369 QT
-31.23 -12.259 -30.902 -11.22 QT
-30.574 -10.181 -29.839 -9.502 QT
-29.105 -8.822 -27.98 -8.822 QT
-26.902 -8.822 -26.136 -9.486 QT
-25.37 -10.15 -25.089 -11.228 QT
-25.089 -11.369 -24.917 -11.369 QT
-24.636 -11.369 L
-24.558 -11.369 -24.503 -11.306 QT
-24.449 -11.244 -24.449 -11.166 QT
-24.449 -11.103 L
-24.792 -9.744 -25.831 -8.939 QT
-26.87 -8.134 -28.261 -8.134 QT
cp
f
GR
GS
[0 -0.60127 0.60127 0 16.83559 135.48591] CT
0.149 GC
N
-22.047 -4.619 M
-21.609 -4.275 -21.078 -4.275 QT
-19.625 -4.275 -18.703 -6.463 QT
-17.922 -8.4 L
-21.375 -16.853 L
-21.578 -17.275 -22.016 -17.392 QT
-22.453 -17.509 -23.188 -17.509 QT
-23.188 -18.322 L
-18.359 -18.322 L
-18.359 -17.509 L
-19.625 -17.509 -19.625 -16.963 QT
-19.625 -16.869 -19.609 -16.822 QT
-17.047 -10.541 L
-14.734 -16.197 L
-14.672 -16.369 -14.672 -16.588 QT
-14.672 -16.869 -14.828 -17.08 QT
-14.984 -17.291 -15.219 -17.4 QT
-15.453 -17.509 -15.766 -17.509 QT
-15.766 -18.322 L
-11.938 -18.322 L
-11.938 -17.509 L
-12.656 -17.509 -13.188 -17.181 QT
-13.719 -16.853 -14.016 -16.213 QT
-17.984 -6.463 L
-18.297 -5.728 -18.719 -5.103 QT
-19.141 -4.478 -19.75 -4.08 QT
-20.359 -3.681 -21.078 -3.681 QT
-21.922 -3.681 -22.555 -4.236 QT
-23.188 -4.791 -23.188 -5.619 QT
-23.188 -6.041 -22.899 -6.33 QT
-22.609 -6.619 -22.172 -6.619 QT
-21.891 -6.619 -21.656 -6.494 QT
-21.422 -6.369 -21.297 -6.142 QT
-21.172 -5.916 -21.172 -5.619 QT
-21.172 -5.244 -21.414 -4.955 QT
-21.656 -4.666 -22.047 -4.619 QT
cp
f
GR
GS
[0 -0.60127 0.60127 0 16.83559 135.48591] CT
0.149 GC
N
1.718 -10.853 M
2.499 -9.853 3.678 -9.275 QT
4.858 -8.697 6.124 -8.697 QT
7.186 -8.697 8.1 -9.119 QT
9.014 -9.541 9.694 -10.299 QT
10.374 -11.056 10.741 -12.009 QT
11.108 -12.963 11.108 -14.009 QT
11.108 -14.197 11.296 -14.197 QT
11.577 -14.197 L
11.764 -14.197 11.764 -13.978 QT
11.764 -12.775 11.303 -11.658 QT
10.843 -10.541 9.999 -9.689 QT
9.155 -8.838 8.061 -8.369 QT
6.968 -7.9 5.78 -7.9 QT
4.124 -7.9 2.647 -8.564 QT
1.171 -9.228 0.077 -10.392 QT
-1.017 -11.556 -1.626 -13.08 QT
-2.236 -14.603 -2.236 -16.259 QT
-2.236 -17.916 -1.626 -19.439 QT
-1.017 -20.963 0.077 -22.134 QT
1.171 -23.306 2.647 -23.963 QT
4.124 -24.619 5.78 -24.619 QT
6.952 -24.619 8.03 -24.103 QT
9.108 -23.588 9.921 -22.666 QT
11.264 -24.556 L
11.389 -24.619 11.421 -24.619 QT
11.577 -24.619 L
11.655 -24.619 11.71 -24.564 QT
11.764 -24.509 11.764 -24.431 QT
11.764 -18.213 L
11.764 -18.009 11.577 -18.009 QT
11.171 -18.009 L
10.952 -18.009 10.952 -18.213 QT
10.952 -18.884 10.686 -19.705 QT
10.421 -20.525 10.014 -21.259 QT
9.608 -21.994 9.061 -22.556 QT
7.78 -23.806 6.108 -23.806 QT
4.827 -23.806 3.671 -23.236 QT
2.514 -22.666 1.718 -21.65 QT
0.874 -20.572 0.546 -19.197 QT
0.218 -17.822 0.218 -16.259 QT
0.218 -14.697 0.546 -13.314 QT
0.874 -11.931 1.718 -10.853 QT
cp
f
GR
GS
[0 -0.60127 0.60127 0 16.83559 135.48591] CT
0.149 GC
N
14.241 -10.65 M
14.241 -12.025 15.319 -12.884 QT
16.398 -13.744 17.905 -14.095 QT
19.413 -14.447 20.773 -14.447 QT
20.773 -15.4 L
20.773 -16.056 20.483 -16.681 QT
20.194 -17.306 19.64 -17.705 QT
19.085 -18.103 18.429 -18.103 QT
16.898 -18.103 16.101 -17.416 QT
16.538 -17.416 16.827 -17.088 QT
17.116 -16.759 17.116 -16.322 QT
17.116 -15.853 16.788 -15.533 QT
16.46 -15.213 16.023 -15.213 QT
15.554 -15.213 15.226 -15.533 QT
14.898 -15.853 14.898 -16.322 QT
14.898 -17.525 15.999 -18.119 QT
17.101 -18.713 18.429 -18.713 QT
19.366 -18.713 20.304 -18.314 QT
21.241 -17.916 21.843 -17.174 QT
22.444 -16.431 22.444 -15.447 QT
22.444 -10.259 L
22.444 -9.822 22.64 -9.439 QT
22.835 -9.056 23.241 -9.056 QT
23.616 -9.056 23.804 -9.439 QT
23.991 -9.822 23.991 -10.259 QT
23.991 -11.728 L
24.663 -11.728 L
24.663 -10.259 L
24.663 -9.744 24.39 -9.283 QT
24.116 -8.822 23.663 -8.541 QT
23.21 -8.259 22.679 -8.259 QT
22.007 -8.259 21.523 -8.783 QT
21.038 -9.306 20.976 -10.025 QT
20.554 -9.166 19.726 -8.65 QT
18.898 -8.134 17.944 -8.134 QT
17.069 -8.134 16.226 -8.4 QT
15.382 -8.666 14.812 -9.22 QT
14.241 -9.775 14.241 -10.65 QT
cp
16.101 -10.65 M
16.101 -9.853 16.694 -9.299 QT
17.288 -8.744 18.101 -8.744 QT
18.851 -8.744 19.452 -9.119 QT
20.054 -9.494 20.413 -10.134 QT
20.773 -10.775 20.773 -11.478 QT
20.773 -13.869 L
19.726 -13.869 18.632 -13.525 QT
17.538 -13.181 16.819 -12.455 QT
16.101 -11.728 16.101 -10.65 QT
cp
f
GR
GS
[0 -0.60127 0.60127 0 16.83559 135.48591] CT
0.149 GC
N
25.58 -3.947 M
25.58 -4.744 L
26.361 -4.744 26.869 -4.877 QT
27.377 -5.009 27.377 -5.478 QT
27.377 -16.572 L
27.377 -17.197 26.931 -17.353 QT
26.486 -17.509 25.58 -17.509 QT
25.58 -18.322 L
28.986 -18.556 L
28.986 -17.134 L
29.611 -17.838 30.447 -18.197 QT
31.283 -18.556 32.236 -18.556 QT
33.595 -18.556 34.681 -17.822 QT
35.767 -17.088 36.377 -15.892 QT
36.986 -14.697 36.986 -13.369 QT
36.986 -11.978 36.306 -10.775 QT
35.627 -9.572 34.455 -8.853 QT
33.283 -8.134 31.877 -8.134 QT
30.205 -8.134 29.049 -9.494 QT
29.049 -5.478 L
29.049 -5.009 29.564 -4.877 QT
30.08 -4.744 30.845 -4.744 QT
30.845 -3.947 L
25.58 -3.947 L
cp
29.049 -10.634 M
29.455 -9.822 30.174 -9.283 QT
30.892 -8.744 31.752 -8.744 QT
32.549 -8.744 33.158 -9.174 QT
33.767 -9.603 34.181 -10.322 QT
34.595 -11.041 34.791 -11.83 QT
34.986 -12.619 34.986 -13.369 QT
34.986 -14.291 34.658 -15.361 QT
34.33 -16.431 33.65 -17.166 QT
32.97 -17.9 32.002 -17.9 QT
31.08 -17.9 30.299 -17.424 QT
29.517 -16.947 29.049 -16.134 QT
29.049 -10.634 L
cp
f
GR
GS
[0 -0.60127 0.60127 0 16.83559 135.48591] CT
0.149 GC
N
38.871 -10.65 M
38.871 -12.025 39.949 -12.884 QT
41.027 -13.744 42.535 -14.095 QT
44.043 -14.447 45.402 -14.447 QT
45.402 -15.4 L
45.402 -16.056 45.113 -16.681 QT
44.824 -17.306 44.269 -17.705 QT
43.715 -18.103 43.058 -18.103 QT
41.527 -18.103 40.73 -17.416 QT
41.168 -17.416 41.457 -17.088 QT
41.746 -16.759 41.746 -16.322 QT
41.746 -15.853 41.418 -15.533 QT
41.09 -15.213 40.652 -15.213 QT
40.183 -15.213 39.855 -15.533 QT
39.527 -15.853 39.527 -16.322 QT
39.527 -17.525 40.629 -18.119 QT
41.73 -18.713 43.058 -18.713 QT
43.996 -18.713 44.933 -18.314 QT
45.871 -17.916 46.473 -17.174 QT
47.074 -16.431 47.074 -15.447 QT
47.074 -10.259 L
47.074 -9.822 47.269 -9.439 QT
47.465 -9.056 47.871 -9.056 QT
48.246 -9.056 48.433 -9.439 QT
48.621 -9.822 48.621 -10.259 QT
48.621 -11.728 L
49.293 -11.728 L
49.293 -10.259 L
49.293 -9.744 49.019 -9.283 QT
48.746 -8.822 48.293 -8.541 QT
47.84 -8.259 47.308 -8.259 QT
46.637 -8.259 46.152 -8.783 QT
45.668 -9.306 45.605 -10.025 QT
45.183 -9.166 44.355 -8.65 QT
43.527 -8.134 42.574 -8.134 QT
41.699 -8.134 40.855 -8.4 QT
40.012 -8.666 39.441 -9.22 QT
38.871 -9.775 38.871 -10.65 QT
cp
40.73 -10.65 M
40.73 -9.853 41.324 -9.299 QT
41.918 -8.744 42.73 -8.744 QT
43.48 -8.744 44.082 -9.119 QT
44.683 -9.494 45.043 -10.134 QT
45.402 -10.775 45.402 -11.478 QT
45.402 -13.869 L
44.355 -13.869 43.262 -13.525 QT
42.168 -13.181 41.449 -12.455 QT
40.73 -11.728 40.73 -10.65 QT
cp
f
GR
GS
[0 -0.60127 0.60127 0 16.83559 135.48591] CT
0.149 GC
N
55.35 -8.134 M
53.944 -8.134 52.811 -8.861 QT
51.678 -9.588 51.03 -10.799 QT
50.381 -12.009 50.381 -13.369 QT
50.381 -14.728 51.03 -15.97 QT
51.678 -17.213 52.811 -17.963 QT
53.944 -18.713 55.35 -18.713 QT
56.694 -18.713 57.795 -18.181 QT
58.897 -17.65 58.897 -16.447 QT
58.897 -16.009 58.577 -15.674 QT
58.256 -15.338 57.803 -15.338 QT
57.35 -15.338 57.03 -15.674 QT
56.71 -16.009 56.71 -16.447 QT
56.71 -16.853 56.967 -17.15 QT
57.225 -17.447 57.6 -17.525 QT
56.803 -18.041 55.366 -18.041 QT
54.272 -18.041 53.592 -17.306 QT
52.913 -16.572 52.647 -15.494 QT
52.381 -14.416 52.381 -13.369 QT
52.381 -12.259 52.71 -11.22 QT
53.038 -10.181 53.772 -9.502 QT
54.506 -8.822 55.631 -8.822 QT
56.71 -8.822 57.475 -9.486 QT
58.241 -10.15 58.522 -11.228 QT
58.522 -11.369 58.694 -11.369 QT
58.975 -11.369 L
59.053 -11.369 59.108 -11.306 QT
59.163 -11.244 59.163 -11.166 QT
59.163 -11.103 L
58.819 -9.744 57.78 -8.939 QT
56.741 -8.134 55.35 -8.134 QT
cp
f
GR
GS
[0 -0.60127 0.60127 0 16.83559 135.48591] CT
0.149 GC
N
60.689 -8.4 M
60.689 -9.213 L
61.486 -9.213 61.986 -9.338 QT
62.486 -9.463 62.486 -9.931 QT
62.486 -16.213 L
62.486 -17.103 62.142 -17.306 QT
61.799 -17.509 60.799 -17.509 QT
60.799 -18.322 L
64.111 -18.556 L
64.111 -9.931 L
64.111 -9.463 64.549 -9.338 QT
64.986 -9.213 65.721 -9.213 QT
65.721 -8.4 L
60.689 -8.4 L
cp
61.674 -22.509 M
61.674 -23.025 62.056 -23.408 QT
62.439 -23.791 62.924 -23.791 QT
63.252 -23.791 63.556 -23.619 QT
63.861 -23.447 64.033 -23.142 QT
64.205 -22.838 64.205 -22.509 QT
64.205 -22.025 63.822 -21.642 QT
63.439 -21.259 62.924 -21.259 QT
62.439 -21.259 62.056 -21.642 QT
61.674 -22.025 61.674 -22.509 QT
cp
f
GR
GS
[0 -0.60127 0.60127 0 16.83559 135.48591] CT
0.149 GC
N
68.811 -11.166 M
68.811 -17.509 L
66.905 -17.509 L
66.905 -18.103 L
68.405 -18.103 69.116 -19.509 QT
69.827 -20.916 69.827 -22.556 QT
70.483 -22.556 L
70.483 -18.322 L
73.733 -18.322 L
73.733 -17.509 L
70.483 -17.509 L
70.483 -11.213 L
70.483 -10.259 70.804 -9.541 QT
71.124 -8.822 71.952 -8.822 QT
72.749 -8.822 73.093 -9.58 QT
73.436 -10.338 73.436 -11.213 QT
73.436 -12.572 L
74.108 -12.572 L
74.108 -11.166 L
74.108 -10.447 73.843 -9.744 QT
73.577 -9.041 73.061 -8.588 QT
72.546 -8.134 71.796 -8.134 QT
70.421 -8.134 69.616 -8.963 QT
68.811 -9.791 68.811 -11.166 QT
cp
f
GR
GS
[0 -0.60127 0.60127 0 16.83559 135.48591] CT
0.149 GC
N
76.472 -4.619 M
76.909 -4.275 77.44 -4.275 QT
78.894 -4.275 79.815 -6.463 QT
80.597 -8.4 L
77.144 -16.853 L
76.94 -17.275 76.503 -17.392 QT
76.065 -17.509 75.331 -17.509 QT
75.331 -18.322 L
80.159 -18.322 L
80.159 -17.509 L
78.894 -17.509 78.894 -16.963 QT
78.894 -16.869 78.909 -16.822 QT
81.472 -10.541 L
83.784 -16.197 L
83.847 -16.369 83.847 -16.588 QT
83.847 -16.869 83.69 -17.08 QT
83.534 -17.291 83.3 -17.4 QT
83.065 -17.509 82.753 -17.509 QT
82.753 -18.322 L
86.581 -18.322 L
86.581 -17.509 L
85.862 -17.509 85.331 -17.181 QT
84.8 -16.853 84.503 -16.213 QT
80.534 -6.463 L
80.222 -5.728 79.8 -5.103 QT
79.378 -4.478 78.769 -4.08 QT
78.159 -3.681 77.44 -3.681 QT
76.597 -3.681 75.964 -4.236 QT
75.331 -4.791 75.331 -5.619 QT
75.331 -6.041 75.62 -6.33 QT
75.909 -6.619 76.347 -6.619 QT
76.628 -6.619 76.862 -6.494 QT
77.097 -6.369 77.222 -6.142 QT
77.347 -5.916 77.347 -5.619 QT
77.347 -5.244 77.105 -4.955 QT
76.862 -4.666 76.472 -4.619 QT
cp
f
GR
GS
[0.60127 0 0 0.60127 0 0.20001] CT
0 0.447 0.741 RC
1 LJ
2.5 LW
N
64 415 M
74.111 415 L
84.222 415 L
94.333 415 L
104.444 415 L
114.556 415 L
124.667 414.998 L
134.778 414.986 L
144.889 414.924 L
155 414.696 L
165.111 414.075 L
175.222 412.737 L
185.333 410.346 L
195.444 406.673 L
205.556 401.681 L
215.667 395.532 L
225.778 388.538 L
235.889 381.082 L
246 373.542 L
256.111 366.238 L
266.222 359.408 L
276.333 353.204 L
286.444 347.701 L
296.556 342.917 L
306.667 338.823 L
316.778 335.368 L
326.889 332.485 L
337 330.1 L
347.111 328.142 L
357.222 326.545 L
367.333 325.25 L
377.444 324.202 L
387.556 323.359 L
397.667 322.681 L
407.778 322.138 L
417.889 321.704 L
428 321.357 L
S
GR
GS
[0.60127 0 0 0.60127 0 0.20001] CT
0 0.447 0.741 RC
[10 6] 0 setdash
2 LJ
1.667 LW
N
64 320 M
74.111 320 L
84.222 320 L
94.333 320 L
104.444 320 L
114.556 320 L
124.667 320 L
134.778 320 L
144.889 320 L
155 320 L
165.111 320 L
175.222 320 L
185.333 320 L
195.444 320 L
205.556 320 L
215.667 320 L
225.778 320 L
235.889 320 L
246 320 L
256.111 320 L
266.222 320 L
276.333 320 L
286.444 320 L
296.556 320 L
306.667 320 L
316.778 320 L
326.889 320 L
337 320 L
347.111 320 L
357.222 320 L
367.333 320 L
377.444 320 L
387.556 320 L
397.667 320 L
407.778 320 L
417.889 320 L
428 320 L
S
GR
GS
[0.60127 0 0 0.60127 0 0.20001] CT
0.929 0.694 0.125 RC
1 LJ
2.5 LW
N
64 415 M
74.111 415 L
84.222 415 L
94.333 414.997 L
104.444 414.972 L
114.556 414.845 L
124.667 414.384 L
134.778 413.131 L
144.889 410.436 L
155 405.629 L
165.111 398.257 L
175.222 388.247 L
185.333 375.927 L
195.444 361.926 L
205.556 347.008 L
215.667 331.93 L
225.778 317.329 L
235.889 303.681 L
246 291.287 L
256.111 280.297 L
266.222 270.742 L
276.333 262.569 L
286.444 255.672 L
296.556 249.915 L
306.667 245.155 L
316.778 241.248 L
326.889 238.061 L
337 235.475 L
347.111 233.386 L
357.222 231.702 L
367.333 230.35 L
377.444 229.267 L
387.556 228.4 L
397.667 227.708 L
407.778 227.155 L
417.889 226.715 L
428 226.364 L
S
GR
GS
[0.60127 0 0 0.60127 0 0.20001] CT
0.929 0.694 0.125 RC
[10 6] 0 setdash
2 LJ
1.667 LW
N
64 225 M
74.111 225 L
84.222 225 L
94.333 225 L
104.444 225 L
114.556 225 L
124.667 225 L
134.778 225 L
144.889 225 L
155 225 L
165.111 225 L
175.222 225 L
185.333 225 L
195.444 225 L
205.556 225 L
215.667 225 L
225.778 225 L
235.889 225 L
246 225 L
256.111 225 L
266.222 225 L
276.333 225 L
286.444 225 L
296.556 225 L
306.667 225 L
316.778 225 L
326.889 225 L
337 225 L
347.111 225 L
357.222 225 L
367.333 225 L
377.444 225 L
387.556 225 L
397.667 225 L
407.778 225 L
417.889 225 L
428 225 L
S
GR
GS
[0.60127 0 0 0.60127 0 0.20001] CT
0.467 0.675 0.188 RC
1 LJ
2.5 LW
N
64 415 M
74.111 414.338 L
84.222 412.683 L
94.333 409.353 L
104.444 403.726 L
114.556 395.46 L
124.667 384.608 L
134.778 371.555 L
144.889 356.841 L
155 340.972 L
165.111 324.32 L
175.222 307.149 L
185.333 289.703 L
195.444 272.264 L
205.556 255.173 L
215.667 238.789 L
225.778 223.439 L
235.889 209.377 L
246 196.763 L
256.111 185.659 L
266.222 176.048 L
276.333 167.847 L
286.444 160.936 L
296.556 155.174 L
306.667 150.411 L
316.778 146.503 L
326.889 143.316 L
337 140.729 L
347.111 138.639 L
357.222 136.956 L
367.333 135.604 L
377.444 134.521 L
387.556 133.654 L
397.667 132.962 L
407.778 132.409 L
417.889 131.969 L
428 131.618 L
S
GR
GS
[0.60127 0 0 0.60127 0 0.20001] CT
0.467 0.675 0.188 RC
[10 6] 0 setdash
2 LJ
1.667 LW
N
64 130.254 M
74.111 130.254 L
84.222 130.254 L
94.333 130.254 L
104.444 130.254 L
114.556 130.254 L
124.667 130.254 L
134.778 130.254 L
144.889 130.254 L
155 130.254 L
165.111 130.254 L
175.222 130.254 L
185.333 130.254 L
195.444 130.254 L
205.556 130.254 L
215.667 130.254 L
225.778 130.254 L
235.889 130.254 L
246 130.254 L
256.111 130.254 L
266.222 130.254 L
276.333 130.254 L
286.444 130.254 L
296.556 130.254 L
306.667 130.254 L
316.778 130.254 L
326.889 130.254 L
337 130.254 L
347.111 130.254 L
357.222 130.254 L
367.333 130.254 L
377.444 130.254 L
387.556 130.254 L
397.667 130.254 L
407.778 130.254 L
417.889 130.254 L
428 130.254 L
S
GR
GS
[0.60127 0 0 0.60127 0 0.20001] CT
0.635 0.078 0.184 RC
1 LJ
2.5 LW
N
64 415 M
74.111 402.302 L
84.222 387.995 L
94.333 372.713 L
104.444 356.93 L
114.556 340.907 L
124.667 324.74 L
134.778 308.43 L
144.889 291.938 L
155 275.202 L
165.111 258.17 L
175.222 240.85 L
185.333 223.349 L
195.444 205.893 L
205.556 188.797 L
215.667 172.411 L
225.778 157.06 L
235.889 142.998 L
246 130.384 L
256.111 119.28 L
266.222 109.669 L
276.333 101.468 L
286.444 94.558 L
296.556 88.795 L
306.667 84.032 L
316.778 80.124 L
326.889 76.937 L
337 74.351 L
347.111 72.261 L
357.222 70.578 L
367.333 69.226 L
377.444 68.142 L
387.556 67.275 L
397.667 66.583 L
407.778 66.03 L
417.889 65.59 L
428 65.239 L
S
GR
GS
[0.60127 0 0 0.60127 0 0.20001] CT
0.635 0.078 0.184 RC
[10 6] 0 setdash
2 LJ
1.667 LW
N
64 63.875 M
74.111 63.875 L
84.222 63.875 L
94.333 63.875 L
104.444 63.875 L
114.556 63.875 L
124.667 63.875 L
134.778 63.875 L
144.889 63.875 L
155 63.875 L
165.111 63.875 L
175.222 63.875 L
185.333 63.875 L
195.444 63.875 L
205.556 63.875 L
215.667 63.875 L
225.778 63.875 L
235.889 63.875 L
246 63.875 L
256.111 63.875 L
266.222 63.875 L
276.333 63.875 L
286.444 63.875 L
296.556 63.875 L
306.667 63.875 L
316.778 63.875 L
326.889 63.875 L
337 63.875 L
347.111 63.875 L
357.222 63.875 L
367.333 63.875 L
377.444 63.875 L
387.556 63.875 L
397.667 63.875 L
407.778 63.875 L
417.889 63.875 L
428 63.875 L
S
GR
GS
[0.60127 0 0 0.60127 0 0.20001] CT
0.851 0.325 0.098 RC
1 LJ
2.5 LW
N
64 415 M
74.111 399.106 L
84.222 383.18 L
94.333 367.213 L
104.444 351.193 L
114.556 335.104 L
124.667 318.921 L
134.778 302.609 L
144.889 286.117 L
155 269.38 L
165.111 252.348 L
175.222 235.028 L
185.333 217.527 L
195.444 200.071 L
205.556 182.975 L
215.667 166.589 L
225.778 151.238 L
235.889 137.176 L
246 124.562 L
256.111 113.459 L
266.222 103.847 L
276.333 95.647 L
286.444 88.736 L
296.556 82.974 L
306.667 78.211 L
316.778 74.302 L
326.889 71.115 L
337 68.529 L
347.111 66.439 L
357.222 64.756 L
367.333 63.404 L
377.444 62.321 L
387.556 61.454 L
397.667 60.761 L
407.778 60.209 L
417.889 59.768 L
428 59.417 L
S
GR
GS
[0.60127 0 0 0.60127 0 0.20001] CT
0.851 0.325 0.098 RC
[10 6] 0 setdash
2 LJ
1.667 LW
N
64 58.054 M
74.111 58.054 L
84.222 58.054 L
94.333 58.054 L
104.444 58.054 L
114.556 58.054 L
124.667 58.054 L
134.778 58.054 L
144.889 58.054 L
155 58.054 L
165.111 58.054 L
175.222 58.054 L
185.333 58.054 L
195.444 58.054 L
205.556 58.054 L
215.667 58.054 L
225.778 58.054 L
235.889 58.054 L
246 58.054 L
256.111 58.054 L
266.222 58.054 L
276.333 58.054 L
286.444 58.054 L
296.556 58.054 L
306.667 58.054 L
316.778 58.054 L
326.889 58.054 L
337 58.054 L
347.111 58.054 L
357.222 58.054 L
367.333 58.054 L
377.444 58.054 L
387.556 58.054 L
397.667 58.054 L
407.778 58.054 L
417.889 58.054 L
428 58.054 L
S
GR
GS
[0.60127 0 0 0.60127 0 0.20001] CT
1 GC
N
65 226 M
65 36 L
179 36 L
179 226 L
cp
f
GR
GS
[0.60127 0 0 0.60127 74.3557 28.73772] CT
N
0.531 3.6 M
0.531 3.069 L
2.078 3.069 2.078 2.194 QT
2.078 -5.65 L
2.078 -6.119 0.531 -6.119 QT
0.531 -6.65 L
3.359 -6.65 L
3.547 -6.65 3.609 -6.478 QT
6.875 2.006 L
10.141 -6.478 L
10.203 -6.65 10.375 -6.65 QT
13.219 -6.65 L
13.219 -6.119 L
11.672 -6.119 11.672 -5.65 QT
11.672 2.6 L
11.672 3.069 13.219 3.069 QT
13.219 3.6 L
8.844 3.6 L
8.844 3.069 L
10.391 3.069 10.391 2.6 QT
10.391 -6.134 L
6.703 3.428 L
6.641 3.6 6.453 3.6 QT
6.266 3.6 6.203 3.428 QT
2.547 -6.009 L
2.547 2.194 L
2.547 3.069 4.094 3.069 QT
4.094 3.6 L
0.531 3.6 L
cp
f
GR
GS
[0.60127 0 0 0.60127 74.3557 28.73772] CT
N
19.875 1.6 M
19.75 1.6 19.672 1.506 QT
19.594 1.412 19.594 1.303 QT
19.594 1.178 19.672 1.092 QT
19.75 1.006 19.875 1.006 QT
29.297 1.006 L
29.406 1.006 29.484 1.092 QT
29.563 1.178 29.563 1.303 QT
29.563 1.412 29.484 1.506 QT
29.406 1.6 29.297 1.6 QT
19.875 1.6 L
cp
19.875 -1.306 M
19.75 -1.306 19.672 -1.392 QT
19.594 -1.478 19.594 -1.603 QT
19.594 -1.713 19.672 -1.814 QT
19.75 -1.916 19.875 -1.916 QT
29.297 -1.916 L
29.406 -1.916 29.484 -1.814 QT
29.563 -1.713 29.563 -1.603 QT
29.563 -1.478 29.484 -1.392 QT
29.406 -1.306 29.297 -1.306 QT
19.875 -1.306 L
cp
f
GR
GS
[0.60127 0 0 0.60127 74.3557 28.73772] CT
N
36.167 3.6 M
36.167 3.194 L
36.167 3.162 36.198 3.116 QT
38.526 0.537 L
39.057 -0.041 39.385 -0.423 QT
39.714 -0.806 40.034 -1.314 QT
40.354 -1.822 40.542 -2.345 QT
40.729 -2.869 40.729 -3.447 QT
40.729 -4.072 40.503 -4.634 QT
40.276 -5.197 39.823 -5.533 QT
39.37 -5.869 38.729 -5.869 QT
38.089 -5.869 37.565 -5.47 QT
37.042 -5.072 36.823 -4.463 QT
36.885 -4.478 36.995 -4.478 QT
37.323 -4.478 37.565 -4.252 QT
37.807 -4.025 37.807 -3.666 QT
37.807 -3.322 37.565 -3.08 QT
37.323 -2.838 36.995 -2.838 QT
36.635 -2.838 36.401 -3.08 QT
36.167 -3.322 36.167 -3.666 QT
36.167 -4.228 36.378 -4.72 QT
36.589 -5.213 36.987 -5.595 QT
37.385 -5.978 37.885 -6.181 QT
38.385 -6.384 38.948 -6.384 QT
39.807 -6.384 40.55 -6.025 QT
41.292 -5.666 41.721 -5.002 QT
42.151 -4.338 42.151 -3.447 QT
42.151 -2.806 41.87 -2.22 QT
41.589 -1.634 41.143 -1.15 QT
40.698 -0.666 39.995 -0.056 QT
39.292 0.553 39.073 0.756 QT
37.385 2.381 L
38.823 2.381 L
39.885 2.381 40.596 2.366 QT
41.307 2.35 41.354 2.303 QT
41.526 2.116 41.714 0.928 QT
42.151 0.928 L
41.729 3.6 L
36.167 3.6 L
cp
f
GR
GS
[0.60127 0 0 0.60127 0 0.20001] CT
0 0.447 0.741 RC
1 LJ
2.5 LW
N
69.993 47.462 M
119.92 47.462 L
S
GR
GS
[0.60127 0 0 0.60127 74.3557 39.89968] CT
N
2.188 0.366 M
2.188 1.256 2.539 1.944 QT
2.891 2.631 3.555 3.014 QT
4.219 3.397 5.109 3.397 QT
6.063 3.397 6.938 2.912 QT
7.813 2.428 8.43 1.623 QT
9.047 0.819 9.266 -0.088 QT
9.297 -0.181 9.391 -0.181 QT
9.578 -0.181 L
9.625 -0.181 9.664 -0.142 QT
9.703 -0.103 9.703 -0.041 QT
9.703 -0.041 9.688 -0.009 QT
9.438 1.037 8.703 1.952 QT
7.969 2.866 6.938 3.397 QT
5.906 3.928 4.828 3.928 QT
3.656 3.928 2.727 3.405 QT
1.797 2.881 1.281 1.944 QT
0.766 1.006 0.766 -0.181 QT
0.766 -1.447 1.328 -2.673 QT
1.891 -3.9 2.844 -4.869 QT
3.797 -5.838 5.016 -6.408 QT
6.234 -6.978 7.484 -6.978 QT
7.984 -6.978 8.438 -6.83 QT
8.891 -6.681 9.281 -6.369 QT
9.672 -6.056 9.922 -5.666 QT
11.109 -6.947 L
11.109 -6.978 11.172 -6.978 QT
11.266 -6.978 L
11.328 -6.978 11.359 -6.923 QT
11.391 -6.869 11.391 -6.822 QT
10.375 -2.775 L
10.375 -2.666 10.266 -2.666 QT
9.984 -2.666 L
9.875 -2.666 9.875 -2.838 QT
9.938 -3.166 9.938 -3.634 QT
9.938 -4.369 9.688 -5.017 QT
9.438 -5.666 8.914 -6.056 QT
8.391 -6.447 7.625 -6.447 QT
6.406 -6.447 5.391 -5.83 QT
4.375 -5.213 3.664 -4.213 QT
2.953 -3.213 2.57 -1.994 QT
2.188 -0.775 2.188 0.366 QT
cp
f
GR
GS
[0.60127 0 0 0.60127 74.3557 39.89968] CT
N
11.221 5.85 M
11.127 5.85 11.127 5.725 QT
11.127 5.694 11.143 5.631 QT
11.158 5.569 11.182 5.53 QT
11.205 5.491 11.252 5.491 QT
11.533 5.491 11.744 5.483 QT
11.955 5.475 12.096 5.428 QT
12.221 5.381 12.299 5.162 QT
13.658 -0.338 L
13.674 -0.431 13.674 -0.463 QT
13.674 -0.572 13.565 -0.588 QT
13.377 -0.634 12.846 -0.634 QT
12.736 -0.634 12.736 -0.759 QT
12.752 -0.791 12.768 -0.853 QT
12.783 -0.916 12.807 -0.947 QT
12.83 -0.978 12.877 -0.978 QT
16.455 -0.978 L
16.783 -0.978 17.104 -0.9 QT
17.424 -0.822 17.69 -0.642 QT
17.955 -0.463 18.119 -0.205 QT
18.283 0.053 18.283 0.397 QT
18.283 0.772 18.088 1.1 QT
17.893 1.428 17.588 1.662 QT
17.283 1.897 16.932 2.053 QT
16.58 2.209 16.19 2.287 QT
16.471 2.287 16.744 2.389 QT
17.018 2.491 17.244 2.678 QT
17.471 2.866 17.604 3.123 QT
17.736 3.381 17.736 3.678 QT
17.736 4.287 17.315 4.78 QT
16.893 5.272 16.252 5.561 QT
15.611 5.85 15.018 5.85 QT
11.221 5.85 L
cp
13.065 5.412 M
13.065 5.491 13.408 5.491 QT
14.83 5.491 L
15.315 5.491 15.768 5.225 QT
16.221 4.959 16.494 4.506 QT
16.768 4.053 16.768 3.569 QT
16.768 3.272 16.643 3.006 QT
16.518 2.741 16.283 2.584 QT
16.049 2.428 15.736 2.428 QT
13.799 2.428 L
13.096 5.194 L
13.065 5.334 13.065 5.412 QT
cp
13.861 2.162 M
15.377 2.162 L
15.861 2.162 16.315 1.92 QT
16.768 1.678 17.049 1.256 QT
17.33 0.834 17.33 0.366 QT
17.33 -0.056 17.057 -0.345 QT
16.783 -0.634 16.361 -0.634 QT
14.986 -0.634 L
14.721 -0.634 14.627 -0.58 QT
14.533 -0.525 14.471 -0.291 QT
13.861 2.162 L
cp
f
GR
GS
[0.60127 0 0 0.60127 0 0.20001] CT
0 0.447 0.741 RC
[10 6] 0 setdash
2 LJ
1.667 LW
N
69.993 66.026 M
119.92 66.026 L
S
GR
GS
[0.60127 0 0 0.60127 74.3557 51.06164] CT
N
/f1055610520{0.531 3.6 M
0.531 3.069 L
2.078 3.069 2.078 2.194 QT
2.078 -5.65 L
2.078 -6.119 0.531 -6.119 QT
0.531 -6.65 L
3.359 -6.65 L
3.547 -6.65 3.609 -6.478 QT
6.875 2.006 L
10.141 -6.478 L
10.203 -6.65 10.375 -6.65 QT
13.219 -6.65 L
13.219 -6.119 L
11.672 -6.119 11.672 -5.65 QT
11.672 2.6 L
11.672 3.069 13.219 3.069 QT
13.219 3.6 L
8.844 3.6 L
8.844 3.069 L
10.391 3.069 10.391 2.6 QT
10.391 -6.134 L
6.703 3.428 L
6.641 3.6 6.453 3.6 QT
6.266 3.6 6.203 3.428 QT
2.547 -6.009 L
2.547 2.194 L
2.547 3.069 4.094 3.069 QT
4.094 3.6 L
0.531 3.6 L
cp}def
f1055610520
f
GR
GS
[0.60127 0 0 0.60127 74.3557 51.06164] CT
N
/f477378350{19.875 1.6 M
19.75 1.6 19.672 1.506 QT
19.594 1.412 19.594 1.303 QT
19.594 1.178 19.672 1.092 QT
19.75 1.006 19.875 1.006 QT
29.297 1.006 L
29.406 1.006 29.484 1.092 QT
29.563 1.178 29.563 1.303 QT
29.563 1.412 29.484 1.506 QT
29.406 1.6 29.297 1.6 QT
19.875 1.6 L
cp
19.875 -1.306 M
19.75 -1.306 19.672 -1.392 QT
19.594 -1.478 19.594 -1.603 QT
19.594 -1.713 19.672 -1.814 QT
19.75 -1.916 19.875 -1.916 QT
29.297 -1.916 L
29.406 -1.916 29.484 -1.814 QT
29.563 -1.713 29.563 -1.603 QT
29.563 -1.478 29.484 -1.392 QT
29.406 -1.306 29.297 -1.306 QT
19.875 -1.306 L
cp}def
f477378350
f
GR
GS
[0.60127 0 0 0.60127 74.3557 51.06164] CT
N
/f-99070029{35.839 1.131 M
35.839 0.6 L
40.464 -6.322 L
40.526 -6.384 40.62 -6.384 QT
40.839 -6.384 L
41.01 -6.384 41.01 -6.228 QT
41.01 0.6 L
42.479 0.6 L
42.479 1.131 L
41.01 1.131 L
41.01 2.6 L
41.01 2.897 41.448 2.983 QT
41.885 3.069 42.464 3.069 QT
42.464 3.6 L
38.339 3.6 L
38.339 3.069 L
38.917 3.069 39.354 2.983 QT
39.792 2.897 39.792 2.6 QT
39.792 1.131 L
35.839 1.131 L
cp
36.339 0.6 M
39.885 0.6 L
39.885 -4.713 L
36.339 0.6 L
cp}def
f-99070029
f
GR
GS
[0.60127 0 0 0.60127 0 0.20001] CT
0.929 0.694 0.125 RC
1 LJ
2.5 LW
N
69.993 84.59 M
119.92 84.59 L
S
GR
GS
[0.60127 0 0 0.60127 74.3557 62.2236] CT
N
/f626546414{2.188 0.366 M
2.188 1.256 2.539 1.944 QT
2.891 2.631 3.555 3.014 QT
4.219 3.397 5.109 3.397 QT
6.063 3.397 6.938 2.912 QT
7.813 2.428 8.43 1.623 QT
9.047 0.819 9.266 -0.088 QT
9.297 -0.181 9.391 -0.181 QT
9.578 -0.181 L
9.625 -0.181 9.664 -0.142 QT
9.703 -0.103 9.703 -0.041 QT
9.703 -0.041 9.688 -0.009 QT
9.438 1.037 8.703 1.952 QT
7.969 2.866 6.938 3.397 QT
5.906 3.928 4.828 3.928 QT
3.656 3.928 2.727 3.405 QT
1.797 2.881 1.281 1.944 QT
0.766 1.006 0.766 -0.181 QT
0.766 -1.447 1.328 -2.673 QT
1.891 -3.9 2.844 -4.869 QT
3.797 -5.838 5.016 -6.408 QT
6.234 -6.978 7.484 -6.978 QT
7.984 -6.978 8.438 -6.83 QT
8.891 -6.681 9.281 -6.369 QT
9.672 -6.056 9.922 -5.666 QT
11.109 -6.947 L
11.109 -6.978 11.172 -6.978 QT
11.266 -6.978 L
11.328 -6.978 11.359 -6.923 QT
11.391 -6.869 11.391 -6.822 QT
10.375 -2.775 L
10.375 -2.666 10.266 -2.666 QT
9.984 -2.666 L
9.875 -2.666 9.875 -2.838 QT
9.938 -3.166 9.938 -3.634 QT
9.938 -4.369 9.688 -5.017 QT
9.438 -5.666 8.914 -6.056 QT
8.391 -6.447 7.625 -6.447 QT
6.406 -6.447 5.391 -5.83 QT
4.375 -5.213 3.664 -4.213 QT
2.953 -3.213 2.57 -1.994 QT
2.188 -0.775 2.188 0.366 QT
cp}def
f626546414
f
GR
GS
[0.60127 0 0 0.60127 74.3557 62.2236] CT
N
/f1070889604{11.221 5.85 M
11.127 5.85 11.127 5.725 QT
11.127 5.694 11.143 5.631 QT
11.158 5.569 11.182 5.53 QT
11.205 5.491 11.252 5.491 QT
11.533 5.491 11.744 5.483 QT
11.955 5.475 12.096 5.428 QT
12.221 5.381 12.299 5.162 QT
13.658 -0.338 L
13.674 -0.431 13.674 -0.463 QT
13.674 -0.572 13.565 -0.588 QT
13.377 -0.634 12.846 -0.634 QT
12.736 -0.634 12.736 -0.759 QT
12.752 -0.791 12.768 -0.853 QT
12.783 -0.916 12.807 -0.947 QT
12.83 -0.978 12.877 -0.978 QT
16.455 -0.978 L
16.783 -0.978 17.104 -0.9 QT
17.424 -0.822 17.69 -0.642 QT
17.955 -0.463 18.119 -0.205 QT
18.283 0.053 18.283 0.397 QT
18.283 0.772 18.088 1.1 QT
17.893 1.428 17.588 1.662 QT
17.283 1.897 16.932 2.053 QT
16.58 2.209 16.19 2.287 QT
16.471 2.287 16.744 2.389 QT
17.018 2.491 17.244 2.678 QT
17.471 2.866 17.604 3.123 QT
17.736 3.381 17.736 3.678 QT
17.736 4.287 17.315 4.78 QT
16.893 5.272 16.252 5.561 QT
15.611 5.85 15.018 5.85 QT
11.221 5.85 L
cp
13.065 5.412 M
13.065 5.491 13.408 5.491 QT
14.83 5.491 L
15.315 5.491 15.768 5.225 QT
16.221 4.959 16.494 4.506 QT
16.768 4.053 16.768 3.569 QT
16.768 3.272 16.643 3.006 QT
16.518 2.741 16.283 2.584 QT
16.049 2.428 15.736 2.428 QT
13.799 2.428 L
13.096 5.194 L
13.065 5.334 13.065 5.412 QT
cp
13.861 2.162 M
15.377 2.162 L
15.861 2.162 16.315 1.92 QT
16.768 1.678 17.049 1.256 QT
17.33 0.834 17.33 0.366 QT
17.33 -0.056 17.057 -0.345 QT
16.783 -0.634 16.361 -0.634 QT
14.986 -0.634 L
14.721 -0.634 14.627 -0.58 QT
14.533 -0.525 14.471 -0.291 QT
13.861 2.162 L
cp}def
f1070889604
f
GR
GS
[0.60127 0 0 0.60127 0 0.20001] CT
0.929 0.694 0.125 RC
[10 6] 0 setdash
2 LJ
1.667 LW
N
69.993 103.154 M
119.92 103.154 L
S
GR
GS
[0.60127 0 0 0.60127 74.3557 73.38556] CT
N
f1055610520
f
GR
GS
[0.60127 0 0 0.60127 74.3557 73.38556] CT
N
f477378350
f
GR
GS
[0.60127 0 0 0.60127 74.3557 73.38556] CT
N
/f-2128743779{36.042 1.319 M
36.042 0.428 36.635 -0.267 QT
37.229 -0.963 38.167 -1.431 QT
37.604 -1.791 L
37.089 -2.119 36.768 -2.681 QT
36.448 -3.244 36.448 -3.853 QT
36.448 -4.572 36.823 -5.15 QT
37.198 -5.728 37.831 -6.056 QT
38.464 -6.384 39.167 -6.384 QT
39.839 -6.384 40.456 -6.119 QT
41.073 -5.853 41.471 -5.345 QT
41.87 -4.838 41.87 -4.134 QT
41.87 -3.634 41.635 -3.205 QT
41.401 -2.775 40.987 -2.431 QT
40.573 -2.088 40.104 -1.838 QT
40.948 -1.291 L
41.542 -0.9 41.909 -0.275 QT
42.276 0.35 42.276 1.053 QT
42.276 1.866 41.839 2.53 QT
41.401 3.194 40.682 3.561 QT
39.964 3.928 39.167 3.928 QT
38.385 3.928 37.667 3.616 QT
36.948 3.303 36.495 2.702 QT
36.042 2.1 36.042 1.319 QT
cp
36.854 1.319 M
36.854 1.912 37.182 2.405 QT
37.51 2.897 38.05 3.178 QT
38.589 3.459 39.167 3.459 QT
40.042 3.459 40.753 2.944 QT
41.464 2.428 41.464 1.6 QT
41.464 1.303 41.346 1.022 QT
41.229 0.741 41.026 0.514 QT
40.823 0.287 40.573 0.131 QT
38.573 -1.166 L
38.104 -0.916 37.706 -0.533 QT
37.307 -0.15 37.081 0.319 QT
36.854 0.787 36.854 1.319 QT
cp
37.885 -3.259 M
39.714 -2.088 L
40.339 -2.447 40.745 -2.97 QT
41.151 -3.494 41.151 -4.134 QT
41.151 -4.65 40.862 -5.072 QT
40.573 -5.494 40.12 -5.728 QT
39.667 -5.963 39.151 -5.963 QT
38.698 -5.963 38.237 -5.783 QT
37.776 -5.603 37.479 -5.259 QT
37.182 -4.916 37.182 -4.447 QT
37.182 -3.744 37.885 -3.259 QT
cp}def
f-2128743779
f
GR
GS
[0.60127 0 0 0.60127 0 0.20001] CT
0.467 0.675 0.188 RC
1 LJ
2.5 LW
N
69.993 121.718 M
119.92 121.718 L
S
GR
GS
[0.60127 0 0 0.60127 74.3557 84.54751] CT
N
f626546414
f
GR
GS
[0.60127 0 0 0.60127 74.3557 84.54751] CT
N
f1070889604
f
GR
GS
[0.60127 0 0 0.60127 0 0.20001] CT
0.467 0.675 0.188 RC
[10 6] 0 setdash
2 LJ
1.667 LW
N
69.993 140.282 M
119.92 140.282 L
S
GR
GS
[0.60127 0 0 0.60127 74.3557 95.70947] CT
N
f1055610520
f
GR
GS
[0.60127 0 0 0.60127 74.3557 95.70947] CT
N
f477378350
f
GR
GS
[0.60127 0 0 0.60127 74.3557 95.70947] CT
N
/f406270690{36.807 3.6 M
36.807 3.069 L
38.682 3.069 38.682 2.6 QT
38.682 -5.275 L
37.901 -4.9 36.714 -4.9 QT
36.714 -5.431 L
38.557 -5.431 39.495 -6.384 QT
39.714 -6.384 L
39.76 -6.384 39.807 -6.345 QT
39.854 -6.306 39.854 -6.259 QT
39.854 2.6 L
39.854 3.069 41.729 3.069 QT
41.729 3.6 L
36.807 3.6 L
cp}def
f406270690
f
GR
GS
[0.60127 0 0 0.60127 74.3557 95.70947] CT
N
/f1203183560{46.667 3.928 M
45.729 3.928 45.112 3.436 QT
44.495 2.944 44.151 2.155 QT
43.807 1.366 43.675 0.498 QT
43.542 -0.369 43.542 -1.244 QT
43.542 -2.431 44.003 -3.627 QT
44.464 -4.822 45.362 -5.603 QT
46.26 -6.384 47.495 -6.384 QT
48.01 -6.384 48.456 -6.197 QT
48.901 -6.009 49.151 -5.627 QT
49.401 -5.244 49.401 -4.713 QT
49.401 -4.4 49.19 -4.197 QT
48.979 -3.994 48.667 -3.994 QT
48.385 -3.994 48.175 -4.205 QT
47.964 -4.416 47.964 -4.713 QT
47.964 -5.009 48.175 -5.22 QT
48.385 -5.431 48.667 -5.431 QT
48.76 -5.431 L
48.557 -5.697 48.214 -5.83 QT
47.87 -5.963 47.495 -5.963 QT
47.042 -5.963 46.659 -5.759 QT
46.276 -5.556 45.964 -5.22 QT
45.651 -4.884 45.448 -4.478 QT
45.245 -4.072 45.135 -3.556 QT
45.026 -3.041 44.995 -2.588 QT
44.964 -2.134 44.964 -1.447 QT
45.229 -2.056 45.714 -2.447 QT
46.198 -2.838 46.792 -2.838 QT
47.464 -2.838 48.01 -2.564 QT
48.557 -2.291 48.956 -1.814 QT
49.354 -1.338 49.565 -0.72 QT
49.776 -0.103 49.776 0.522 QT
49.776 1.397 49.385 2.194 QT
48.995 2.991 48.284 3.459 QT
47.573 3.928 46.667 3.928 QT
cp
46.667 3.459 M
47.245 3.459 47.596 3.194 QT
47.948 2.928 48.112 2.491 QT
48.276 2.053 48.315 1.608 QT
48.354 1.162 48.354 0.522 QT
48.354 -0.322 48.276 -0.923 QT
48.198 -1.525 47.839 -1.986 QT
47.479 -2.447 46.745 -2.447 QT
46.135 -2.447 45.745 -2.033 QT
45.354 -1.619 45.175 -0.994 QT
44.995 -0.369 44.995 0.209 QT
44.995 0.412 45.01 0.506 QT
45.01 0.537 45.003 0.545 QT
44.995 0.553 44.995 0.584 QT
44.995 1.225 45.128 1.881 QT
45.26 2.537 45.628 2.998 QT
45.995 3.459 46.667 3.459 QT
cp}def
f1203183560
f
GR
GS
[0.60127 0 0 0.60127 0 0.20001] CT
0.635 0.078 0.184 RC
1 LJ
2.5 LW
N
69.993 158.846 M
119.92 158.846 L
S
GR
GS
[0.60127 0 0 0.60127 74.3557 106.87143] CT
N
f626546414
f
GR
GS
[0.60127 0 0 0.60127 74.3557 106.87143] CT
N
f1070889604
f
GR
GS
[0.60127 0 0 0.60127 0 0.20001] CT
0.635 0.078 0.184 RC
[10 6] 0 setdash
2 LJ
1.667 LW
N
69.993 177.41 M
119.92 177.41 L
S
GR
GS
[0.60127 0 0 0.60127 74.3557 118.03339] CT
N
f1055610520
f
GR
GS
[0.60127 0 0 0.60127 74.3557 118.03339] CT
N
f477378350
f
GR
GS
[0.60127 0 0 0.60127 74.3557 118.03339] CT
N
/f-1599956596{36.839 2.444 M
37.198 2.959 37.792 3.209 QT
38.385 3.459 39.057 3.459 QT
39.932 3.459 40.3 2.709 QT
40.667 1.959 40.667 1.022 QT
40.667 0.6 40.589 0.17 QT
40.51 -0.259 40.331 -0.619 QT
40.151 -0.978 39.831 -1.205 QT
39.51 -1.431 39.057 -1.431 QT
38.057 -1.431 L
37.917 -1.431 37.917 -1.556 QT
37.917 -1.697 L
37.917 -1.806 38.057 -1.806 QT
38.885 -1.884 L
39.401 -1.884 39.753 -2.275 QT
40.104 -2.666 40.268 -3.236 QT
40.432 -3.806 40.432 -4.322 QT
40.432 -5.041 40.096 -5.502 QT
39.76 -5.963 39.057 -5.963 QT
38.495 -5.963 37.971 -5.744 QT
37.448 -5.525 37.151 -5.088 QT
37.182 -5.088 37.198 -5.095 QT
37.214 -5.103 37.245 -5.103 QT
37.589 -5.103 37.815 -4.869 QT
38.042 -4.634 38.042 -4.306 QT
38.042 -3.978 37.815 -3.744 QT
37.589 -3.509 37.245 -3.509 QT
36.917 -3.509 36.682 -3.744 QT
36.448 -3.978 36.448 -4.306 QT
36.448 -4.947 36.839 -5.423 QT
37.229 -5.9 37.839 -6.142 QT
38.448 -6.384 39.057 -6.384 QT
39.526 -6.384 40.026 -6.252 QT
40.526 -6.119 40.94 -5.869 QT
41.354 -5.619 41.612 -5.22 QT
41.87 -4.822 41.87 -4.322 QT
41.87 -3.681 41.589 -3.15 QT
41.307 -2.619 40.815 -2.228 QT
40.323 -1.838 39.745 -1.65 QT
40.385 -1.525 40.971 -1.158 QT
41.557 -0.791 41.917 -0.22 QT
42.276 0.35 42.276 1.006 QT
42.276 1.834 41.823 2.506 QT
41.37 3.178 40.628 3.553 QT
39.885 3.928 39.057 3.928 QT
38.354 3.928 37.651 3.662 QT
36.948 3.397 36.495 2.858 QT
36.042 2.319 36.042 1.584 QT
36.042 1.209 36.292 0.959 QT
36.542 0.709 36.917 0.709 QT
37.167 0.709 37.362 0.819 QT
37.557 0.928 37.675 1.139 QT
37.792 1.35 37.792 1.584 QT
37.792 1.944 37.534 2.194 QT
37.276 2.444 36.917 2.444 QT
36.839 2.444 L
cp}def
f-1599956596
f
GR
GS
[0.60127 0 0 0.60127 74.3557 118.03339] CT
N
/f1954240870{43.667 3.6 M
43.667 3.194 L
43.667 3.162 43.698 3.116 QT
46.026 0.537 L
46.557 -0.041 46.885 -0.423 QT
47.214 -0.806 47.534 -1.314 QT
47.854 -1.822 48.042 -2.345 QT
48.229 -2.869 48.229 -3.447 QT
48.229 -4.072 48.003 -4.634 QT
47.776 -5.197 47.323 -5.533 QT
46.87 -5.869 46.229 -5.869 QT
45.589 -5.869 45.065 -5.47 QT
44.542 -5.072 44.323 -4.463 QT
44.385 -4.478 44.495 -4.478 QT
44.823 -4.478 45.065 -4.252 QT
45.307 -4.025 45.307 -3.666 QT
45.307 -3.322 45.065 -3.08 QT
44.823 -2.838 44.495 -2.838 QT
44.135 -2.838 43.901 -3.08 QT
43.667 -3.322 43.667 -3.666 QT
43.667 -4.228 43.878 -4.72 QT
44.089 -5.213 44.487 -5.595 QT
44.885 -5.978 45.385 -6.181 QT
45.885 -6.384 46.448 -6.384 QT
47.307 -6.384 48.05 -6.025 QT
48.792 -5.666 49.221 -5.002 QT
49.651 -4.338 49.651 -3.447 QT
49.651 -2.806 49.37 -2.22 QT
49.089 -1.634 48.643 -1.15 QT
48.198 -0.666 47.495 -0.056 QT
46.792 0.553 46.573 0.756 QT
44.885 2.381 L
46.323 2.381 L
47.385 2.381 48.096 2.366 QT
48.807 2.35 48.854 2.303 QT
49.026 2.116 49.214 0.928 QT
49.651 0.928 L
49.229 3.6 L
43.667 3.6 L
cp}def
f1954240870
f
GR
GS
[0.60127 0 0 0.60127 0 0.20001] CT
0.851 0.325 0.098 RC
1 LJ
2.5 LW
N
69.993 195.974 M
119.92 195.974 L
S
GR
GS
[0.60127 0 0 0.60127 74.3557 129.19535] CT
N
f626546414
f
GR
GS
[0.60127 0 0 0.60127 74.3557 129.19535] CT
N
f1070889604
f
GR
GS
[0.60127 0 0 0.60127 0 0.20001] CT
0.851 0.325 0.098 RC
[10 6] 0 setdash
2 LJ
1.667 LW
N
69.993 214.538 M
119.92 214.538 L
S
GR
GS
[0.60127 0 0 0.60127 0 0.20001] CT
0.149 GC
10.0 ML
0.833 LW
N
65 226 M
65 36 L
179 36 L
179 226 L
cp
S
GR
%%Trailer
%%Pages: 1
%%EOF
