%!PS-Adobe-3.0 EPSF-3.0
%%Creator: (MATLAB, The Mathworks, Inc. Version 9.2.0.538062 \(R2017a\). Operating System: Windows 8)
%%Title: C:/Users/chees/Documents/DottoratoLoc/GNSS/authProtocol/latex/figures/secrecyCapacity1.eps
%%CreationDate: 2017-11-20T08:11:58
%%Pages: (atend)
%%BoundingBox: 0 0 284 284
%%LanguageLevel: 3
%%EndComments
%%BeginProlog
%%BeginResource: procset (Apache XML Graphics Std ProcSet) 1.2 0
%%Version: 1.2 0
%%Copyright: (Copyright 2001-2003,2010 The Apache Software Foundation. License terms: http://www.apache.org/licenses/LICENSE-2.0)
/bd{bind def}bind def
/ld{load def}bd
/GR/grestore ld
/M/moveto ld
/LJ/setlinejoin ld
/C/curveto ld
/f/fill ld
/LW/setlinewidth ld
/GC/setgray ld
/t/show ld
/N/newpath ld
/CT/concat ld
/cp/closepath ld
/S/stroke ld
/L/lineto ld
/CC/setcmykcolor ld
/A/ashow ld
/GS/gsave ld
/RC/setrgbcolor ld
/RM/rmoveto ld
/ML/setmiterlimit ld
/re {4 2 roll M
1 index 0 rlineto
0 exch rlineto
neg 0 rlineto
cp } bd
/_ctm matrix def
/_tm matrix def
/BT { _ctm currentmatrix pop matrix _tm copy pop 0 0 moveto } bd
/ET { _ctm setmatrix } bd
/iTm { _ctm setmatrix _tm concat } bd
/Tm { _tm astore pop iTm 0 0 moveto } bd
/ux 0.0 def
/uy 0.0 def
/F {
  /Tp exch def
  /Tf exch def
  Tf findfont Tp scalefont setfont
  /cf Tf def  /cs Tp def
} bd
/ULS {currentpoint /uy exch def /ux exch def} bd
/ULE {
  /Tcx currentpoint pop def
  gsave
  newpath
  cf findfont cs scalefont dup
  /FontMatrix get 0 get /Ts exch def /FontInfo get dup
  /UnderlinePosition get Ts mul /To exch def
  /UnderlineThickness get Ts mul /Tt exch def
  ux uy To add moveto  Tcx uy To add lineto
  Tt setlinewidth stroke
  grestore
} bd
/OLE {
  /Tcx currentpoint pop def
  gsave
  newpath
  cf findfont cs scalefont dup
  /FontMatrix get 0 get /Ts exch def /FontInfo get dup
  /UnderlinePosition get Ts mul /To exch def
  /UnderlineThickness get Ts mul /Tt exch def
  ux uy To add cs add moveto Tcx uy To add cs add lineto
  Tt setlinewidth stroke
  grestore
} bd
/SOE {
  /Tcx currentpoint pop def
  gsave
  newpath
  cf findfont cs scalefont dup
  /FontMatrix get 0 get /Ts exch def /FontInfo get dup
  /UnderlinePosition get Ts mul /To exch def
  /UnderlineThickness get Ts mul /Tt exch def
  ux uy To add cs 10 mul 26 idiv add moveto Tcx uy To add cs 10 mul 26 idiv add lineto
  Tt setlinewidth stroke
  grestore
} bd
/QT {
/Y22 exch store
/X22 exch store
/Y21 exch store
/X21 exch store
currentpoint
/Y21 load 2 mul add 3 div exch
/X21 load 2 mul add 3 div exch
/X21 load 2 mul /X22 load add 3 div
/Y21 load 2 mul /Y22 load add 3 div
/X22 load /Y22 load curveto
} bd
/SSPD {
dup length /d exch dict def
{
/v exch def
/k exch def
currentpagedevice k known {
/cpdv currentpagedevice k get def
v cpdv ne {
/upd false def
/nullv v type /nulltype eq def
/nullcpdv cpdv type /nulltype eq def
nullv nullcpdv or
{
/upd true def
} {
/sametype v type cpdv type eq def
sametype {
v type /arraytype eq {
/vlen v length def
/cpdvlen cpdv length def
vlen cpdvlen eq {
0 1 vlen 1 sub {
/i exch def
/obj v i get def
/cpdobj cpdv i get def
obj cpdobj ne {
/upd true def
exit
} if
} for
} {
/upd true def
} ifelse
} {
v type /dicttype eq {
v {
/dv exch def
/dk exch def
/cpddv cpdv dk get def
dv cpddv ne {
/upd true def
exit
} if
} forall
} {
/upd true def
} ifelse
} ifelse
} if
} ifelse
upd true eq {
d k v put
} if
} if
} if
} forall
d length 0 gt {
d setpagedevice
} if
} bd
/RE { % /NewFontName [NewEncodingArray] /FontName RE -
  findfont dup length dict begin
  {
    1 index /FID ne
    {def} {pop pop} ifelse
  } forall
  /Encoding exch def
  /FontName 1 index def
  currentdict definefont pop
  end
} bind def
%%EndResource
%%BeginResource: procset (Apache XML Graphics EPS ProcSet) 1.0 0
%%Version: 1.0 0
%%Copyright: (Copyright 2002-2003 The Apache Software Foundation. License terms: http://www.apache.org/licenses/LICENSE-2.0)
/BeginEPSF { %def
/b4_Inc_state save def         % Save state for cleanup
/dict_count countdictstack def % Count objects on dict stack
/op_count count 1 sub def      % Count objects on operand stack
userdict begin                 % Push userdict on dict stack
/showpage { } def              % Redefine showpage, { } = null proc
0 setgray 0 setlinecap         % Prepare graphics state
1 setlinewidth 0 setlinejoin
10 setmiterlimit [ ] 0 setdash newpath
/languagelevel where           % If level not equal to 1 then
{pop languagelevel             % set strokeadjust and
1 ne                           % overprint to their defaults.
{false setstrokeadjust false setoverprint
} if
} if
} bd
/EndEPSF { %def
count op_count sub {pop} repeat            % Clean up stacks
countdictstack dict_count sub {end} repeat
b4_Inc_state restore
} bd
%%EndResource
%FOPBeginFontDict
%%IncludeResource: font Courier-Bold
%%IncludeResource: font Helvetica
%%IncludeResource: font Courier-BoldOblique
%%IncludeResource: font Courier-Oblique
%%IncludeResource: font Times-Roman
%%IncludeResource: font Helvetica-BoldOblique
%%IncludeResource: font Helvetica-Bold
%%IncludeResource: font Helvetica-Oblique
%%IncludeResource: font Times-BoldItalic
%%IncludeResource: font Courier
%%IncludeResource: font Times-Italic
%%IncludeResource: font Times-Bold
%%IncludeResource: font Symbol
%%IncludeResource: font ZapfDingbats
%FOPEndFontDict
%%BeginResource: encoding WinAnsiEncoding
/WinAnsiEncoding [
/.notdef /.notdef /.notdef /.notdef /.notdef
/.notdef /.notdef /.notdef /.notdef /.notdef
/.notdef /.notdef /.notdef /.notdef /.notdef
/.notdef /.notdef /.notdef /.notdef /.notdef
/.notdef /.notdef /.notdef /.notdef /.notdef
/.notdef /.notdef /.notdef /.notdef /.notdef
/.notdef /.notdef /space /exclam /quotedbl
/numbersign /dollar /percent /ampersand /quotesingle
/parenleft /parenright /asterisk /plus /comma
/hyphen /period /slash /zero /one
/two /three /four /five /six
/seven /eight /nine /colon /semicolon
/less /equal /greater /question /at
/A /B /C /D /E
/F /G /H /I /J
/K /L /M /N /O
/P /Q /R /S /T
/U /V /W /X /Y
/Z /bracketleft /backslash /bracketright /asciicircum
/underscore /quoteleft /a /b /c
/d /e /f /g /h
/i /j /k /l /m
/n /o /p /q /r
/s /t /u /v /w
/x /y /z /braceleft /bar
/braceright /asciitilde /bullet /Euro /bullet
/quotesinglbase /florin /quotedblbase /ellipsis /dagger
/daggerdbl /circumflex /perthousand /Scaron /guilsinglleft
/OE /bullet /Zcaron /bullet /bullet
/quoteleft /quoteright /quotedblleft /quotedblright /bullet
/endash /emdash /asciitilde /trademark /scaron
/guilsinglright /oe /bullet /zcaron /Ydieresis
/space /exclamdown /cent /sterling /currency
/yen /brokenbar /section /dieresis /copyright
/ordfeminine /guillemotleft /logicalnot /sfthyphen /registered
/macron /degree /plusminus /twosuperior /threesuperior
/acute /mu /paragraph /middot /cedilla
/onesuperior /ordmasculine /guillemotright /onequarter /onehalf
/threequarters /questiondown /Agrave /Aacute /Acircumflex
/Atilde /Adieresis /Aring /AE /Ccedilla
/Egrave /Eacute /Ecircumflex /Edieresis /Igrave
/Iacute /Icircumflex /Idieresis /Eth /Ntilde
/Ograve /Oacute /Ocircumflex /Otilde /Odieresis
/multiply /Oslash /Ugrave /Uacute /Ucircumflex
/Udieresis /Yacute /Thorn /germandbls /agrave
/aacute /acircumflex /atilde /adieresis /aring
/ae /ccedilla /egrave /eacute /ecircumflex
/edieresis /igrave /iacute /icircumflex /idieresis
/eth /ntilde /ograve /oacute /ocircumflex
/otilde /odieresis /divide /oslash /ugrave
/uacute /ucircumflex /udieresis /yacute /thorn
/ydieresis
] def
%%EndResource
%FOPBeginFontReencode
/Courier-Bold findfont
dup length dict begin
  {1 index /FID ne {def} {pop pop} ifelse} forall
  /Encoding WinAnsiEncoding def
  currentdict
end
/Courier-Bold exch definefont pop
/Helvetica findfont
dup length dict begin
  {1 index /FID ne {def} {pop pop} ifelse} forall
  /Encoding WinAnsiEncoding def
  currentdict
end
/Helvetica exch definefont pop
/Courier-BoldOblique findfont
dup length dict begin
  {1 index /FID ne {def} {pop pop} ifelse} forall
  /Encoding WinAnsiEncoding def
  currentdict
end
/Courier-BoldOblique exch definefont pop
/Courier-Oblique findfont
dup length dict begin
  {1 index /FID ne {def} {pop pop} ifelse} forall
  /Encoding WinAnsiEncoding def
  currentdict
end
/Courier-Oblique exch definefont pop
/Times-Roman findfont
dup length dict begin
  {1 index /FID ne {def} {pop pop} ifelse} forall
  /Encoding WinAnsiEncoding def
  currentdict
end
/Times-Roman exch definefont pop
/Helvetica-BoldOblique findfont
dup length dict begin
  {1 index /FID ne {def} {pop pop} ifelse} forall
  /Encoding WinAnsiEncoding def
  currentdict
end
/Helvetica-BoldOblique exch definefont pop
/Helvetica-Bold findfont
dup length dict begin
  {1 index /FID ne {def} {pop pop} ifelse} forall
  /Encoding WinAnsiEncoding def
  currentdict
end
/Helvetica-Bold exch definefont pop
/Helvetica-Oblique findfont
dup length dict begin
  {1 index /FID ne {def} {pop pop} ifelse} forall
  /Encoding WinAnsiEncoding def
  currentdict
end
/Helvetica-Oblique exch definefont pop
/Times-BoldItalic findfont
dup length dict begin
  {1 index /FID ne {def} {pop pop} ifelse} forall
  /Encoding WinAnsiEncoding def
  currentdict
end
/Times-BoldItalic exch definefont pop
/Courier findfont
dup length dict begin
  {1 index /FID ne {def} {pop pop} ifelse} forall
  /Encoding WinAnsiEncoding def
  currentdict
end
/Courier exch definefont pop
/Times-Italic findfont
dup length dict begin
  {1 index /FID ne {def} {pop pop} ifelse} forall
  /Encoding WinAnsiEncoding def
  currentdict
end
/Times-Italic exch definefont pop
/Times-Bold findfont
dup length dict begin
  {1 index /FID ne {def} {pop pop} ifelse} forall
  /Encoding WinAnsiEncoding def
  currentdict
end
/Times-Bold exch definefont pop
%FOPEndFontReencode
%%EndProlog
%%Page: 1 1
%%PageBoundingBox: 0 0 284 284
%%BeginPageSetup
[1 0 0 -1 0 284] CT
%%EndPageSetup
GS
[0.60127 0 0 0.60127 0 0.20001] CT
N
0 0 M
472 0 L
472 472 L
0 472 L
0 0 L
cp
clip
1 GC
N
0 0 472 472 re
f
GR
GS
[0.60127 0 0 0.60127 0 0.20001] CT
1 GC
N
0 0 472 472 re
f
GR
GS
[0.60127 0 0 0.60127 0 0.20001] CT
1 GC
N
64 410 M
428 410 L
428 46 L
64 46 L
cp
f
GR
GS
[0.60127 0 0 0.60127 0 0.20001] CT
0.873 GC
1 LJ
0.833 LW
N
89.395 410 M
89.395 46 L
S
GR
GS
[0.60127 0 0 0.60127 0 0.20001] CT
0.873 GC
1 LJ
0.833 LW
N
174.047 410 M
174.047 46 L
S
GR
GS
[0.60127 0 0 0.60127 0 0.20001] CT
0.873 GC
1 LJ
0.833 LW
N
258.698 410 M
258.698 46 L
S
GR
GS
[0.60127 0 0 0.60127 0 0.20001] CT
0.873 GC
1 LJ
0.833 LW
N
343.349 410 M
343.349 46 L
S
GR
GS
[0.60127 0 0 0.60127 0 0.20001] CT
0.873 GC
1 LJ
0.833 LW
N
428 410 M
428 46 L
S
GR
GS
[0.60127 0 0 0.60127 0 0.20001] CT
0.873 GC
1 LJ
0.833 LW
N
428 410 M
64 410 L
S
GR
GS
[0.60127 0 0 0.60127 0 0.20001] CT
0.873 GC
1 LJ
0.833 LW
N
428 369.556 M
64 369.556 L
S
GR
GS
[0.60127 0 0 0.60127 0 0.20001] CT
0.873 GC
1 LJ
0.833 LW
N
428 329.111 M
64 329.111 L
S
GR
GS
[0.60127 0 0 0.60127 0 0.20001] CT
0.873 GC
1 LJ
0.833 LW
N
428 288.667 M
64 288.667 L
S
GR
GS
[0.60127 0 0 0.60127 0 0.20001] CT
0.873 GC
1 LJ
0.833 LW
N
428 248.222 M
64 248.222 L
S
GR
GS
[0.60127 0 0 0.60127 0 0.20001] CT
0.873 GC
1 LJ
0.833 LW
N
428 207.778 M
64 207.778 L
S
GR
GS
[0.60127 0 0 0.60127 0 0.20001] CT
0.873 GC
1 LJ
0.833 LW
N
428 167.333 M
64 167.333 L
S
GR
GS
[0.60127 0 0 0.60127 0 0.20001] CT
0.873 GC
1 LJ
0.833 LW
N
428 126.889 M
64 126.889 L
S
GR
GS
[0.60127 0 0 0.60127 0 0.20001] CT
0.873 GC
1 LJ
0.833 LW
N
428 86.444 M
64 86.444 L
S
GR
GS
[0.60127 0 0 0.60127 0 0.20001] CT
0.873 GC
1 LJ
0.833 LW
N
428 46 M
64 46 L
S
GR
GS
[0.60127 0 0 0.60127 0 0.20001] CT
0.149 GC
2 setlinecap
1 LJ
0.833 LW
N
64 410 M
428 410 L
S
GR
GS
[0.60127 0 0 0.60127 0 0.20001] CT
0.149 GC
2 setlinecap
1 LJ
0.833 LW
N
89.395 410 M
89.395 406.36 L
S
GR
GS
[0.60127 0 0 0.60127 0 0.20001] CT
0.149 GC
2 setlinecap
1 LJ
0.833 LW
N
174.047 410 M
174.047 406.36 L
S
GR
GS
[0.60127 0 0 0.60127 0 0.20001] CT
0.149 GC
2 setlinecap
1 LJ
0.833 LW
N
258.698 410 M
258.698 406.36 L
S
GR
GS
[0.60127 0 0 0.60127 0 0.20001] CT
0.149 GC
2 setlinecap
1 LJ
0.833 LW
N
343.349 410 M
343.349 406.36 L
S
GR
GS
[0.60127 0 0 0.60127 0 0.20001] CT
0.149 GC
2 setlinecap
1 LJ
0.833 LW
N
428 410 M
428 406.36 L
S
GR
GS
[0.60127 0 0 0.60127 53.75084 250.72966] CT
0.149 GC
/Helvetica 16.667 F
GS
[1 0 0 1 0 0] CT
-12.5 18 moveto 
1 -1 scale
(-10) t 
GR
GR
GS
[0.60127 0 0 0.60127 104.64915 250.72966] CT
0.149 GC
/Helvetica 16.667 F
GS
[1 0 0 1 0 0] CT
-5 18 moveto 
1 -1 scale
(0) t 
GR
GR
GS
[0.60127 0 0 0.60127 155.54744 250.72966] CT
0.149 GC
/Helvetica 16.667 F
GS
[1 0 0 1 0 0] CT
-9.5 18 moveto 
1 -1 scale
(10) t 
GR
GR
GS
[0.60127 0 0 0.60127 206.44576 250.72966] CT
0.149 GC
/Helvetica 16.667 F
GS
[1 0 0 1 0 0] CT
-9.5 18 moveto 
1 -1 scale
(20) t 
GR
GR
GS
[0.60127 0 0 0.60127 257.34406 250.72966] CT
0.149 GC
/Helvetica 16.667 F
GS
[1 0 0 1 0 0] CT
-9.5 18 moveto 
1 -1 scale
(30) t 
GR
GR
GS
[0.60127 0 0 0.60127 147.91282 264.95975] CT
0.149 GC
N
-37.635 19.866 M
-38.651 19.866 -39.44 19.373 QT
-40.229 18.881 -40.666 18.053 QT
-41.104 17.225 -41.104 16.225 QT
-41.104 15.147 -40.619 13.967 QT
-40.135 12.787 -39.299 11.811 QT
-38.463 10.834 -37.409 10.256 QT
-36.354 9.678 -35.244 9.678 QT
-29.448 9.678 L
-29.213 9.678 -29.041 9.834 QT
-28.869 9.991 -28.869 10.272 QT
-28.869 10.6 -29.112 10.858 QT
-29.354 11.116 -29.698 11.116 QT
-32.494 11.116 L
-31.838 12.1 -31.838 13.506 QT
-31.838 14.662 -32.284 15.78 QT
-32.729 16.897 -33.526 17.826 QT
-34.323 18.756 -35.385 19.311 QT
-36.448 19.866 -37.635 19.866 QT
cp
-37.604 19.256 M
-36.354 19.256 -35.377 18.272 QT
-34.401 17.287 -33.885 15.866 QT
-33.369 14.444 -33.369 13.225 QT
-33.369 12.241 -33.916 11.678 QT
-34.463 11.116 -35.448 11.116 QT
-36.776 11.116 -37.713 12.014 QT
-38.651 12.912 -39.119 14.272 QT
-39.588 15.631 -39.588 16.881 QT
-39.588 17.866 -39.065 18.561 QT
-38.541 19.256 -37.604 19.256 QT
cp
f
GR
GS
[0.60127 0 0 0.60127 147.91282 264.95975] CT
0.149 GC
N
-26.965 11.132 M
-26.965 10.695 L
-26.965 10.664 -26.934 10.617 QT
-24.449 7.867 L
-23.887 7.257 -23.535 6.843 QT
-23.184 6.429 -22.84 5.89 QT
-22.496 5.351 -22.293 4.789 QT
-22.09 4.226 -22.09 3.601 QT
-22.09 2.945 -22.332 2.351 QT
-22.574 1.757 -23.059 1.398 QT
-23.543 1.039 -24.215 1.039 QT
-24.918 1.039 -25.473 1.453 QT
-26.028 1.867 -26.246 2.539 QT
-26.184 2.523 -26.074 2.523 QT
-25.715 2.523 -25.465 2.765 QT
-25.215 3.007 -25.215 3.382 QT
-25.215 3.757 -25.465 4.007 QT
-25.715 4.257 -26.074 4.257 QT
-26.449 4.257 -26.707 4 QT
-26.965 3.742 -26.965 3.382 QT
-26.965 2.789 -26.738 2.257 QT
-26.512 1.726 -26.082 1.32 QT
-25.653 0.914 -25.121 0.695 QT
-24.59 0.476 -23.981 0.476 QT
-23.074 0.476 -22.285 0.859 QT
-21.496 1.242 -21.035 1.953 QT
-20.574 2.664 -20.574 3.601 QT
-20.574 4.304 -20.879 4.929 QT
-21.184 5.554 -21.66 6.062 QT
-22.137 6.57 -22.879 7.218 QT
-23.621 7.867 -23.856 8.086 QT
-25.668 9.836 L
-24.121 9.836 L
-22.996 9.836 -22.231 9.812 QT
-21.465 9.789 -21.418 9.757 QT
-21.231 9.554 -21.043 8.273 QT
-20.574 8.273 L
-21.028 11.132 L
-26.965 11.132 L
cp
f
GR
GS
[0.60127 0 0 0.60127 147.91282 264.95975] CT
0.149 GC
N
-26.865 23.509 M
-26.865 23.165 -26.779 22.728 QT
-26.693 22.29 -26.583 21.954 QT
-26.474 21.618 -26.208 20.915 QT
-25.943 20.212 -25.927 20.15 QT
-25.708 19.556 -25.708 19.181 QT
-25.708 18.712 -26.068 18.712 QT
-26.693 18.712 -27.107 19.36 QT
-27.521 20.009 -27.708 20.821 QT
-27.74 20.915 -27.849 20.915 QT
-28.037 20.915 L
-28.162 20.915 -28.162 20.775 QT
-28.162 20.728 L
-27.912 19.775 -27.38 19.032 QT
-26.849 18.29 -26.037 18.29 QT
-25.458 18.29 -25.068 18.665 QT
-24.677 19.04 -24.677 19.618 QT
-24.677 19.915 -24.802 20.243 QT
-24.99 20.728 -25.247 21.407 QT
-25.505 22.087 -25.646 22.642 QT
-25.787 23.196 -25.787 23.712 QT
-25.787 24.337 -25.458 24.728 QT
-25.13 25.118 -24.505 25.118 QT
-23.646 25.118 -23.083 23.821 QT
-23.115 23.728 -23.115 23.556 QT
-23.115 23.134 -22.974 22.587 QT
-22.083 18.978 L
-22.021 18.775 -21.826 18.618 QT
-21.63 18.462 -21.412 18.462 QT
-21.224 18.462 -21.076 18.587 QT
-20.927 18.712 -20.927 18.915 QT
-20.927 19.009 -20.943 19.04 QT
-21.849 22.618 L
-22.005 23.259 -22.005 23.759 QT
-22.005 24.368 -21.724 24.743 QT
-21.443 25.118 -20.849 25.118 QT
-19.818 25.118 -19.162 23.759 QT
-18.912 23.275 -18.599 22.329 QT
-18.287 21.384 -18.287 20.884 QT
-18.287 20.431 -18.435 20.157 QT
-18.583 19.884 -18.849 19.571 QT
-19.115 19.259 -19.115 19.103 QT
-19.115 18.806 -18.849 18.54 QT
-18.583 18.275 -18.271 18.275 QT
-17.896 18.275 -17.724 18.626 QT
-17.552 18.978 -17.552 19.431 QT
-17.552 19.962 -17.732 20.798 QT
-17.912 21.634 -18.185 22.47 QT
-18.458 23.306 -18.708 23.806 QT
-19.583 25.556 -20.88 25.556 QT
-21.552 25.556 -22.107 25.29 QT
-22.662 25.025 -22.927 24.462 QT
-23.193 24.931 -23.607 25.243 QT
-24.021 25.556 -24.537 25.556 QT
-25.583 25.556 -26.224 25.048 QT
-26.865 24.54 -26.865 23.509 QT
cp
f
GR
GS
[0.60127 0 0 0.60127 147.91282 264.95975] CT
0.149 GC
N
-15.341 19.119 M
-15.466 19.119 -15.576 19.009 QT
-15.685 18.9 -15.685 18.759 QT
-15.685 18.556 -15.513 18.478 QT
-13.794 17.65 L
-15.513 16.837 L
-15.685 16.759 -15.685 16.54 QT
-15.685 16.415 -15.576 16.298 QT
-15.466 16.181 -15.341 16.181 QT
-15.247 16.181 -15.169 16.244 QT
-13.638 17.369 L
-13.81 15.4 L
-13.81 15.259 -13.708 15.165 QT
-13.607 15.072 -13.466 15.072 QT
-13.326 15.072 -13.232 15.158 QT
-13.138 15.244 -13.138 15.384 QT
-13.138 15.4 L
-13.31 17.369 L
-11.779 16.244 L
-11.701 16.181 -11.607 16.181 QT
-11.466 16.181 -11.365 16.298 QT
-11.263 16.415 -11.263 16.54 QT
-11.263 16.759 -11.419 16.837 QT
-13.154 17.65 L
-11.419 18.478 L
-11.263 18.556 -11.263 18.759 QT
-11.263 18.9 -11.365 19.009 QT
-11.466 19.119 -11.607 19.119 QT
-11.701 19.119 -11.779 19.072 QT
-13.31 17.947 L
-13.138 19.9 L
-13.138 19.931 L
-13.138 20.056 -13.24 20.15 QT
-13.341 20.244 -13.466 20.244 QT
-13.607 20.244 -13.708 20.142 QT
-13.81 20.04 -13.81 19.9 QT
-13.638 17.947 L
-15.169 19.072 L
-15.247 19.119 -15.341 19.119 QT
cp
f
GR
GS
[0.60127 0 0 0.60127 147.91282 264.95975] CT
0.149 GC
N
2.197 25.35 M
2.197 2.35 L
5.338 2.35 L
5.338 3.272 L
3.119 3.272 L
3.119 24.428 L
5.338 24.428 L
5.338 25.35 L
2.197 25.35 L
cp
f
GR
GS
[0.60127 0 0 0.60127 147.91282 264.95975] CT
0.149 GC
N
11.569 19.866 M
10.21 19.866 9.093 19.123 QT
7.975 18.381 7.35 17.186 QT
6.725 15.991 6.725 14.631 QT
6.725 13.241 7.405 12.045 QT
8.085 10.85 9.249 10.147 QT
10.413 9.444 11.819 9.444 QT
12.663 9.444 13.413 9.795 QT
14.163 10.147 14.725 10.772 QT
14.725 5.991 L
14.725 5.366 14.538 5.092 QT
14.35 4.819 14.007 4.756 QT
13.663 4.694 12.928 4.694 QT
12.928 3.881 L
16.335 3.647 L
16.335 17.506 L
16.335 18.116 16.522 18.389 QT
16.71 18.662 17.053 18.725 QT
17.397 18.787 18.116 18.787 QT
18.116 19.6 L
14.647 19.866 L
14.647 18.412 L
14.053 19.1 13.233 19.483 QT
12.413 19.866 11.569 19.866 QT
cp
9.225 17.6 M
9.616 18.35 10.272 18.803 QT
10.928 19.256 11.71 19.256 QT
12.663 19.256 13.46 18.701 QT
14.257 18.147 14.647 17.272 QT
14.647 11.756 L
14.382 11.256 13.975 10.858 QT
13.569 10.459 13.053 10.248 QT
12.538 10.037 11.975 10.037 QT
10.772 10.037 10.038 10.717 QT
9.303 11.397 9.014 12.451 QT
8.725 13.506 8.725 14.662 QT
8.725 15.584 8.819 16.264 QT
8.913 16.944 9.225 17.6 QT
cp
f
GR
GS
[0.60127 0 0 0.60127 147.91282 264.95975] CT
0.149 GC
N
19.704 19.6 M
19.704 18.787 L
22.079 18.787 22.079 18.069 QT
22.079 5.428 L
22.079 4.694 19.704 4.694 QT
19.704 3.881 L
28.173 3.881 L
29.329 3.881 30.524 4.342 QT
31.72 4.803 32.501 5.694 QT
33.282 6.584 33.282 7.803 QT
33.282 9.194 32.126 10.147 QT
30.97 11.1 29.438 11.397 QT
30.438 11.397 31.493 11.944 QT
32.548 12.491 33.22 13.412 QT
33.891 14.334 33.891 15.366 QT
33.891 16.631 33.149 17.592 QT
32.407 18.553 31.212 19.076 QT
30.016 19.6 28.813 19.6 QT
19.704 19.6 L
cp
24.079 18.069 M
24.079 18.553 24.36 18.67 QT
24.641 18.787 25.251 18.787 QT
28.173 18.787 L
29.063 18.787 29.837 18.319 QT
30.61 17.85 31.056 17.061 QT
31.501 16.272 31.501 15.366 QT
31.501 14.491 31.134 13.655 QT
30.766 12.819 30.071 12.28 QT
29.376 11.741 28.485 11.741 QT
24.079 11.741 L
24.079 18.069 L
cp
24.079 11.131 M
27.532 11.131 L
28.22 11.131 28.829 10.881 QT
29.438 10.631 29.931 10.155 QT
30.423 9.678 30.688 9.076 QT
30.954 8.475 30.954 7.803 QT
30.954 7.194 30.759 6.647 QT
30.563 6.1 30.181 5.655 QT
29.798 5.209 29.282 4.951 QT
28.766 4.694 28.173 4.694 QT
25.251 4.694 L
24.829 4.694 24.602 4.733 QT
24.376 4.772 24.227 4.928 QT
24.079 5.084 24.079 5.428 QT
24.079 11.131 L
cp
f
GR
GS
[0.60127 0 0 0.60127 147.91282 264.95975] CT
0.149 GC
N
35.951 25.35 M
35.951 24.428 L
38.185 24.428 L
38.185 3.272 L
35.951 3.272 L
35.951 2.35 L
39.107 2.35 L
39.107 25.35 L
35.951 25.35 L
cp
f
GR
GS
[0.60127 0 0 0.60127 0 0.20001] CT
0.149 GC
2 setlinecap
1 LJ
0.833 LW
N
64 410 M
64 46 L
S
GR
GS
[0.60127 0 0 0.60127 0 0.20001] CT
0.149 GC
2 setlinecap
1 LJ
0.833 LW
N
64 410 M
67.64 410 L
S
GR
GS
[0.60127 0 0 0.60127 0 0.20001] CT
0.149 GC
2 setlinecap
1 LJ
0.833 LW
N
64 369.556 M
67.64 369.556 L
S
GR
GS
[0.60127 0 0 0.60127 0 0.20001] CT
0.149 GC
2 setlinecap
1 LJ
0.833 LW
N
64 329.111 M
67.64 329.111 L
S
GR
GS
[0.60127 0 0 0.60127 0 0.20001] CT
0.149 GC
2 setlinecap
1 LJ
0.833 LW
N
64 288.667 M
67.64 288.667 L
S
GR
GS
[0.60127 0 0 0.60127 0 0.20001] CT
0.149 GC
2 setlinecap
1 LJ
0.833 LW
N
64 248.222 M
67.64 248.222 L
S
GR
GS
[0.60127 0 0 0.60127 0 0.20001] CT
0.149 GC
2 setlinecap
1 LJ
0.833 LW
N
64 207.778 M
67.64 207.778 L
S
GR
GS
[0.60127 0 0 0.60127 0 0.20001] CT
0.149 GC
2 setlinecap
1 LJ
0.833 LW
N
64 167.333 M
67.64 167.333 L
S
GR
GS
[0.60127 0 0 0.60127 0 0.20001] CT
0.149 GC
2 setlinecap
1 LJ
0.833 LW
N
64 126.889 M
67.64 126.889 L
S
GR
GS
[0.60127 0 0 0.60127 0 0.20001] CT
0.149 GC
2 setlinecap
1 LJ
0.833 LW
N
64 86.444 M
67.64 86.444 L
S
GR
GS
[0.60127 0 0 0.60127 0 0.20001] CT
0.149 GC
2 setlinecap
1 LJ
0.833 LW
N
64 46 M
67.64 46 L
S
GR
GS
[0.60127 0 0 0.60127 34.47288 246.72119] CT
0.149 GC
/Helvetica 16.667 F
GS
[1 0 0 1 0 0] CT
-10 7 moveto 
1 -1 scale
(0) t 
GR
GR
GS
[0.60127 0 0 0.60127 34.47288 222.4031] CT
0.149 GC
/Helvetica 16.667 F
GS
[1 0 0 1 0 0] CT
-24 7 moveto 
1 -1 scale
(0.2) t 
GR
GR
GS
[0.60127 0 0 0.60127 34.47288 198.08503] CT
0.149 GC
/Helvetica 16.667 F
GS
[1 0 0 1 0 0] CT
-24 7 moveto 
1 -1 scale
(0.4) t 
GR
GR
GS
[0.60127 0 0 0.60127 34.47288 173.76695] CT
0.149 GC
/Helvetica 16.667 F
GS
[1 0 0 1 0 0] CT
-24 7 moveto 
1 -1 scale
(0.6) t 
GR
GR
GS
[0.60127 0 0 0.60127 34.47288 149.44887] CT
0.149 GC
/Helvetica 16.667 F
GS
[1 0 0 1 0 0] CT
-24 7 moveto 
1 -1 scale
(0.8) t 
GR
GR
GS
[0.60127 0 0 0.60127 34.47288 125.13079] CT
0.149 GC
/Helvetica 16.667 F
GS
[1 0 0 1 0 0] CT
-10 7 moveto 
1 -1 scale
(1) t 
GR
GR
GS
[0.60127 0 0 0.60127 34.47288 100.81272] CT
0.149 GC
/Helvetica 16.667 F
GS
[1 0 0 1 0 0] CT
-24 7 moveto 
1 -1 scale
(1.2) t 
GR
GR
GS
[0.60127 0 0 0.60127 34.47288 76.49464] CT
0.149 GC
/Helvetica 16.667 F
GS
[1 0 0 1 0 0] CT
-24 7 moveto 
1 -1 scale
(1.4) t 
GR
GR
GS
[0.60127 0 0 0.60127 34.47288 52.17656] CT
0.149 GC
/Helvetica 16.667 F
GS
[1 0 0 1 0 0] CT
-24 7 moveto 
1 -1 scale
(1.6) t 
GR
GR
GS
[0.60127 0 0 0.60127 34.47288 27.85849] CT
0.149 GC
/Helvetica 16.667 F
GS
[1 0 0 1 0 0] CT
-24 7 moveto 
1 -1 scale
(1.8) t 
GR
GR
GS
[0 -0.60127 0.60127 0 17.03602 137.28974] CT
0.149 GC
N
-58.743 -13.369 M
-58.743 -11.978 -58.212 -10.931 QT
-57.681 -9.884 -56.665 -9.291 QT
-55.649 -8.697 -54.259 -8.697 QT
-52.821 -8.697 -51.477 -9.439 QT
-50.134 -10.181 -49.181 -11.424 QT
-48.227 -12.666 -47.884 -14.056 QT
-47.837 -14.197 -47.712 -14.197 QT
-47.431 -14.197 L
-47.337 -14.197 -47.282 -14.134 QT
-47.227 -14.072 -47.227 -13.994 QT
-47.227 -13.978 -47.243 -13.931 QT
-47.634 -12.338 -48.766 -10.939 QT
-49.899 -9.541 -51.47 -8.72 QT
-53.04 -7.9 -54.696 -7.9 QT
-56.493 -7.9 -57.923 -8.705 QT
-59.352 -9.509 -60.141 -10.947 QT
-60.931 -12.384 -60.931 -14.197 QT
-60.931 -16.134 -60.071 -18.025 QT
-59.212 -19.916 -57.751 -21.392 QT
-56.29 -22.869 -54.415 -23.744 QT
-52.54 -24.619 -50.618 -24.619 QT
-49.868 -24.619 -49.165 -24.384 QT
-48.462 -24.15 -47.868 -23.681 QT
-47.274 -23.213 -46.899 -22.603 QT
-45.071 -24.572 L
-45.071 -24.619 -44.962 -24.619 QT
-44.837 -24.619 L
-44.743 -24.619 -44.688 -24.541 QT
-44.634 -24.463 -44.634 -24.384 QT
-46.196 -18.166 L
-46.196 -18.009 -46.368 -18.009 QT
-46.79 -18.009 L
-46.962 -18.009 -46.962 -18.275 QT
-46.868 -18.775 -46.868 -19.478 QT
-46.868 -20.603 -47.251 -21.603 QT
-47.634 -22.603 -48.438 -23.205 QT
-49.243 -23.806 -50.399 -23.806 QT
-52.274 -23.806 -53.837 -22.861 QT
-55.399 -21.916 -56.485 -20.384 QT
-57.571 -18.853 -58.157 -16.986 QT
-58.743 -15.119 -58.743 -13.369 QT
cp
f
GR
GS
[0 -0.60127 0.60127 0 17.03602 137.28974] CT
0.149 GC
N
-44.707 -4.9 M
-44.863 -4.9 -44.863 -5.119 QT
-44.801 -5.463 -44.66 -5.463 QT
-44.004 -5.463 -43.535 -5.72 QT
-43.066 -5.978 -42.722 -6.525 QT
-42.691 -6.556 -42.691 -6.556 QT
-36.972 -16.181 L
-36.847 -16.353 -36.676 -16.353 QT
-36.457 -16.353 L
-36.41 -16.353 -36.363 -16.338 QT
-36.316 -16.322 -36.285 -16.275 QT
-36.254 -16.228 -36.254 -16.181 QT
-35.285 -5.853 L
-35.285 -5.775 -35.207 -5.634 QT
-35.051 -5.463 -34.019 -5.463 QT
-33.847 -5.463 -33.847 -5.259 QT
-33.91 -5.041 -33.941 -4.97 QT
-33.972 -4.9 -34.129 -4.9 QT
-38.129 -4.9 L
-38.269 -4.9 -38.269 -5.119 QT
-38.191 -5.463 -38.066 -5.463 QT
-36.801 -5.463 -36.722 -5.9 QT
-36.957 -8.541 L
-40.91 -8.541 L
-42.191 -6.384 L
-42.301 -6.213 -42.301 -5.994 QT
-42.301 -5.713 -42.035 -5.588 QT
-41.769 -5.463 -41.441 -5.463 QT
-41.285 -5.463 -41.285 -5.259 QT
-41.332 -5.025 -41.363 -4.963 QT
-41.394 -4.9 -41.551 -4.9 QT
-44.707 -4.9 L
cp
-40.597 -9.103 M
-37.019 -9.103 L
-37.504 -14.275 L
-40.597 -9.103 L
cp
f
GR
GS
[0 -0.60127 0.60127 0 17.03602 137.28974] CT
0.149 GC
N
-21.512 -2.65 M
-21.512 -25.65 L
-18.372 -25.65 L
-18.372 -24.728 L
-20.59 -24.728 L
-20.59 -3.572 L
-18.372 -3.572 L
-18.372 -2.65 L
-21.512 -2.65 L
cp
f
GR
GS
[0 -0.60127 0.60127 0 17.03602 137.28974] CT
0.149 GC
N
-15.359 -8.4 M
-15.359 -22.009 L
-15.359 -22.634 -15.546 -22.908 QT
-15.734 -23.181 -16.078 -23.244 QT
-16.421 -23.306 -17.156 -23.306 QT
-17.156 -24.119 L
-13.75 -24.353 L
-13.75 -17.166 L
-13.375 -17.588 -12.859 -17.908 QT
-12.343 -18.228 -11.765 -18.392 QT
-11.187 -18.556 -10.578 -18.556 QT
-9.546 -18.556 -8.664 -18.142 QT
-7.781 -17.728 -7.125 -17.002 QT
-6.468 -16.275 -6.109 -15.322 QT
-5.75 -14.369 -5.75 -13.369 QT
-5.75 -11.978 -6.429 -10.775 QT
-7.109 -9.572 -8.281 -8.853 QT
-9.453 -8.134 -10.859 -8.134 QT
-11.734 -8.134 -12.554 -8.588 QT
-13.375 -9.041 -13.906 -9.775 QT
-14.687 -8.4 L
-15.359 -8.4 L
cp
-13.687 -10.65 M
-13.296 -9.822 -12.578 -9.283 QT
-11.859 -8.744 -10.984 -8.744 QT
-9.796 -8.744 -9.062 -9.431 QT
-8.328 -10.119 -8.039 -11.166 QT
-7.75 -12.213 -7.75 -13.369 QT
-7.75 -15.306 -8.25 -16.322 QT
-8.468 -16.759 -8.859 -17.142 QT
-9.25 -17.525 -9.726 -17.744 QT
-10.203 -17.963 -10.734 -17.963 QT
-11.656 -17.963 -12.437 -17.478 QT
-13.218 -16.994 -13.687 -16.166 QT
-13.687 -10.65 L
cp
f
GR
GS
[0 -0.60127 0.60127 0 17.03602 137.28974] CT
0.149 GC
N
-3.49 -3.103 M
-3.49 -3.181 -3.474 -3.197 QT
4.526 -25.369 L
4.573 -25.509 4.682 -25.58 QT
4.792 -25.65 4.932 -25.65 QT
5.135 -25.65 5.268 -25.525 QT
5.401 -25.4 5.401 -25.197 QT
5.401 -25.103 L
-2.599 -2.931 L
-2.724 -2.65 -3.037 -2.65 QT
-3.224 -2.65 -3.357 -2.783 QT
-3.49 -2.916 -3.49 -3.103 QT
cp
f
GR
GS
[0 -0.60127 0.60127 0 17.03602 137.28974] CT
0.149 GC
N
7.646 -8.338 M
7.646 -12.088 L
7.646 -12.259 7.849 -12.259 QT
8.13 -12.259 L
8.255 -12.259 8.302 -12.088 QT
8.943 -8.744 11.411 -8.744 QT
12.489 -8.744 13.232 -9.244 QT
13.974 -9.744 13.974 -10.775 QT
13.974 -11.509 13.396 -12.033 QT
12.818 -12.556 12.036 -12.744 QT
10.489 -13.056 L
9.724 -13.213 9.091 -13.564 QT
8.458 -13.916 8.052 -14.494 QT
7.646 -15.072 7.646 -15.838 QT
7.646 -16.853 8.177 -17.494 QT
8.708 -18.134 9.56 -18.424 QT
10.411 -18.713 11.411 -18.713 QT
12.583 -18.713 13.458 -18.088 QT
14.13 -18.65 L
14.13 -18.713 14.239 -18.713 QT
14.411 -18.713 L
14.474 -18.713 14.529 -18.65 QT
14.583 -18.588 14.583 -18.525 QT
14.583 -15.509 L
14.583 -15.291 14.411 -15.291 QT
14.13 -15.291 L
13.927 -15.291 13.927 -15.509 QT
13.927 -16.713 13.255 -17.439 QT
12.583 -18.166 11.38 -18.166 QT
10.349 -18.166 9.591 -17.783 QT
8.833 -17.4 8.833 -16.478 QT
8.833 -15.838 9.38 -15.424 QT
9.927 -15.009 10.661 -14.838 QT
12.208 -14.541 L
13.005 -14.369 13.685 -13.939 QT
14.364 -13.509 14.763 -12.861 QT
15.161 -12.213 15.161 -11.384 QT
15.161 -10.556 14.872 -9.947 QT
14.583 -9.338 14.075 -8.931 QT
13.568 -8.525 12.872 -8.33 QT
12.177 -8.134 11.411 -8.134 QT
9.974 -8.134 8.943 -9.103 QT
8.099 -8.197 L
8.099 -8.134 7.974 -8.134 QT
7.849 -8.134 L
7.646 -8.134 7.646 -8.338 QT
cp
f
GR
GS
[0 -0.60127 0.60127 0 17.03602 137.28974] CT
0.149 GC
N
17.381 -3.103 M
17.381 -3.181 17.396 -3.197 QT
25.396 -25.369 L
25.443 -25.509 25.553 -25.58 QT
25.662 -25.65 25.803 -25.65 QT
26.006 -25.65 26.138 -25.525 QT
26.271 -25.4 26.271 -25.197 QT
26.271 -25.103 L
18.271 -2.931 L
18.146 -2.65 17.834 -2.65 QT
17.646 -2.65 17.513 -2.783 QT
17.381 -2.916 17.381 -3.103 QT
cp
f
GR
GS
[0 -0.60127 0.60127 0 17.03602 137.28974] CT
0.149 GC
N
28.454 -8.4 M
28.454 -9.213 L
30.829 -9.213 30.829 -9.931 QT
30.829 -22.572 L
30.829 -23.306 28.454 -23.306 QT
28.454 -24.119 L
35.344 -24.119 L
35.344 -23.306 L
32.969 -23.306 32.969 -22.572 QT
32.969 -16.978 L
39.75 -16.978 L
39.75 -22.572 L
39.75 -23.306 37.391 -23.306 QT
37.391 -24.119 L
44.266 -24.119 L
44.266 -23.306 L
41.907 -23.306 41.907 -22.572 QT
41.907 -9.931 L
41.907 -9.213 44.266 -9.213 QT
44.266 -8.4 L
37.391 -8.4 L
37.391 -9.213 L
39.75 -9.213 39.75 -9.931 QT
39.75 -16.166 L
32.969 -16.166 L
32.969 -9.931 L
32.969 -9.213 35.344 -9.213 QT
35.344 -8.4 L
28.454 -8.4 L
cp
f
GR
GS
[0 -0.60127 0.60127 0 17.03602 137.28974] CT
0.149 GC
N
46.157 -8.4 M
45.891 -8.4 45.891 -8.666 QT
45.891 -8.838 L
45.891 -8.931 45.954 -8.994 QT
52.376 -17.713 L
50.313 -17.713 L
49.344 -17.713 48.704 -17.588 QT
48.063 -17.463 47.657 -17.119 QT
47.251 -16.775 47.063 -16.174 QT
46.876 -15.572 46.876 -14.525 QT
46.219 -14.525 L
46.469 -18.322 L
54.172 -18.322 L
54.282 -18.322 54.352 -18.244 QT
54.422 -18.166 54.422 -18.056 QT
54.422 -17.931 L
54.422 -17.853 54.376 -17.759 QT
47.954 -9.056 L
50.141 -9.056 L
51.141 -9.056 51.813 -9.181 QT
52.485 -9.306 52.954 -9.775 QT
53.391 -10.213 53.555 -10.955 QT
53.719 -11.697 53.813 -12.791 QT
54.469 -12.791 L
54.079 -8.4 L
46.157 -8.4 L
cp
f
GR
GS
[0 -0.60127 0.60127 0 17.03602 137.28974] CT
0.149 GC
N
56.121 -2.65 M
56.121 -3.572 L
58.355 -3.572 L
58.355 -24.728 L
56.121 -24.728 L
56.121 -25.65 L
59.277 -25.65 L
59.277 -2.65 L
56.121 -2.65 L
cp
f
GR
GS
[0.60127 0 0 0.60127 0 0.20001] CT
1 LJ
2.5 LW
N
64 410 M
72.465 410 L
80.93 410 L
89.395 410 L
97.86 410 L
106.326 410 L
114.791 410 L
123.256 410 L
131.721 410 L
140.186 410 L
148.651 410 L
157.116 410 L
165.581 410 L
174.047 410 L
182.512 394.17 L
190.977 380.245 L
199.442 368.151 L
207.907 357.774 L
216.372 348.97 L
224.837 341.578 L
233.302 335.427 L
241.767 330.349 L
250.233 326.186 L
258.698 322.792 L
267.163 320.039 L
275.628 317.814 L
284.093 316.023 L
292.558 314.584 L
301.023 313.43 L
309.488 312.508 L
317.953 311.771 L
326.419 311.183 L
334.884 310.714 L
343.349 310.34 L
351.814 310.043 L
360.279 309.806 L
368.744 309.618 L
377.209 309.468 L
385.674 309.349 L
394.14 309.255 L
402.605 309.18 L
411.07 309.12 L
419.535 309.072 L
428 309.035 L
S
GR
GS
[0.60127 0 0 0.60127 0 0.20001] CT
[8 8] 0 setdash
2 LJ
2.5 LW
N
64 410 M
72.465 410 L
80.93 410 L
89.395 410 L
97.86 410 L
106.326 410 L
114.791 410 L
123.256 410 L
131.721 410 L
140.186 385.215 L
148.651 362.003 L
157.116 340.51 L
165.581 320.847 L
174.047 303.088 L
182.512 287.258 L
190.977 273.333 L
199.442 261.238 L
207.907 250.861 L
216.372 242.058 L
224.837 234.666 L
233.302 228.515 L
241.767 223.437 L
250.233 219.274 L
258.698 215.88 L
267.163 213.127 L
275.628 210.902 L
284.093 209.11 L
292.558 207.671 L
301.023 206.518 L
309.488 205.596 L
317.953 204.859 L
326.419 204.271 L
334.884 203.802 L
343.349 203.428 L
351.814 203.131 L
360.279 202.894 L
368.744 202.706 L
377.209 202.556 L
385.674 202.437 L
394.14 202.343 L
402.605 202.267 L
411.07 202.208 L
419.535 202.16 L
428 202.122 L
S
GR
GS
[0.60127 0 0 0.60127 0 0.20001] CT
1 LJ
2.5 LW
N
64 410 M
72.465 410 L
80.93 410 L
89.395 410 L
97.86 379.805 L
106.326 350.38 L
114.791 321.87 L
123.256 294.432 L
131.721 268.236 L
140.186 243.451 L
148.651 220.24 L
157.116 198.746 L
165.581 179.083 L
174.047 161.324 L
182.512 145.495 L
190.977 131.569 L
199.442 119.475 L
207.907 109.098 L
216.372 100.294 L
224.837 92.902 L
233.302 86.751 L
241.767 81.673 L
250.233 77.51 L
258.698 74.116 L
267.163 71.363 L
275.628 69.138 L
284.093 67.347 L
292.558 65.908 L
301.023 64.754 L
309.488 63.832 L
317.953 63.095 L
326.419 62.507 L
334.884 62.038 L
343.349 61.665 L
351.814 61.367 L
360.279 61.131 L
368.744 60.942 L
377.209 60.793 L
385.674 60.674 L
394.14 60.579 L
402.605 60.504 L
411.07 60.444 L
419.535 60.397 L
428 60.359 L
S
GR
GS
[0.60127 0 0 0.60127 38.48135 246.72119] CT
10.0 ML
2.5 LW
N
-5 0 M
0 6.65 L
5 0 L
0 -6.65 L
cp
S
GR
GS
[0.60127 0 0 0.60127 43.57119 246.72119] CT
10.0 ML
2.5 LW
N
-5 0 M
0 6.65 L
5 0 L
0 -6.65 L
cp
S
GR
GS
[0.60127 0 0 0.60127 48.66101 246.72119] CT
10.0 ML
2.5 LW
N
-5 0 M
0 6.65 L
5 0 L
0 -6.65 L
cp
S
GR
GS
[0.60127 0 0 0.60127 53.75084 246.72119] CT
10.0 ML
2.5 LW
N
-5 0 M
0 6.65 L
5 0 L
0 -6.65 L
cp
S
GR
GS
[0.60127 0 0 0.60127 58.84068 228.56609] CT
10.0 ML
2.5 LW
N
-5 0 M
0 6.65 L
5 0 L
0 -6.65 L
cp
S
GR
GS
[0.60127 0 0 0.60127 63.93051 210.87364] CT
10.0 ML
2.5 LW
N
-5 0 M
0 6.65 L
5 0 L
0 -6.65 L
cp
S
GR
GS
[0.60127 0 0 0.60127 69.02033 193.73105] CT
10.0 ML
2.5 LW
N
-5 0 M
0 6.65 L
5 0 L
0 -6.65 L
cp
S
GR
GS
[0.60127 0 0 0.60127 74.11017 177.23378] CT
10.0 ML
2.5 LW
N
-5 0 M
0 6.65 L
5 0 L
0 -6.65 L
cp
S
GR
GS
[0.60127 0 0 0.60127 79.2 161.48278] CT
10.0 ML
2.5 LW
N
-5 0 M
0 6.65 L
5 0 L
0 -6.65 L
cp
S
GR
GS
[0.60127 0 0 0.60127 84.28983 146.58023] CT
10.0 ML
2.5 LW
N
-5 0 M
0 6.65 L
5 0 L
0 -6.65 L
cp
S
GR
GS
[0.60127 0 0 0.60127 89.37966 132.62385] CT
10.0 ML
2.5 LW
N
-5 0 M
0 6.65 L
5 0 L
0 -6.65 L
cp
S
GR
GS
[0.60127 0 0 0.60127 94.46948 119.70015] CT
10.0 ML
2.5 LW
N
-5 0 M
0 6.65 L
5 0 L
0 -6.65 L
cp
S
GR
GS
[0.60127 0 0 0.60127 99.55931 107.87743] CT
10.0 ML
2.5 LW
N
-5 0 M
0 6.65 L
5 0 L
0 -6.65 L
cp
S
GR
GS
[0.60127 0 0 0.60127 104.64915 97.19956] CT
10.0 ML
2.5 LW
N
-5 0 M
0 6.65 L
5 0 L
0 -6.65 L
cp
S
GR
GS
[0.60127 0 0 0.60127 109.73898 87.6817] CT
10.0 ML
2.5 LW
N
-5 0 M
0 6.65 L
5 0 L
0 -6.65 L
cp
S
GR
GS
[0.60127 0 0 0.60127 114.82881 79.30869] CT
10.0 ML
2.5 LW
N
-5 0 M
0 6.65 L
5 0 L
0 -6.65 L
cp
S
GR
GS
[0.60127 0 0 0.60127 119.91864 72.03667] CT
10.0 ML
2.5 LW
N
-5 0 M
0 6.65 L
5 0 L
0 -6.65 L
cp
S
GR
GS
[0.60127 0 0 0.60127 125.00847 65.79732] CT
10.0 ML
2.5 LW
N
-5 0 M
0 6.65 L
5 0 L
0 -6.65 L
cp
S
GR
GS
[0.60127 0 0 0.60127 130.0983 60.50414] CT
10.0 ML
2.5 LW
N
-5 0 M
0 6.65 L
5 0 L
0 -6.65 L
cp
S
GR
GS
[0.60127 0 0 0.60127 135.18813 56.05942] CT
10.0 ML
2.5 LW
N
-5 0 M
0 6.65 L
5 0 L
0 -6.65 L
cp
S
GR
GS
[0.60127 0 0 0.60127 140.27796 52.36096] CT
10.0 ML
2.5 LW
N
-5 0 M
0 6.65 L
5 0 L
0 -6.65 L
cp
S
GR
GS
[0.60127 0 0 0.60127 145.36779 49.30783] CT
10.0 ML
2.5 LW
N
-5 0 M
0 6.65 L
5 0 L
0 -6.65 L
cp
S
GR
GS
[0.60127 0 0 0.60127 150.45762 46.80455] CT
10.0 ML
2.5 LW
N
-5 0 M
0 6.65 L
5 0 L
0 -6.65 L
cp
S
GR
GS
[0.60127 0 0 0.60127 155.54744 44.76392] CT
10.0 ML
2.5 LW
N
-5 0 M
0 6.65 L
5 0 L
0 -6.65 L
cp
S
GR
GS
[0.60127 0 0 0.60127 160.63728 43.10847] CT
10.0 ML
2.5 LW
N
-5 0 M
0 6.65 L
5 0 L
0 -6.65 L
cp
S
GR
GS
[0.60127 0 0 0.60127 165.72711 41.77085] CT
10.0 ML
2.5 LW
N
-5 0 M
0 6.65 L
5 0 L
0 -6.65 L
cp
S
GR
GS
[0.60127 0 0 0.60127 170.81694 40.69362] CT
10.0 ML
2.5 LW
N
-5 0 M
0 6.65 L
5 0 L
0 -6.65 L
cp
S
GR
GS
[0.60127 0 0 0.60127 175.90677 39.82841] CT
10.0 ML
2.5 LW
N
-5 0 M
0 6.65 L
5 0 L
0 -6.65 L
cp
S
GR
GS
[0.60127 0 0 0.60127 180.9966 39.13502] CT
10.0 ML
2.5 LW
N
-5 0 M
0 6.65 L
5 0 L
0 -6.65 L
cp
S
GR
GS
[0.60127 0 0 0.60127 186.08643 38.5803] CT
10.0 ML
2.5 LW
N
-5 0 M
0 6.65 L
5 0 L
0 -6.65 L
cp
S
GR
GS
[0.60127 0 0 0.60127 191.17626 38.13716] CT
10.0 ML
2.5 LW
N
-5 0 M
0 6.65 L
5 0 L
0 -6.65 L
cp
S
GR
GS
[0.60127 0 0 0.60127 196.2661 37.78357] CT
10.0 ML
2.5 LW
N
-5 0 M
0 6.65 L
5 0 L
0 -6.65 L
cp
S
GR
GS
[0.60127 0 0 0.60127 201.35593 37.50166] CT
10.0 ML
2.5 LW
N
-5 0 M
0 6.65 L
5 0 L
0 -6.65 L
cp
S
GR
GS
[0.60127 0 0 0.60127 206.44576 37.27711] CT
10.0 ML
2.5 LW
N
-5 0 M
0 6.65 L
5 0 L
0 -6.65 L
cp
S
GR
GS
[0.60127 0 0 0.60127 211.53559 37.09831] CT
10.0 ML
2.5 LW
N
-5 0 M
0 6.65 L
5 0 L
0 -6.65 L
cp
S
GR
GS
[0.60127 0 0 0.60127 216.62542 36.95604] CT
10.0 ML
2.5 LW
N
-5 0 M
0 6.65 L
5 0 L
0 -6.65 L
cp
S
GR
GS
[0.60127 0 0 0.60127 221.71524 36.84286] CT
10.0 ML
2.5 LW
N
-5 0 M
0 6.65 L
5 0 L
0 -6.65 L
cp
S
GR
GS
[0.60127 0 0 0.60127 226.80507 36.75285] CT
10.0 ML
2.5 LW
N
-5 0 M
0 6.65 L
5 0 L
0 -6.65 L
cp
S
GR
GS
[0.60127 0 0 0.60127 231.8949 36.68129] CT
10.0 ML
2.5 LW
N
-5 0 M
0 6.65 L
5 0 L
0 -6.65 L
cp
S
GR
GS
[0.60127 0 0 0.60127 236.98473 36.62441] CT
10.0 ML
2.5 LW
N
-5 0 M
0 6.65 L
5 0 L
0 -6.65 L
cp
S
GR
GS
[0.60127 0 0 0.60127 242.07456 36.5792] CT
10.0 ML
2.5 LW
N
-5 0 M
0 6.65 L
5 0 L
0 -6.65 L
cp
S
GR
GS
[0.60127 0 0 0.60127 247.16439 36.54327] CT
10.0 ML
2.5 LW
N
-5 0 M
0 6.65 L
5 0 L
0 -6.65 L
cp
S
GR
GS
[0.60127 0 0 0.60127 252.25423 36.51471] CT
10.0 ML
2.5 LW
N
-5 0 M
0 6.65 L
5 0 L
0 -6.65 L
cp
S
GR
GS
[0.60127 0 0 0.60127 257.34406 36.49203] CT
10.0 ML
2.5 LW
N
-5 0 M
0 6.65 L
5 0 L
0 -6.65 L
cp
S
GR
GS
[0.60127 0 0 0.60127 0 0.20001] CT
1 GC
N
243 178 M
243 100 L
418 100 L
418 178 L
cp
f
GR
GS
[0.60127 0 0 0.60127 181.43154 69.01771] CT
N
3.734 5.019 M
2.859 5.019 2.164 4.597 QT
1.469 4.175 1.094 3.448 QT
0.719 2.722 0.719 1.862 QT
0.719 0.925 1.141 -0.099 QT
1.563 -1.122 2.289 -1.974 QT
3.016 -2.825 3.938 -3.325 QT
4.859 -3.825 5.828 -3.825 QT
10.859 -3.825 L
11.063 -3.825 11.211 -3.684 QT
11.359 -3.544 11.359 -3.309 QT
11.359 -3.028 11.148 -2.809 QT
10.938 -2.591 10.641 -2.591 QT
8.203 -2.591 L
8.781 -1.731 8.781 -0.497 QT
8.781 0.503 8.391 1.48 QT
8 2.456 7.305 3.261 QT
6.609 4.066 5.688 4.542 QT
4.766 5.019 3.734 5.019 QT
cp
3.766 4.503 M
4.859 4.503 5.703 3.644 QT
6.547 2.784 6.992 1.55 QT
7.438 0.316 7.438 -0.731 QT
7.438 -1.591 6.969 -2.091 QT
6.5 -2.591 5.641 -2.591 QT
4.484 -2.591 3.672 -1.809 QT
2.859 -1.028 2.453 0.159 QT
2.047 1.347 2.047 2.441 QT
2.047 3.3 2.5 3.901 QT
2.953 4.503 3.766 4.503 QT
cp
f
GR
GS
[0.60127 0 0 0.60127 181.43154 69.01771] CT
N
12.849 -2.458 M
12.849 -2.833 L
12.849 -2.864 12.865 -2.911 QT
15.052 -5.317 L
15.536 -5.849 15.841 -6.208 QT
16.146 -6.567 16.451 -7.044 QT
16.755 -7.52 16.927 -8.005 QT
17.099 -8.489 17.099 -9.036 QT
17.099 -9.614 16.888 -10.138 QT
16.677 -10.661 16.255 -10.974 QT
15.833 -11.286 15.24 -11.286 QT
14.63 -11.286 14.146 -10.919 QT
13.661 -10.552 13.458 -9.974 QT
13.521 -9.989 13.615 -9.989 QT
13.927 -9.989 14.154 -9.778 QT
14.38 -9.567 14.38 -9.239 QT
14.38 -8.911 14.154 -8.692 QT
13.927 -8.474 13.615 -8.474 QT
13.286 -8.474 13.068 -8.7 QT
12.849 -8.927 12.849 -9.239 QT
12.849 -9.755 13.044 -10.216 QT
13.24 -10.677 13.615 -11.036 QT
13.99 -11.395 14.458 -11.591 QT
14.927 -11.786 15.443 -11.786 QT
16.255 -11.786 16.943 -11.442 QT
17.63 -11.099 18.036 -10.481 QT
18.443 -9.864 18.443 -9.036 QT
18.443 -8.427 18.169 -7.88 QT
17.896 -7.333 17.482 -6.888 QT
17.068 -6.442 16.419 -5.872 QT
15.771 -5.302 15.568 -5.114 QT
13.974 -3.599 L
15.318 -3.599 L
16.318 -3.599 16.982 -3.614 QT
17.646 -3.63 17.693 -3.661 QT
17.849 -3.833 18.021 -4.958 QT
18.443 -4.958 L
18.036 -2.458 L
12.849 -2.458 L
cp
f
GR
GS
[0.60127 0 0 0.60127 181.43154 69.01771] CT
N
12.944 8.119 M
12.944 7.822 13.022 7.44 QT
13.1 7.057 13.194 6.76 QT
13.288 6.463 13.514 5.846 QT
13.741 5.229 13.772 5.182 QT
13.944 4.666 13.944 4.338 QT
13.944 3.916 13.647 3.916 QT
13.085 3.916 12.725 4.486 QT
12.366 5.057 12.194 5.76 QT
12.178 5.854 12.085 5.854 QT
11.928 5.854 L
11.803 5.854 11.803 5.729 QT
11.803 5.682 L
12.038 4.854 12.499 4.205 QT
12.96 3.557 13.678 3.557 QT
14.163 3.557 14.514 3.885 QT
14.866 4.213 14.866 4.713 QT
14.866 4.979 14.741 5.26 QT
14.585 5.697 14.358 6.291 QT
14.131 6.885 14.014 7.369 QT
13.897 7.854 13.897 8.307 QT
13.897 8.854 14.178 9.19 QT
14.46 9.526 15.006 9.526 QT
15.756 9.526 16.241 8.401 QT
16.225 8.322 16.225 8.166 QT
16.225 7.791 16.35 7.307 QT
17.131 4.166 L
17.178 3.979 17.35 3.846 QT
17.522 3.713 17.725 3.713 QT
17.881 3.713 18.006 3.822 QT
18.131 3.932 18.131 4.104 QT
18.131 4.182 18.116 4.213 QT
17.335 7.338 L
17.194 7.901 17.194 8.338 QT
17.194 8.869 17.436 9.197 QT
17.678 9.526 18.21 9.526 QT
19.1 9.526 19.694 8.338 QT
19.913 7.916 20.178 7.088 QT
20.444 6.26 20.444 5.822 QT
20.444 5.416 20.311 5.182 QT
20.178 4.947 19.952 4.674 QT
19.725 4.401 19.725 4.276 QT
19.725 3.994 19.952 3.768 QT
20.178 3.541 20.46 3.541 QT
20.788 3.541 20.936 3.854 QT
21.085 4.166 21.085 4.541 QT
21.085 5.026 20.928 5.752 QT
20.772 6.479 20.53 7.213 QT
20.288 7.947 20.085 8.385 QT
19.319 9.901 18.178 9.901 QT
17.585 9.901 17.1 9.674 QT
16.616 9.447 16.381 8.963 QT
16.163 9.354 15.795 9.627 QT
15.428 9.901 14.991 9.901 QT
14.053 9.901 13.499 9.463 QT
12.944 9.026 12.944 8.119 QT
cp
f
GR
GS
[0.60127 0 0 0.60127 181.43154 69.01771] CT
N
21.951 11.844 M
21.857 11.844 21.857 11.719 QT
21.857 11.688 21.873 11.625 QT
21.889 11.563 21.912 11.524 QT
21.935 11.485 21.982 11.485 QT
22.264 11.485 22.475 11.477 QT
22.685 11.469 22.826 11.422 QT
22.951 11.375 23.029 11.157 QT
24.389 5.657 L
24.404 5.563 24.404 5.532 QT
24.404 5.422 24.295 5.407 QT
24.107 5.36 23.576 5.36 QT
23.467 5.36 23.467 5.235 QT
23.482 5.204 23.498 5.141 QT
23.514 5.079 23.537 5.047 QT
23.56 5.016 23.607 5.016 QT
27.185 5.016 L
27.514 5.016 27.834 5.094 QT
28.154 5.172 28.42 5.352 QT
28.685 5.532 28.85 5.79 QT
29.014 6.047 29.014 6.391 QT
29.014 6.766 28.818 7.094 QT
28.623 7.422 28.318 7.657 QT
28.014 7.891 27.662 8.047 QT
27.31 8.204 26.92 8.282 QT
27.201 8.282 27.475 8.383 QT
27.748 8.485 27.975 8.672 QT
28.201 8.86 28.334 9.118 QT
28.467 9.375 28.467 9.672 QT
28.467 10.282 28.045 10.774 QT
27.623 11.266 26.982 11.555 QT
26.342 11.844 25.748 11.844 QT
21.951 11.844 L
cp
23.795 11.407 M
23.795 11.485 24.139 11.485 QT
25.56 11.485 L
26.045 11.485 26.498 11.219 QT
26.951 10.954 27.225 10.5 QT
27.498 10.047 27.498 9.563 QT
27.498 9.266 27.373 9 QT
27.248 8.735 27.014 8.579 QT
26.779 8.422 26.467 8.422 QT
24.529 8.422 L
23.826 11.188 L
23.795 11.329 23.795 11.407 QT
cp
24.592 8.157 M
26.107 8.157 L
26.592 8.157 27.045 7.915 QT
27.498 7.672 27.779 7.25 QT
28.06 6.829 28.06 6.36 QT
28.06 5.938 27.787 5.649 QT
27.514 5.36 27.092 5.36 QT
25.717 5.36 L
25.451 5.36 25.357 5.415 QT
25.264 5.469 25.201 5.704 QT
24.592 8.157 L
cp
f
GR
GS
[0.60127 0 0 0.60127 181.43154 69.01771] CT
N
38.593 2.144 M
38.437 2.144 38.328 2.019 QT
38.218 1.894 38.218 1.737 QT
38.218 1.581 38.328 1.464 QT
38.437 1.347 38.593 1.347 QT
51.156 1.347 L
51.296 1.347 51.406 1.464 QT
51.515 1.581 51.515 1.737 QT
51.515 1.894 51.406 2.019 QT
51.296 2.144 51.156 2.144 QT
38.593 2.144 L
cp
38.593 -1.747 M
38.437 -1.747 38.328 -1.864 QT
38.218 -1.981 38.218 -2.138 QT
38.218 -2.294 38.328 -2.419 QT
38.437 -2.544 38.593 -2.544 QT
51.156 -2.544 L
51.296 -2.544 51.406 -2.419 QT
51.515 -2.294 51.515 -2.138 QT
51.515 -1.981 51.406 -1.864 QT
51.296 -1.747 51.156 -1.747 QT
38.593 -1.747 L
cp
f
GR
GS
[0.60127 0 0 0.60127 181.43154 69.01771] CT
N
57.649 5.237 M
55.196 5.237 54.313 3.222 QT
53.43 1.206 53.43 -1.575 QT
53.43 -3.309 53.75 -4.849 QT
54.071 -6.388 55.008 -7.458 QT
55.946 -8.528 57.649 -8.528 QT
58.961 -8.528 59.805 -7.88 QT
60.649 -7.231 61.086 -6.208 QT
61.524 -5.184 61.688 -4.02 QT
61.852 -2.856 61.852 -1.575 QT
61.852 0.144 61.532 1.644 QT
61.211 3.144 60.282 4.191 QT
59.352 5.237 57.649 5.237 QT
cp
57.649 4.722 M
58.758 4.722 59.305 3.581 QT
59.852 2.441 59.985 1.05 QT
60.118 -0.341 60.118 -1.903 QT
60.118 -3.403 59.985 -4.677 QT
59.852 -5.95 59.313 -6.974 QT
58.774 -7.997 57.649 -7.997 QT
56.524 -7.997 55.977 -6.966 QT
55.43 -5.934 55.297 -4.669 QT
55.165 -3.403 55.165 -1.903 QT
55.165 -0.794 55.219 0.198 QT
55.274 1.191 55.508 2.237 QT
55.743 3.284 56.266 4.003 QT
56.79 4.722 57.649 4.722 QT
cp
f
GR
GS
[0.60127 0 0 0.60127 181.43154 69.01771] CT
N
74.206 5.019 M
73.019 5.019 72.042 4.378 QT
71.066 3.737 70.527 2.698 QT
69.987 1.659 69.987 0.487 QT
69.987 -0.731 70.573 -1.77 QT
71.159 -2.809 72.175 -3.427 QT
73.191 -4.044 74.409 -4.044 QT
75.144 -4.044 75.8 -3.731 QT
76.456 -3.419 76.941 -2.872 QT
76.941 -7.044 L
76.941 -7.575 76.777 -7.817 QT
76.612 -8.059 76.316 -8.106 QT
76.019 -8.153 75.378 -8.153 QT
75.378 -8.856 L
78.347 -9.075 L
78.347 2.987 L
78.347 3.503 78.503 3.745 QT
78.659 3.987 78.956 4.042 QT
79.253 4.097 79.894 4.097 QT
79.894 4.8 L
76.878 5.019 L
76.878 3.769 L
76.362 4.362 75.644 4.691 QT
74.925 5.019 74.206 5.019 QT
cp
72.159 3.066 M
72.503 3.722 73.073 4.112 QT
73.644 4.503 74.316 4.503 QT
75.144 4.503 75.839 4.019 QT
76.534 3.534 76.878 2.784 QT
76.878 -2.013 L
76.644 -2.45 76.284 -2.802 QT
75.925 -3.153 75.48 -3.341 QT
75.034 -3.528 74.534 -3.528 QT
73.503 -3.528 72.862 -2.934 QT
72.222 -2.341 71.972 -1.419 QT
71.722 -0.497 71.722 0.503 QT
71.722 1.3 71.8 1.894 QT
71.878 2.487 72.159 3.066 QT
cp
f
GR
GS
[0.60127 0 0 0.60127 181.43154 69.01771] CT
N
81.114 4.8 M
81.114 4.097 L
83.177 4.097 83.177 3.456 QT
83.177 -7.528 L
83.177 -8.153 81.114 -8.153 QT
81.114 -8.856 L
88.458 -8.856 L
89.474 -8.856 90.513 -8.466 QT
91.552 -8.075 92.231 -7.294 QT
92.911 -6.513 92.911 -5.466 QT
92.911 -4.247 91.911 -3.419 QT
90.911 -2.591 89.567 -2.341 QT
90.442 -2.341 91.356 -1.864 QT
92.27 -1.388 92.856 -0.583 QT
93.442 0.222 93.442 1.112 QT
93.442 2.206 92.794 3.05 QT
92.145 3.894 91.114 4.347 QT
90.083 4.8 89.036 4.8 QT
81.114 4.8 L
cp
84.911 3.456 M
84.911 3.894 85.153 3.995 QT
85.395 4.097 85.927 4.097 QT
88.458 4.097 L
89.239 4.097 89.911 3.683 QT
90.583 3.269 90.974 2.581 QT
91.364 1.894 91.364 1.112 QT
91.364 0.362 91.044 -0.372 QT
90.724 -1.106 90.122 -1.575 QT
89.52 -2.044 88.755 -2.044 QT
84.911 -2.044 L
84.911 3.456 L
cp
84.911 -2.559 M
87.911 -2.559 L
88.52 -2.559 89.052 -2.778 QT
89.583 -2.997 90.005 -3.419 QT
90.427 -3.841 90.653 -4.356 QT
90.88 -4.872 90.88 -5.466 QT
90.88 -5.981 90.716 -6.458 QT
90.552 -6.934 90.216 -7.325 QT
89.88 -7.716 89.435 -7.934 QT
88.989 -8.153 88.458 -8.153 QT
85.927 -8.153 L
85.567 -8.153 85.364 -8.13 QT
85.161 -8.106 85.036 -7.966 QT
84.911 -7.825 84.911 -7.528 QT
84.911 -2.559 L
cp
f
GR
GS
[0.60127 0 0 0.60127 0 0.20001] CT
1 LJ
2.5 LW
N
248 114.454 M
297.997 114.454 L
S
GR
GS
[0.60127 0 0 0.60127 181.43154 83.7767] CT
N
/f-1590788670{3.734 5.019 M
2.859 5.019 2.164 4.597 QT
1.469 4.175 1.094 3.448 QT
0.719 2.722 0.719 1.862 QT
0.719 0.925 1.141 -0.099 QT
1.563 -1.122 2.289 -1.974 QT
3.016 -2.825 3.938 -3.325 QT
4.859 -3.825 5.828 -3.825 QT
10.859 -3.825 L
11.063 -3.825 11.211 -3.684 QT
11.359 -3.544 11.359 -3.309 QT
11.359 -3.028 11.148 -2.809 QT
10.938 -2.591 10.641 -2.591 QT
8.203 -2.591 L
8.781 -1.731 8.781 -0.497 QT
8.781 0.503 8.391 1.48 QT
8 2.456 7.305 3.261 QT
6.609 4.066 5.688 4.542 QT
4.766 5.019 3.734 5.019 QT
cp
3.766 4.503 M
4.859 4.503 5.703 3.644 QT
6.547 2.784 6.992 1.55 QT
7.438 0.316 7.438 -0.731 QT
7.438 -1.591 6.969 -2.091 QT
6.5 -2.591 5.641 -2.591 QT
4.484 -2.591 3.672 -1.809 QT
2.859 -1.028 2.453 0.159 QT
2.047 1.347 2.047 2.441 QT
2.047 3.3 2.5 3.901 QT
2.953 4.503 3.766 4.503 QT
cp}def
f-1590788670
f
GR
GS
[0.60127 0 0 0.60127 181.43154 83.7767] CT
N
/f-748447378{12.849 -2.458 M
12.849 -2.833 L
12.849 -2.864 12.865 -2.911 QT
15.052 -5.317 L
15.536 -5.849 15.841 -6.208 QT
16.146 -6.567 16.451 -7.044 QT
16.755 -7.52 16.927 -8.005 QT
17.099 -8.489 17.099 -9.036 QT
17.099 -9.614 16.888 -10.138 QT
16.677 -10.661 16.255 -10.974 QT
15.833 -11.286 15.24 -11.286 QT
14.63 -11.286 14.146 -10.919 QT
13.661 -10.552 13.458 -9.974 QT
13.521 -9.989 13.615 -9.989 QT
13.927 -9.989 14.154 -9.778 QT
14.38 -9.567 14.38 -9.239 QT
14.38 -8.911 14.154 -8.692 QT
13.927 -8.474 13.615 -8.474 QT
13.286 -8.474 13.068 -8.7 QT
12.849 -8.927 12.849 -9.239 QT
12.849 -9.755 13.044 -10.216 QT
13.24 -10.677 13.615 -11.036 QT
13.99 -11.395 14.458 -11.591 QT
14.927 -11.786 15.443 -11.786 QT
16.255 -11.786 16.943 -11.442 QT
17.63 -11.099 18.036 -10.481 QT
18.443 -9.864 18.443 -9.036 QT
18.443 -8.427 18.169 -7.88 QT
17.896 -7.333 17.482 -6.888 QT
17.068 -6.442 16.419 -5.872 QT
15.771 -5.302 15.568 -5.114 QT
13.974 -3.599 L
15.318 -3.599 L
16.318 -3.599 16.982 -3.614 QT
17.646 -3.63 17.693 -3.661 QT
17.849 -3.833 18.021 -4.958 QT
18.443 -4.958 L
18.036 -2.458 L
12.849 -2.458 L
cp}def
f-748447378
f
GR
GS
[0.60127 0 0 0.60127 181.43154 83.7767] CT
N
/f-1122467899{12.944 8.119 M
12.944 7.822 13.022 7.44 QT
13.1 7.057 13.194 6.76 QT
13.288 6.463 13.514 5.846 QT
13.741 5.229 13.772 5.182 QT
13.944 4.666 13.944 4.338 QT
13.944 3.916 13.647 3.916 QT
13.085 3.916 12.725 4.486 QT
12.366 5.057 12.194 5.76 QT
12.178 5.854 12.085 5.854 QT
11.928 5.854 L
11.803 5.854 11.803 5.729 QT
11.803 5.682 L
12.038 4.854 12.499 4.205 QT
12.96 3.557 13.678 3.557 QT
14.163 3.557 14.514 3.885 QT
14.866 4.213 14.866 4.713 QT
14.866 4.979 14.741 5.26 QT
14.585 5.697 14.358 6.291 QT
14.131 6.885 14.014 7.369 QT
13.897 7.854 13.897 8.307 QT
13.897 8.854 14.178 9.19 QT
14.46 9.526 15.006 9.526 QT
15.756 9.526 16.241 8.401 QT
16.225 8.322 16.225 8.166 QT
16.225 7.791 16.35 7.307 QT
17.131 4.166 L
17.178 3.979 17.35 3.846 QT
17.522 3.713 17.725 3.713 QT
17.881 3.713 18.006 3.822 QT
18.131 3.932 18.131 4.104 QT
18.131 4.182 18.116 4.213 QT
17.335 7.338 L
17.194 7.901 17.194 8.338 QT
17.194 8.869 17.436 9.197 QT
17.678 9.526 18.21 9.526 QT
19.1 9.526 19.694 8.338 QT
19.913 7.916 20.178 7.088 QT
20.444 6.26 20.444 5.822 QT
20.444 5.416 20.311 5.182 QT
20.178 4.947 19.952 4.674 QT
19.725 4.401 19.725 4.276 QT
19.725 3.994 19.952 3.768 QT
20.178 3.541 20.46 3.541 QT
20.788 3.541 20.936 3.854 QT
21.085 4.166 21.085 4.541 QT
21.085 5.026 20.928 5.752 QT
20.772 6.479 20.53 7.213 QT
20.288 7.947 20.085 8.385 QT
19.319 9.901 18.178 9.901 QT
17.585 9.901 17.1 9.674 QT
16.616 9.447 16.381 8.963 QT
16.163 9.354 15.795 9.627 QT
15.428 9.901 14.991 9.901 QT
14.053 9.901 13.499 9.463 QT
12.944 9.026 12.944 8.119 QT
cp}def
f-1122467899
f
GR
GS
[0.60127 0 0 0.60127 181.43154 83.7767] CT
N
/f-909838847{21.951 11.844 M
21.857 11.844 21.857 11.719 QT
21.857 11.688 21.873 11.625 QT
21.889 11.563 21.912 11.524 QT
21.935 11.485 21.982 11.485 QT
22.264 11.485 22.475 11.477 QT
22.685 11.469 22.826 11.422 QT
22.951 11.375 23.029 11.157 QT
24.389 5.657 L
24.404 5.563 24.404 5.532 QT
24.404 5.422 24.295 5.407 QT
24.107 5.36 23.576 5.36 QT
23.467 5.36 23.467 5.235 QT
23.482 5.204 23.498 5.141 QT
23.514 5.079 23.537 5.047 QT
23.56 5.016 23.607 5.016 QT
27.185 5.016 L
27.514 5.016 27.834 5.094 QT
28.154 5.172 28.42 5.352 QT
28.685 5.532 28.85 5.79 QT
29.014 6.047 29.014 6.391 QT
29.014 6.766 28.818 7.094 QT
28.623 7.422 28.318 7.657 QT
28.014 7.891 27.662 8.047 QT
27.31 8.204 26.92 8.282 QT
27.201 8.282 27.475 8.383 QT
27.748 8.485 27.975 8.672 QT
28.201 8.86 28.334 9.118 QT
28.467 9.375 28.467 9.672 QT
28.467 10.282 28.045 10.774 QT
27.623 11.266 26.982 11.555 QT
26.342 11.844 25.748 11.844 QT
21.951 11.844 L
cp
23.795 11.407 M
23.795 11.485 24.139 11.485 QT
25.56 11.485 L
26.045 11.485 26.498 11.219 QT
26.951 10.954 27.225 10.5 QT
27.498 10.047 27.498 9.563 QT
27.498 9.266 27.373 9 QT
27.248 8.735 27.014 8.579 QT
26.779 8.422 26.467 8.422 QT
24.529 8.422 L
23.826 11.188 L
23.795 11.329 23.795 11.407 QT
cp
24.592 8.157 M
26.107 8.157 L
26.592 8.157 27.045 7.915 QT
27.498 7.672 27.779 7.25 QT
28.06 6.829 28.06 6.36 QT
28.06 5.938 27.787 5.649 QT
27.514 5.36 27.092 5.36 QT
25.717 5.36 L
25.451 5.36 25.357 5.415 QT
25.264 5.469 25.201 5.704 QT
24.592 8.157 L
cp}def
f-909838847
f
GR
GS
[0.60127 0 0 0.60127 181.43154 83.7767] CT
N
/f879012509{38.593 2.144 M
38.437 2.144 38.328 2.019 QT
38.218 1.894 38.218 1.737 QT
38.218 1.581 38.328 1.464 QT
38.437 1.347 38.593 1.347 QT
51.156 1.347 L
51.296 1.347 51.406 1.464 QT
51.515 1.581 51.515 1.737 QT
51.515 1.894 51.406 2.019 QT
51.296 2.144 51.156 2.144 QT
38.593 2.144 L
cp
38.593 -1.747 M
38.437 -1.747 38.328 -1.864 QT
38.218 -1.981 38.218 -2.138 QT
38.218 -2.294 38.328 -2.419 QT
38.437 -2.544 38.593 -2.544 QT
51.156 -2.544 L
51.296 -2.544 51.406 -2.419 QT
51.515 -2.294 51.515 -2.138 QT
51.515 -1.981 51.406 -1.864 QT
51.296 -1.747 51.156 -1.747 QT
38.593 -1.747 L
cp}def
f879012509
f
GR
GS
[0.60127 0 0 0.60127 181.43154 83.7767] CT
N
/f-1436438336{52.868 1.097 M
52.868 -0.138 L
58.165 -0.138 L
58.165 1.097 L
52.868 1.097 L
cp}def
f-1436438336
f
GR
GS
[0.60127 0 0 0.60127 181.43154 83.7767] CT
N
/f1273096936{61.05 2.519 M
61.253 3.112 61.683 3.589 QT
62.112 4.066 62.691 4.331 QT
63.269 4.597 63.894 4.597 QT
65.347 4.597 65.894 3.48 QT
66.441 2.362 66.441 0.753 QT
66.441 0.066 66.417 -0.411 QT
66.394 -0.888 66.284 -1.325 QT
66.097 -2.028 65.628 -2.552 QT
65.159 -3.075 64.487 -3.075 QT
63.816 -3.075 63.331 -2.872 QT
62.847 -2.669 62.55 -2.395 QT
62.253 -2.122 62.019 -1.817 QT
61.784 -1.513 61.722 -1.497 QT
61.487 -1.497 L
61.441 -1.497 61.37 -1.559 QT
61.3 -1.622 61.3 -1.684 QT
61.3 -8.372 L
61.3 -8.419 61.362 -8.474 QT
61.425 -8.528 61.487 -8.528 QT
61.55 -8.528 L
62.894 -7.872 64.409 -7.872 QT
65.894 -7.872 67.269 -8.528 QT
67.331 -8.528 L
67.409 -8.528 67.464 -8.474 QT
67.519 -8.419 67.519 -8.372 QT
67.519 -8.184 L
67.519 -8.075 67.487 -8.075 QT
66.8 -7.169 65.769 -6.661 QT
64.737 -6.153 63.628 -6.153 QT
62.831 -6.153 61.987 -6.388 QT
61.987 -2.606 L
62.659 -3.138 63.183 -3.372 QT
63.706 -3.606 64.519 -3.606 QT
65.612 -3.606 66.487 -2.966 QT
67.362 -2.325 67.831 -1.309 QT
68.3 -0.294 68.3 0.769 QT
68.3 1.972 67.706 3.003 QT
67.112 4.034 66.097 4.636 QT
65.081 5.237 63.894 5.237 QT
62.909 5.237 62.081 4.73 QT
61.253 4.222 60.784 3.362 QT
60.316 2.503 60.316 1.534 QT
60.316 1.081 60.605 0.8 QT
60.894 0.519 61.331 0.519 QT
61.784 0.519 62.081 0.808 QT
62.378 1.097 62.378 1.534 QT
62.378 1.972 62.081 2.269 QT
61.784 2.566 61.331 2.566 QT
61.269 2.566 61.183 2.55 QT
61.097 2.534 61.05 2.519 QT
cp}def
f1273096936
f
GR
GS
[0.60127 0 0 0.60127 181.43154 83.7767] CT
N
/f-1744269295{80.873 5.019 M
79.685 5.019 78.709 4.378 QT
77.732 3.737 77.193 2.698 QT
76.654 1.659 76.654 0.487 QT
76.654 -0.731 77.24 -1.77 QT
77.826 -2.809 78.842 -3.427 QT
79.857 -4.044 81.076 -4.044 QT
81.81 -4.044 82.467 -3.731 QT
83.123 -3.419 83.607 -2.872 QT
83.607 -7.044 L
83.607 -7.575 83.443 -7.817 QT
83.279 -8.059 82.982 -8.106 QT
82.685 -8.153 82.045 -8.153 QT
82.045 -8.856 L
85.013 -9.075 L
85.013 2.987 L
85.013 3.503 85.17 3.745 QT
85.326 3.987 85.623 4.042 QT
85.92 4.097 86.56 4.097 QT
86.56 4.8 L
83.545 5.019 L
83.545 3.769 L
83.029 4.362 82.31 4.691 QT
81.592 5.019 80.873 5.019 QT
cp
78.826 3.066 M
79.17 3.722 79.74 4.112 QT
80.31 4.503 80.982 4.503 QT
81.81 4.503 82.506 4.019 QT
83.201 3.534 83.545 2.784 QT
83.545 -2.013 L
83.31 -2.45 82.951 -2.802 QT
82.592 -3.153 82.146 -3.341 QT
81.701 -3.528 81.201 -3.528 QT
80.17 -3.528 79.529 -2.934 QT
78.888 -2.341 78.638 -1.419 QT
78.388 -0.497 78.388 0.503 QT
78.388 1.3 78.467 1.894 QT
78.545 2.487 78.826 3.066 QT
cp}def
f-1744269295
f
GR
GS
[0.60127 0 0 0.60127 181.43154 83.7767] CT
N
/f1333927234{87.781 4.8 M
87.781 4.097 L
89.843 4.097 89.843 3.456 QT
89.843 -7.528 L
89.843 -8.153 87.781 -8.153 QT
87.781 -8.856 L
95.125 -8.856 L
96.14 -8.856 97.179 -8.466 QT
98.218 -8.075 98.898 -7.294 QT
99.578 -6.513 99.578 -5.466 QT
99.578 -4.247 98.578 -3.419 QT
97.578 -2.591 96.234 -2.341 QT
97.109 -2.341 98.023 -1.864 QT
98.937 -1.388 99.523 -0.583 QT
100.109 0.222 100.109 1.112 QT
100.109 2.206 99.461 3.05 QT
98.812 3.894 97.781 4.347 QT
96.75 4.8 95.703 4.8 QT
87.781 4.8 L
cp
91.578 3.456 M
91.578 3.894 91.82 3.995 QT
92.062 4.097 92.593 4.097 QT
95.125 4.097 L
95.906 4.097 96.578 3.683 QT
97.25 3.269 97.64 2.581 QT
98.031 1.894 98.031 1.112 QT
98.031 0.362 97.711 -0.372 QT
97.39 -1.106 96.789 -1.575 QT
96.187 -2.044 95.422 -2.044 QT
91.578 -2.044 L
91.578 3.456 L
cp
91.578 -2.559 M
94.578 -2.559 L
95.187 -2.559 95.718 -2.778 QT
96.25 -2.997 96.672 -3.419 QT
97.093 -3.841 97.32 -4.356 QT
97.547 -4.872 97.547 -5.466 QT
97.547 -5.981 97.382 -6.458 QT
97.218 -6.934 96.882 -7.325 QT
96.547 -7.716 96.101 -7.934 QT
95.656 -8.153 95.125 -8.153 QT
92.593 -8.153 L
92.234 -8.153 92.031 -8.13 QT
91.828 -8.106 91.703 -7.966 QT
91.578 -7.825 91.578 -7.528 QT
91.578 -2.559 L
cp}def
f1333927234
f
GR
GS
[0.60127 0 0 0.60127 0 0.20001] CT
[8 8] 0 setdash
2 LJ
2.5 LW
N
248 139 M
297.997 139 L
S
GR
GS
[0.60127 0 0 0.60127 181.43154 98.5357] CT
N
f-1590788670
f
GR
GS
[0.60127 0 0 0.60127 181.43154 98.5357] CT
N
f-748447378
f
GR
GS
[0.60127 0 0 0.60127 181.43154 98.5357] CT
N
f-1122467899
f
GR
GS
[0.60127 0 0 0.60127 181.43154 98.5357] CT
N
f-909838847
f
GR
GS
[0.60127 0 0 0.60127 181.43154 98.5357] CT
N
f879012509
f
GR
GS
[0.60127 0 0 0.60127 181.43154 98.5357] CT
N
f-1436438336
f
GR
GS
[0.60127 0 0 0.60127 181.43154 98.5357] CT
N
/f2123814998{61.175 4.8 M
61.175 4.097 L
63.675 4.097 63.675 3.456 QT
63.675 -7.044 L
62.644 -6.544 61.05 -6.544 QT
61.05 -7.247 L
63.503 -7.247 64.753 -8.528 QT
65.034 -8.528 L
65.112 -8.528 65.175 -8.474 QT
65.237 -8.419 65.237 -8.341 QT
65.237 3.456 L
65.237 4.097 67.737 4.097 QT
67.737 4.8 L
61.175 4.8 L
cp}def
f2123814998
f
GR
GS
[0.60127 0 0 0.60127 181.43154 98.5357] CT
N
/f-518072035{74.316 5.237 M
71.862 5.237 70.98 3.222 QT
70.097 1.206 70.097 -1.575 QT
70.097 -3.309 70.417 -4.849 QT
70.737 -6.388 71.675 -7.458 QT
72.612 -8.528 74.316 -8.528 QT
75.628 -8.528 76.472 -7.88 QT
77.316 -7.231 77.753 -6.208 QT
78.191 -5.184 78.355 -4.02 QT
78.519 -2.856 78.519 -1.575 QT
78.519 0.144 78.198 1.644 QT
77.878 3.144 76.948 4.191 QT
76.019 5.237 74.316 5.237 QT
cp
74.316 4.722 M
75.425 4.722 75.972 3.581 QT
76.519 2.441 76.652 1.05 QT
76.784 -0.341 76.784 -1.903 QT
76.784 -3.403 76.652 -4.677 QT
76.519 -5.95 75.98 -6.974 QT
75.441 -7.997 74.316 -7.997 QT
73.191 -7.997 72.644 -6.966 QT
72.097 -5.934 71.964 -4.669 QT
71.831 -3.403 71.831 -1.903 QT
71.831 -0.794 71.886 0.198 QT
71.941 1.191 72.175 2.237 QT
72.409 3.284 72.933 4.003 QT
73.456 4.722 74.316 4.722 QT
cp}def
f-518072035
f
GR
GS
[0.60127 0 0 0.60127 181.43154 98.5357] CT
N
/f-1050180269{90.873 5.019 M
89.685 5.019 88.709 4.378 QT
87.732 3.737 87.193 2.698 QT
86.654 1.659 86.654 0.487 QT
86.654 -0.731 87.24 -1.77 QT
87.826 -2.809 88.842 -3.427 QT
89.857 -4.044 91.076 -4.044 QT
91.81 -4.044 92.467 -3.731 QT
93.123 -3.419 93.607 -2.872 QT
93.607 -7.044 L
93.607 -7.575 93.443 -7.817 QT
93.279 -8.059 92.982 -8.106 QT
92.685 -8.153 92.045 -8.153 QT
92.045 -8.856 L
95.014 -9.075 L
95.014 2.987 L
95.014 3.503 95.17 3.745 QT
95.326 3.987 95.623 4.042 QT
95.92 4.097 96.56 4.097 QT
96.56 4.8 L
93.545 5.019 L
93.545 3.769 L
93.029 4.362 92.31 4.691 QT
91.592 5.019 90.873 5.019 QT
cp
88.826 3.066 M
89.17 3.722 89.74 4.112 QT
90.31 4.503 90.982 4.503 QT
91.81 4.503 92.506 4.019 QT
93.201 3.534 93.545 2.784 QT
93.545 -2.013 L
93.31 -2.45 92.951 -2.802 QT
92.592 -3.153 92.146 -3.341 QT
91.701 -3.528 91.201 -3.528 QT
90.17 -3.528 89.529 -2.934 QT
88.889 -2.341 88.639 -1.419 QT
88.389 -0.497 88.389 0.503 QT
88.389 1.3 88.467 1.894 QT
88.545 2.487 88.826 3.066 QT
cp}def
f-1050180269
f
GR
GS
[0.60127 0 0 0.60127 181.43154 98.5357] CT
N
/f-738751900{97.781 4.8 M
97.781 4.097 L
99.843 4.097 99.843 3.456 QT
99.843 -7.528 L
99.843 -8.153 97.781 -8.153 QT
97.781 -8.856 L
105.125 -8.856 L
106.14 -8.856 107.179 -8.466 QT
108.218 -8.075 108.898 -7.294 QT
109.578 -6.513 109.578 -5.466 QT
109.578 -4.247 108.578 -3.419 QT
107.578 -2.591 106.234 -2.341 QT
107.109 -2.341 108.023 -1.864 QT
108.937 -1.388 109.523 -0.583 QT
110.109 0.222 110.109 1.112 QT
110.109 2.206 109.461 3.05 QT
108.812 3.894 107.781 4.347 QT
106.75 4.8 105.703 4.8 QT
97.781 4.8 L
cp
101.578 3.456 M
101.578 3.894 101.82 3.995 QT
102.062 4.097 102.593 4.097 QT
105.125 4.097 L
105.906 4.097 106.578 3.683 QT
107.25 3.269 107.64 2.581 QT
108.031 1.894 108.031 1.112 QT
108.031 0.362 107.711 -0.372 QT
107.39 -1.106 106.789 -1.575 QT
106.187 -2.044 105.422 -2.044 QT
101.578 -2.044 L
101.578 3.456 L
cp
101.578 -2.559 M
104.578 -2.559 L
105.187 -2.559 105.718 -2.778 QT
106.25 -2.997 106.672 -3.419 QT
107.093 -3.841 107.32 -4.356 QT
107.547 -4.872 107.547 -5.466 QT
107.547 -5.981 107.382 -6.458 QT
107.218 -6.934 106.882 -7.325 QT
106.547 -7.716 106.101 -7.934 QT
105.656 -8.153 105.125 -8.153 QT
102.593 -8.153 L
102.234 -8.153 102.031 -8.13 QT
101.828 -8.106 101.703 -7.966 QT
101.578 -7.825 101.578 -7.528 QT
101.578 -2.559 L
cp}def
f-738751900
f
GR
GS
[0.60127 0 0 0.60127 0 0.20001] CT
1 LJ
2.5 LW
N
248 163.546 M
297.997 163.546 L
S
GR
GS
[0.60127 0 0 0.60127 164.14598 98.5357] CT
10.0 ML
2.5 LW
N
-5 0 M
0 6.65 L
5 0 L
0 -6.65 L
cp
S
GR
GS
[0.60127 0 0 0.60127 0 0.20001] CT
0.149 GC
10.0 ML
0.833 LW
N
243 178 M
243 100 L
418 100 L
418 178 L
cp
S
GR
%%Trailer
%%Pages: 1
%%EOF
