%!PS-Adobe-3.0 EPSF-3.0
%%Creator: (MATLAB, The Mathworks, Inc. Version 9.2.0.538062 \(R2017a\). Operating System: Windows 8)
%%Title: C:/Users/chees/Documents/DottoratoLoc/GNSS/authProtocol/latex/figures/secretCapacity.eps
%%CreationDate: 2017-10-16T13:47:04
%%Pages: (atend)
%%BoundingBox: 0 0 568 567
%%LanguageLevel: 3
%%EndComments
%%BeginProlog
%%BeginResource: procset (Apache XML Graphics Std ProcSet) 1.2 0
%%Version: 1.2 0
%%Copyright: (Copyright 2001-2003,2010 The Apache Software Foundation. License terms: http://www.apache.org/licenses/LICENSE-2.0)
/bd{bind def}bind def
/ld{load def}bd
/GR/grestore ld
/M/moveto ld
/LJ/setlinejoin ld
/C/curveto ld
/f/fill ld
/LW/setlinewidth ld
/GC/setgray ld
/t/show ld
/N/newpath ld
/CT/concat ld
/cp/closepath ld
/S/stroke ld
/L/lineto ld
/CC/setcmykcolor ld
/A/ashow ld
/GS/gsave ld
/RC/setrgbcolor ld
/RM/rmoveto ld
/ML/setmiterlimit ld
/re {4 2 roll M
1 index 0 rlineto
0 exch rlineto
neg 0 rlineto
cp } bd
/_ctm matrix def
/_tm matrix def
/BT { _ctm currentmatrix pop matrix _tm copy pop 0 0 moveto } bd
/ET { _ctm setmatrix } bd
/iTm { _ctm setmatrix _tm concat } bd
/Tm { _tm astore pop iTm 0 0 moveto } bd
/ux 0.0 def
/uy 0.0 def
/F {
  /Tp exch def
  /Tf exch def
  Tf findfont Tp scalefont setfont
  /cf Tf def  /cs Tp def
} bd
/ULS {currentpoint /uy exch def /ux exch def} bd
/ULE {
  /Tcx currentpoint pop def
  gsave
  newpath
  cf findfont cs scalefont dup
  /FontMatrix get 0 get /Ts exch def /FontInfo get dup
  /UnderlinePosition get Ts mul /To exch def
  /UnderlineThickness get Ts mul /Tt exch def
  ux uy To add moveto  Tcx uy To add lineto
  Tt setlinewidth stroke
  grestore
} bd
/OLE {
  /Tcx currentpoint pop def
  gsave
  newpath
  cf findfont cs scalefont dup
  /FontMatrix get 0 get /Ts exch def /FontInfo get dup
  /UnderlinePosition get Ts mul /To exch def
  /UnderlineThickness get Ts mul /Tt exch def
  ux uy To add cs add moveto Tcx uy To add cs add lineto
  Tt setlinewidth stroke
  grestore
} bd
/SOE {
  /Tcx currentpoint pop def
  gsave
  newpath
  cf findfont cs scalefont dup
  /FontMatrix get 0 get /Ts exch def /FontInfo get dup
  /UnderlinePosition get Ts mul /To exch def
  /UnderlineThickness get Ts mul /Tt exch def
  ux uy To add cs 10 mul 26 idiv add moveto Tcx uy To add cs 10 mul 26 idiv add lineto
  Tt setlinewidth stroke
  grestore
} bd
/QT {
/Y22 exch store
/X22 exch store
/Y21 exch store
/X21 exch store
currentpoint
/Y21 load 2 mul add 3 div exch
/X21 load 2 mul add 3 div exch
/X21 load 2 mul /X22 load add 3 div
/Y21 load 2 mul /Y22 load add 3 div
/X22 load /Y22 load curveto
} bd
/SSPD {
dup length /d exch dict def
{
/v exch def
/k exch def
currentpagedevice k known {
/cpdv currentpagedevice k get def
v cpdv ne {
/upd false def
/nullv v type /nulltype eq def
/nullcpdv cpdv type /nulltype eq def
nullv nullcpdv or
{
/upd true def
} {
/sametype v type cpdv type eq def
sametype {
v type /arraytype eq {
/vlen v length def
/cpdvlen cpdv length def
vlen cpdvlen eq {
0 1 vlen 1 sub {
/i exch def
/obj v i get def
/cpdobj cpdv i get def
obj cpdobj ne {
/upd true def
exit
} if
} for
} {
/upd true def
} ifelse
} {
v type /dicttype eq {
v {
/dv exch def
/dk exch def
/cpddv cpdv dk get def
dv cpddv ne {
/upd true def
exit
} if
} forall
} {
/upd true def
} ifelse
} ifelse
} if
} ifelse
upd true eq {
d k v put
} if
} if
} if
} forall
d length 0 gt {
d setpagedevice
} if
} bd
/RE { % /NewFontName [NewEncodingArray] /FontName RE -
  findfont dup length dict begin
  {
    1 index /FID ne
    {def} {pop pop} ifelse
  } forall
  /Encoding exch def
  /FontName 1 index def
  currentdict definefont pop
  end
} bind def
%%EndResource
%%BeginResource: procset (Apache XML Graphics EPS ProcSet) 1.0 0
%%Version: 1.0 0
%%Copyright: (Copyright 2002-2003 The Apache Software Foundation. License terms: http://www.apache.org/licenses/LICENSE-2.0)
/BeginEPSF { %def
/b4_Inc_state save def         % Save state for cleanup
/dict_count countdictstack def % Count objects on dict stack
/op_count count 1 sub def      % Count objects on operand stack
userdict begin                 % Push userdict on dict stack
/showpage { } def              % Redefine showpage, { } = null proc
0 setgray 0 setlinecap         % Prepare graphics state
1 setlinewidth 0 setlinejoin
10 setmiterlimit [ ] 0 setdash newpath
/languagelevel where           % If level not equal to 1 then
{pop languagelevel             % set strokeadjust and
1 ne                           % overprint to their defaults.
{false setstrokeadjust false setoverprint
} if
} if
} bd
/EndEPSF { %def
count op_count sub {pop} repeat            % Clean up stacks
countdictstack dict_count sub {end} repeat
b4_Inc_state restore
} bd
%%EndResource
%FOPBeginFontDict
%%IncludeResource: font Courier-Bold
%%IncludeResource: font Helvetica
%%IncludeResource: font Courier-BoldOblique
%%IncludeResource: font Courier-Oblique
%%IncludeResource: font Times-Roman
%%IncludeResource: font Helvetica-BoldOblique
%%IncludeResource: font Helvetica-Bold
%%IncludeResource: font Helvetica-Oblique
%%IncludeResource: font Times-BoldItalic
%%IncludeResource: font Courier
%%IncludeResource: font Times-Italic
%%IncludeResource: font Times-Bold
%%IncludeResource: font Symbol
%%IncludeResource: font ZapfDingbats
%FOPEndFontDict
%%BeginResource: encoding WinAnsiEncoding
/WinAnsiEncoding [
/.notdef /.notdef /.notdef /.notdef /.notdef
/.notdef /.notdef /.notdef /.notdef /.notdef
/.notdef /.notdef /.notdef /.notdef /.notdef
/.notdef /.notdef /.notdef /.notdef /.notdef
/.notdef /.notdef /.notdef /.notdef /.notdef
/.notdef /.notdef /.notdef /.notdef /.notdef
/.notdef /.notdef /space /exclam /quotedbl
/numbersign /dollar /percent /ampersand /quotesingle
/parenleft /parenright /asterisk /plus /comma
/hyphen /period /slash /zero /one
/two /three /four /five /six
/seven /eight /nine /colon /semicolon
/less /equal /greater /question /at
/A /B /C /D /E
/F /G /H /I /J
/K /L /M /N /O
/P /Q /R /S /T
/U /V /W /X /Y
/Z /bracketleft /backslash /bracketright /asciicircum
/underscore /quoteleft /a /b /c
/d /e /f /g /h
/i /j /k /l /m
/n /o /p /q /r
/s /t /u /v /w
/x /y /z /braceleft /bar
/braceright /asciitilde /bullet /Euro /bullet
/quotesinglbase /florin /quotedblbase /ellipsis /dagger
/daggerdbl /circumflex /perthousand /Scaron /guilsinglleft
/OE /bullet /Zcaron /bullet /bullet
/quoteleft /quoteright /quotedblleft /quotedblright /bullet
/endash /emdash /asciitilde /trademark /scaron
/guilsinglright /oe /bullet /zcaron /Ydieresis
/space /exclamdown /cent /sterling /currency
/yen /brokenbar /section /dieresis /copyright
/ordfeminine /guillemotleft /logicalnot /sfthyphen /registered
/macron /degree /plusminus /twosuperior /threesuperior
/acute /mu /paragraph /middot /cedilla
/onesuperior /ordmasculine /guillemotright /onequarter /onehalf
/threequarters /questiondown /Agrave /Aacute /Acircumflex
/Atilde /Adieresis /Aring /AE /Ccedilla
/Egrave /Eacute /Ecircumflex /Edieresis /Igrave
/Iacute /Icircumflex /Idieresis /Eth /Ntilde
/Ograve /Oacute /Ocircumflex /Otilde /Odieresis
/multiply /Oslash /Ugrave /Uacute /Ucircumflex
/Udieresis /Yacute /Thorn /germandbls /agrave
/aacute /acircumflex /atilde /adieresis /aring
/ae /ccedilla /egrave /eacute /ecircumflex
/edieresis /igrave /iacute /icircumflex /idieresis
/eth /ntilde /ograve /oacute /ocircumflex
/otilde /odieresis /divide /oslash /ugrave
/uacute /ucircumflex /udieresis /yacute /thorn
/ydieresis
] def
%%EndResource
%FOPBeginFontReencode
/Courier-Bold findfont
dup length dict begin
  {1 index /FID ne {def} {pop pop} ifelse} forall
  /Encoding WinAnsiEncoding def
  currentdict
end
/Courier-Bold exch definefont pop
/Helvetica findfont
dup length dict begin
  {1 index /FID ne {def} {pop pop} ifelse} forall
  /Encoding WinAnsiEncoding def
  currentdict
end
/Helvetica exch definefont pop
/Courier-BoldOblique findfont
dup length dict begin
  {1 index /FID ne {def} {pop pop} ifelse} forall
  /Encoding WinAnsiEncoding def
  currentdict
end
/Courier-BoldOblique exch definefont pop
/Courier-Oblique findfont
dup length dict begin
  {1 index /FID ne {def} {pop pop} ifelse} forall
  /Encoding WinAnsiEncoding def
  currentdict
end
/Courier-Oblique exch definefont pop
/Times-Roman findfont
dup length dict begin
  {1 index /FID ne {def} {pop pop} ifelse} forall
  /Encoding WinAnsiEncoding def
  currentdict
end
/Times-Roman exch definefont pop
/Helvetica-BoldOblique findfont
dup length dict begin
  {1 index /FID ne {def} {pop pop} ifelse} forall
  /Encoding WinAnsiEncoding def
  currentdict
end
/Helvetica-BoldOblique exch definefont pop
/Helvetica-Bold findfont
dup length dict begin
  {1 index /FID ne {def} {pop pop} ifelse} forall
  /Encoding WinAnsiEncoding def
  currentdict
end
/Helvetica-Bold exch definefont pop
/Helvetica-Oblique findfont
dup length dict begin
  {1 index /FID ne {def} {pop pop} ifelse} forall
  /Encoding WinAnsiEncoding def
  currentdict
end
/Helvetica-Oblique exch definefont pop
/Times-BoldItalic findfont
dup length dict begin
  {1 index /FID ne {def} {pop pop} ifelse} forall
  /Encoding WinAnsiEncoding def
  currentdict
end
/Times-BoldItalic exch definefont pop
/Courier findfont
dup length dict begin
  {1 index /FID ne {def} {pop pop} ifelse} forall
  /Encoding WinAnsiEncoding def
  currentdict
end
/Courier exch definefont pop
/Times-Italic findfont
dup length dict begin
  {1 index /FID ne {def} {pop pop} ifelse} forall
  /Encoding WinAnsiEncoding def
  currentdict
end
/Times-Italic exch definefont pop
/Times-Bold findfont
dup length dict begin
  {1 index /FID ne {def} {pop pop} ifelse} forall
  /Encoding WinAnsiEncoding def
  currentdict
end
/Times-Bold exch definefont pop
%FOPEndFontReencode
%%EndProlog
%%Page: 1 1
%%PageBoundingBox: 0 0 568 567
%%BeginPageSetup
[1 0 0 -1 0 567] CT
%%EndPageSetup
GS
[0.6 0 0 0.6 0 0] CT
N
0 0 M
946 0 L
946 945 L
0 945 L
0 0 L
cp
clip
1 GC
N
0 0 946 945 re
f
GR
GS
[0.6 0 0 0.6 0 0] CT
1 GC
N
0 0 946 945 re
f
GR
GS
[0.6 0 0 0.6 0 0] CT
1 GC
N
123 822.5 M
856 822.5 L
856 89.5 L
123 89.5 L
cp
f
GR
GS
[0.6 0 0 0.6 0 0] CT
0.873 GC
1 LJ
0.833 LW
N
138.935 822.5 M
138.935 89.5 L
S
GR
GS
[0.6 0 0 0.6 0 0] CT
0.873 GC
1 LJ
0.833 LW
N
218.609 822.5 M
218.609 89.5 L
S
GR
GS
[0.6 0 0 0.6 0 0] CT
0.873 GC
1 LJ
0.833 LW
N
298.283 822.5 M
298.283 89.5 L
S
GR
GS
[0.6 0 0 0.6 0 0] CT
0.873 GC
1 LJ
0.833 LW
N
377.957 822.5 M
377.957 89.5 L
S
GR
GS
[0.6 0 0 0.6 0 0] CT
0.873 GC
1 LJ
0.833 LW
N
457.63 822.5 M
457.63 89.5 L
S
GR
GS
[0.6 0 0 0.6 0 0] CT
0.873 GC
1 LJ
0.833 LW
N
537.304 822.5 M
537.304 89.5 L
S
GR
GS
[0.6 0 0 0.6 0 0] CT
0.873 GC
1 LJ
0.833 LW
N
616.978 822.5 M
616.978 89.5 L
S
GR
GS
[0.6 0 0 0.6 0 0] CT
0.873 GC
1 LJ
0.833 LW
N
696.652 822.5 M
696.652 89.5 L
S
GR
GS
[0.6 0 0 0.6 0 0] CT
0.873 GC
1 LJ
0.833 LW
N
776.326 822.5 M
776.326 89.5 L
S
GR
GS
[0.6 0 0 0.6 0 0] CT
0.873 GC
1 LJ
0.833 LW
N
856 822.5 M
856 89.5 L
S
GR
GS
[0.6 0 0 0.6 0 0] CT
0.873 GC
1 LJ
0.833 LW
N
856 822.5 M
123 822.5 L
S
GR
GS
[0.6 0 0 0.6 0 0] CT
0.873 GC
1 LJ
0.833 LW
N
856 700.333 M
123 700.333 L
S
GR
GS
[0.6 0 0 0.6 0 0] CT
0.873 GC
1 LJ
0.833 LW
N
856 578.167 M
123 578.167 L
S
GR
GS
[0.6 0 0 0.6 0 0] CT
0.873 GC
1 LJ
0.833 LW
N
856 456 M
123 456 L
S
GR
GS
[0.6 0 0 0.6 0 0] CT
0.873 GC
1 LJ
0.833 LW
N
856 333.833 M
123 333.833 L
S
GR
GS
[0.6 0 0 0.6 0 0] CT
0.873 GC
1 LJ
0.833 LW
N
856 211.667 M
123 211.667 L
S
GR
GS
[0.6 0 0 0.6 0 0] CT
0.873 GC
1 LJ
0.833 LW
N
856 89.5 M
123 89.5 L
S
GR
GS
[0.6 0 0 0.6 0 0] CT
0.149 GC
2 setlinecap
1 LJ
0.833 LW
N
123 822.5 M
856 822.5 L
S
GR
GS
[0.6 0 0 0.6 0 0] CT
0.149 GC
2 setlinecap
1 LJ
0.833 LW
N
123 89.5 M
856 89.5 L
S
GR
GS
[0.6 0 0 0.6 0 0] CT
0.149 GC
2 setlinecap
1 LJ
0.833 LW
N
138.935 822.5 M
138.935 815.17 L
S
GR
GS
[0.6 0 0 0.6 0 0] CT
0.149 GC
2 setlinecap
1 LJ
0.833 LW
N
218.609 822.5 M
218.609 815.17 L
S
GR
GS
[0.6 0 0 0.6 0 0] CT
0.149 GC
2 setlinecap
1 LJ
0.833 LW
N
298.283 822.5 M
298.283 815.17 L
S
GR
GS
[0.6 0 0 0.6 0 0] CT
0.149 GC
2 setlinecap
1 LJ
0.833 LW
N
377.957 822.5 M
377.957 815.17 L
S
GR
GS
[0.6 0 0 0.6 0 0] CT
0.149 GC
2 setlinecap
1 LJ
0.833 LW
N
457.63 822.5 M
457.63 815.17 L
S
GR
GS
[0.6 0 0 0.6 0 0] CT
0.149 GC
2 setlinecap
1 LJ
0.833 LW
N
537.304 822.5 M
537.304 815.17 L
S
GR
GS
[0.6 0 0 0.6 0 0] CT
0.149 GC
2 setlinecap
1 LJ
0.833 LW
N
616.978 822.5 M
616.978 815.17 L
S
GR
GS
[0.6 0 0 0.6 0 0] CT
0.149 GC
2 setlinecap
1 LJ
0.833 LW
N
696.652 822.5 M
696.652 815.17 L
S
GR
GS
[0.6 0 0 0.6 0 0] CT
0.149 GC
2 setlinecap
1 LJ
0.833 LW
N
776.326 822.5 M
776.326 815.17 L
S
GR
GS
[0.6 0 0 0.6 0 0] CT
0.149 GC
2 setlinecap
1 LJ
0.833 LW
N
856 822.5 M
856 815.17 L
S
GR
GS
[0.6 0 0 0.6 0 0] CT
0.149 GC
2 setlinecap
1 LJ
0.833 LW
N
138.935 89.5 M
138.935 96.83 L
S
GR
GS
[0.6 0 0 0.6 0 0] CT
0.149 GC
2 setlinecap
1 LJ
0.833 LW
N
218.609 89.5 M
218.609 96.83 L
S
GR
GS
[0.6 0 0 0.6 0 0] CT
0.149 GC
2 setlinecap
1 LJ
0.833 LW
N
298.283 89.5 M
298.283 96.83 L
S
GR
GS
[0.6 0 0 0.6 0 0] CT
0.149 GC
2 setlinecap
1 LJ
0.833 LW
N
377.957 89.5 M
377.957 96.83 L
S
GR
GS
[0.6 0 0 0.6 0 0] CT
0.149 GC
2 setlinecap
1 LJ
0.833 LW
N
457.63 89.5 M
457.63 96.83 L
S
GR
GS
[0.6 0 0 0.6 0 0] CT
0.149 GC
2 setlinecap
1 LJ
0.833 LW
N
537.304 89.5 M
537.304 96.83 L
S
GR
GS
[0.6 0 0 0.6 0 0] CT
0.149 GC
2 setlinecap
1 LJ
0.833 LW
N
616.978 89.5 M
616.978 96.83 L
S
GR
GS
[0.6 0 0 0.6 0 0] CT
0.149 GC
2 setlinecap
1 LJ
0.833 LW
N
696.652 89.5 M
696.652 96.83 L
S
GR
GS
[0.6 0 0 0.6 0 0] CT
0.149 GC
2 setlinecap
1 LJ
0.833 LW
N
776.326 89.5 M
776.326 96.83 L
S
GR
GS
[0.6 0 0 0.6 0 0] CT
0.149 GC
2 setlinecap
1 LJ
0.833 LW
N
856 89.5 M
856 96.83 L
S
GR
GS
[0.6 0 0 0.6 83.36087 498.3] CT
0.149 GC
/Helvetica 23.333 F
GS
[1 0 0 1 0 0] CT
-17 24 moveto 
1 -1 scale
(-15) t 
GR
GR
GS
[0.6 0 0 0.6 131.16521 498.3] CT
0.149 GC
/Helvetica 23.333 F
GS
[1 0 0 1 0 0] CT
-17 24 moveto 
1 -1 scale
(-10) t 
GR
GR
GS
[0.6 0 0 0.6 178.96957 498.3] CT
0.149 GC
/Helvetica 23.333 F
GS
[1 0 0 1 0 0] CT
-10.5 24 moveto 
1 -1 scale
(-5) t 
GR
GR
GS
[0.6 0 0 0.6 226.7739 498.3] CT
0.149 GC
/Helvetica 23.333 F
GS
[1 0 0 1 0 0] CT
-6.5 24 moveto 
1 -1 scale
(0) t 
GR
GR
GS
[0.6 0 0 0.6 274.57825 498.3] CT
0.149 GC
/Helvetica 23.333 F
GS
[1 0 0 1 0 0] CT
-6.5 24 moveto 
1 -1 scale
(5) t 
GR
GR
GS
[0.6 0 0 0.6 322.38258 498.3] CT
0.149 GC
/Helvetica 23.333 F
GS
[1 0 0 1 0 0] CT
-13 24 moveto 
1 -1 scale
(10) t 
GR
GR
GS
[0.6 0 0 0.6 370.18695 498.3] CT
0.149 GC
/Helvetica 23.333 F
GS
[1 0 0 1 0 0] CT
-13 24 moveto 
1 -1 scale
(15) t 
GR
GR
GS
[0.6 0 0 0.6 417.99128 498.3] CT
0.149 GC
/Helvetica 23.333 F
GS
[1 0 0 1 0 0] CT
-13 24 moveto 
1 -1 scale
(20) t 
GR
GR
GS
[0.6 0 0 0.6 465.79565 498.3] CT
0.149 GC
/Helvetica 23.333 F
GS
[1 0 0 1 0 0] CT
-13 24 moveto 
1 -1 scale
(25) t 
GR
GR
GS
[0.6 0 0 0.6 513.59998 498.3] CT
0.149 GC
/Helvetica 23.333 F
GS
[1 0 0 1 0 0] CT
-13 24 moveto 
1 -1 scale
(30) t 
GR
GR
GS
[0.6 0 0 0.6 293.70019 517.30001] CT
0.149 GC
N
-17.851 28.375 M
-19.32 28.375 -20.453 27.672 QT
-21.586 26.969 -22.211 25.773 QT
-22.836 24.578 -22.836 23.156 QT
-22.836 21.625 -22.14 19.93 QT
-21.445 18.234 -20.242 16.836 QT
-19.039 15.437 -17.523 14.601 QT
-16.008 13.766 -14.414 13.766 QT
-6.101 13.766 L
-5.773 13.766 -5.531 13.992 QT
-5.289 14.219 -5.289 14.609 QT
-5.289 15.094 -5.633 15.453 QT
-5.976 15.812 -6.461 15.812 QT
-10.492 15.812 L
-9.539 17.234 -9.539 19.25 QT
-9.539 20.906 -10.179 22.516 QT
-10.82 24.125 -11.968 25.461 QT
-13.117 26.797 -14.64 27.586 QT
-16.164 28.375 -17.851 28.375 QT
cp
-17.82 27.5 M
-16.008 27.5 -14.617 26.094 QT
-13.226 24.687 -12.484 22.648 QT
-11.742 20.609 -11.742 18.859 QT
-11.742 17.453 -12.523 16.633 QT
-13.304 15.812 -14.711 15.812 QT
-16.633 15.812 -17.976 17.101 QT
-19.32 18.391 -19.984 20.344 QT
-20.648 22.297 -20.648 24.094 QT
-20.648 25.516 -19.906 26.508 QT
-19.164 27.5 -17.82 27.5 QT
cp
f
GR
GS
[0.6 0 0 0.6 293.70019 517.30001] CT
0.149 GC
N
-2.639 15.903 M
-2.639 15.278 L
-2.639 15.232 -2.593 15.169 QT
0.986 11.216 L
1.798 10.325 2.298 9.732 QT
2.798 9.138 3.29 8.364 QT
3.782 7.591 4.071 6.786 QT
4.361 5.982 4.361 5.091 QT
4.361 4.138 4.017 3.278 QT
3.673 2.419 2.978 1.903 QT
2.282 1.388 1.314 1.388 QT
0.314 1.388 -0.483 1.989 QT
-1.28 2.591 -1.608 3.544 QT
-1.53 3.528 -1.358 3.528 QT
-0.843 3.528 -0.483 3.872 QT
-0.124 4.216 -0.124 4.778 QT
-0.124 5.294 -0.483 5.661 QT
-0.843 6.028 -1.358 6.028 QT
-1.905 6.028 -2.272 5.653 QT
-2.639 5.278 -2.639 4.778 QT
-2.639 3.903 -2.311 3.146 QT
-1.983 2.388 -1.374 1.802 QT
-0.764 1.216 0.009 0.903 QT
0.782 0.591 1.642 0.591 QT
2.954 0.591 4.087 1.146 QT
5.22 1.7 5.884 2.716 QT
6.548 3.732 6.548 5.091 QT
6.548 6.091 6.111 6.989 QT
5.673 7.888 4.993 8.622 QT
4.314 9.357 3.243 10.286 QT
2.173 11.216 1.829 11.528 QT
-0.764 14.044 L
1.439 14.044 L
3.064 14.044 4.165 14.013 QT
5.267 13.982 5.329 13.919 QT
5.595 13.638 5.876 11.81 QT
6.548 11.81 L
5.907 15.903 L
-2.639 15.903 L
cp
f
GR
GS
[0.6 0 0 0.6 293.70019 517.30001] CT
0.149 GC
N
-2.492 33.569 M
-2.492 33.084 -2.367 32.459 QT
-2.242 31.834 -2.078 31.342 QT
-1.914 30.85 -1.539 29.842 QT
-1.164 28.834 -1.132 28.74 QT
-0.835 27.897 -0.835 27.35 QT
-0.835 26.678 -1.335 26.678 QT
-2.242 26.678 -2.835 27.615 QT
-3.429 28.553 -3.71 29.709 QT
-3.757 29.85 -3.898 29.85 QT
-4.164 29.85 L
-4.351 29.85 -4.351 29.631 QT
-4.351 29.569 L
-3.992 28.194 -3.226 27.139 QT
-2.46 26.084 -1.289 26.084 QT
-0.476 26.084 0.094 26.623 QT
0.665 27.162 0.665 27.99 QT
0.665 28.412 0.477 28.881 QT
0.196 29.584 -0.164 30.561 QT
-0.523 31.537 -0.726 32.334 QT
-0.929 33.131 -0.929 33.865 QT
-0.929 34.772 -0.46 35.334 QT
0.008 35.897 0.915 35.897 QT
2.133 35.897 2.946 34.022 QT
2.915 33.897 2.915 33.647 QT
2.915 33.022 3.102 32.24 QT
4.383 27.069 L
4.461 26.756 4.743 26.537 QT
5.024 26.319 5.352 26.319 QT
5.633 26.319 5.836 26.498 QT
6.04 26.678 6.04 26.975 QT
6.04 27.115 6.024 27.162 QT
4.727 32.287 L
4.508 33.209 4.508 33.944 QT
4.508 34.803 4.907 35.35 QT
5.305 35.897 6.149 35.897 QT
7.633 35.897 8.586 33.944 QT
8.946 33.24 9.391 31.881 QT
9.836 30.522 9.836 29.803 QT
9.836 29.147 9.626 28.756 QT
9.415 28.365 9.04 27.92 QT
8.665 27.475 8.665 27.24 QT
8.665 26.803 9.04 26.428 QT
9.415 26.053 9.852 26.053 QT
10.415 26.053 10.657 26.561 QT
10.899 27.069 10.899 27.709 QT
10.899 28.475 10.641 29.67 QT
10.383 30.865 9.985 32.076 QT
9.586 33.287 9.243 34.006 QT
7.977 36.506 6.102 36.506 QT
5.149 36.506 4.352 36.131 QT
3.555 35.756 3.165 34.944 QT
2.79 35.615 2.188 36.061 QT
1.586 36.506 0.868 36.506 QT
-0.648 36.506 -1.57 35.779 QT
-2.492 35.053 -2.492 33.569 QT
cp
f
GR
GS
[0.6 0 0 0.6 293.70019 517.30001] CT
0.149 GC
N
13.966 27.343 M
13.763 27.343 13.614 27.179 QT
13.466 27.015 13.466 26.828 QT
13.466 26.531 13.7 26.422 QT
16.153 25.25 L
13.7 24.093 L
13.466 24 13.466 23.687 QT
13.466 23.5 13.614 23.336 QT
13.763 23.172 13.966 23.172 QT
14.091 23.172 14.185 23.25 QT
16.372 24.843 L
16.122 22.078 L
16.122 21.859 16.263 21.726 QT
16.403 21.593 16.607 21.593 QT
16.81 21.593 16.942 21.718 QT
17.075 21.843 17.075 22.031 QT
17.075 22.078 L
16.825 24.843 L
19.013 23.25 L
19.107 23.172 19.232 23.172 QT
19.45 23.172 19.591 23.336 QT
19.732 23.5 19.732 23.687 QT
19.732 24 19.497 24.093 QT
17.044 25.25 L
19.497 26.422 L
19.732 26.531 19.732 26.828 QT
19.732 27.015 19.591 27.179 QT
19.45 27.343 19.232 27.343 QT
19.107 27.343 19.013 27.265 QT
16.825 25.672 L
17.075 28.422 L
17.075 28.484 L
17.075 28.672 16.935 28.797 QT
16.794 28.922 16.607 28.922 QT
16.403 28.922 16.263 28.781 QT
16.122 28.64 16.122 28.453 QT
16.372 25.672 L
14.185 27.265 L
14.091 27.343 13.966 27.343 QT
cp
f
GR
GS
[0.6 0 0 0.6 0 0] CT
0.149 GC
2 setlinecap
1 LJ
0.833 LW
N
123 822.5 M
123 89.5 L
S
GR
GS
[0.6 0 0 0.6 0 0] CT
0.149 GC
2 setlinecap
1 LJ
0.833 LW
N
856 822.5 M
856 89.5 L
S
GR
GS
[0.6 0 0 0.6 0 0] CT
0.149 GC
2 setlinecap
1 LJ
0.833 LW
N
123 822.5 M
130.33 822.5 L
S
GR
GS
[0.6 0 0 0.6 0 0] CT
0.149 GC
2 setlinecap
1 LJ
0.833 LW
N
123 700.333 M
130.33 700.333 L
S
GR
GS
[0.6 0 0 0.6 0 0] CT
0.149 GC
2 setlinecap
1 LJ
0.833 LW
N
123 578.167 M
130.33 578.167 L
S
GR
GS
[0.6 0 0 0.6 0 0] CT
0.149 GC
2 setlinecap
1 LJ
0.833 LW
N
123 456 M
130.33 456 L
S
GR
GS
[0.6 0 0 0.6 0 0] CT
0.149 GC
2 setlinecap
1 LJ
0.833 LW
N
123 333.833 M
130.33 333.833 L
S
GR
GS
[0.6 0 0 0.6 0 0] CT
0.149 GC
2 setlinecap
1 LJ
0.833 LW
N
123 211.667 M
130.33 211.667 L
S
GR
GS
[0.6 0 0 0.6 0 0] CT
0.149 GC
2 setlinecap
1 LJ
0.833 LW
N
123 89.5 M
130.33 89.5 L
S
GR
GS
[0.6 0 0 0.6 0 0] CT
0.149 GC
2 setlinecap
1 LJ
0.833 LW
N
856 822.5 M
848.67 822.5 L
S
GR
GS
[0.6 0 0 0.6 0 0] CT
0.149 GC
2 setlinecap
1 LJ
0.833 LW
N
856 700.333 M
848.67 700.333 L
S
GR
GS
[0.6 0 0 0.6 0 0] CT
0.149 GC
2 setlinecap
1 LJ
0.833 LW
N
856 578.167 M
848.67 578.167 L
S
GR
GS
[0.6 0 0 0.6 0 0] CT
0.149 GC
2 setlinecap
1 LJ
0.833 LW
N
856 456 M
848.67 456 L
S
GR
GS
[0.6 0 0 0.6 0 0] CT
0.149 GC
2 setlinecap
1 LJ
0.833 LW
N
856 333.833 M
848.67 333.833 L
S
GR
GS
[0.6 0 0 0.6 0 0] CT
0.149 GC
2 setlinecap
1 LJ
0.833 LW
N
856 211.667 M
848.67 211.667 L
S
GR
GS
[0.6 0 0 0.6 0 0] CT
0.149 GC
2 setlinecap
1 LJ
0.833 LW
N
856 89.5 M
848.67 89.5 L
S
GR
GS
[0.6 0 0 0.6 69 493.5] CT
0.149 GC
/Helvetica 23.333 F
GS
[1 0 0 1 0 0] CT
-13 9 moveto 
1 -1 scale
(0) t 
GR
GR
GS
[0.6 0 0 0.6 69 420.19999] CT
0.149 GC
/Helvetica 23.333 F
GS
[1 0 0 1 0 0] CT
-32 9 moveto 
1 -1 scale
(0.5) t 
GR
GR
GS
[0.6 0 0 0.6 69 346.90001] CT
0.149 GC
/Helvetica 23.333 F
GS
[1 0 0 1 0 0] CT
-13 9 moveto 
1 -1 scale
(1) t 
GR
GR
GS
[0.6 0 0 0.6 69 273.6] CT
0.149 GC
/Helvetica 23.333 F
GS
[1 0 0 1 0 0] CT
-32 9 moveto 
1 -1 scale
(1.5) t 
GR
GR
GS
[0.6 0 0 0.6 69 200.30001] CT
0.149 GC
/Helvetica 23.333 F
GS
[1 0 0 1 0 0] CT
-13 9 moveto 
1 -1 scale
(2) t 
GR
GR
GS
[0.6 0 0 0.6 69 127] CT
0.149 GC
/Helvetica 23.333 F
GS
[1 0 0 1 0 0] CT
-32 9 moveto 
1 -1 scale
(2.5) t 
GR
GR
GS
[0.6 0 0 0.6 69 53.7] CT
0.149 GC
/Helvetica 23.333 F
GS
[1 0 0 1 0 0] CT
-13 9 moveto 
1 -1 scale
(3) t 
GR
GR
GS
[0 -0.6 0.6 0 46.8 273.5998] CT
0.149 GC
N
-91.735 -19.125 M
-91.735 -17.141 -90.969 -15.633 QT
-90.204 -14.125 -88.743 -13.281 QT
-87.282 -12.438 -85.298 -12.438 QT
-83.219 -12.438 -81.298 -13.5 QT
-79.376 -14.563 -78.009 -16.344 QT
-76.641 -18.125 -76.141 -20.125 QT
-76.079 -20.313 -75.891 -20.313 QT
-75.485 -20.313 L
-75.36 -20.313 -75.282 -20.227 QT
-75.204 -20.141 -75.204 -20.031 QT
-75.204 -20 -75.235 -19.922 QT
-75.798 -17.641 -77.415 -15.633 QT
-79.032 -13.625 -81.29 -12.453 QT
-83.548 -11.281 -85.923 -11.281 QT
-88.501 -11.281 -90.548 -12.438 QT
-92.594 -13.594 -93.735 -15.656 QT
-94.876 -17.719 -94.876 -20.313 QT
-94.876 -23.094 -93.634 -25.805 QT
-92.391 -28.516 -90.298 -30.633 QT
-88.204 -32.75 -85.516 -34.008 QT
-82.829 -35.266 -80.079 -35.266 QT
-78.985 -35.266 -77.985 -34.938 QT
-76.985 -34.609 -76.134 -33.93 QT
-75.282 -33.25 -74.735 -32.375 QT
-72.126 -35.203 L
-72.126 -35.266 -71.954 -35.266 QT
-71.766 -35.266 L
-71.641 -35.266 -71.555 -35.156 QT
-71.469 -35.047 -71.469 -34.922 QT
-73.719 -26.016 L
-73.719 -25.797 -73.969 -25.797 QT
-74.563 -25.797 L
-74.829 -25.797 -74.829 -26.156 QT
-74.704 -26.891 -74.704 -27.906 QT
-74.704 -29.516 -75.251 -30.945 QT
-75.798 -32.375 -76.946 -33.242 QT
-78.094 -34.109 -79.751 -34.109 QT
-82.454 -34.109 -84.688 -32.758 QT
-86.923 -31.406 -88.477 -29.203 QT
-90.032 -27 -90.884 -24.32 QT
-91.735 -21.641 -91.735 -19.125 QT
cp
f
GR
GS
[0 -0.6 0.6 0 46.8 273.5998] CT
0.149 GC
N
-70.724 -8.406 M
-70.114 -7.344 -68.239 -7.344 QT
-67.427 -7.344 -66.7 -7.625 QT
-65.974 -7.906 -65.497 -8.453 QT
-65.02 -9 -65.02 -9.781 QT
-65.02 -10.375 -65.45 -10.758 QT
-65.88 -11.141 -66.489 -11.281 QT
-67.739 -11.531 L
-68.583 -11.735 -69.138 -12.32 QT
-69.692 -12.906 -69.692 -13.735 QT
-69.692 -14.766 -69.138 -15.547 QT
-68.583 -16.328 -67.669 -16.742 QT
-66.755 -17.156 -65.786 -17.156 QT
-64.739 -17.156 -63.911 -16.664 QT
-63.083 -16.172 -63.083 -15.188 QT
-63.083 -14.656 -63.38 -14.25 QT
-63.677 -13.844 -64.208 -13.844 QT
-64.52 -13.844 -64.739 -14.047 QT
-64.958 -14.25 -64.958 -14.547 QT
-64.958 -14.813 -64.802 -15.07 QT
-64.645 -15.328 -64.395 -15.477 QT
-64.145 -15.625 -63.88 -15.625 QT
-64.083 -16.125 -64.638 -16.344 QT
-65.192 -16.563 -65.833 -16.563 QT
-66.411 -16.563 -66.997 -16.328 QT
-67.583 -16.094 -67.934 -15.641 QT
-68.286 -15.188 -68.286 -14.563 QT
-68.286 -14.156 -67.997 -13.844 QT
-67.708 -13.531 -67.27 -13.391 QT
-65.942 -13.125 L
-65.302 -12.985 -64.77 -12.641 QT
-64.239 -12.297 -63.927 -11.774 QT
-63.614 -11.25 -63.614 -10.578 QT
-63.614 -9.735 -64.091 -8.899 QT
-64.567 -8.063 -65.27 -7.578 QT
-66.489 -6.735 -68.27 -6.735 QT
-69.489 -6.735 -70.513 -7.297 QT
-71.536 -7.86 -71.536 -8.985 QT
-71.536 -9.61 -71.169 -10.07 QT
-70.802 -10.531 -70.177 -10.531 QT
-69.802 -10.531 -69.552 -10.313 QT
-69.302 -10.094 -69.302 -9.719 QT
-69.302 -9.188 -69.692 -8.797 QT
-70.083 -8.406 -70.614 -8.406 QT
-70.724 -8.406 L
cp
f
GR
GS
[0 -0.6 0.6 0 46.8 273.5998] CT
0.149 GC
N
-45.102 -3.75 M
-45.102 -36.75 L
-40.602 -36.75 L
-40.602 -35.422 L
-43.79 -35.422 L
-43.79 -5.078 L
-40.602 -5.078 L
-40.602 -3.75 L
-45.102 -3.75 L
cp
f
GR
GS
[0 -0.6 0.6 0 46.8 273.5998] CT
0.149 GC
N
-36.311 -12 M
-36.311 -31.531 L
-36.311 -32.422 -36.577 -32.813 QT
-36.843 -33.203 -37.343 -33.289 QT
-37.843 -33.375 -38.89 -33.375 QT
-38.89 -34.547 L
-34.015 -34.891 L
-34.015 -24.563 L
-33.468 -25.188 -32.733 -25.641 QT
-31.999 -26.094 -31.163 -26.336 QT
-30.327 -26.578 -29.452 -26.578 QT
-27.968 -26.578 -26.702 -25.984 QT
-25.436 -25.391 -24.507 -24.344 QT
-23.577 -23.297 -23.054 -21.938 QT
-22.53 -20.578 -22.53 -19.125 QT
-22.53 -17.125 -23.499 -15.399 QT
-24.468 -13.672 -26.155 -12.649 QT
-27.843 -11.625 -29.858 -11.625 QT
-31.108 -11.625 -32.288 -12.274 QT
-33.468 -12.922 -34.233 -13.984 QT
-35.358 -12 L
-36.311 -12 L
cp
-33.921 -15.234 M
-33.374 -14.031 -32.343 -13.266 QT
-31.311 -12.5 -30.046 -12.5 QT
-28.343 -12.5 -27.288 -13.484 QT
-26.233 -14.469 -25.811 -15.969 QT
-25.39 -17.469 -25.39 -19.125 QT
-25.39 -21.906 -26.124 -23.359 QT
-26.436 -24 -26.991 -24.547 QT
-27.546 -25.094 -28.233 -25.414 QT
-28.921 -25.734 -29.671 -25.734 QT
-30.999 -25.734 -32.124 -25.031 QT
-33.249 -24.328 -33.921 -23.156 QT
-33.921 -15.234 L
cp
f
GR
GS
[0 -0.6 0.6 0 46.8 273.5998] CT
0.149 GC
N
-20.215 -12 M
-20.215 -13.156 L
-19.09 -13.156 -18.363 -13.336 QT
-17.637 -13.516 -17.637 -14.203 QT
-17.637 -23.219 L
-17.637 -24.484 -18.129 -24.774 QT
-18.621 -25.063 -20.074 -25.063 QT
-20.074 -26.234 L
-15.324 -26.578 L
-15.324 -14.203 L
-15.324 -13.516 -14.691 -13.336 QT
-14.059 -13.156 -13.012 -13.156 QT
-13.012 -12 L
-20.215 -12 L
cp
-18.809 -32.25 M
-18.809 -32.984 -18.262 -33.531 QT
-17.715 -34.078 -17.012 -34.078 QT
-16.543 -34.078 -16.105 -33.836 QT
-15.668 -33.594 -15.426 -33.156 QT
-15.184 -32.719 -15.184 -32.25 QT
-15.184 -31.547 -15.73 -31 QT
-16.277 -30.453 -17.012 -30.453 QT
-17.715 -30.453 -18.262 -31 QT
-18.809 -31.547 -18.809 -32.25 QT
cp
f
GR
GS
[0 -0.6 0.6 0 46.8 273.5998] CT
0.149 GC
N
-8.596 -15.969 M
-8.596 -25.063 L
-11.346 -25.063 L
-11.346 -25.922 L
-9.19 -25.922 -8.174 -27.938 QT
-7.159 -29.953 -7.159 -32.297 QT
-6.206 -32.297 L
-6.206 -26.234 L
-1.549 -26.234 L
-1.549 -25.063 L
-6.206 -25.063 L
-6.206 -16.031 L
-6.206 -14.656 -5.745 -13.625 QT
-5.284 -12.594 -4.096 -12.594 QT
-2.971 -12.594 -2.471 -13.68 QT
-1.971 -14.766 -1.971 -16.031 QT
-1.971 -17.984 L
-1.018 -17.984 L
-1.018 -15.969 L
-1.018 -14.938 -1.393 -13.93 QT
-1.768 -12.922 -2.51 -12.274 QT
-3.252 -11.625 -4.315 -11.625 QT
-6.299 -11.625 -7.448 -12.813 QT
-8.596 -14 -8.596 -15.969 QT
cp
f
GR
GS
[0 -0.6 0.6 0 46.8 273.5998] CT
0.149 GC
N
2.851 -4.406 M
2.851 -4.5 2.882 -4.547 QT
14.351 -36.344 L
14.414 -36.547 14.578 -36.649 QT
14.742 -36.75 14.945 -36.75 QT
15.242 -36.75 15.422 -36.57 QT
15.601 -36.391 15.601 -36.094 QT
15.601 -35.953 L
4.132 -4.156 L
3.945 -3.75 3.507 -3.75 QT
3.226 -3.75 3.039 -3.945 QT
2.851 -4.141 2.851 -4.406 QT
cp
f
GR
GS
[0 -0.6 0.6 0 46.8 273.5998] CT
0.149 GC
N
18.752 -11.906 M
18.752 -17.281 L
18.752 -17.547 19.049 -17.547 QT
19.44 -17.547 L
19.643 -17.547 19.705 -17.281 QT
20.627 -12.5 24.159 -12.5 QT
25.721 -12.5 26.776 -13.211 QT
27.83 -13.922 27.83 -15.406 QT
27.83 -16.469 27.01 -17.219 QT
26.19 -17.969 25.049 -18.234 QT
22.846 -18.672 L
21.737 -18.906 20.823 -19.406 QT
19.909 -19.906 19.33 -20.742 QT
18.752 -21.578 18.752 -22.672 QT
18.752 -24.125 19.518 -25.047 QT
20.284 -25.969 21.51 -26.383 QT
22.737 -26.797 24.159 -26.797 QT
25.846 -26.797 27.096 -25.891 QT
28.049 -26.719 L
28.049 -26.797 28.205 -26.797 QT
28.455 -26.797 L
28.549 -26.797 28.627 -26.703 QT
28.705 -26.609 28.705 -26.516 QT
28.705 -22.203 L
28.705 -21.891 28.455 -21.891 QT
28.049 -21.891 L
27.768 -21.891 27.768 -22.203 QT
27.768 -23.922 26.807 -24.969 QT
25.846 -26.016 24.127 -26.016 QT
22.643 -26.016 21.549 -25.469 QT
20.455 -24.922 20.455 -23.578 QT
20.455 -22.672 21.237 -22.078 QT
22.018 -21.484 23.08 -21.234 QT
25.315 -20.813 L
26.44 -20.563 27.416 -19.945 QT
28.393 -19.328 28.963 -18.399 QT
29.534 -17.469 29.534 -16.281 QT
29.534 -15.094 29.12 -14.219 QT
28.705 -13.344 27.979 -12.758 QT
27.252 -12.172 26.252 -11.899 QT
25.252 -11.625 24.159 -11.625 QT
22.096 -11.625 20.627 -13.016 QT
19.409 -11.703 L
19.409 -11.625 19.237 -11.625 QT
19.049 -11.625 L
18.752 -11.625 18.752 -11.906 QT
cp
f
GR
GS
[0 -0.6 0.6 0 46.8 273.5998] CT
0.149 GC
N
32.666 -4.406 M
32.666 -4.5 32.697 -4.547 QT
44.166 -36.344 L
44.229 -36.547 44.393 -36.649 QT
44.557 -36.75 44.76 -36.75 QT
45.057 -36.75 45.236 -36.57 QT
45.416 -36.391 45.416 -36.094 QT
45.416 -35.953 L
33.947 -4.156 L
33.76 -3.75 33.322 -3.75 QT
33.041 -3.75 32.854 -3.945 QT
32.666 -4.141 32.666 -4.406 QT
cp
f
GR
GS
[0 -0.6 0.6 0 46.8 273.5998] CT
0.149 GC
N
48.489 -12 M
48.489 -13.156 L
51.895 -13.156 51.895 -14.203 QT
51.895 -32.328 L
51.895 -33.375 48.489 -33.375 QT
48.489 -34.547 L
58.364 -34.547 L
58.364 -33.375 L
54.973 -33.375 54.973 -32.328 QT
54.973 -24.313 L
64.692 -24.313 L
64.692 -32.328 L
64.692 -33.375 61.302 -33.375 QT
61.302 -34.547 L
71.161 -34.547 L
71.161 -33.375 L
67.77 -33.375 67.77 -32.328 QT
67.77 -14.203 L
67.77 -13.156 71.161 -13.156 QT
71.161 -12 L
61.302 -12 L
61.302 -13.156 L
64.692 -13.156 64.692 -14.203 QT
64.692 -23.156 L
54.973 -23.156 L
54.973 -14.203 L
54.973 -13.156 58.364 -13.156 QT
58.364 -12 L
48.489 -12 L
cp
f
GR
GS
[0 -0.6 0.6 0 46.8 273.5998] CT
0.149 GC
N
73.77 -12 M
73.395 -12 73.395 -12.375 QT
73.395 -12.625 L
73.395 -12.75 73.489 -12.859 QT
82.708 -25.359 L
79.739 -25.359 L
78.333 -25.359 77.427 -25.18 QT
76.52 -25 75.934 -24.508 QT
75.348 -24.016 75.083 -23.156 QT
74.817 -22.297 74.817 -20.781 QT
73.864 -20.781 L
74.223 -26.234 L
85.286 -26.234 L
85.427 -26.234 85.536 -26.125 QT
85.645 -26.016 85.645 -25.859 QT
85.645 -25.672 L
85.645 -25.563 85.567 -25.438 QT
76.348 -12.953 L
79.505 -12.953 L
80.927 -12.953 81.888 -13.133 QT
82.848 -13.313 83.52 -13.984 QT
84.161 -14.609 84.395 -15.672 QT
84.63 -16.734 84.755 -18.297 QT
85.708 -18.297 L
85.145 -12 L
73.77 -12 L
cp
f
GR
GS
[0 -0.6 0.6 0 46.8 273.5998] CT
0.149 GC
N
88.007 -3.75 M
88.007 -5.078 L
91.226 -5.078 L
91.226 -35.422 L
88.007 -35.422 L
88.007 -36.75 L
92.538 -36.75 L
92.538 -3.75 L
88.007 -3.75 L
cp
f
GR
GS
[0.6 0 0 0.6 0 0] CT
0 0.447 0.741 RC
1 LJ
2.5 LW
N
123 822.5 M
138.935 783.032 L
154.87 743.842 L
170.804 704.998 L
186.739 666.58 L
202.674 628.685 L
218.609 591.429 L
234.543 554.946 L
250.478 519.394 L
266.413 484.946 L
282.348 451.795 L
298.283 420.144 L
314.217 390.197 L
330.152 362.152 L
346.087 336.182 L
362.022 312.425 L
377.957 290.968 L
393.891 271.842 L
409.826 255.017 L
425.761 240.404 L
441.696 227.866 L
457.63 217.229 L
473.565 208.298 L
489.5 200.866 L
505.435 194.731 L
521.37 189.7 L
537.304 185.6 L
553.239 182.273 L
569.174 179.585 L
585.109 177.42 L
601.043 175.682 L
616.978 174.288 L
632.913 173.174 L
648.848 172.283 L
664.783 171.573 L
680.717 171.006 L
696.652 170.555 L
712.587 170.196 L
728.522 169.91 L
744.457 169.682 L
760.391 169.502 L
776.326 169.358 L
792.261 169.243 L
808.196 169.153 L
824.13 169.08 L
840.065 169.023 L
856 168.977 L
S
GR
GS
[0.6 0 0 0.6 0 0] CT
0.851 0.325 0.098 RC
1 LJ
2.5 LW
N
123 168.801 M
138.935 168.801 L
154.87 168.801 L
170.804 168.801 L
186.739 168.801 L
202.674 168.801 L
218.609 168.801 L
234.543 168.801 L
250.478 168.801 L
266.413 168.801 L
282.348 168.801 L
298.283 168.801 L
314.217 168.801 L
330.152 168.801 L
346.087 168.801 L
362.022 168.801 L
377.957 168.801 L
393.891 168.801 L
409.826 168.801 L
425.761 168.801 L
441.696 168.801 L
457.63 168.801 L
473.565 168.801 L
489.5 168.801 L
505.435 168.801 L
521.37 168.801 L
537.304 168.801 L
553.239 168.801 L
569.174 168.801 L
585.109 168.801 L
601.043 168.801 L
616.978 168.801 L
632.913 168.801 L
648.848 168.801 L
664.783 168.801 L
680.717 168.801 L
696.652 168.801 L
712.587 168.801 L
728.522 168.801 L
744.457 168.801 L
760.391 168.801 L
776.326 168.801 L
792.261 168.801 L
808.196 168.801 L
824.13 168.801 L
840.065 168.801 L
856 168.801 L
S
GR
GS
[0.6 0 0 0.6 0 0] CT
1 GC
N
592 321 M
592 255 L
842 255 L
842 321 L
cp
f
GR
GS
[0.6 0 0 0.6 390.36202 163.56] CT
N
1.406 6.359 M
1.406 0.516 L
1.406 0.328 1.625 0.328 QT
1.922 0.328 L
2 0.328 2.063 0.391 QT
2.125 0.453 2.125 0.516 QT
2.125 2.969 3.641 4.32 QT
5.156 5.672 7.625 5.672 QT
8.5 5.672 9.234 5.172 QT
9.969 4.672 10.375 3.859 QT
10.781 3.047 10.781 2.172 QT
10.781 1.422 10.477 0.711 QT
10.172 0 9.594 -0.531 QT
9.016 -1.063 8.297 -1.234 QT
5.047 -2.016 L
3.438 -2.453 2.422 -3.774 QT
1.406 -5.094 1.406 -6.75 QT
1.406 -8.031 2.063 -9.172 QT
2.719 -10.313 3.836 -10.969 QT
4.953 -11.625 6.25 -11.625 QT
8.75 -11.625 10.234 -9.938 QT
11.25 -11.547 L
11.328 -11.625 11.422 -11.625 QT
11.594 -11.625 L
11.672 -11.625 11.734 -11.57 QT
11.797 -11.516 11.797 -11.422 QT
11.797 -5.625 L
11.797 -5.406 11.594 -5.406 QT
11.297 -5.406 L
11.078 -5.406 11.078 -5.625 QT
11.078 -6.25 10.859 -7.008 QT
10.641 -7.766 10.266 -8.461 QT
9.891 -9.156 9.453 -9.594 QT
8.234 -10.828 6.25 -10.828 QT
5.391 -10.828 4.672 -10.391 QT
3.953 -9.953 3.523 -9.211 QT
3.094 -8.469 3.094 -7.641 QT
3.094 -6.578 3.766 -5.703 QT
4.438 -4.828 5.5 -4.547 QT
8.75 -3.75 L
9.563 -3.563 10.273 -3.055 QT
10.984 -2.547 11.461 -1.875 QT
11.938 -1.203 12.203 -0.375 QT
12.469 0.453 12.469 1.328 QT
12.469 2.672 11.852 3.875 QT
11.234 5.078 10.102 5.812 QT
8.969 6.547 7.625 6.547 QT
6.797 6.547 5.93 6.367 QT
5.063 6.187 4.328 5.805 QT
3.594 5.422 3 4.828 QT
1.953 6.469 L
1.875 6.547 1.766 6.547 QT
1.625 6.547 L
1.406 6.547 1.406 6.359 QT
cp
f
GR
GS
[0.6 0 0 0.6 390.36202 163.56] CT
N
20.108 6.281 M
18.592 6.281 17.319 5.484 QT
16.045 4.687 15.319 3.351 QT
14.592 2.016 14.592 0.516 QT
14.592 -0.953 15.256 -2.266 QT
15.92 -3.578 17.108 -4.391 QT
18.295 -5.203 19.764 -5.203 QT
20.905 -5.203 21.756 -4.82 QT
22.608 -4.438 23.155 -3.75 QT
23.701 -3.063 23.983 -2.141 QT
24.264 -1.219 24.264 -0.109 QT
24.264 0.219 24.014 0.219 QT
16.764 0.219 L
16.764 0.5 L
16.764 2.562 17.6 4.055 QT
18.436 5.547 20.342 5.547 QT
21.108 5.547 21.756 5.203 QT
22.405 4.859 22.889 4.25 QT
23.373 3.641 23.545 2.953 QT
23.576 2.859 23.639 2.797 QT
23.701 2.734 23.795 2.734 QT
24.014 2.734 L
24.264 2.734 24.264 3.047 QT
23.905 4.469 22.733 5.375 QT
21.561 6.281 20.108 6.281 QT
cp
16.795 -0.391 M
22.498 -0.391 L
22.498 -1.344 22.233 -2.305 QT
21.967 -3.266 21.358 -3.906 QT
20.748 -4.547 19.764 -4.547 QT
18.342 -4.547 17.569 -3.219 QT
16.795 -1.891 16.795 -0.391 QT
cp
f
GR
GS
[0.6 0 0 0.6 390.36202 163.56] CT
N
31.219 6.281 M
29.719 6.281 28.484 5.492 QT
27.25 4.703 26.539 3.391 QT
25.828 2.078 25.828 0.609 QT
25.828 -0.875 26.531 -2.227 QT
27.234 -3.578 28.477 -4.391 QT
29.719 -5.203 31.219 -5.203 QT
32.688 -5.203 33.891 -4.633 QT
35.094 -4.063 35.094 -2.75 QT
35.094 -2.266 34.75 -1.906 QT
34.406 -1.547 33.906 -1.547 QT
33.406 -1.547 33.055 -1.906 QT
32.703 -2.266 32.703 -2.75 QT
32.703 -3.188 32.984 -3.516 QT
33.266 -3.844 33.672 -3.922 QT
32.813 -4.469 31.25 -4.469 QT
30.047 -4.469 29.32 -3.68 QT
28.594 -2.891 28.297 -1.719 QT
28 -0.547 28 0.609 QT
28 1.812 28.359 2.945 QT
28.719 4.078 29.523 4.812 QT
30.328 5.547 31.531 5.547 QT
32.719 5.547 33.547 4.82 QT
34.375 4.094 34.688 2.922 QT
34.688 2.781 34.875 2.781 QT
35.188 2.781 L
35.25 2.781 35.313 2.844 QT
35.375 2.906 35.375 3 QT
35.375 3.062 L
35 4.547 33.875 5.414 QT
32.75 6.281 31.219 6.281 QT
cp
f
GR
GS
[0.6 0 0 0.6 390.36202 163.56] CT
N
36.752 6 M
36.752 5.125 L
37.611 5.125 38.158 4.992 QT
38.705 4.859 38.705 4.328 QT
38.705 -2.5 L
38.705 -3.172 38.51 -3.469 QT
38.314 -3.766 37.931 -3.836 QT
37.549 -3.906 36.752 -3.906 QT
36.752 -4.781 L
40.33 -5.047 L
40.33 -2.609 L
40.736 -3.688 41.478 -4.367 QT
42.221 -5.047 43.283 -5.047 QT
44.033 -5.047 44.619 -4.609 QT
45.205 -4.172 45.205 -3.453 QT
45.205 -3 44.885 -2.664 QT
44.564 -2.328 44.08 -2.328 QT
43.611 -2.328 43.283 -2.656 QT
42.955 -2.984 42.955 -3.453 QT
42.955 -4.125 43.439 -4.406 QT
43.283 -4.406 L
42.283 -4.406 41.642 -3.672 QT
41.002 -2.938 40.728 -1.852 QT
40.455 -0.766 40.455 0.219 QT
40.455 4.328 L
40.455 5.125 42.892 5.125 QT
42.892 6 L
36.752 6 L
cp
f
GR
GS
[0.6 0 0 0.6 390.36202 163.56] CT
N
52.122 6.281 M
50.606 6.281 49.333 5.484 QT
48.059 4.687 47.333 3.351 QT
46.606 2.016 46.606 0.516 QT
46.606 -0.953 47.27 -2.266 QT
47.934 -3.578 49.122 -4.391 QT
50.309 -5.203 51.778 -5.203 QT
52.918 -5.203 53.77 -4.82 QT
54.622 -4.438 55.168 -3.75 QT
55.715 -3.063 55.997 -2.141 QT
56.278 -1.219 56.278 -0.109 QT
56.278 0.219 56.028 0.219 QT
48.778 0.219 L
48.778 0.5 L
48.778 2.562 49.614 4.055 QT
50.45 5.547 52.356 5.547 QT
53.122 5.547 53.77 5.203 QT
54.418 4.859 54.903 4.25 QT
55.387 3.641 55.559 2.953 QT
55.59 2.859 55.653 2.797 QT
55.715 2.734 55.809 2.734 QT
56.028 2.734 L
56.278 2.734 56.278 3.047 QT
55.918 4.469 54.747 5.375 QT
53.575 6.281 52.122 6.281 QT
cp
48.809 -0.391 M
54.512 -0.391 L
54.512 -1.344 54.247 -2.305 QT
53.981 -3.266 53.372 -3.906 QT
52.762 -4.547 51.778 -4.547 QT
50.356 -4.547 49.583 -3.219 QT
48.809 -1.891 48.809 -0.391 QT
cp
f
GR
GS
[0.6 0 0 0.6 390.36202 163.56] CT
N
63.233 6.281 M
61.733 6.281 60.498 5.492 QT
59.264 4.703 58.553 3.391 QT
57.842 2.078 57.842 0.609 QT
57.842 -0.875 58.545 -2.227 QT
59.248 -3.578 60.49 -4.391 QT
61.733 -5.203 63.233 -5.203 QT
64.701 -5.203 65.905 -4.633 QT
67.108 -4.063 67.108 -2.75 QT
67.108 -2.266 66.764 -1.906 QT
66.42 -1.547 65.92 -1.547 QT
65.42 -1.547 65.069 -1.906 QT
64.717 -2.266 64.717 -2.75 QT
64.717 -3.188 64.998 -3.516 QT
65.28 -3.844 65.686 -3.922 QT
64.826 -4.469 63.264 -4.469 QT
62.061 -4.469 61.334 -3.68 QT
60.608 -2.891 60.311 -1.719 QT
60.014 -0.547 60.014 0.609 QT
60.014 1.812 60.373 2.945 QT
60.733 4.078 61.537 4.812 QT
62.342 5.547 63.545 5.547 QT
64.733 5.547 65.561 4.82 QT
66.389 4.094 66.701 2.922 QT
66.701 2.781 66.889 2.781 QT
67.201 2.781 L
67.264 2.781 67.326 2.844 QT
67.389 2.906 67.389 3 QT
67.389 3.062 L
67.014 4.547 65.889 5.414 QT
64.764 6.281 63.233 6.281 QT
cp
f
GR
GS
[0.6 0 0 0.6 390.36202 163.56] CT
N
69.844 10.109 M
70.328 10.484 70.891 10.484 QT
72.469 10.484 73.469 8.094 QT
74.328 6 L
70.578 -3.188 L
70.344 -3.641 69.867 -3.774 QT
69.391 -3.906 68.594 -3.906 QT
68.594 -4.781 L
73.844 -4.781 L
73.844 -3.906 L
72.469 -3.906 72.469 -3.297 QT
72.469 -3.203 72.5 -3.156 QT
75.281 3.687 L
77.781 -2.469 L
77.859 -2.672 77.859 -2.906 QT
77.859 -3.203 77.695 -3.43 QT
77.531 -3.656 77.266 -3.781 QT
77 -3.906 76.672 -3.906 QT
76.672 -4.781 L
80.828 -4.781 L
80.828 -3.906 L
80.047 -3.906 79.469 -3.547 QT
78.891 -3.188 78.578 -2.5 QT
74.25 8.094 L
73.906 8.906 73.453 9.586 QT
73 10.266 72.336 10.695 QT
71.672 11.125 70.891 11.125 QT
69.984 11.125 69.289 10.523 QT
68.594 9.922 68.594 9.031 QT
68.594 8.562 68.914 8.242 QT
69.234 7.922 69.703 7.922 QT
70.016 7.922 70.266 8.062 QT
70.516 8.203 70.656 8.453 QT
70.797 8.703 70.797 9.031 QT
70.797 9.437 70.531 9.75 QT
70.266 10.062 69.844 10.109 QT
cp
f
GR
GS
[0.6 0 0 0.6 390.36202 163.56] CT
N
95.356 3.328 M
96.215 4.406 97.497 5.039 QT
98.778 5.672 100.153 5.672 QT
101.309 5.672 102.301 5.211 QT
103.293 4.75 104.028 3.937 QT
104.762 3.125 105.161 2.086 QT
105.559 1.047 105.559 -0.109 QT
105.559 -0.297 105.778 -0.297 QT
106.09 -0.297 L
106.278 -0.297 106.278 -0.063 QT
106.278 1.25 105.778 2.469 QT
105.278 3.687 104.364 4.609 QT
103.45 5.531 102.254 6.039 QT
101.059 6.547 99.778 6.547 QT
97.981 6.547 96.372 5.82 QT
94.762 5.094 93.575 3.828 QT
92.387 2.562 91.723 0.906 QT
91.059 -0.75 91.059 -2.547 QT
91.059 -4.344 91.723 -6 QT
92.387 -7.656 93.575 -8.93 QT
94.762 -10.203 96.372 -10.914 QT
97.981 -11.625 99.778 -11.625 QT
101.059 -11.625 102.231 -11.07 QT
103.403 -10.516 104.278 -9.5 QT
105.731 -11.547 L
105.872 -11.625 105.903 -11.625 QT
106.09 -11.625 L
106.153 -11.625 106.215 -11.563 QT
106.278 -11.5 106.278 -11.422 QT
106.278 -4.672 L
106.278 -4.453 106.09 -4.453 QT
105.637 -4.453 L
105.403 -4.453 105.403 -4.672 QT
105.403 -5.391 105.114 -6.281 QT
104.825 -7.172 104.379 -7.969 QT
103.934 -8.766 103.356 -9.375 QT
101.95 -10.75 100.122 -10.75 QT
98.747 -10.75 97.481 -10.125 QT
96.215 -9.5 95.356 -8.406 QT
94.434 -7.234 94.083 -5.734 QT
93.731 -4.234 93.731 -2.547 QT
93.731 -0.844 94.083 0.656 QT
94.434 2.156 95.356 3.328 QT
cp
f
GR
GS
[0.6 0 0 0.6 390.36202 163.56] CT
N
108.708 3.547 M
108.708 2.062 109.88 1.125 QT
111.052 0.187 112.693 -0.195 QT
114.333 -0.578 115.818 -0.578 QT
115.818 -1.609 L
115.818 -2.328 115.497 -3.008 QT
115.177 -3.688 114.583 -4.117 QT
113.99 -4.547 113.255 -4.547 QT
111.599 -4.547 110.74 -3.797 QT
111.208 -3.797 111.521 -3.438 QT
111.833 -3.078 111.833 -2.609 QT
111.833 -2.109 111.482 -1.75 QT
111.13 -1.391 110.646 -1.391 QT
110.13 -1.391 109.779 -1.75 QT
109.427 -2.109 109.427 -2.609 QT
109.427 -3.922 110.622 -4.563 QT
111.818 -5.203 113.255 -5.203 QT
114.271 -5.203 115.302 -4.774 QT
116.333 -4.344 116.982 -3.539 QT
117.63 -2.734 117.63 -1.656 QT
117.63 3.969 L
117.63 4.469 117.841 4.875 QT
118.052 5.281 118.49 5.281 QT
118.896 5.281 119.099 4.867 QT
119.302 4.453 119.302 3.969 QT
119.302 2.375 L
120.037 2.375 L
120.037 3.969 L
120.037 4.531 119.747 5.039 QT
119.458 5.547 118.958 5.844 QT
118.458 6.141 117.896 6.141 QT
117.162 6.141 116.63 5.578 QT
116.099 5.016 116.037 4.234 QT
115.568 5.172 114.669 5.726 QT
113.771 6.281 112.74 6.281 QT
111.787 6.281 110.865 6 QT
109.943 5.719 109.326 5.117 QT
108.708 4.516 108.708 3.547 QT
cp
110.74 3.547 M
110.74 4.422 111.388 5.023 QT
112.037 5.625 112.912 5.625 QT
113.708 5.625 114.372 5.219 QT
115.037 4.812 115.427 4.117 QT
115.818 3.422 115.818 2.656 QT
115.818 0.062 L
114.677 0.062 113.49 0.43 QT
112.302 0.797 111.521 1.594 QT
110.74 2.391 110.74 3.547 QT
cp
f
GR
GS
[0.6 0 0 0.6 390.36202 163.56] CT
N
120.849 10.844 M
120.849 9.984 L
121.708 9.984 122.255 9.836 QT
122.802 9.687 122.802 9.172 QT
122.802 -2.875 L
122.802 -3.563 122.318 -3.734 QT
121.833 -3.906 120.849 -3.906 QT
120.849 -4.781 L
124.552 -5.047 L
124.552 -3.5 L
125.24 -4.25 126.146 -4.649 QT
127.052 -5.047 128.083 -5.047 QT
129.552 -5.047 130.74 -4.25 QT
131.927 -3.453 132.591 -2.149 QT
133.255 -0.844 133.255 0.609 QT
133.255 2.125 132.521 3.43 QT
131.787 4.734 130.505 5.508 QT
129.224 6.281 127.708 6.281 QT
125.88 6.281 124.63 4.797 QT
124.63 9.172 L
124.63 9.687 125.185 9.836 QT
125.74 9.984 126.583 9.984 QT
126.583 10.844 L
120.849 10.844 L
cp
124.63 3.578 M
125.068 4.469 125.849 5.047 QT
126.63 5.625 127.552 5.625 QT
128.427 5.625 129.091 5.156 QT
129.755 4.687 130.208 3.906 QT
130.662 3.125 130.873 2.266 QT
131.083 1.406 131.083 0.609 QT
131.083 -0.391 130.724 -1.563 QT
130.365 -2.734 129.623 -3.531 QT
128.88 -4.328 127.833 -4.328 QT
126.818 -4.328 125.974 -3.813 QT
125.13 -3.297 124.63 -2.406 QT
124.63 3.578 L
cp
f
GR
GS
[0.6 0 0 0.6 390.36202 163.56] CT
N
135.097 3.547 M
135.097 2.062 136.269 1.125 QT
137.441 0.187 139.082 -0.195 QT
140.722 -0.578 142.207 -0.578 QT
142.207 -1.609 L
142.207 -2.328 141.886 -3.008 QT
141.566 -3.688 140.972 -4.117 QT
140.379 -4.547 139.644 -4.547 QT
137.988 -4.547 137.129 -3.797 QT
137.597 -3.797 137.91 -3.438 QT
138.222 -3.078 138.222 -2.609 QT
138.222 -2.109 137.871 -1.75 QT
137.519 -1.391 137.035 -1.391 QT
136.519 -1.391 136.168 -1.75 QT
135.816 -2.109 135.816 -2.609 QT
135.816 -3.922 137.011 -4.563 QT
138.207 -5.203 139.644 -5.203 QT
140.66 -5.203 141.691 -4.774 QT
142.722 -4.344 143.371 -3.539 QT
144.019 -2.734 144.019 -1.656 QT
144.019 3.969 L
144.019 4.469 144.23 4.875 QT
144.441 5.281 144.879 5.281 QT
145.285 5.281 145.488 4.867 QT
145.691 4.453 145.691 3.969 QT
145.691 2.375 L
146.426 2.375 L
146.426 3.969 L
146.426 4.531 146.136 5.039 QT
145.847 5.547 145.347 5.844 QT
144.847 6.141 144.285 6.141 QT
143.551 6.141 143.019 5.578 QT
142.488 5.016 142.426 4.234 QT
141.957 5.172 141.058 5.726 QT
140.16 6.281 139.129 6.281 QT
138.176 6.281 137.254 6 QT
136.332 5.719 135.715 5.117 QT
135.097 4.516 135.097 3.547 QT
cp
137.129 3.547 M
137.129 4.422 137.777 5.023 QT
138.426 5.625 139.301 5.625 QT
140.097 5.625 140.761 5.219 QT
141.426 4.812 141.816 4.117 QT
142.207 3.422 142.207 2.656 QT
142.207 0.062 L
141.066 0.062 139.879 0.43 QT
138.691 0.797 137.91 1.594 QT
137.129 2.391 137.129 3.547 QT
cp
f
GR
GS
[0.6 0 0 0.6 390.36202 163.56] CT
N
152.816 6.281 M
151.316 6.281 150.082 5.492 QT
148.847 4.703 148.137 3.391 QT
147.426 2.078 147.426 0.609 QT
147.426 -0.875 148.129 -2.227 QT
148.832 -3.578 150.074 -4.391 QT
151.316 -5.203 152.816 -5.203 QT
154.285 -5.203 155.488 -4.633 QT
156.691 -4.063 156.691 -2.75 QT
156.691 -2.266 156.347 -1.906 QT
156.004 -1.547 155.504 -1.547 QT
155.004 -1.547 154.652 -1.906 QT
154.301 -2.266 154.301 -2.75 QT
154.301 -3.188 154.582 -3.516 QT
154.863 -3.844 155.269 -3.922 QT
154.41 -4.469 152.847 -4.469 QT
151.644 -4.469 150.918 -3.68 QT
150.191 -2.891 149.894 -1.719 QT
149.597 -0.547 149.597 0.609 QT
149.597 1.812 149.957 2.945 QT
150.316 4.078 151.121 4.812 QT
151.926 5.547 153.129 5.547 QT
154.316 5.547 155.144 4.82 QT
155.972 4.094 156.285 2.922 QT
156.285 2.781 156.472 2.781 QT
156.785 2.781 L
156.847 2.781 156.91 2.844 QT
156.972 2.906 156.972 3 QT
156.972 3.062 L
156.597 4.547 155.472 5.414 QT
154.347 6.281 152.816 6.281 QT
cp
f
GR
GS
[0.6 0 0 0.6 390.36202 163.56] CT
N
158.474 6 M
158.474 5.125 L
159.334 5.125 159.88 4.992 QT
160.427 4.859 160.427 4.328 QT
160.427 -2.5 L
160.427 -3.453 160.06 -3.68 QT
159.693 -3.906 158.584 -3.906 QT
158.584 -4.781 L
162.193 -5.047 L
162.193 4.328 L
162.193 4.859 162.669 4.992 QT
163.146 5.125 163.927 5.125 QT
163.927 6 L
158.474 6 L
cp
159.537 -9.344 M
159.537 -9.891 159.951 -10.305 QT
160.365 -10.719 160.912 -10.719 QT
161.255 -10.719 161.591 -10.539 QT
161.927 -10.359 162.107 -10.031 QT
162.287 -9.703 162.287 -9.344 QT
162.287 -8.813 161.873 -8.399 QT
161.459 -7.984 160.912 -7.984 QT
160.365 -7.984 159.951 -8.399 QT
159.537 -8.813 159.537 -9.344 QT
cp
f
GR
GS
[0.6 0 0 0.6 390.36202 163.56] CT
N
167.2 3 M
167.2 -3.906 L
165.122 -3.906 L
165.122 -4.547 L
166.762 -4.547 167.536 -6.07 QT
168.309 -7.594 168.309 -9.375 QT
169.028 -9.375 L
169.028 -4.781 L
172.544 -4.781 L
172.544 -3.906 L
169.028 -3.906 L
169.028 2.953 L
169.028 3.984 169.372 4.766 QT
169.716 5.547 170.622 5.547 QT
171.481 5.547 171.856 4.726 QT
172.231 3.906 172.231 2.953 QT
172.231 1.469 L
172.95 1.469 L
172.95 3 L
172.95 3.781 172.669 4.539 QT
172.387 5.297 171.825 5.789 QT
171.262 6.281 170.45 6.281 QT
168.95 6.281 168.075 5.383 QT
167.2 4.484 167.2 3 QT
cp
f
GR
GS
[0.6 0 0 0.6 390.36202 163.56] CT
N
175.4 10.109 M
175.884 10.484 176.446 10.484 QT
178.025 10.484 179.025 8.094 QT
179.884 6 L
176.134 -3.188 L
175.9 -3.641 175.423 -3.774 QT
174.946 -3.906 174.15 -3.906 QT
174.15 -4.781 L
179.4 -4.781 L
179.4 -3.906 L
178.025 -3.906 178.025 -3.297 QT
178.025 -3.203 178.056 -3.156 QT
180.837 3.687 L
183.337 -2.469 L
183.415 -2.672 183.415 -2.906 QT
183.415 -3.203 183.251 -3.43 QT
183.087 -3.656 182.821 -3.781 QT
182.556 -3.906 182.228 -3.906 QT
182.228 -4.781 L
186.384 -4.781 L
186.384 -3.906 L
185.603 -3.906 185.025 -3.547 QT
184.446 -3.188 184.134 -2.5 QT
179.806 8.094 L
179.462 8.906 179.009 9.586 QT
178.556 10.266 177.892 10.695 QT
177.228 11.125 176.446 11.125 QT
175.54 11.125 174.845 10.523 QT
174.15 9.922 174.15 9.031 QT
174.15 8.562 174.47 8.242 QT
174.79 7.922 175.259 7.922 QT
175.571 7.922 175.821 8.062 QT
176.071 8.203 176.212 8.453 QT
176.353 8.703 176.353 9.031 QT
176.353 9.437 176.087 9.75 QT
175.821 10.062 175.4 10.109 QT
cp
f
GR
GS
[0.6 0 0 0.6 0 0] CT
0 0.447 0.741 RC
1 LJ
2.5 LW
N
596.988 272.6 M
646.863 272.6 L
S
GR
GS
[0.6 0 0 0.6 390.36202 182.04] CT
N
0.766 6 M
0.766 5.125 L
3.344 5.125 3.344 4.328 QT
3.344 -9.406 L
3.344 -10.203 0.766 -10.203 QT
0.766 -11.078 L
8.875 -11.078 L
8.875 -10.203 L
5.672 -10.203 5.672 -9.406 QT
5.672 4.328 L
5.672 4.859 5.977 4.992 QT
6.281 5.125 6.953 5.125 QT
8.875 5.125 L
10.75 5.125 11.758 4.437 QT
12.766 3.75 13.188 2.57 QT
13.609 1.391 13.828 -0.563 QT
14.547 -0.563 L
13.859 6 L
0.766 6 L
cp
f
GR
GS
[0.6 0 0 0.6 390.36202 182.04] CT
N
16.391 6 M
16.391 5.125 L
17.25 5.125 17.797 4.992 QT
18.344 4.859 18.344 4.328 QT
18.344 -2.5 L
18.344 -3.453 17.977 -3.68 QT
17.609 -3.906 16.5 -3.906 QT
16.5 -4.781 L
20.109 -5.047 L
20.109 4.328 L
20.109 4.859 20.586 4.992 QT
21.063 5.125 21.844 5.125 QT
21.844 6 L
16.391 6 L
cp
17.453 -9.344 M
17.453 -9.891 17.867 -10.305 QT
18.281 -10.719 18.828 -10.719 QT
19.172 -10.719 19.508 -10.539 QT
19.844 -10.359 20.023 -10.031 QT
20.203 -9.703 20.203 -9.344 QT
20.203 -8.813 19.789 -8.399 QT
19.375 -7.984 18.828 -7.984 QT
18.281 -7.984 17.867 -8.399 QT
17.453 -8.813 17.453 -9.344 QT
cp
f
GR
GS
[0.6 0 0 0.6 390.36202 182.04] CT
N
23.32 6 M
23.32 5.125 L
24.163 5.125 24.718 4.992 QT
25.273 4.859 25.273 4.328 QT
25.273 -2.5 L
25.273 -3.172 25.07 -3.469 QT
24.866 -3.766 24.484 -3.836 QT
24.101 -3.906 23.32 -3.906 QT
23.32 -4.781 L
26.945 -5.047 L
26.945 -2.609 L
27.445 -3.688 28.429 -4.367 QT
29.413 -5.047 30.57 -5.047 QT
33.445 -5.047 33.945 -2.703 QT
34.445 -3.75 35.413 -4.399 QT
36.382 -5.047 37.523 -5.047 QT
38.663 -5.047 39.437 -4.68 QT
40.21 -4.313 40.601 -3.563 QT
40.991 -2.813 40.991 -1.672 QT
40.991 4.328 L
40.991 4.859 41.546 4.992 QT
42.101 5.125 42.945 5.125 QT
42.945 6 L
37.226 6 L
37.226 5.125 L
38.07 5.125 38.624 4.992 QT
39.179 4.859 39.179 4.328 QT
39.179 -1.609 L
39.179 -2.859 38.82 -3.633 QT
38.46 -4.406 37.366 -4.406 QT
35.929 -4.406 34.984 -3.242 QT
34.038 -2.078 34.038 -0.609 QT
34.038 4.328 L
34.038 4.859 34.593 4.992 QT
35.148 5.125 35.991 5.125 QT
35.991 6 L
30.273 6 L
30.273 5.125 L
31.132 5.125 31.679 4.992 QT
32.226 4.859 32.226 4.328 QT
32.226 -1.609 L
32.226 -2.828 31.874 -3.617 QT
31.523 -4.406 30.413 -4.406 QT
28.96 -4.406 28.03 -3.242 QT
27.101 -2.078 27.101 -0.609 QT
27.101 4.328 L
27.101 4.859 27.648 4.992 QT
28.195 5.125 29.038 5.125 QT
29.038 6 L
23.32 6 L
cp
f
GR
GS
[0.6 0 0 0.6 390.36202 182.04] CT
N
44.169 6 M
44.169 5.125 L
45.028 5.125 45.575 4.992 QT
46.122 4.859 46.122 4.328 QT
46.122 -2.5 L
46.122 -3.453 45.754 -3.68 QT
45.387 -3.906 44.278 -3.906 QT
44.278 -4.781 L
47.887 -5.047 L
47.887 4.328 L
47.887 4.859 48.364 4.992 QT
48.84 5.125 49.622 5.125 QT
49.622 6 L
44.169 6 L
cp
45.231 -9.344 M
45.231 -9.891 45.645 -10.305 QT
46.059 -10.719 46.606 -10.719 QT
46.95 -10.719 47.286 -10.539 QT
47.622 -10.359 47.801 -10.031 QT
47.981 -9.703 47.981 -9.344 QT
47.981 -8.813 47.567 -8.399 QT
47.153 -7.984 46.606 -7.984 QT
46.059 -7.984 45.645 -8.399 QT
45.231 -8.813 45.231 -9.344 QT
cp
f
GR
GS
[0.6 0 0 0.6 390.36202 182.04] CT
N
52.894 3 M
52.894 -3.906 L
50.816 -3.906 L
50.816 -4.547 L
52.457 -4.547 53.23 -6.07 QT
54.004 -7.594 54.004 -9.375 QT
54.722 -9.375 L
54.722 -4.781 L
58.238 -4.781 L
58.238 -3.906 L
54.722 -3.906 L
54.722 2.953 L
54.722 3.984 55.066 4.766 QT
55.41 5.547 56.316 5.547 QT
57.175 5.547 57.55 4.726 QT
57.925 3.906 57.925 2.953 QT
57.925 1.469 L
58.644 1.469 L
58.644 3 L
58.644 3.781 58.363 4.539 QT
58.082 5.297 57.519 5.789 QT
56.957 6.281 56.144 6.281 QT
54.644 6.281 53.769 5.383 QT
52.894 4.484 52.894 3 QT
cp
f
GR
GS
[0.6 0 0 0.6 390.36202 182.04] CT
N
74.512 6 M
70.856 -3.188 L
70.622 -3.641 70.137 -3.774 QT
69.653 -3.906 68.872 -3.906 QT
68.872 -4.781 L
74.122 -4.781 L
74.122 -3.906 L
72.731 -3.906 72.731 -3.297 QT
72.731 -3.203 72.747 -3.156 QT
75.559 3.906 L
78.09 -2.469 L
78.153 -2.672 78.153 -2.875 QT
78.153 -3.344 77.794 -3.625 QT
77.434 -3.906 76.95 -3.906 QT
76.95 -4.781 L
81.106 -4.781 L
81.106 -3.906 L
80.325 -3.906 79.747 -3.547 QT
79.169 -3.188 78.856 -2.5 QT
75.481 6 L
75.387 6.281 75.075 6.281 QT
74.903 6.281 L
74.59 6.281 74.512 6 QT
cp
f
GR
GS
[0.6 0 0 0.6 390.36202 182.04] CT
N
81.209 3.547 M
81.209 2.062 82.38 1.125 QT
83.552 0.187 85.193 -0.195 QT
86.834 -0.578 88.318 -0.578 QT
88.318 -1.609 L
88.318 -2.328 87.998 -3.008 QT
87.677 -3.688 87.084 -4.117 QT
86.49 -4.547 85.755 -4.547 QT
84.099 -4.547 83.24 -3.797 QT
83.709 -3.797 84.021 -3.438 QT
84.334 -3.078 84.334 -2.609 QT
84.334 -2.109 83.982 -1.75 QT
83.63 -1.391 83.146 -1.391 QT
82.63 -1.391 82.279 -1.75 QT
81.927 -2.109 81.927 -2.609 QT
81.927 -3.922 83.123 -4.563 QT
84.318 -5.203 85.755 -5.203 QT
86.771 -5.203 87.802 -4.774 QT
88.834 -4.344 89.482 -3.539 QT
90.13 -2.734 90.13 -1.656 QT
90.13 3.969 L
90.13 4.469 90.341 4.875 QT
90.552 5.281 90.99 5.281 QT
91.396 5.281 91.599 4.867 QT
91.802 4.453 91.802 3.969 QT
91.802 2.375 L
92.537 2.375 L
92.537 3.969 L
92.537 4.531 92.248 5.039 QT
91.959 5.547 91.459 5.844 QT
90.959 6.141 90.396 6.141 QT
89.662 6.141 89.13 5.578 QT
88.599 5.016 88.537 4.234 QT
88.068 5.172 87.169 5.726 QT
86.271 6.281 85.24 6.281 QT
84.287 6.281 83.365 6 QT
82.443 5.719 81.826 5.117 QT
81.209 4.516 81.209 3.547 QT
cp
83.24 3.547 M
83.24 4.422 83.888 5.023 QT
84.537 5.625 85.412 5.625 QT
86.209 5.625 86.873 5.219 QT
87.537 4.812 87.927 4.117 QT
88.318 3.422 88.318 2.656 QT
88.318 0.062 L
87.177 0.062 85.99 0.43 QT
84.802 0.797 84.021 1.594 QT
83.24 2.391 83.24 3.547 QT
cp
f
GR
GS
[0.6 0 0 0.6 390.36202 182.04] CT
N
93.474 6 M
93.474 5.125 L
94.334 5.125 94.88 4.992 QT
95.427 4.859 95.427 4.328 QT
95.427 -8.797 L
95.427 -9.469 95.224 -9.766 QT
95.021 -10.063 94.646 -10.133 QT
94.271 -10.203 93.474 -10.203 QT
93.474 -11.078 L
97.193 -11.344 L
97.193 4.328 L
97.193 4.859 97.74 4.992 QT
98.287 5.125 99.13 5.125 QT
99.13 6 L
93.474 6 L
cp
f
GR
GS
[0.6 0 0 0.6 390.36202 182.04] CT
N
102.356 3.016 M
102.356 -2.5 L
102.356 -3.172 102.153 -3.469 QT
101.95 -3.766 101.567 -3.836 QT
101.184 -3.906 100.403 -3.906 QT
100.403 -4.781 L
104.184 -5.047 L
104.184 3.016 L
104.184 4 104.325 4.539 QT
104.466 5.078 104.919 5.351 QT
105.372 5.625 106.372 5.625 QT
107.716 5.625 108.512 4.5 QT
109.309 3.375 109.309 1.953 QT
109.309 -2.5 L
109.309 -3.172 109.098 -3.469 QT
108.887 -3.766 108.52 -3.836 QT
108.153 -3.906 107.356 -3.906 QT
107.356 -4.781 L
111.122 -5.047 L
111.122 3.734 L
111.122 4.391 111.325 4.687 QT
111.528 4.984 111.911 5.055 QT
112.294 5.125 113.075 5.125 QT
113.075 6 L
109.387 6.281 L
109.387 4.172 L
108.919 5.109 108.091 5.695 QT
107.262 6.281 106.262 6.281 QT
104.466 6.281 103.411 5.516 QT
102.356 4.75 102.356 3.016 QT
cp
f
GR
GS
[0.6 0 0 0.6 390.36202 182.04] CT
N
119.761 6.281 M
118.245 6.281 116.972 5.484 QT
115.698 4.687 114.972 3.351 QT
114.245 2.016 114.245 0.516 QT
114.245 -0.953 114.909 -2.266 QT
115.573 -3.578 116.761 -4.391 QT
117.948 -5.203 119.417 -5.203 QT
120.558 -5.203 121.409 -4.82 QT
122.261 -4.438 122.808 -3.75 QT
123.354 -3.063 123.636 -2.141 QT
123.917 -1.219 123.917 -0.109 QT
123.917 0.219 123.667 0.219 QT
116.417 0.219 L
116.417 0.5 L
116.417 2.562 117.253 4.055 QT
118.089 5.547 119.995 5.547 QT
120.761 5.547 121.409 5.203 QT
122.058 4.859 122.542 4.25 QT
123.026 3.641 123.198 2.953 QT
123.229 2.859 123.292 2.797 QT
123.354 2.734 123.448 2.734 QT
123.667 2.734 L
123.917 2.734 123.917 3.047 QT
123.558 4.469 122.386 5.375 QT
121.214 6.281 119.761 6.281 QT
cp
116.448 -0.391 M
122.151 -0.391 L
122.151 -1.344 121.886 -2.305 QT
121.62 -3.266 121.011 -3.906 QT
120.401 -4.547 119.417 -4.547 QT
117.995 -4.547 117.222 -3.219 QT
116.448 -1.891 116.448 -0.391 QT
cp
f
GR
GS
[0.6 0 0 0.6 390.36202 182.04] CT
N
136.643 0.609 M
136.643 2.109 137.221 3.25 QT
137.799 4.391 138.9 5.031 QT
140.002 5.672 141.502 5.672 QT
143.08 5.672 144.541 4.867 QT
146.002 4.062 147.033 2.711 QT
148.065 1.359 148.44 -0.156 QT
148.486 -0.297 148.643 -0.297 QT
148.94 -0.297 L
149.033 -0.297 149.096 -0.234 QT
149.158 -0.172 149.158 -0.078 QT
149.158 -0.063 149.143 0 QT
148.705 1.734 147.479 3.25 QT
146.252 4.766 144.541 5.656 QT
142.83 6.547 141.033 6.547 QT
139.08 6.547 137.525 5.672 QT
135.971 4.797 135.111 3.234 QT
134.252 1.672 134.252 -0.297 QT
134.252 -2.406 135.197 -4.461 QT
136.143 -6.516 137.729 -8.117 QT
139.315 -9.719 141.346 -10.672 QT
143.377 -11.625 145.455 -11.625 QT
146.299 -11.625 147.049 -11.375 QT
147.799 -11.125 148.447 -10.609 QT
149.096 -10.094 149.518 -9.438 QT
151.486 -11.578 L
151.486 -11.625 151.611 -11.625 QT
151.768 -11.625 L
151.861 -11.625 151.924 -11.539 QT
151.986 -11.453 151.986 -11.375 QT
150.283 -4.625 L
150.283 -4.453 150.096 -4.453 QT
149.643 -4.453 L
149.44 -4.453 149.44 -4.734 QT
149.533 -5.281 149.533 -6.047 QT
149.533 -7.266 149.119 -8.352 QT
148.705 -9.438 147.838 -10.094 QT
146.971 -10.75 145.705 -10.75 QT
143.674 -10.75 141.971 -9.727 QT
140.268 -8.703 139.096 -7.031 QT
137.924 -5.359 137.283 -3.328 QT
136.643 -1.297 136.643 0.609 QT
cp
f
GR
GS
[0.6 0 0 0.6 390.36202 182.04] CT
N
151.698 9.75 M
151.526 9.75 151.526 9.515 QT
151.526 9.469 151.558 9.359 QT
151.589 9.25 151.636 9.18 QT
151.683 9.109 151.745 9.109 QT
152.854 9.109 153.276 9 QT
153.511 8.922 153.62 8.515 QT
156.089 -1.375 L
156.136 -1.547 156.136 -1.625 QT
156.136 -1.813 155.901 -1.844 QT
155.573 -1.906 154.62 -1.906 QT
154.448 -1.906 154.448 -2.156 QT
154.448 -2.188 154.472 -2.305 QT
154.495 -2.422 154.55 -2.485 QT
154.604 -2.547 154.667 -2.547 QT
164.433 -2.547 L
164.604 -2.547 164.604 -2.313 QT
164.183 1.422 L
164.183 1.469 164.112 1.523 QT
164.042 1.578 163.995 1.578 QT
163.839 1.578 L
163.651 1.578 163.651 1.344 QT
163.761 0.469 163.761 0.047 QT
163.761 -0.672 163.511 -1.07 QT
163.261 -1.469 162.854 -1.649 QT
162.448 -1.828 161.948 -1.867 QT
161.448 -1.906 160.651 -1.906 QT
158.604 -1.906 L
158.104 -1.906 157.948 -1.828 QT
157.792 -1.75 157.651 -1.297 QT
156.573 3.047 L
157.979 3.047 L
158.901 3.047 159.362 2.922 QT
159.823 2.797 160.097 2.39 QT
160.37 1.984 160.589 1.109 QT
160.604 1.047 160.659 1 QT
160.714 0.953 160.776 0.953 QT
160.933 0.953 L
161.104 0.953 161.104 1.187 QT
159.995 5.625 L
159.964 5.781 159.823 5.781 QT
159.651 5.781 L
159.479 5.781 159.479 5.562 QT
159.651 4.844 159.651 4.5 QT
159.651 3.969 159.175 3.828 QT
158.698 3.687 157.917 3.687 QT
156.417 3.687 L
155.198 8.578 L
155.12 8.797 155.12 8.969 QT
155.12 9.109 155.729 9.109 QT
157.917 9.109 L
159.214 9.109 160.019 8.914 QT
160.823 8.719 161.362 8.273 QT
161.901 7.828 162.284 7.14 QT
162.667 6.453 163.214 5.14 QT
163.261 5.031 163.386 5.031 QT
163.542 5.031 L
163.62 5.031 163.675 5.094 QT
163.729 5.156 163.729 5.234 QT
163.729 5.265 163.698 5.297 QT
161.854 9.64 L
161.808 9.75 161.714 9.75 QT
151.698 9.75 L
cp
f
GR
GS
[0.6 0 0 0.6 0 0] CT
0.851 0.325 0.098 RC
1 LJ
2.5 LW
N
596.988 303.4 M
646.863 303.4 L
S
GR
GS
[0.6 0 0 0.6 0 0] CT
0.149 GC
10.0 ML
0.833 LW
N
592 321 M
592 255 L
842 255 L
842 321 L
cp
S
GR
%%Trailer
%%Pages: 1
%%EOF
