%!PS-Adobe-3.0 EPSF-3.0
%%Creator: (MATLAB, The Mathworks, Inc. Version 9.2.0.538062 \(R2017a\). Operating System: Windows 8)
%%Title: C:/Users/chees/Documents/DottoratoLoc/GNSS/authProtocol/latex/figures/standard.eps
%%CreationDate: 2017-11-16T18:17:46
%%Pages: (atend)
%%BoundingBox: 0 0 284 284
%%LanguageLevel: 3
%%EndComments
%%BeginProlog
%%BeginResource: procset (Apache XML Graphics Std ProcSet) 1.2 0
%%Version: 1.2 0
%%Copyright: (Copyright 2001-2003,2010 The Apache Software Foundation. License terms: http://www.apache.org/licenses/LICENSE-2.0)
/bd{bind def}bind def
/ld{load def}bd
/GR/grestore ld
/M/moveto ld
/LJ/setlinejoin ld
/C/curveto ld
/f/fill ld
/LW/setlinewidth ld
/GC/setgray ld
/t/show ld
/N/newpath ld
/CT/concat ld
/cp/closepath ld
/S/stroke ld
/L/lineto ld
/CC/setcmykcolor ld
/A/ashow ld
/GS/gsave ld
/RC/setrgbcolor ld
/RM/rmoveto ld
/ML/setmiterlimit ld
/re {4 2 roll M
1 index 0 rlineto
0 exch rlineto
neg 0 rlineto
cp } bd
/_ctm matrix def
/_tm matrix def
/BT { _ctm currentmatrix pop matrix _tm copy pop 0 0 moveto } bd
/ET { _ctm setmatrix } bd
/iTm { _ctm setmatrix _tm concat } bd
/Tm { _tm astore pop iTm 0 0 moveto } bd
/ux 0.0 def
/uy 0.0 def
/F {
  /Tp exch def
  /Tf exch def
  Tf findfont Tp scalefont setfont
  /cf Tf def  /cs Tp def
} bd
/ULS {currentpoint /uy exch def /ux exch def} bd
/ULE {
  /Tcx currentpoint pop def
  gsave
  newpath
  cf findfont cs scalefont dup
  /FontMatrix get 0 get /Ts exch def /FontInfo get dup
  /UnderlinePosition get Ts mul /To exch def
  /UnderlineThickness get Ts mul /Tt exch def
  ux uy To add moveto  Tcx uy To add lineto
  Tt setlinewidth stroke
  grestore
} bd
/OLE {
  /Tcx currentpoint pop def
  gsave
  newpath
  cf findfont cs scalefont dup
  /FontMatrix get 0 get /Ts exch def /FontInfo get dup
  /UnderlinePosition get Ts mul /To exch def
  /UnderlineThickness get Ts mul /Tt exch def
  ux uy To add cs add moveto Tcx uy To add cs add lineto
  Tt setlinewidth stroke
  grestore
} bd
/SOE {
  /Tcx currentpoint pop def
  gsave
  newpath
  cf findfont cs scalefont dup
  /FontMatrix get 0 get /Ts exch def /FontInfo get dup
  /UnderlinePosition get Ts mul /To exch def
  /UnderlineThickness get Ts mul /Tt exch def
  ux uy To add cs 10 mul 26 idiv add moveto Tcx uy To add cs 10 mul 26 idiv add lineto
  Tt setlinewidth stroke
  grestore
} bd
/QT {
/Y22 exch store
/X22 exch store
/Y21 exch store
/X21 exch store
currentpoint
/Y21 load 2 mul add 3 div exch
/X21 load 2 mul add 3 div exch
/X21 load 2 mul /X22 load add 3 div
/Y21 load 2 mul /Y22 load add 3 div
/X22 load /Y22 load curveto
} bd
/SSPD {
dup length /d exch dict def
{
/v exch def
/k exch def
currentpagedevice k known {
/cpdv currentpagedevice k get def
v cpdv ne {
/upd false def
/nullv v type /nulltype eq def
/nullcpdv cpdv type /nulltype eq def
nullv nullcpdv or
{
/upd true def
} {
/sametype v type cpdv type eq def
sametype {
v type /arraytype eq {
/vlen v length def
/cpdvlen cpdv length def
vlen cpdvlen eq {
0 1 vlen 1 sub {
/i exch def
/obj v i get def
/cpdobj cpdv i get def
obj cpdobj ne {
/upd true def
exit
} if
} for
} {
/upd true def
} ifelse
} {
v type /dicttype eq {
v {
/dv exch def
/dk exch def
/cpddv cpdv dk get def
dv cpddv ne {
/upd true def
exit
} if
} forall
} {
/upd true def
} ifelse
} ifelse
} if
} ifelse
upd true eq {
d k v put
} if
} if
} if
} forall
d length 0 gt {
d setpagedevice
} if
} bd
/RE { % /NewFontName [NewEncodingArray] /FontName RE -
  findfont dup length dict begin
  {
    1 index /FID ne
    {def} {pop pop} ifelse
  } forall
  /Encoding exch def
  /FontName 1 index def
  currentdict definefont pop
  end
} bind def
%%EndResource
%%BeginResource: procset (Apache XML Graphics EPS ProcSet) 1.0 0
%%Version: 1.0 0
%%Copyright: (Copyright 2002-2003 The Apache Software Foundation. License terms: http://www.apache.org/licenses/LICENSE-2.0)
/BeginEPSF { %def
/b4_Inc_state save def         % Save state for cleanup
/dict_count countdictstack def % Count objects on dict stack
/op_count count 1 sub def      % Count objects on operand stack
userdict begin                 % Push userdict on dict stack
/showpage { } def              % Redefine showpage, { } = null proc
0 setgray 0 setlinecap         % Prepare graphics state
1 setlinewidth 0 setlinejoin
10 setmiterlimit [ ] 0 setdash newpath
/languagelevel where           % If level not equal to 1 then
{pop languagelevel             % set strokeadjust and
1 ne                           % overprint to their defaults.
{false setstrokeadjust false setoverprint
} if
} if
} bd
/EndEPSF { %def
count op_count sub {pop} repeat            % Clean up stacks
countdictstack dict_count sub {end} repeat
b4_Inc_state restore
} bd
%%EndResource
%FOPBeginFontDict
%%IncludeResource: font Courier-Bold
%%IncludeResource: font Helvetica
%%IncludeResource: font Courier-BoldOblique
%%IncludeResource: font Courier-Oblique
%%IncludeResource: font Times-Roman
%%IncludeResource: font Helvetica-BoldOblique
%%IncludeResource: font Helvetica-Bold
%%IncludeResource: font Helvetica-Oblique
%%IncludeResource: font Times-BoldItalic
%%IncludeResource: font Courier
%%IncludeResource: font Times-Italic
%%IncludeResource: font Times-Bold
%%IncludeResource: font Symbol
%%IncludeResource: font ZapfDingbats
%FOPEndFontDict
%%BeginResource: encoding WinAnsiEncoding
/WinAnsiEncoding [
/.notdef /.notdef /.notdef /.notdef /.notdef
/.notdef /.notdef /.notdef /.notdef /.notdef
/.notdef /.notdef /.notdef /.notdef /.notdef
/.notdef /.notdef /.notdef /.notdef /.notdef
/.notdef /.notdef /.notdef /.notdef /.notdef
/.notdef /.notdef /.notdef /.notdef /.notdef
/.notdef /.notdef /space /exclam /quotedbl
/numbersign /dollar /percent /ampersand /quotesingle
/parenleft /parenright /asterisk /plus /comma
/hyphen /period /slash /zero /one
/two /three /four /five /six
/seven /eight /nine /colon /semicolon
/less /equal /greater /question /at
/A /B /C /D /E
/F /G /H /I /J
/K /L /M /N /O
/P /Q /R /S /T
/U /V /W /X /Y
/Z /bracketleft /backslash /bracketright /asciicircum
/underscore /quoteleft /a /b /c
/d /e /f /g /h
/i /j /k /l /m
/n /o /p /q /r
/s /t /u /v /w
/x /y /z /braceleft /bar
/braceright /asciitilde /bullet /Euro /bullet
/quotesinglbase /florin /quotedblbase /ellipsis /dagger
/daggerdbl /circumflex /perthousand /Scaron /guilsinglleft
/OE /bullet /Zcaron /bullet /bullet
/quoteleft /quoteright /quotedblleft /quotedblright /bullet
/endash /emdash /asciitilde /trademark /scaron
/guilsinglright /oe /bullet /zcaron /Ydieresis
/space /exclamdown /cent /sterling /currency
/yen /brokenbar /section /dieresis /copyright
/ordfeminine /guillemotleft /logicalnot /sfthyphen /registered
/macron /degree /plusminus /twosuperior /threesuperior
/acute /mu /paragraph /middot /cedilla
/onesuperior /ordmasculine /guillemotright /onequarter /onehalf
/threequarters /questiondown /Agrave /Aacute /Acircumflex
/Atilde /Adieresis /Aring /AE /Ccedilla
/Egrave /Eacute /Ecircumflex /Edieresis /Igrave
/Iacute /Icircumflex /Idieresis /Eth /Ntilde
/Ograve /Oacute /Ocircumflex /Otilde /Odieresis
/multiply /Oslash /Ugrave /Uacute /Ucircumflex
/Udieresis /Yacute /Thorn /germandbls /agrave
/aacute /acircumflex /atilde /adieresis /aring
/ae /ccedilla /egrave /eacute /ecircumflex
/edieresis /igrave /iacute /icircumflex /idieresis
/eth /ntilde /ograve /oacute /ocircumflex
/otilde /odieresis /divide /oslash /ugrave
/uacute /ucircumflex /udieresis /yacute /thorn
/ydieresis
] def
%%EndResource
%FOPBeginFontReencode
/Courier-Bold findfont
dup length dict begin
  {1 index /FID ne {def} {pop pop} ifelse} forall
  /Encoding WinAnsiEncoding def
  currentdict
end
/Courier-Bold exch definefont pop
/Helvetica findfont
dup length dict begin
  {1 index /FID ne {def} {pop pop} ifelse} forall
  /Encoding WinAnsiEncoding def
  currentdict
end
/Helvetica exch definefont pop
/Courier-BoldOblique findfont
dup length dict begin
  {1 index /FID ne {def} {pop pop} ifelse} forall
  /Encoding WinAnsiEncoding def
  currentdict
end
/Courier-BoldOblique exch definefont pop
/Courier-Oblique findfont
dup length dict begin
  {1 index /FID ne {def} {pop pop} ifelse} forall
  /Encoding WinAnsiEncoding def
  currentdict
end
/Courier-Oblique exch definefont pop
/Times-Roman findfont
dup length dict begin
  {1 index /FID ne {def} {pop pop} ifelse} forall
  /Encoding WinAnsiEncoding def
  currentdict
end
/Times-Roman exch definefont pop
/Helvetica-BoldOblique findfont
dup length dict begin
  {1 index /FID ne {def} {pop pop} ifelse} forall
  /Encoding WinAnsiEncoding def
  currentdict
end
/Helvetica-BoldOblique exch definefont pop
/Helvetica-Bold findfont
dup length dict begin
  {1 index /FID ne {def} {pop pop} ifelse} forall
  /Encoding WinAnsiEncoding def
  currentdict
end
/Helvetica-Bold exch definefont pop
/Helvetica-Oblique findfont
dup length dict begin
  {1 index /FID ne {def} {pop pop} ifelse} forall
  /Encoding WinAnsiEncoding def
  currentdict
end
/Helvetica-Oblique exch definefont pop
/Times-BoldItalic findfont
dup length dict begin
  {1 index /FID ne {def} {pop pop} ifelse} forall
  /Encoding WinAnsiEncoding def
  currentdict
end
/Times-BoldItalic exch definefont pop
/Courier findfont
dup length dict begin
  {1 index /FID ne {def} {pop pop} ifelse} forall
  /Encoding WinAnsiEncoding def
  currentdict
end
/Courier exch definefont pop
/Times-Italic findfont
dup length dict begin
  {1 index /FID ne {def} {pop pop} ifelse} forall
  /Encoding WinAnsiEncoding def
  currentdict
end
/Times-Italic exch definefont pop
/Times-Bold findfont
dup length dict begin
  {1 index /FID ne {def} {pop pop} ifelse} forall
  /Encoding WinAnsiEncoding def
  currentdict
end
/Times-Bold exch definefont pop
%FOPEndFontReencode
%%EndProlog
%%Page: 1 1
%%PageBoundingBox: 0 0 284 284
%%BeginPageSetup
[1 0 0 -1 0 284] CT
%%EndPageSetup
GS
[0.60127 0 0 0.60127 0 0.20001] CT
N
0 0 M
472 0 L
472 472 L
0 472 L
0 0 L
cp
clip
1 GC
N
0 0 472 472 re
f
GR
GS
[0.60127 0 0 0.60127 0 0.20001] CT
1 GC
N
0 0 472 472 re
f
GR
GS
[0.60127 0 0 0.60127 0 0.20001] CT
1 GC
N
70 407 M
428 407 L
428 49 L
70 49 L
cp
f
GR
GS
[0.60127 0 0 0.60127 0 0.20001] CT
0.873 GC
1 LJ
0.833 LW
N
70 407 M
70 49 L
S
GR
GS
[0.60127 0 0 0.60127 0 0.20001] CT
0.873 GC
1 LJ
0.833 LW
N
141.6 407 M
141.6 49 L
S
GR
GS
[0.60127 0 0 0.60127 0 0.20001] CT
0.873 GC
1 LJ
0.833 LW
N
213.2 407 M
213.2 49 L
S
GR
GS
[0.60127 0 0 0.60127 0 0.20001] CT
0.873 GC
1 LJ
0.833 LW
N
284.8 407 M
284.8 49 L
S
GR
GS
[0.60127 0 0 0.60127 0 0.20001] CT
0.873 GC
1 LJ
0.833 LW
N
356.4 407 M
356.4 49 L
S
GR
GS
[0.60127 0 0 0.60127 0 0.20001] CT
0.873 GC
1 LJ
0.833 LW
N
428 407 M
428 49 L
S
GR
GS
[0.60127 0 0 0.60127 0 0.20001] CT
0.873 GC
1 LJ
0.833 LW
N
428 407 M
70 407 L
S
GR
GS
[0.60127 0 0 0.60127 0 0.20001] CT
0.873 GC
1 LJ
0.833 LW
N
428 347.333 M
70 347.333 L
S
GR
GS
[0.60127 0 0 0.60127 0 0.20001] CT
0.873 GC
1 LJ
0.833 LW
N
428 287.667 M
70 287.667 L
S
GR
GS
[0.60127 0 0 0.60127 0 0.20001] CT
0.873 GC
1 LJ
0.833 LW
N
428 228 M
70 228 L
S
GR
GS
[0.60127 0 0 0.60127 0 0.20001] CT
0.873 GC
1 LJ
0.833 LW
N
428 168.333 M
70 168.333 L
S
GR
GS
[0.60127 0 0 0.60127 0 0.20001] CT
0.873 GC
1 LJ
0.833 LW
N
428 108.667 M
70 108.667 L
S
GR
GS
[0.60127 0 0 0.60127 0 0.20001] CT
0.873 GC
1 LJ
0.833 LW
N
428 49 M
70 49 L
S
GR
GS
[0.60127 0 0 0.60127 0 0.20001] CT
0.149 GC
2 setlinecap
1 LJ
0.833 LW
N
70 407 M
428 407 L
S
GR
GS
[0.60127 0 0 0.60127 0 0.20001] CT
0.149 GC
2 setlinecap
1 LJ
0.833 LW
N
70 49 M
428 49 L
S
GR
GS
[0.60127 0 0 0.60127 0 0.20001] CT
0.149 GC
2 setlinecap
1 LJ
0.833 LW
N
70 407 M
70 403.42 L
S
GR
GS
[0.60127 0 0 0.60127 0 0.20001] CT
0.149 GC
2 setlinecap
1 LJ
0.833 LW
N
141.6 407 M
141.6 403.42 L
S
GR
GS
[0.60127 0 0 0.60127 0 0.20001] CT
0.149 GC
2 setlinecap
1 LJ
0.833 LW
N
213.2 407 M
213.2 403.42 L
S
GR
GS
[0.60127 0 0 0.60127 0 0.20001] CT
0.149 GC
2 setlinecap
1 LJ
0.833 LW
N
284.8 407 M
284.8 403.42 L
S
GR
GS
[0.60127 0 0 0.60127 0 0.20001] CT
0.149 GC
2 setlinecap
1 LJ
0.833 LW
N
356.4 407 M
356.4 403.42 L
S
GR
GS
[0.60127 0 0 0.60127 0 0.20001] CT
0.149 GC
2 setlinecap
1 LJ
0.833 LW
N
428 407 M
428 403.42 L
S
GR
GS
[0.60127 0 0 0.60127 0 0.20001] CT
0.149 GC
2 setlinecap
1 LJ
0.833 LW
N
70 49 M
70 52.58 L
S
GR
GS
[0.60127 0 0 0.60127 0 0.20001] CT
0.149 GC
2 setlinecap
1 LJ
0.833 LW
N
141.6 49 M
141.6 52.58 L
S
GR
GS
[0.60127 0 0 0.60127 0 0.20001] CT
0.149 GC
2 setlinecap
1 LJ
0.833 LW
N
213.2 49 M
213.2 52.58 L
S
GR
GS
[0.60127 0 0 0.60127 0 0.20001] CT
0.149 GC
2 setlinecap
1 LJ
0.833 LW
N
284.8 49 M
284.8 52.58 L
S
GR
GS
[0.60127 0 0 0.60127 0 0.20001] CT
0.149 GC
2 setlinecap
1 LJ
0.833 LW
N
356.4 49 M
356.4 52.58 L
S
GR
GS
[0.60127 0 0 0.60127 0 0.20001] CT
0.149 GC
2 setlinecap
1 LJ
0.833 LW
N
428 49 M
428 52.58 L
S
GR
GS
[0.60127 0 0 0.60127 42.08898 248.92584] CT
0.149 GC
/Helvetica 16.667 F
GS
[1 0 0 1 0 0] CT
-5 18 moveto 
1 -1 scale
(0) t 
GR
GR
GS
[0.60127 0 0 0.60127 85.14 248.92584] CT
0.149 GC
/Helvetica 16.667 F
GS
[1 0 0 1 0 0] CT
-12 18 moveto 
1 -1 scale
(0.2) t 
GR
GR
GS
[0.60127 0 0 0.60127 128.19101 248.92584] CT
0.149 GC
/Helvetica 16.667 F
GS
[1 0 0 1 0 0] CT
-12 18 moveto 
1 -1 scale
(0.4) t 
GR
GR
GS
[0.60127 0 0 0.60127 171.24204 248.92584] CT
0.149 GC
/Helvetica 16.667 F
GS
[1 0 0 1 0 0] CT
-12 18 moveto 
1 -1 scale
(0.6) t 
GR
GR
GS
[0.60127 0 0 0.60127 214.29304 248.92584] CT
0.149 GC
/Helvetica 16.667 F
GS
[1 0 0 1 0 0] CT
-12 18 moveto 
1 -1 scale
(0.8) t 
GR
GR
GS
[0.60127 0 0 0.60127 257.34406 248.92584] CT
0.149 GC
/Helvetica 16.667 F
GS
[1 0 0 1 0 0] CT
-5 18 moveto 
1 -1 scale
(1) t 
GR
GR
GS
[0.60127 0 0 0.60127 149.71662 263.15594] CT
0.149 GC
N
-19.56 17.741 M
-19.56 17.397 -19.482 17.1 QT
-17.825 10.491 L
-20.247 10.491 L
-20.482 10.491 -20.482 10.194 QT
-20.388 9.678 -20.169 9.678 QT
-17.622 9.678 L
-16.7 5.928 L
-16.607 5.631 -16.341 5.42 QT
-16.075 5.209 -15.732 5.209 QT
-15.45 5.209 -15.247 5.381 QT
-15.044 5.553 -15.044 5.85 QT
-15.044 5.912 -15.052 5.951 QT
-15.06 5.991 -15.075 6.037 QT
-15.997 9.678 L
-13.622 9.678 L
-13.388 9.678 -13.388 9.991 QT
-13.403 10.037 -13.435 10.178 QT
-13.466 10.319 -13.521 10.405 QT
-13.575 10.491 -13.7 10.491 QT
-16.2 10.491 L
-17.841 17.147 L
-18.013 17.787 -18.013 18.256 QT
-18.013 19.256 -17.341 19.256 QT
-16.325 19.256 -15.552 18.303 QT
-14.778 17.35 -14.357 16.225 QT
-14.263 16.084 -14.169 16.084 QT
-13.888 16.084 L
-13.81 16.084 -13.755 16.147 QT
-13.7 16.209 -13.7 16.287 QT
-13.7 16.334 -13.716 16.35 QT
-14.216 17.741 -15.185 18.803 QT
-16.153 19.866 -17.403 19.866 QT
-18.31 19.866 -18.935 19.264 QT
-19.56 18.662 -19.56 17.741 QT
cp
f
GR
GS
[0.60127 0 0 0.60127 149.71662 263.15594] CT
0.149 GC
N
-11.259 24.897 M
-11.259 24.819 -11.243 24.803 QT
-3.243 2.631 L
-3.196 2.491 -3.087 2.42 QT
-2.977 2.35 -2.837 2.35 QT
-2.634 2.35 -2.501 2.475 QT
-2.368 2.6 -2.368 2.803 QT
-2.368 2.897 L
-10.368 25.069 L
-10.493 25.35 -10.806 25.35 QT
-10.993 25.35 -11.126 25.217 QT
-11.259 25.084 -11.259 24.897 QT
cp
f
GR
GS
[0.60127 0 0 0.60127 149.71662 263.15594] CT
0.149 GC
N
0.174 19.303 M
0.174 19.241 0.213 19.092 QT
0.252 18.944 0.314 18.866 QT
0.377 18.787 0.486 18.787 QT
2.47 18.787 3.111 18.678 QT
3.72 18.522 3.845 18.022 QT
7.002 5.381 L
7.095 5.1 7.095 4.881 QT
7.095 4.694 6.283 4.694 QT
4.955 4.694 L
3.408 4.694 2.572 5.17 QT
1.736 5.647 1.345 6.42 QT
0.955 7.194 0.33 8.959 QT
0.252 9.162 0.095 9.162 QT
-0.108 9.162 L
-0.342 9.162 -0.342 8.866 QT
1.299 4.1 L
1.345 3.881 1.533 3.881 QT
15.111 3.881 L
15.345 3.881 15.345 4.194 QT
14.58 8.959 L
14.58 9.022 14.502 9.092 QT
14.424 9.162 14.361 9.162 QT
14.142 9.162 L
13.924 9.162 13.924 8.866 QT
14.174 7.241 14.174 6.569 QT
14.174 5.756 13.838 5.342 QT
13.502 4.928 12.963 4.811 QT
12.424 4.694 11.549 4.694 QT
10.189 4.694 L
9.58 4.694 9.369 4.811 QT
9.158 4.928 9.002 5.491 QT
5.845 18.1 L
5.845 18.147 5.838 18.194 QT
5.83 18.241 5.799 18.303 QT
5.799 18.6 6.158 18.678 QT
6.752 18.787 8.705 18.787 QT
8.924 18.787 8.924 19.1 QT
8.845 19.412 8.799 19.506 QT
8.752 19.6 8.549 19.6 QT
0.408 19.6 L
0.174 19.6 0.174 19.303 QT
cp
f
GR
GS
[0.60127 0 0 0.60127 149.71662 263.15594] CT
0.149 GC
N
14.622 21.194 M
14.622 21.881 14.981 22.366 QT
15.34 22.85 15.997 22.85 QT
16.95 22.85 17.832 22.412 QT
18.715 21.975 19.262 21.209 QT
19.309 21.162 19.387 21.162 QT
19.465 21.162 19.551 21.248 QT
19.637 21.334 19.637 21.412 QT
19.637 21.475 19.606 21.506 QT
19.012 22.334 18.02 22.811 QT
17.028 23.287 15.965 23.287 QT
15.2 23.287 14.614 22.92 QT
14.028 22.553 13.707 21.944 QT
13.387 21.334 13.387 20.569 QT
13.387 19.491 13.989 18.428 QT
14.59 17.366 15.59 16.694 QT
16.59 16.022 17.7 16.022 QT
18.418 16.022 18.989 16.373 QT
19.559 16.725 19.559 17.397 QT
19.559 17.834 19.309 18.147 QT
19.059 18.459 18.622 18.459 QT
18.372 18.459 18.192 18.295 QT
18.012 18.131 18.012 17.881 QT
18.012 17.506 18.286 17.241 QT
18.559 16.975 18.934 16.975 QT
18.965 16.975 L
18.778 16.694 18.418 16.569 QT
18.059 16.444 17.684 16.444 QT
16.747 16.444 16.043 17.241 QT
15.34 18.037 14.981 19.155 QT
14.622 20.272 14.622 21.194 QT
cp
f
GR
GS
[0.60127 0 0 0.60127 0 0.20001] CT
0.149 GC
2 setlinecap
1 LJ
0.833 LW
N
70 407 M
70 49 L
S
GR
GS
[0.60127 0 0 0.60127 0 0.20001] CT
0.149 GC
2 setlinecap
1 LJ
0.833 LW
N
428 407 M
428 49 L
S
GR
GS
[0.60127 0 0 0.60127 0 0.20001] CT
0.149 GC
2 setlinecap
1 LJ
0.833 LW
N
70 407 M
73.58 407 L
S
GR
GS
[0.60127 0 0 0.60127 0 0.20001] CT
0.149 GC
2 setlinecap
1 LJ
0.833 LW
N
70 347.333 M
73.58 347.333 L
S
GR
GS
[0.60127 0 0 0.60127 0 0.20001] CT
0.149 GC
2 setlinecap
1 LJ
0.833 LW
N
70 287.667 M
73.58 287.667 L
S
GR
GS
[0.60127 0 0 0.60127 0 0.20001] CT
0.149 GC
2 setlinecap
1 LJ
0.833 LW
N
70 228 M
73.58 228 L
S
GR
GS
[0.60127 0 0 0.60127 0 0.20001] CT
0.149 GC
2 setlinecap
1 LJ
0.833 LW
N
70 168.333 M
73.58 168.333 L
S
GR
GS
[0.60127 0 0 0.60127 0 0.20001] CT
0.149 GC
2 setlinecap
1 LJ
0.833 LW
N
70 108.667 M
73.58 108.667 L
S
GR
GS
[0.60127 0 0 0.60127 0 0.20001] CT
0.149 GC
2 setlinecap
1 LJ
0.833 LW
N
70 49 M
73.58 49 L
S
GR
GS
[0.60127 0 0 0.60127 0 0.20001] CT
0.149 GC
2 setlinecap
1 LJ
0.833 LW
N
428 407 M
424.42 407 L
S
GR
GS
[0.60127 0 0 0.60127 0 0.20001] CT
0.149 GC
2 setlinecap
1 LJ
0.833 LW
N
428 347.333 M
424.42 347.333 L
S
GR
GS
[0.60127 0 0 0.60127 0 0.20001] CT
0.149 GC
2 setlinecap
1 LJ
0.833 LW
N
428 287.667 M
424.42 287.667 L
S
GR
GS
[0.60127 0 0 0.60127 0 0.20001] CT
0.149 GC
2 setlinecap
1 LJ
0.833 LW
N
428 228 M
424.42 228 L
S
GR
GS
[0.60127 0 0 0.60127 0 0.20001] CT
0.149 GC
2 setlinecap
1 LJ
0.833 LW
N
428 168.333 M
424.42 168.333 L
S
GR
GS
[0.60127 0 0 0.60127 0 0.20001] CT
0.149 GC
2 setlinecap
1 LJ
0.833 LW
N
428 108.667 M
424.42 108.667 L
S
GR
GS
[0.60127 0 0 0.60127 0 0.20001] CT
0.149 GC
2 setlinecap
1 LJ
0.833 LW
N
428 49 M
424.42 49 L
S
GR
GS
[0.60127 0 0 0.60127 38.08051 244.91737] CT
0.149 GC
/Helvetica 16.667 F
GS
[1 0 0 1 0 0] CT
-30 7 moveto 
1 -1 scale
(-1.5) t 
GR
GR
GS
[0.60127 0 0 0.60127 38.08051 209.04153] CT
0.149 GC
/Helvetica 16.667 F
GS
[1 0 0 1 0 0] CT
-16 7 moveto 
1 -1 scale
(-1) t 
GR
GR
GS
[0.60127 0 0 0.60127 38.08051 173.16568] CT
0.149 GC
/Helvetica 16.667 F
GS
[1 0 0 1 0 0] CT
-30 7 moveto 
1 -1 scale
(-0.5) t 
GR
GR
GS
[0.60127 0 0 0.60127 38.08051 137.28984] CT
0.149 GC
/Helvetica 16.667 F
GS
[1 0 0 1 0 0] CT
-10 7 moveto 
1 -1 scale
(0) t 
GR
GR
GS
[0.60127 0 0 0.60127 38.08051 101.41399] CT
0.149 GC
/Helvetica 16.667 F
GS
[1 0 0 1 0 0] CT
-24 7 moveto 
1 -1 scale
(0.5) t 
GR
GR
GS
[0.60127 0 0 0.60127 38.08051 65.53814] CT
0.149 GC
/Helvetica 16.667 F
GS
[1 0 0 1 0 0] CT
-10 7 moveto 
1 -1 scale
(1) t 
GR
GR
GS
[0.60127 0 0 0.60127 38.08051 29.6623] CT
0.149 GC
/Helvetica 16.667 F
GS
[1 0 0 1 0 0] CT
-24 7 moveto 
1 -1 scale
(1.5) t 
GR
GR
GS
[0 -0.60127 0.60127 0 17.03602 137.28974] CT
0.149 GC
N
-22.195 -10.9 M
-22.195 -11.65 -21.992 -12.447 QT
-21.789 -13.244 -21.421 -14.213 QT
-21.054 -15.181 -20.789 -15.9 QT
-20.492 -16.744 -20.492 -17.291 QT
-20.492 -17.963 -20.992 -17.963 QT
-21.898 -17.963 -22.492 -17.025 QT
-23.086 -16.088 -23.367 -14.931 QT
-23.414 -14.791 -23.554 -14.791 QT
-23.82 -14.791 L
-24.007 -14.791 -24.007 -15.009 QT
-24.007 -15.072 L
-23.648 -16.447 -22.882 -17.502 QT
-22.117 -18.556 -20.945 -18.556 QT
-20.132 -18.556 -19.562 -18.017 QT
-18.992 -17.478 -18.992 -16.65 QT
-18.992 -16.228 -19.179 -15.759 QT
-19.289 -15.478 -19.648 -14.533 QT
-20.007 -13.588 -20.195 -12.97 QT
-20.382 -12.353 -20.507 -11.759 QT
-20.632 -11.166 -20.632 -10.572 QT
-20.632 -9.806 -20.304 -9.275 QT
-19.976 -8.744 -19.257 -8.744 QT
-17.789 -8.744 -16.664 -10.572 QT
-16.648 -10.65 -16.632 -10.736 QT
-16.617 -10.822 -16.601 -10.9 QT
-14.945 -17.572 L
-14.867 -17.884 -14.586 -18.103 QT
-14.304 -18.322 -13.992 -18.322 QT
-13.711 -18.322 -13.5 -18.142 QT
-13.289 -17.963 -13.289 -17.666 QT
-13.289 -17.525 -13.304 -17.478 QT
-14.976 -10.853 L
-15.132 -10.181 -15.132 -9.744 QT
-15.132 -8.744 -14.476 -8.744 QT
-13.726 -8.744 -13.359 -9.658 QT
-12.992 -10.572 -12.742 -11.775 QT
-12.695 -11.916 -12.554 -11.916 QT
-12.273 -11.916 L
-12.195 -11.916 -12.132 -11.838 QT
-12.07 -11.759 -12.07 -11.697 QT
-12.32 -10.697 -12.554 -9.994 QT
-12.789 -9.291 -13.281 -8.713 QT
-13.773 -8.134 -14.507 -8.134 QT
-15.242 -8.134 -15.82 -8.541 QT
-16.398 -8.947 -16.601 -9.619 QT
-17.132 -8.947 -17.828 -8.541 QT
-18.523 -8.134 -19.304 -8.134 QT
-20.617 -8.134 -21.406 -8.861 QT
-22.195 -9.588 -22.195 -10.9 QT
cp
f
GR
GS
[0 -0.60127 0.60127 0 17.03602 137.28974] CT
0.149 GC
N
-9.791 -4.9 M
-9.791 -5.463 L
-7.791 -5.463 -7.791 -5.978 QT
-7.791 -14.369 L
-8.619 -13.978 -9.884 -13.978 QT
-9.884 -14.541 L
-7.916 -14.541 -6.916 -15.556 QT
-6.697 -15.556 L
-6.634 -15.556 -6.588 -15.517 QT
-6.541 -15.478 -6.541 -15.416 QT
-6.541 -5.978 L
-6.541 -5.463 -4.541 -5.463 QT
-4.541 -4.9 L
-9.791 -4.9 L
cp
f
GR
GS
[0 -0.60127 0.60127 0 17.03602 137.28974] CT
0.149 GC
N
5.183 -2.697 M
3.902 -3.713 2.98 -5.017 QT
2.058 -6.322 1.465 -7.806 QT
0.871 -9.291 0.582 -10.908 QT
0.293 -12.525 0.293 -14.15 QT
0.293 -15.806 0.582 -17.424 QT
0.871 -19.041 1.472 -20.533 QT
2.074 -22.025 3.011 -23.33 QT
3.949 -24.634 5.183 -25.603 QT
5.183 -25.65 5.308 -25.65 QT
5.511 -25.65 L
5.59 -25.65 5.644 -25.588 QT
5.699 -25.525 5.699 -25.447 QT
5.699 -25.353 5.652 -25.306 QT
4.527 -24.197 3.777 -22.939 QT
3.027 -21.681 2.574 -20.259 QT
2.121 -18.838 1.918 -17.322 QT
1.715 -15.806 1.715 -14.15 QT
1.715 -6.838 5.621 -3.041 QT
5.699 -2.978 5.699 -2.853 QT
5.699 -2.791 5.636 -2.72 QT
5.574 -2.65 5.511 -2.65 QT
5.308 -2.65 L
5.183 -2.65 5.183 -2.697 QT
cp
f
GR
GS
[0 -0.60127 0.60127 0 17.03602 137.28974] CT
0.149 GC
N
8.554 -10.259 M
8.554 -10.603 8.632 -10.9 QT
10.289 -17.509 L
7.867 -17.509 L
7.632 -17.509 7.632 -17.806 QT
7.726 -18.322 7.945 -18.322 QT
10.492 -18.322 L
11.414 -22.072 L
11.507 -22.369 11.773 -22.58 QT
12.039 -22.791 12.382 -22.791 QT
12.664 -22.791 12.867 -22.619 QT
13.07 -22.447 13.07 -22.15 QT
13.07 -22.088 13.062 -22.049 QT
13.054 -22.009 13.039 -21.963 QT
12.117 -18.322 L
14.492 -18.322 L
14.726 -18.322 14.726 -18.009 QT
14.71 -17.963 14.679 -17.822 QT
14.648 -17.681 14.593 -17.595 QT
14.539 -17.509 14.414 -17.509 QT
11.914 -17.509 L
10.273 -10.853 L
10.101 -10.213 10.101 -9.744 QT
10.101 -8.744 10.773 -8.744 QT
11.789 -8.744 12.562 -9.697 QT
13.335 -10.65 13.757 -11.775 QT
13.851 -11.916 13.945 -11.916 QT
14.226 -11.916 L
14.304 -11.916 14.359 -11.853 QT
14.414 -11.791 14.414 -11.713 QT
14.414 -11.666 14.398 -11.65 QT
13.898 -10.259 12.929 -9.197 QT
11.96 -8.134 10.71 -8.134 QT
9.804 -8.134 9.179 -8.736 QT
8.554 -9.338 8.554 -10.259 QT
cp
f
GR
GS
[0 -0.60127 0.60127 0 17.03602 137.28974] CT
0.149 GC
N
17.058 -2.65 M
16.855 -2.65 16.855 -2.853 QT
16.855 -2.947 16.902 -2.994 QT
20.824 -6.838 20.824 -14.15 QT
20.824 -21.463 16.933 -25.259 QT
16.855 -25.306 16.855 -25.447 QT
16.855 -25.525 16.918 -25.588 QT
16.98 -25.65 17.058 -25.65 QT
17.261 -25.65 L
17.34 -25.65 17.371 -25.603 QT
19.027 -24.306 20.129 -22.439 QT
21.23 -20.572 21.738 -18.463 QT
22.246 -16.353 22.246 -14.15 QT
22.246 -12.525 21.972 -10.947 QT
21.699 -9.369 21.097 -7.838 QT
20.496 -6.306 19.574 -5.009 QT
18.652 -3.713 17.371 -2.697 QT
17.34 -2.65 17.261 -2.65 QT
17.058 -2.65 L
cp
f
GR
GS
[0.60127 0 0 0.60127 0 0.20001] CT
0 0.447 0.741 RC
1 LJ
2.5 LW
N
70.004 78.24 M
77.47 78.24 L
86.276 78.24 L
90.535 78.24 L
94.795 78.24 L
96.733 78.24 L
97.702 78.24 L
98.672 78.24 L
99.156 78.24 L
99.399 78.24 L
99.52 78.24 L
99.641 78.24 L
99.701 78.24 L
99.762 78.24 L
99.792 78.24 L
99.808 78.24 L
99.823 78.24 L
99.838 150.2 L
99.853 150.2 L
99.868 150.2 L
99.883 150.2 L
99.914 150.2 L
99.944 150.2 L
100.004 150.2 L
100.126 150.2 L
100.368 150.2 L
100.61 150.2 L
101.095 150.2 L
101.579 150.2 L
102.549 150.2 L
104.544 150.2 L
106.54 150.2 L
110.532 150.2 L
118.821 150.2 L
123.31 150.2 L
125.554 150.2 L
127.799 150.2 L
128.711 150.2 L
129.167 150.2 L
129.395 150.2 L
129.509 150.2 L
129.566 150.2 L
129.594 150.2 L
129.623 150.2 L
129.637 150.2 L
129.651 150.2 L
129.665 150.2 L
129.68 78.24 L
129.694 78.24 L
129.708 78.24 L
129.737 78.24 L
129.794 78.24 L
129.851 78.24 L
129.965 78.24 L
130.079 78.24 L
130.306 78.24 L
130.534 78.24 L
130.99 78.24 L
131.446 78.24 L
132.358 78.24 L
133.27 78.24 L
135.094 78.24 L
139.628 78.24 L
144.162 78.24 L
151.366 78.24 L
155.291 78.24 L
157.253 78.24 L
158.235 78.24 L
158.725 78.24 L
158.97 78.24 L
159.216 78.24 L
159.347 78.24 L
159.413 78.24 L
159.446 78.24 L
159.462 78.24 L
159.479 78.24 L
159.495 78.24 L
159.512 150.2 L
159.528 150.2 L
159.545 150.2 L
159.578 150.2 L
159.611 150.2 L
159.676 150.2 L
159.742 150.2 L
159.874 150.2 L
160.005 150.2 L
160.269 150.2 L
160.795 150.2 L
161.322 150.2 L
162.374 150.2 L
163.427 150.2 L
165.533 150.2 L
167.639 150.2 L
171.55 150.2 L
175.46 150.2 L
179.686 150.2 L
183.912 150.2 L
186.181 150.2 L
187.315 150.2 L
187.882 150.2 L
188.45 150.2 L
188.733 150.2 L
189.017 150.2 L
189.159 150.2 L
189.23 150.2 L
189.265 150.2 L
189.283 150.2 L
189.3 150.2 L
189.318 150.2 L
189.336 78.24 L
189.354 78.24 L
189.371 78.24 L
189.407 78.24 L
189.442 78.24 L
189.513 78.24 L
189.584 78.24 L
189.726 78.24 L
189.868 78.24 L
190.151 78.24 L
190.719 78.24 L
191.853 78.24 L
192.988 78.24 L
194.787 78.24 L
196.586 78.24 L
200.184 78.24 L
208.91 78.24 L
212.683 78.24 L
214.57 78.24 L
216.457 78.24 L
217.527 78.24 L
218.062 78.24 L
218.598 78.24 L
218.865 78.24 L
218.999 78.24 L
219.066 78.24 L
219.099 78.24 L
219.133 78.24 L
219.15 78.24 L
219.166 78.24 L
219.183 150.2 L
219.2 150.2 L
219.217 150.2 L
219.233 150.2 L
219.267 150.2 L
219.334 150.2 L
219.401 150.2 L
219.534 150.2 L
219.668 150.2 L
219.936 150.2 L
220.203 150.2 L
220.739 150.2 L
221.809 150.2 L
222.88 150.2 L
225.021 150.2 L
228.875 150.2 L
232.729 150.2 L
236.76 150.2 L
240.79 150.2 L
242.843 150.2 L
244.896 150.2 L
245.922 150.2 L
246.949 150.2 L
247.462 150.2 L
247.975 150.2 L
248.232 150.2 L
248.489 150.2 L
248.617 150.2 L
248.745 150.2 L
248.809 150.2 L
248.873 150.2 L
248.906 150.2 L
248.938 150.2 L
248.954 150.2 L
248.97 150.2 L
248.986 150.2 L
249.002 305.8 L
249.018 305.8 L
249.034 305.8 L
249.065 305.8 L
249.129 305.8 L
249.256 305.8 L
249.51 305.8 L
250.019 305.8 L
251.036 305.8 L
253.071 305.8 L
257.14 305.8 L
265.274 305.8 L
269.504 305.8 L
273.734 305.8 L
275.687 305.8 L
276.664 305.8 L
277.64 305.8 L
278.129 305.8 L
278.373 305.8 L
278.495 305.8 L
278.617 305.8 L
278.678 305.8 L
278.739 305.8 L
278.77 305.8 L
278.8 305.8 L
278.815 305.8 L
278.831 305.8 L
278.846 377.76 L
278.861 377.76 L
278.876 377.76 L
278.892 377.76 L
278.922 377.76 L
278.983 377.76 L
279.105 377.76 L
279.35 377.76 L
279.594 377.76 L
280.082 377.76 L
280.57 377.76 L
281.547 377.76 L
283.744 377.76 L
285.941 377.76 L
290.335 377.76 L
297.819 377.76 L
301.818 377.76 L
303.817 377.76 L
305.816 377.76 L
306.851 377.76 L
307.368 377.76 L
307.885 377.76 L
308.144 377.76 L
308.402 377.76 L
308.532 377.76 L
308.596 377.76 L
308.629 377.76 L
308.645 377.76 L
308.661 377.76 L
308.677 305.8 L
308.693 305.8 L
308.709 305.8 L
308.726 305.8 L
308.758 305.8 L
308.79 305.8 L
308.855 305.8 L
308.92 305.8 L
309.049 305.8 L
309.178 305.8 L
309.437 305.8 L
309.954 305.8 L
310.989 305.8 L
312.023 305.8 L
314.092 305.8 L
318.187 305.8 L
322.282 305.8 L
326.323 305.8 L
330.365 305.8 L
332.4 305.8 L
334.436 305.8 L
335.454 305.8 L
336.472 305.8 L
336.98 305.8 L
337.489 305.8 L
337.744 305.8 L
337.998 305.8 L
338.126 305.8 L
338.253 305.8 L
338.316 305.8 L
338.38 305.8 L
338.412 305.8 L
338.444 305.8 L
338.459 305.8 L
338.475 305.8 L
338.491 305.8 L
338.507 377.76 L
338.523 377.76 L
338.539 377.76 L
338.571 377.76 L
338.634 377.76 L
338.761 377.76 L
339.015 377.76 L
339.523 377.76 L
340.54 377.76 L
342.572 377.76 L
346.637 377.76 L
355.367 377.76 L
359.138 377.76 L
362.91 377.76 L
364.848 377.76 L
365.817 377.76 L
366.786 377.76 L
367.271 377.76 L
367.755 377.76 L
367.997 377.76 L
368.118 377.76 L
368.179 377.76 L
368.24 377.76 L
368.27 377.76 L
368.3 377.76 L
368.315 377.76 L
368.33 377.76 L
368.346 305.8 L
368.361 305.8 L
368.376 305.8 L
368.391 305.8 L
368.421 305.8 L
368.482 305.8 L
368.603 305.8 L
368.724 305.8 L
368.966 305.8 L
369.209 305.8 L
369.693 305.8 L
370.662 305.8 L
372.792 305.8 L
374.922 305.8 L
379.182 305.8 L
387.72 305.8 L
391.588 305.8 L
393.521 305.8 L
395.455 305.8 L
396.223 305.8 L
396.99 305.8 L
397.374 305.8 L
397.758 305.8 L
397.95 305.8 L
398.046 305.8 L
398.094 305.8 L
398.118 305.8 L
398.142 305.8 L
398.154 305.8 L
398.166 305.8 L
398.178 377.76 L
398.19 377.76 L
398.202 377.76 L
398.214 377.76 L
398.238 377.76 L
398.286 377.76 L
398.334 377.76 L
398.43 377.76 L
398.526 377.76 L
398.717 377.76 L
398.909 377.76 L
399.293 377.76 L
400.061 377.76 L
401.596 377.76 L
406.662 377.76 L
411.727 377.76 L
419.713 377.76 L
428 377.76 L
S
GR
%%Trailer
%%Pages: 1
%%EOF
