%!PS-Adobe-3.0 EPSF-3.0
%%Creator: (MATLAB, The Mathworks, Inc. Version 9.2.0.538062 \(R2017a\). Operating System: Windows 8)
%%Title: (C:/Users/chees/Google Drive/TesiMagistrale/latex - Copia/figures/SymbolPredDraw.eps)
%%CreationDate: 2017-07-22T18:21:00
%%Pages: (atend)
%%BoundingBox: 0 0 573 337
%%LanguageLevel: 3
%%EndComments
%%BeginProlog
%%BeginResource: procset (Apache XML Graphics Std ProcSet) 1.2 0
%%Version: 1.2 0
%%Copyright: (Copyright 2001-2003,2010 The Apache Software Foundation. License terms: http://www.apache.org/licenses/LICENSE-2.0)
/bd{bind def}bind def
/ld{load def}bd
/GR/grestore ld
/M/moveto ld
/LJ/setlinejoin ld
/C/curveto ld
/f/fill ld
/LW/setlinewidth ld
/GC/setgray ld
/t/show ld
/N/newpath ld
/CT/concat ld
/cp/closepath ld
/S/stroke ld
/L/lineto ld
/CC/setcmykcolor ld
/A/ashow ld
/GS/gsave ld
/RC/setrgbcolor ld
/RM/rmoveto ld
/ML/setmiterlimit ld
/re {4 2 roll M
1 index 0 rlineto
0 exch rlineto
neg 0 rlineto
cp } bd
/_ctm matrix def
/_tm matrix def
/BT { _ctm currentmatrix pop matrix _tm copy pop 0 0 moveto } bd
/ET { _ctm setmatrix } bd
/iTm { _ctm setmatrix _tm concat } bd
/Tm { _tm astore pop iTm 0 0 moveto } bd
/ux 0.0 def
/uy 0.0 def
/F {
  /Tp exch def
  /Tf exch def
  Tf findfont Tp scalefont setfont
  /cf Tf def  /cs Tp def
} bd
/ULS {currentpoint /uy exch def /ux exch def} bd
/ULE {
  /Tcx currentpoint pop def
  gsave
  newpath
  cf findfont cs scalefont dup
  /FontMatrix get 0 get /Ts exch def /FontInfo get dup
  /UnderlinePosition get Ts mul /To exch def
  /UnderlineThickness get Ts mul /Tt exch def
  ux uy To add moveto  Tcx uy To add lineto
  Tt setlinewidth stroke
  grestore
} bd
/OLE {
  /Tcx currentpoint pop def
  gsave
  newpath
  cf findfont cs scalefont dup
  /FontMatrix get 0 get /Ts exch def /FontInfo get dup
  /UnderlinePosition get Ts mul /To exch def
  /UnderlineThickness get Ts mul /Tt exch def
  ux uy To add cs add moveto Tcx uy To add cs add lineto
  Tt setlinewidth stroke
  grestore
} bd
/SOE {
  /Tcx currentpoint pop def
  gsave
  newpath
  cf findfont cs scalefont dup
  /FontMatrix get 0 get /Ts exch def /FontInfo get dup
  /UnderlinePosition get Ts mul /To exch def
  /UnderlineThickness get Ts mul /Tt exch def
  ux uy To add cs 10 mul 26 idiv add moveto Tcx uy To add cs 10 mul 26 idiv add lineto
  Tt setlinewidth stroke
  grestore
} bd
/QT {
/Y22 exch store
/X22 exch store
/Y21 exch store
/X21 exch store
currentpoint
/Y21 load 2 mul add 3 div exch
/X21 load 2 mul add 3 div exch
/X21 load 2 mul /X22 load add 3 div
/Y21 load 2 mul /Y22 load add 3 div
/X22 load /Y22 load curveto
} bd
/SSPD {
dup length /d exch dict def
{
/v exch def
/k exch def
currentpagedevice k known {
/cpdv currentpagedevice k get def
v cpdv ne {
/upd false def
/nullv v type /nulltype eq def
/nullcpdv cpdv type /nulltype eq def
nullv nullcpdv or
{
/upd true def
} {
/sametype v type cpdv type eq def
sametype {
v type /arraytype eq {
/vlen v length def
/cpdvlen cpdv length def
vlen cpdvlen eq {
0 1 vlen 1 sub {
/i exch def
/obj v i get def
/cpdobj cpdv i get def
obj cpdobj ne {
/upd true def
exit
} if
} for
} {
/upd true def
} ifelse
} {
v type /dicttype eq {
v {
/dv exch def
/dk exch def
/cpddv cpdv dk get def
dv cpddv ne {
/upd true def
exit
} if
} forall
} {
/upd true def
} ifelse
} ifelse
} if
} ifelse
upd true eq {
d k v put
} if
} if
} if
} forall
d length 0 gt {
d setpagedevice
} if
} bd
/RE { % /NewFontName [NewEncodingArray] /FontName RE -
  findfont dup length dict begin
  {
    1 index /FID ne
    {def} {pop pop} ifelse
  } forall
  /Encoding exch def
  /FontName 1 index def
  currentdict definefont pop
  end
} bind def
%%EndResource
%%BeginResource: procset (Apache XML Graphics EPS ProcSet) 1.0 0
%%Version: 1.0 0
%%Copyright: (Copyright 2002-2003 The Apache Software Foundation. License terms: http://www.apache.org/licenses/LICENSE-2.0)
/BeginEPSF { %def
/b4_Inc_state save def         % Save state for cleanup
/dict_count countdictstack def % Count objects on dict stack
/op_count count 1 sub def      % Count objects on operand stack
userdict begin                 % Push userdict on dict stack
/showpage { } def              % Redefine showpage, { } = null proc
0 setgray 0 setlinecap         % Prepare graphics state
1 setlinewidth 0 setlinejoin
10 setmiterlimit [ ] 0 setdash newpath
/languagelevel where           % If level not equal to 1 then
{pop languagelevel             % set strokeadjust and
1 ne                           % overprint to their defaults.
{false setstrokeadjust false setoverprint
} if
} if
} bd
/EndEPSF { %def
count op_count sub {pop} repeat            % Clean up stacks
countdictstack dict_count sub {end} repeat
b4_Inc_state restore
} bd
%%EndResource
%FOPBeginFontDict
%%IncludeResource: font Courier-Bold
%%IncludeResource: font Helvetica
%%IncludeResource: font Courier-BoldOblique
%%IncludeResource: font Courier-Oblique
%%IncludeResource: font Times-Roman
%%IncludeResource: font Helvetica-BoldOblique
%%IncludeResource: font Helvetica-Bold
%%IncludeResource: font Helvetica-Oblique
%%IncludeResource: font Times-BoldItalic
%%IncludeResource: font Courier
%%IncludeResource: font Times-Italic
%%IncludeResource: font Times-Bold
%%IncludeResource: font Symbol
%%IncludeResource: font ZapfDingbats
%FOPEndFontDict
%%BeginResource: encoding WinAnsiEncoding
/WinAnsiEncoding [
/.notdef /.notdef /.notdef /.notdef /.notdef
/.notdef /.notdef /.notdef /.notdef /.notdef
/.notdef /.notdef /.notdef /.notdef /.notdef
/.notdef /.notdef /.notdef /.notdef /.notdef
/.notdef /.notdef /.notdef /.notdef /.notdef
/.notdef /.notdef /.notdef /.notdef /.notdef
/.notdef /.notdef /space /exclam /quotedbl
/numbersign /dollar /percent /ampersand /quotesingle
/parenleft /parenright /asterisk /plus /comma
/hyphen /period /slash /zero /one
/two /three /four /five /six
/seven /eight /nine /colon /semicolon
/less /equal /greater /question /at
/A /B /C /D /E
/F /G /H /I /J
/K /L /M /N /O
/P /Q /R /S /T
/U /V /W /X /Y
/Z /bracketleft /backslash /bracketright /asciicircum
/underscore /quoteleft /a /b /c
/d /e /f /g /h
/i /j /k /l /m
/n /o /p /q /r
/s /t /u /v /w
/x /y /z /braceleft /bar
/braceright /asciitilde /bullet /Euro /bullet
/quotesinglbase /florin /quotedblbase /ellipsis /dagger
/daggerdbl /circumflex /perthousand /Scaron /guilsinglleft
/OE /bullet /Zcaron /bullet /bullet
/quoteleft /quoteright /quotedblleft /quotedblright /bullet
/endash /emdash /asciitilde /trademark /scaron
/guilsinglright /oe /bullet /zcaron /Ydieresis
/space /exclamdown /cent /sterling /currency
/yen /brokenbar /section /dieresis /copyright
/ordfeminine /guillemotleft /logicalnot /sfthyphen /registered
/macron /degree /plusminus /twosuperior /threesuperior
/acute /mu /paragraph /middot /cedilla
/onesuperior /ordmasculine /guillemotright /onequarter /onehalf
/threequarters /questiondown /Agrave /Aacute /Acircumflex
/Atilde /Adieresis /Aring /AE /Ccedilla
/Egrave /Eacute /Ecircumflex /Edieresis /Igrave
/Iacute /Icircumflex /Idieresis /Eth /Ntilde
/Ograve /Oacute /Ocircumflex /Otilde /Odieresis
/multiply /Oslash /Ugrave /Uacute /Ucircumflex
/Udieresis /Yacute /Thorn /germandbls /agrave
/aacute /acircumflex /atilde /adieresis /aring
/ae /ccedilla /egrave /eacute /ecircumflex
/edieresis /igrave /iacute /icircumflex /idieresis
/eth /ntilde /ograve /oacute /ocircumflex
/otilde /odieresis /divide /oslash /ugrave
/uacute /ucircumflex /udieresis /yacute /thorn
/ydieresis
] def
%%EndResource
%FOPBeginFontReencode
/Courier-Bold findfont
dup length dict begin
  {1 index /FID ne {def} {pop pop} ifelse} forall
  /Encoding WinAnsiEncoding def
  currentdict
end
/Courier-Bold exch definefont pop
/Helvetica findfont
dup length dict begin
  {1 index /FID ne {def} {pop pop} ifelse} forall
  /Encoding WinAnsiEncoding def
  currentdict
end
/Helvetica exch definefont pop
/Courier-BoldOblique findfont
dup length dict begin
  {1 index /FID ne {def} {pop pop} ifelse} forall
  /Encoding WinAnsiEncoding def
  currentdict
end
/Courier-BoldOblique exch definefont pop
/Courier-Oblique findfont
dup length dict begin
  {1 index /FID ne {def} {pop pop} ifelse} forall
  /Encoding WinAnsiEncoding def
  currentdict
end
/Courier-Oblique exch definefont pop
/Times-Roman findfont
dup length dict begin
  {1 index /FID ne {def} {pop pop} ifelse} forall
  /Encoding WinAnsiEncoding def
  currentdict
end
/Times-Roman exch definefont pop
/Helvetica-BoldOblique findfont
dup length dict begin
  {1 index /FID ne {def} {pop pop} ifelse} forall
  /Encoding WinAnsiEncoding def
  currentdict
end
/Helvetica-BoldOblique exch definefont pop
/Helvetica-Bold findfont
dup length dict begin
  {1 index /FID ne {def} {pop pop} ifelse} forall
  /Encoding WinAnsiEncoding def
  currentdict
end
/Helvetica-Bold exch definefont pop
/Helvetica-Oblique findfont
dup length dict begin
  {1 index /FID ne {def} {pop pop} ifelse} forall
  /Encoding WinAnsiEncoding def
  currentdict
end
/Helvetica-Oblique exch definefont pop
/Times-BoldItalic findfont
dup length dict begin
  {1 index /FID ne {def} {pop pop} ifelse} forall
  /Encoding WinAnsiEncoding def
  currentdict
end
/Times-BoldItalic exch definefont pop
/Courier findfont
dup length dict begin
  {1 index /FID ne {def} {pop pop} ifelse} forall
  /Encoding WinAnsiEncoding def
  currentdict
end
/Courier exch definefont pop
/Times-Italic findfont
dup length dict begin
  {1 index /FID ne {def} {pop pop} ifelse} forall
  /Encoding WinAnsiEncoding def
  currentdict
end
/Times-Italic exch definefont pop
/Times-Bold findfont
dup length dict begin
  {1 index /FID ne {def} {pop pop} ifelse} forall
  /Encoding WinAnsiEncoding def
  currentdict
end
/Times-Bold exch definefont pop
%FOPEndFontReencode
%%EndProlog
%%Page: 1 1
%%PageBoundingBox: 0 0 573 337
%%BeginPageSetup
[1 0 0 -1 0 337] CT
%%EndPageSetup
GS
[0.6 0 0 0.6 0 -0.20001] CT
1 GC
N
0 0 955 562 re
f
GR
GS
[0.6 0 0 0.6 0 -0.20001] CT
1 GC
N
0 0 955 562 re
f
GR
GS
[0.6 0 0 0.6 0 -0.20001] CT
1 GC
N
124 500 M
864 500 L
864 42 L
124 42 L
cp
f
GR
GS
[0.6 0 0 0.6 0 -0.20001] CT
0.149 GC
2 setlinecap
1 LJ
0.833 LW
N
124 500 M
864 500 L
S
GR
GS
[0.6 0 0 0.6 0 -0.20001] CT
0.149 GC
2 setlinecap
1 LJ
0.833 LW
N
229.714 500 M
229.714 492.6 L
S
GR
GS
[0.6 0 0 0.6 0 -0.20001] CT
0.149 GC
2 setlinecap
1 LJ
0.833 LW
N
335.429 500 M
335.429 492.6 L
S
GR
GS
[0.6 0 0 0.6 0 -0.20001] CT
0.149 GC
2 setlinecap
1 LJ
0.833 LW
N
758.286 500 M
758.286 492.6 L
S
GR
GS
[0.6 0 0 0.6 137.82857 304.6] CT
0.149 GC
N
-7.458 17.741 M
-7.458 17.397 -7.38 17.1 QT
-5.723 10.491 L
-8.145 10.491 L
-8.38 10.491 -8.38 10.194 QT
-8.286 9.678 -8.067 9.678 QT
-5.52 9.678 L
-4.598 5.928 L
-4.505 5.631 -4.239 5.42 QT
-3.973 5.209 -3.63 5.209 QT
-3.348 5.209 -3.145 5.381 QT
-2.942 5.553 -2.942 5.85 QT
-2.942 5.912 -2.95 5.951 QT
-2.958 5.991 -2.973 6.037 QT
-3.895 9.678 L
-1.52 9.678 L
-1.286 9.678 -1.286 9.991 QT
-1.302 10.037 -1.333 10.178 QT
-1.364 10.319 -1.419 10.405 QT
-1.473 10.491 -1.598 10.491 QT
-4.098 10.491 L
-5.739 17.147 L
-5.911 17.787 -5.911 18.256 QT
-5.911 19.256 -5.239 19.256 QT
-4.223 19.256 -3.45 18.303 QT
-2.677 17.35 -2.255 16.225 QT
-2.161 16.084 -2.067 16.084 QT
-1.786 16.084 L
-1.708 16.084 -1.653 16.147 QT
-1.598 16.209 -1.598 16.287 QT
-1.598 16.334 -1.614 16.35 QT
-2.114 17.741 -3.083 18.803 QT
-4.052 19.866 -5.302 19.866 QT
-6.208 19.866 -6.833 19.264 QT
-7.458 18.662 -7.458 17.741 QT
cp
f
GR
GS
[0.6 0 0 0.6 137.82857 304.6] CT
0.149 GC
N
3.546 23.459 M
1.593 23.459 0.882 21.842 QT
0.171 20.225 0.171 17.991 QT
0.171 16.6 0.429 15.373 QT
0.687 14.147 1.437 13.295 QT
2.187 12.444 3.546 12.444 QT
4.609 12.444 5.281 12.959 QT
5.953 13.475 6.304 14.287 QT
6.656 15.1 6.781 16.037 QT
6.906 16.975 6.906 17.991 QT
6.906 19.366 6.656 20.569 QT
6.406 21.772 5.663 22.616 QT
4.921 23.459 3.546 23.459 QT
cp
3.546 23.037 M
4.437 23.037 4.874 22.123 QT
5.312 21.209 5.413 20.1 QT
5.515 18.991 5.515 17.741 QT
5.515 16.537 5.413 15.522 QT
5.312 14.506 4.882 13.678 QT
4.453 12.85 3.546 12.85 QT
2.64 12.85 2.203 13.678 QT
1.765 14.506 1.663 15.522 QT
1.562 16.537 1.562 17.741 QT
1.562 18.631 1.609 19.42 QT
1.656 20.209 1.843 21.045 QT
2.031 21.881 2.445 22.459 QT
2.859 23.037 3.546 23.037 QT
cp
f
GR
GS
[0.6 0 0 0.6 201.25714 304.6] CT
0.149 GC
N
-31.439 17.741 M
-31.439 17.397 -31.361 17.1 QT
-29.705 10.491 L
-32.127 10.491 L
-32.361 10.491 -32.361 10.194 QT
-32.267 9.678 -32.049 9.678 QT
-29.502 9.678 L
-28.58 5.928 L
-28.486 5.631 -28.22 5.42 QT
-27.955 5.209 -27.611 5.209 QT
-27.33 5.209 -27.127 5.381 QT
-26.924 5.553 -26.924 5.85 QT
-26.924 5.912 -26.931 5.951 QT
-26.939 5.991 -26.955 6.037 QT
-27.877 9.678 L
-25.502 9.678 L
-25.267 9.678 -25.267 9.991 QT
-25.283 10.037 -25.314 10.178 QT
-25.345 10.319 -25.4 10.405 QT
-25.455 10.491 -25.58 10.491 QT
-28.08 10.491 L
-29.72 17.147 L
-29.892 17.787 -29.892 18.256 QT
-29.892 19.256 -29.22 19.256 QT
-28.205 19.256 -27.431 18.303 QT
-26.658 17.35 -26.236 16.225 QT
-26.142 16.084 -26.049 16.084 QT
-25.767 16.084 L
-25.689 16.084 -25.634 16.147 QT
-25.58 16.209 -25.58 16.287 QT
-25.58 16.334 -25.595 16.35 QT
-26.095 17.741 -27.064 18.803 QT
-28.033 19.866 -29.283 19.866 QT
-30.189 19.866 -30.814 19.264 QT
-31.439 18.662 -31.439 17.741 QT
cp
f
GR
GS
[0.6 0 0 0.6 201.25714 304.6] CT
0.149 GC
N
-20.435 23.459 M
-22.388 23.459 -23.099 21.842 QT
-23.81 20.225 -23.81 17.991 QT
-23.81 16.6 -23.552 15.373 QT
-23.294 14.147 -22.544 13.295 QT
-21.794 12.444 -20.435 12.444 QT
-19.373 12.444 -18.701 12.959 QT
-18.029 13.475 -17.677 14.287 QT
-17.326 15.1 -17.201 16.037 QT
-17.076 16.975 -17.076 17.991 QT
-17.076 19.366 -17.326 20.569 QT
-17.576 21.772 -18.318 22.616 QT
-19.06 23.459 -20.435 23.459 QT
cp
-20.435 23.037 M
-19.544 23.037 -19.107 22.123 QT
-18.669 21.209 -18.568 20.1 QT
-18.466 18.991 -18.466 17.741 QT
-18.466 16.537 -18.568 15.522 QT
-18.669 14.506 -19.099 13.678 QT
-19.529 12.85 -20.435 12.85 QT
-21.341 12.85 -21.779 13.678 QT
-22.216 14.506 -22.318 15.522 QT
-22.419 16.537 -22.419 17.741 QT
-22.419 18.631 -22.373 19.42 QT
-22.326 20.209 -22.138 21.045 QT
-21.951 21.881 -21.537 22.459 QT
-21.123 23.037 -20.435 23.037 QT
cp
f
GR
GS
[0.6 0 0 0.6 201.25714 304.6] CT
0.149 GC
N
-8.182 14.303 M
-8.385 14.303 -8.503 14.162 QT
-8.62 14.022 -8.62 13.85 QT
-8.62 13.678 -8.503 13.537 QT
-8.385 13.397 -8.182 13.397 QT
-1.432 13.397 L
-1.432 6.6 L
-1.432 6.428 -1.292 6.311 QT
-1.151 6.194 -0.964 6.194 QT
-0.792 6.194 -0.651 6.311 QT
-0.51 6.428 -0.51 6.6 QT
-0.51 13.397 L
6.255 13.397 L
6.427 13.397 6.552 13.537 QT
6.677 13.678 6.677 13.85 QT
6.677 14.022 6.552 14.162 QT
6.427 14.303 6.255 14.303 QT
-0.51 14.303 L
-0.51 21.1 L
-0.51 21.272 -0.651 21.389 QT
-0.792 21.506 -0.964 21.506 QT
-1.151 21.506 -1.292 21.389 QT
-1.432 21.272 -1.432 21.1 QT
-1.432 14.303 L
-8.182 14.303 L
cp
f
GR
GS
[0.6 0 0 0.6 201.25714 304.6] CT
0.149 GC
N
14.667 19.6 M
14.479 19.6 14.479 19.412 QT
14.479 19.397 14.487 19.389 QT
14.495 19.381 14.495 19.334 QT
22.417 3.381 L
22.51 3.131 22.823 3.131 QT
23.135 3.131 L
23.463 3.131 23.557 3.381 QT
31.479 19.334 L
31.479 19.366 31.487 19.381 QT
31.495 19.397 31.495 19.412 QT
31.495 19.6 31.307 19.6 QT
14.667 19.6 L
cp
16.182 17.756 M
28.292 17.756 L
22.245 5.553 L
16.182 17.756 L
cp
f
GR
GS
[0.6 0 0 0.6 454.97142 304.6] CT
0.149 GC
N
-9.288 19.303 M
-9.288 19.241 -9.249 19.092 QT
-9.209 18.944 -9.147 18.866 QT
-9.084 18.787 -8.975 18.787 QT
-6.991 18.787 -6.35 18.678 QT
-5.741 18.522 -5.616 18.022 QT
-2.459 5.381 L
-2.366 5.1 -2.366 4.881 QT
-2.366 4.694 -3.178 4.694 QT
-4.506 4.694 L
-6.053 4.694 -6.889 5.17 QT
-7.725 5.647 -8.116 6.42 QT
-8.506 7.194 -9.131 8.959 QT
-9.209 9.162 -9.366 9.162 QT
-9.569 9.162 L
-9.803 9.162 -9.803 8.866 QT
-8.163 4.1 L
-8.116 3.881 -7.928 3.881 QT
5.65 3.881 L
5.884 3.881 5.884 4.194 QT
5.119 8.959 L
5.119 9.022 5.041 9.092 QT
4.962 9.162 4.9 9.162 QT
4.681 9.162 L
4.462 9.162 4.462 8.866 QT
4.712 7.241 4.712 6.569 QT
4.712 5.756 4.376 5.342 QT
4.041 4.928 3.501 4.811 QT
2.962 4.694 2.087 4.694 QT
0.728 4.694 L
0.119 4.694 -0.092 4.811 QT
-0.303 4.928 -0.459 5.491 QT
-3.616 18.1 L
-3.616 18.147 -3.624 18.194 QT
-3.631 18.241 -3.663 18.303 QT
-3.663 18.6 -3.303 18.678 QT
-2.709 18.787 -0.756 18.787 QT
-0.538 18.787 -0.538 19.1 QT
-0.616 19.412 -0.663 19.506 QT
-0.709 19.6 -0.913 19.6 QT
-9.053 19.6 L
-9.288 19.6 -9.288 19.303 QT
cp
f
GR
GS
[0.6 0 0 0.6 454.97142 304.6] CT
0.149 GC
N
4.285 21.803 M
4.285 21.569 4.332 21.35 QT
5.488 16.756 L
3.801 16.756 L
3.645 16.756 3.645 16.553 QT
3.707 16.194 3.848 16.194 QT
5.629 16.194 L
6.27 13.584 L
6.332 13.381 6.52 13.233 QT
6.707 13.084 6.942 13.084 QT
7.145 13.084 7.277 13.201 QT
7.41 13.319 7.41 13.522 QT
7.41 13.569 7.41 13.6 QT
7.41 13.631 7.395 13.662 QT
6.754 16.194 L
8.41 16.194 L
8.567 16.194 8.567 16.412 QT
8.567 16.444 8.543 16.537 QT
8.52 16.631 8.481 16.694 QT
8.442 16.756 8.363 16.756 QT
6.613 16.756 L
5.473 21.381 L
5.348 21.834 5.348 22.162 QT
5.348 22.85 5.817 22.85 QT
6.52 22.85 7.067 22.194 QT
7.613 21.537 7.895 20.741 QT
7.957 20.647 8.02 20.647 QT
8.223 20.647 L
8.285 20.647 8.324 20.694 QT
8.363 20.741 8.363 20.787 QT
8.363 20.819 8.348 20.834 QT
7.988 21.803 7.317 22.545 QT
6.645 23.287 5.785 23.287 QT
5.145 23.287 4.715 22.866 QT
4.285 22.444 4.285 21.803 QT
cp
f
GR
GS
[0.6 0 0 0.6 0 -0.20001] CT
0.149 GC
2 setlinecap
1 LJ
0.833 LW
N
124 500 M
124 42 L
S
GR
GS
[0.6 0 0 0.6 0 -0.20001] CT
0 0.447 0.741 RC
1 LJ
2.5 LW
N
229.714 500 M
229.736 194.667 L
229.757 194.667 L
229.779 194.667 L
229.8 194.667 L
229.843 194.667 L
229.887 194.667 L
229.973 194.667 L
230.059 194.667 L
230.231 194.667 L
230.403 194.667 L
230.748 194.667 L
231.092 194.667 L
231.781 194.667 L
232.47 194.667 L
233.848 194.667 L
235.226 194.667 L
237.982 194.667 L
240.738 194.667 L
247.239 194.667 L
253.74 194.667 L
266.318 194.667 L
277.766 194.667 L
289.553 194.667 L
301.792 194.667 L
315.047 194.667 L
325.818 194.667 L
339.207 194.667 L
349.844 194.667 L
361.433 194.667 L
373.87 194.667 L
385.418 194.667 L
397.896 194.667 L
411.297 194.667 L
421.922 194.667 L
434.806 194.667 L
445.948 194.667 L
458.592 194.667 L
469.974 194.667 L
481.876 194.667 L
494 194.667 L
506.016 194.667 L
518.026 194.667 L
530.516 194.667 L
542.052 194.667 L
555.028 194.667 L
566.078 194.667 L
577.885 194.667 L
590.104 194.667 L
602.196 194.667 L
614.13 194.667 L
626.152 194.667 L
638.156 194.667 L
651.045 194.667 L
662.182 194.667 L
673.628 194.667 L
686.208 194.667 L
698.814 194.667 L
710.234 194.667 L
719.301 194.667 L
734.26 194.667 L
740.155 194.667 L
746.05 194.667 L
749.109 194.667 L
752.168 194.667 L
753.697 194.667 L
755.227 194.667 L
755.991 194.667 L
756.756 194.667 L
757.139 194.667 L
757.521 194.667 L
757.712 194.667 L
757.903 194.667 L
757.999 194.667 L
758.095 194.667 L
758.142 194.667 L
758.19 194.667 L
758.214 194.667 L
758.238 194.667 L
758.262 194.667 L
758.286 500 L
S
GR
GS
[0.6 0 0 0.6 0 -0.20001] CT
1 LJ
0.833 LW
N
250.833 438.529 M
736.167 437.033 L
S
GR
GS
[0.6 0 0 0.6 0 -0.20001] CT
1 LJ
0.833 LW
N
256.686 444.761 M
240 438.562 L
250.833 438.529 L
256.686 444.761 L
S
GR
GS
[0.6 0 0 0.6 0 -0.20001] CT
1 LJ
0.833 LW
N
240 438.562 M
256.647 432.261 L
250.833 438.529 L
240 438.562 L
S
GR
GS
[0.6 0 0 0.6 0 -0.20001] CT
N
256.686 444.761 M
240 438.562 L
250.833 438.529 L
cp
f
GR
GS
[0.6 0 0 0.6 0 -0.20001] CT
N
240 438.562 M
256.647 432.261 L
250.833 438.529 L
cp
f
GR
GS
[0.6 0 0 0.6 0 -0.20001] CT
1 LJ
0.833 LW
N
730.314 430.801 M
747 437 L
736.167 437.033 L
730.314 430.801 L
S
GR
GS
[0.6 0 0 0.6 0 -0.20001] CT
1 LJ
0.833 LW
N
747 437 M
730.353 443.301 L
736.167 437.033 L
747 437 L
S
GR
GS
[0.6 0 0 0.6 0 -0.20001] CT
N
730.314 430.801 M
747 437 L
736.167 437.033 L
cp
f
GR
GS
[0.6 0 0 0.6 0 -0.20001] CT
N
747 437 M
730.353 443.301 L
736.167 437.033 L
cp
f
GR
GS
[0.6 0 0 0.6 281.573 242.8] CT
N
1.016 17.903 M
1.016 17.856 1.055 17.716 QT
1.094 17.575 1.156 17.497 QT
1.219 17.419 1.328 17.419 QT
3.219 17.419 3.828 17.325 QT
4.422 17.169 4.531 16.684 QT
7.547 4.606 L
7.641 4.325 7.641 4.122 QT
7.641 3.95 6.859 3.95 QT
5.594 3.95 L
4.109 3.95 3.313 4.395 QT
2.516 4.841 2.141 5.583 QT
1.766 6.325 1.172 8.012 QT
1.094 8.216 0.953 8.216 QT
0.75 8.216 L
0.531 8.216 0.531 7.934 QT
2.094 3.372 L
2.141 3.169 2.313 3.169 QT
15.313 3.169 L
15.531 3.169 15.531 3.466 QT
14.797 8.012 L
14.797 8.075 14.727 8.145 QT
14.656 8.216 14.594 8.216 QT
14.391 8.216 L
14.172 8.216 14.172 7.934 QT
14.406 6.372 14.406 5.731 QT
14.406 4.95 14.086 4.551 QT
13.766 4.153 13.25 4.051 QT
12.734 3.95 11.906 3.95 QT
10.609 3.95 L
10.016 3.95 9.813 4.051 QT
9.609 4.153 9.469 4.7 QT
6.453 16.778 L
6.438 16.809 6.43 16.856 QT
6.422 16.903 6.406 16.966 QT
6.406 17.247 6.734 17.325 QT
7.313 17.419 9.172 17.419 QT
9.391 17.419 9.391 17.716 QT
9.313 18.028 9.273 18.114 QT
9.234 18.2 9.031 18.2 QT
1.234 18.2 L
1.016 18.2 1.016 17.903 QT
cp
f
GR
GS
[0.6 0 0 0.6 281.573 242.8] CT
N
13.599 20.231 M
13.599 20.012 13.63 19.809 QT
14.724 15.512 L
13.146 15.512 L
12.99 15.512 12.99 15.309 QT
13.052 14.981 13.193 14.981 QT
14.849 14.981 L
15.458 12.544 L
15.505 12.341 15.685 12.2 QT
15.865 12.059 16.083 12.059 QT
16.271 12.059 16.404 12.176 QT
16.536 12.294 16.536 12.481 QT
16.536 12.528 16.529 12.551 QT
16.521 12.575 16.521 12.606 QT
15.911 14.981 L
17.458 14.981 L
17.615 14.981 17.615 15.184 QT
17.599 15.216 17.583 15.301 QT
17.568 15.387 17.529 15.45 QT
17.49 15.512 17.411 15.512 QT
15.786 15.512 L
14.708 19.841 L
14.599 20.278 14.599 20.575 QT
14.599 21.216 15.036 21.216 QT
15.693 21.216 16.201 20.598 QT
16.708 19.981 16.99 19.247 QT
17.036 19.153 17.099 19.153 QT
17.286 19.153 L
17.349 19.153 17.38 19.192 QT
17.411 19.231 17.411 19.294 QT
17.411 19.325 17.396 19.341 QT
17.068 20.247 16.443 20.934 QT
15.818 21.622 15.005 21.622 QT
14.411 21.622 14.005 21.231 QT
13.599 20.841 13.599 20.231 QT
cp
f
GR
GS
[0.6 0 0 0.6 0 -0.20001] CT
1 LJ
0.833 LW
N
246.832 335.731 M
317.168 336.831 L
S
GR
GS
[0.6 0 0 0.6 0 -0.20001] CT
1 LJ
0.833 LW
N
252.567 342.072 M
236 335.562 L
246.832 335.731 L
252.567 342.072 L
S
GR
GS
[0.6 0 0 0.6 0 -0.20001] CT
1 LJ
0.833 LW
N
236 335.562 M
252.762 329.573 L
246.832 335.731 L
236 335.562 L
S
GR
GS
[0.6 0 0 0.6 0 -0.20001] CT
N
252.567 342.072 M
236 335.562 L
246.832 335.731 L
cp
f
GR
GS
[0.6 0 0 0.6 0 -0.20001] CT
N
236 335.562 M
252.762 329.573 L
246.832 335.731 L
cp
f
GR
GS
[0.6 0 0 0.6 0 -0.20001] CT
1 LJ
0.833 LW
N
311.433 330.49 M
328 337 L
317.168 336.831 L
311.433 330.49 L
S
GR
GS
[0.6 0 0 0.6 0 -0.20001] CT
1 LJ
0.833 LW
N
328 337 M
311.238 342.989 L
317.168 336.831 L
328 337 L
S
GR
GS
[0.6 0 0 0.6 0 -0.20001] CT
N
311.433 330.49 M
328 337 L
317.168 336.831 L
cp
f
GR
GS
[0.6 0 0 0.6 0 -0.20001] CT
N
328 337 M
311.238 342.989 L
317.168 336.831 L
cp
f
GR
GS
[0.6 0 0 0.6 163.973 184.59999] CT
N
1.188 18.2 M
1.016 18.2 1.016 18.028 QT
1.016 18.012 1.023 17.997 QT
1.031 17.981 1.031 17.95 QT
8.609 2.684 L
8.703 2.45 9 2.45 QT
9.297 2.45 L
9.609 2.45 9.703 2.684 QT
17.281 17.95 L
17.281 17.981 17.289 17.997 QT
17.297 18.012 17.297 18.028 QT
17.297 18.2 17.109 18.2 QT
1.188 18.2 L
cp
2.641 16.434 M
14.234 16.434 L
8.438 4.762 L
2.641 16.434 L
cp
f
GR
GS
[0.6 0 0 0.6 0 -0.20001] CT
1 0 0 RC
[10 6] 0 setdash
2 LJ
1.667 LW
N
336 500.562 M
336 195 L
S
GR
%%Trailer
%%Pages: 1
%%EOF
