%!PS-Adobe-3.0 EPSF-3.0
%%Creator: (MATLAB, The Mathworks, Inc. Version 9.2.0.538062 \(R2017a\). Operating System: Windows 8)
%%Title: (C:/Users/chees/Google Drive/TesiMagistrale/latex/figures/twoCornPulse.eps)
%%CreationDate: 2017-05-18T11:08:31
%%Pages: (atend)
%%BoundingBox: 0 0 574 346
%%LanguageLevel: 3
%%EndComments
%%BeginProlog
%%BeginResource: procset (Apache XML Graphics Std ProcSet) 1.2 0
%%Version: 1.2 0
%%Copyright: (Copyright 2001-2003,2010 The Apache Software Foundation. License terms: http://www.apache.org/licenses/LICENSE-2.0)
/bd{bind def}bind def
/ld{load def}bd
/GR/grestore ld
/M/moveto ld
/LJ/setlinejoin ld
/C/curveto ld
/f/fill ld
/LW/setlinewidth ld
/GC/setgray ld
/t/show ld
/N/newpath ld
/CT/concat ld
/cp/closepath ld
/S/stroke ld
/L/lineto ld
/CC/setcmykcolor ld
/A/ashow ld
/GS/gsave ld
/RC/setrgbcolor ld
/RM/rmoveto ld
/ML/setmiterlimit ld
/re {4 2 roll M
1 index 0 rlineto
0 exch rlineto
neg 0 rlineto
cp } bd
/_ctm matrix def
/_tm matrix def
/BT { _ctm currentmatrix pop matrix _tm copy pop 0 0 moveto } bd
/ET { _ctm setmatrix } bd
/iTm { _ctm setmatrix _tm concat } bd
/Tm { _tm astore pop iTm 0 0 moveto } bd
/ux 0.0 def
/uy 0.0 def
/F {
  /Tp exch def
  /Tf exch def
  Tf findfont Tp scalefont setfont
  /cf Tf def  /cs Tp def
} bd
/ULS {currentpoint /uy exch def /ux exch def} bd
/ULE {
  /Tcx currentpoint pop def
  gsave
  newpath
  cf findfont cs scalefont dup
  /FontMatrix get 0 get /Ts exch def /FontInfo get dup
  /UnderlinePosition get Ts mul /To exch def
  /UnderlineThickness get Ts mul /Tt exch def
  ux uy To add moveto  Tcx uy To add lineto
  Tt setlinewidth stroke
  grestore
} bd
/OLE {
  /Tcx currentpoint pop def
  gsave
  newpath
  cf findfont cs scalefont dup
  /FontMatrix get 0 get /Ts exch def /FontInfo get dup
  /UnderlinePosition get Ts mul /To exch def
  /UnderlineThickness get Ts mul /Tt exch def
  ux uy To add cs add moveto Tcx uy To add cs add lineto
  Tt setlinewidth stroke
  grestore
} bd
/SOE {
  /Tcx currentpoint pop def
  gsave
  newpath
  cf findfont cs scalefont dup
  /FontMatrix get 0 get /Ts exch def /FontInfo get dup
  /UnderlinePosition get Ts mul /To exch def
  /UnderlineThickness get Ts mul /Tt exch def
  ux uy To add cs 10 mul 26 idiv add moveto Tcx uy To add cs 10 mul 26 idiv add lineto
  Tt setlinewidth stroke
  grestore
} bd
/QT {
/Y22 exch store
/X22 exch store
/Y21 exch store
/X21 exch store
currentpoint
/Y21 load 2 mul add 3 div exch
/X21 load 2 mul add 3 div exch
/X21 load 2 mul /X22 load add 3 div
/Y21 load 2 mul /Y22 load add 3 div
/X22 load /Y22 load curveto
} bd
/SSPD {
dup length /d exch dict def
{
/v exch def
/k exch def
currentpagedevice k known {
/cpdv currentpagedevice k get def
v cpdv ne {
/upd false def
/nullv v type /nulltype eq def
/nullcpdv cpdv type /nulltype eq def
nullv nullcpdv or
{
/upd true def
} {
/sametype v type cpdv type eq def
sametype {
v type /arraytype eq {
/vlen v length def
/cpdvlen cpdv length def
vlen cpdvlen eq {
0 1 vlen 1 sub {
/i exch def
/obj v i get def
/cpdobj cpdv i get def
obj cpdobj ne {
/upd true def
exit
} if
} for
} {
/upd true def
} ifelse
} {
v type /dicttype eq {
v {
/dv exch def
/dk exch def
/cpddv cpdv dk get def
dv cpddv ne {
/upd true def
exit
} if
} forall
} {
/upd true def
} ifelse
} ifelse
} if
} ifelse
upd true eq {
d k v put
} if
} if
} if
} forall
d length 0 gt {
d setpagedevice
} if
} bd
/RE { % /NewFontName [NewEncodingArray] /FontName RE -
  findfont dup length dict begin
  {
    1 index /FID ne
    {def} {pop pop} ifelse
  } forall
  /Encoding exch def
  /FontName 1 index def
  currentdict definefont pop
  end
} bind def
%%EndResource
%%BeginResource: procset (Apache XML Graphics EPS ProcSet) 1.0 0
%%Version: 1.0 0
%%Copyright: (Copyright 2002-2003 The Apache Software Foundation. License terms: http://www.apache.org/licenses/LICENSE-2.0)
/BeginEPSF { %def
/b4_Inc_state save def         % Save state for cleanup
/dict_count countdictstack def % Count objects on dict stack
/op_count count 1 sub def      % Count objects on operand stack
userdict begin                 % Push userdict on dict stack
/showpage { } def              % Redefine showpage, { } = null proc
0 setgray 0 setlinecap         % Prepare graphics state
1 setlinewidth 0 setlinejoin
10 setmiterlimit [ ] 0 setdash newpath
/languagelevel where           % If level not equal to 1 then
{pop languagelevel             % set strokeadjust and
1 ne                           % overprint to their defaults.
{false setstrokeadjust false setoverprint
} if
} if
} bd
/EndEPSF { %def
count op_count sub {pop} repeat            % Clean up stacks
countdictstack dict_count sub {end} repeat
b4_Inc_state restore
} bd
%%EndResource
%FOPBeginFontDict
%%IncludeResource: font Courier-Bold
%%IncludeResource: font Helvetica
%%IncludeResource: font Courier-BoldOblique
%%IncludeResource: font Courier-Oblique
%%IncludeResource: font Times-Roman
%%IncludeResource: font Helvetica-BoldOblique
%%IncludeResource: font Helvetica-Bold
%%IncludeResource: font Helvetica-Oblique
%%IncludeResource: font Times-BoldItalic
%%IncludeResource: font Courier
%%IncludeResource: font Times-Italic
%%IncludeResource: font Times-Bold
%%IncludeResource: font Symbol
%%IncludeResource: font ZapfDingbats
%FOPEndFontDict
%%BeginResource: encoding WinAnsiEncoding
/WinAnsiEncoding [
/.notdef /.notdef /.notdef /.notdef /.notdef
/.notdef /.notdef /.notdef /.notdef /.notdef
/.notdef /.notdef /.notdef /.notdef /.notdef
/.notdef /.notdef /.notdef /.notdef /.notdef
/.notdef /.notdef /.notdef /.notdef /.notdef
/.notdef /.notdef /.notdef /.notdef /.notdef
/.notdef /.notdef /space /exclam /quotedbl
/numbersign /dollar /percent /ampersand /quotesingle
/parenleft /parenright /asterisk /plus /comma
/hyphen /period /slash /zero /one
/two /three /four /five /six
/seven /eight /nine /colon /semicolon
/less /equal /greater /question /at
/A /B /C /D /E
/F /G /H /I /J
/K /L /M /N /O
/P /Q /R /S /T
/U /V /W /X /Y
/Z /bracketleft /backslash /bracketright /asciicircum
/underscore /quoteleft /a /b /c
/d /e /f /g /h
/i /j /k /l /m
/n /o /p /q /r
/s /t /u /v /w
/x /y /z /braceleft /bar
/braceright /asciitilde /bullet /Euro /bullet
/quotesinglbase /florin /quotedblbase /ellipsis /dagger
/daggerdbl /circumflex /perthousand /Scaron /guilsinglleft
/OE /bullet /Zcaron /bullet /bullet
/quoteleft /quoteright /quotedblleft /quotedblright /bullet
/endash /emdash /asciitilde /trademark /scaron
/guilsinglright /oe /bullet /zcaron /Ydieresis
/space /exclamdown /cent /sterling /currency
/yen /brokenbar /section /dieresis /copyright
/ordfeminine /guillemotleft /logicalnot /sfthyphen /registered
/macron /degree /plusminus /twosuperior /threesuperior
/acute /mu /paragraph /middot /cedilla
/onesuperior /ordmasculine /guillemotright /onequarter /onehalf
/threequarters /questiondown /Agrave /Aacute /Acircumflex
/Atilde /Adieresis /Aring /AE /Ccedilla
/Egrave /Eacute /Ecircumflex /Edieresis /Igrave
/Iacute /Icircumflex /Idieresis /Eth /Ntilde
/Ograve /Oacute /Ocircumflex /Otilde /Odieresis
/multiply /Oslash /Ugrave /Uacute /Ucircumflex
/Udieresis /Yacute /Thorn /germandbls /agrave
/aacute /acircumflex /atilde /adieresis /aring
/ae /ccedilla /egrave /eacute /ecircumflex
/edieresis /igrave /iacute /icircumflex /idieresis
/eth /ntilde /ograve /oacute /ocircumflex
/otilde /odieresis /divide /oslash /ugrave
/uacute /ucircumflex /udieresis /yacute /thorn
/ydieresis
] def
%%EndResource
%FOPBeginFontReencode
/Courier-Bold findfont
dup length dict begin
  {1 index /FID ne {def} {pop pop} ifelse} forall
  /Encoding WinAnsiEncoding def
  currentdict
end
/Courier-Bold exch definefont pop
/Helvetica findfont
dup length dict begin
  {1 index /FID ne {def} {pop pop} ifelse} forall
  /Encoding WinAnsiEncoding def
  currentdict
end
/Helvetica exch definefont pop
/Courier-BoldOblique findfont
dup length dict begin
  {1 index /FID ne {def} {pop pop} ifelse} forall
  /Encoding WinAnsiEncoding def
  currentdict
end
/Courier-BoldOblique exch definefont pop
/Courier-Oblique findfont
dup length dict begin
  {1 index /FID ne {def} {pop pop} ifelse} forall
  /Encoding WinAnsiEncoding def
  currentdict
end
/Courier-Oblique exch definefont pop
/Times-Roman findfont
dup length dict begin
  {1 index /FID ne {def} {pop pop} ifelse} forall
  /Encoding WinAnsiEncoding def
  currentdict
end
/Times-Roman exch definefont pop
/Helvetica-BoldOblique findfont
dup length dict begin
  {1 index /FID ne {def} {pop pop} ifelse} forall
  /Encoding WinAnsiEncoding def
  currentdict
end
/Helvetica-BoldOblique exch definefont pop
/Helvetica-Bold findfont
dup length dict begin
  {1 index /FID ne {def} {pop pop} ifelse} forall
  /Encoding WinAnsiEncoding def
  currentdict
end
/Helvetica-Bold exch definefont pop
/Helvetica-Oblique findfont
dup length dict begin
  {1 index /FID ne {def} {pop pop} ifelse} forall
  /Encoding WinAnsiEncoding def
  currentdict
end
/Helvetica-Oblique exch definefont pop
/Times-BoldItalic findfont
dup length dict begin
  {1 index /FID ne {def} {pop pop} ifelse} forall
  /Encoding WinAnsiEncoding def
  currentdict
end
/Times-BoldItalic exch definefont pop
/Courier findfont
dup length dict begin
  {1 index /FID ne {def} {pop pop} ifelse} forall
  /Encoding WinAnsiEncoding def
  currentdict
end
/Courier exch definefont pop
/Times-Italic findfont
dup length dict begin
  {1 index /FID ne {def} {pop pop} ifelse} forall
  /Encoding WinAnsiEncoding def
  currentdict
end
/Times-Italic exch definefont pop
/Times-Bold findfont
dup length dict begin
  {1 index /FID ne {def} {pop pop} ifelse} forall
  /Encoding WinAnsiEncoding def
  currentdict
end
/Times-Bold exch definefont pop
%FOPEndFontReencode
%%EndProlog
%%Page: 1 1
%%PageBoundingBox: 0 0 574 346
%%BeginPageSetup
[1 0 0 -1 0 346] CT
%%EndPageSetup
GS
[0.6 0 0 0.6 0 -0.20001] CT
1 GC
N
0 0 956 577 re
f
GR
GS
[0.6 0 0 0.6 0 -0.20001] CT
1 GC
N
0 0 956 577 re
f
GR
GS
[0.6 0 0 0.6 0 -0.20001] CT
1 GC
N
124 514 M
865 514 L
865 43 L
124 43 L
cp
f
GR
GS
[0.6 0 0 0.6 0 -0.20001] CT
0.149 GC
2 setlinecap
1 LJ
0.833 LW
N
124 514 M
865 514 L
S
GR
GS
[0.6 0 0 0.6 0 -0.20001] CT
0.149 GC
2 setlinecap
1 LJ
0.833 LW
N
124 43 M
865 43 L
S
GR
GS
[0.6 0 0 0.6 0 -0.20001] CT
0.149 GC
2 setlinecap
1 LJ
0.833 LW
N
185.75 514 M
185.75 506.59 L
S
GR
GS
[0.6 0 0 0.6 0 -0.20001] CT
0.149 GC
2 setlinecap
1 LJ
0.833 LW
N
309.25 514 M
309.25 506.59 L
S
GR
GS
[0.6 0 0 0.6 0 -0.20001] CT
0.149 GC
2 setlinecap
1 LJ
0.833 LW
N
432.75 514 M
432.75 506.59 L
S
GR
GS
[0.6 0 0 0.6 0 -0.20001] CT
0.149 GC
2 setlinecap
1 LJ
0.833 LW
N
556.25 514 M
556.25 506.59 L
S
GR
GS
[0.6 0 0 0.6 0 -0.20001] CT
0.149 GC
2 setlinecap
1 LJ
0.833 LW
N
679.75 514 M
679.75 506.59 L
S
GR
GS
[0.6 0 0 0.6 0 -0.20001] CT
0.149 GC
2 setlinecap
1 LJ
0.833 LW
N
803.25 514 M
803.25 506.59 L
S
GR
GS
[0.6 0 0 0.6 0 -0.20001] CT
0.149 GC
2 setlinecap
1 LJ
0.833 LW
N
185.75 43 M
185.75 50.41 L
S
GR
GS
[0.6 0 0 0.6 0 -0.20001] CT
0.149 GC
2 setlinecap
1 LJ
0.833 LW
N
309.25 43 M
309.25 50.41 L
S
GR
GS
[0.6 0 0 0.6 0 -0.20001] CT
0.149 GC
2 setlinecap
1 LJ
0.833 LW
N
432.75 43 M
432.75 50.41 L
S
GR
GS
[0.6 0 0 0.6 0 -0.20001] CT
0.149 GC
2 setlinecap
1 LJ
0.833 LW
N
556.25 43 M
556.25 50.41 L
S
GR
GS
[0.6 0 0 0.6 0 -0.20001] CT
0.149 GC
2 setlinecap
1 LJ
0.833 LW
N
679.75 43 M
679.75 50.41 L
S
GR
GS
[0.6 0 0 0.6 0 -0.20001] CT
0.149 GC
2 setlinecap
1 LJ
0.833 LW
N
803.25 43 M
803.25 50.41 L
S
GR
GS
[0.6 0 0 0.6 111.45 312.20001] CT
0.149 GC
/Helvetica 16.667 F
GS
[1 0 0 1 0 0] CT
-5 18 moveto 
1 -1 scale
(0) t 
GR
GR
GS
[0.6 0 0 0.6 185.54999 312.20001] CT
0.149 GC
/Helvetica 16.667 F
GS
[1 0 0 1 0 0] CT
-12 18 moveto 
1 -1 scale
(0.2) t 
GR
GR
GS
[0.6 0 0 0.6 259.64999 312.20001] CT
0.149 GC
/Helvetica 16.667 F
GS
[1 0 0 1 0 0] CT
-12 18 moveto 
1 -1 scale
(0.4) t 
GR
GR
GS
[0.6 0 0 0.6 333.74999 312.20001] CT
0.149 GC
/Helvetica 16.667 F
GS
[1 0 0 1 0 0] CT
-12 18 moveto 
1 -1 scale
(0.6) t 
GR
GR
GS
[0.6 0 0 0.6 407.84998 312.20001] CT
0.149 GC
/Helvetica 16.667 F
GS
[1 0 0 1 0 0] CT
-12 18 moveto 
1 -1 scale
(0.8) t 
GR
GR
GS
[0.6 0 0 0.6 481.94998 312.20001] CT
0.149 GC
/Helvetica 16.667 F
GS
[1 0 0 1 0 0] CT
-5 18 moveto 
1 -1 scale
(1) t 
GR
GR
GS
[0.6 0 0 0.6 0 -0.20001] CT
0.149 GC
2 setlinecap
1 LJ
0.833 LW
N
124 514 M
124 43 L
S
GR
GS
[0.6 0 0 0.6 0 -0.20001] CT
0.149 GC
2 setlinecap
1 LJ
0.833 LW
N
865 514 M
865 43 L
S
GR
GS
[0.6 0 0 0.6 0 -0.20001] CT
0.149 GC
2 setlinecap
1 LJ
0.833 LW
N
124 482.6 M
131.41 482.6 L
S
GR
GS
[0.6 0 0 0.6 0 -0.20001] CT
0.149 GC
2 setlinecap
1 LJ
0.833 LW
N
124 419.8 M
131.41 419.8 L
S
GR
GS
[0.6 0 0 0.6 0 -0.20001] CT
0.149 GC
2 setlinecap
1 LJ
0.833 LW
N
124 357 M
131.41 357 L
S
GR
GS
[0.6 0 0 0.6 0 -0.20001] CT
0.149 GC
2 setlinecap
1 LJ
0.833 LW
N
124 294.2 M
131.41 294.2 L
S
GR
GS
[0.6 0 0 0.6 0 -0.20001] CT
0.149 GC
2 setlinecap
1 LJ
0.833 LW
N
124 231.4 M
131.41 231.4 L
S
GR
GS
[0.6 0 0 0.6 0 -0.20001] CT
0.149 GC
2 setlinecap
1 LJ
0.833 LW
N
124 168.6 M
131.41 168.6 L
S
GR
GS
[0.6 0 0 0.6 0 -0.20001] CT
0.149 GC
2 setlinecap
1 LJ
0.833 LW
N
124 105.8 M
131.41 105.8 L
S
GR
GS
[0.6 0 0 0.6 0 -0.20001] CT
0.149 GC
2 setlinecap
1 LJ
0.833 LW
N
124 43 M
131.41 43 L
S
GR
GS
[0.6 0 0 0.6 0 -0.20001] CT
0.149 GC
2 setlinecap
1 LJ
0.833 LW
N
865 482.6 M
857.59 482.6 L
S
GR
GS
[0.6 0 0 0.6 0 -0.20001] CT
0.149 GC
2 setlinecap
1 LJ
0.833 LW
N
865 419.8 M
857.59 419.8 L
S
GR
GS
[0.6 0 0 0.6 0 -0.20001] CT
0.149 GC
2 setlinecap
1 LJ
0.833 LW
N
865 357 M
857.59 357 L
S
GR
GS
[0.6 0 0 0.6 0 -0.20001] CT
0.149 GC
2 setlinecap
1 LJ
0.833 LW
N
865 294.2 M
857.59 294.2 L
S
GR
GS
[0.6 0 0 0.6 0 -0.20001] CT
0.149 GC
2 setlinecap
1 LJ
0.833 LW
N
865 231.4 M
857.59 231.4 L
S
GR
GS
[0.6 0 0 0.6 0 -0.20001] CT
0.149 GC
2 setlinecap
1 LJ
0.833 LW
N
865 168.6 M
857.59 168.6 L
S
GR
GS
[0.6 0 0 0.6 0 -0.20001] CT
0.149 GC
2 setlinecap
1 LJ
0.833 LW
N
865 105.8 M
857.59 105.8 L
S
GR
GS
[0.6 0 0 0.6 0 -0.20001] CT
0.149 GC
2 setlinecap
1 LJ
0.833 LW
N
865 43 M
857.59 43 L
S
GR
GS
[0.6 0 0 0.6 70.4 289.36] CT
0.149 GC
/Helvetica 16.667 F
GS
[1 0 0 1 0 0] CT
-30 7 moveto 
1 -1 scale
(-0.2) t 
GR
GR
GS
[0.6 0 0 0.6 70.4 251.67999] CT
0.149 GC
/Helvetica 16.667 F
GS
[1 0 0 1 0 0] CT
-10 7 moveto 
1 -1 scale
(0) t 
GR
GR
GS
[0.6 0 0 0.6 70.4 214] CT
0.149 GC
/Helvetica 16.667 F
GS
[1 0 0 1 0 0] CT
-24 7 moveto 
1 -1 scale
(0.2) t 
GR
GR
GS
[0.6 0 0 0.6 70.4 176.32] CT
0.149 GC
/Helvetica 16.667 F
GS
[1 0 0 1 0 0] CT
-24 7 moveto 
1 -1 scale
(0.4) t 
GR
GR
GS
[0.6 0 0 0.6 70.4 138.63999] CT
0.149 GC
/Helvetica 16.667 F
GS
[1 0 0 1 0 0] CT
-24 7 moveto 
1 -1 scale
(0.6) t 
GR
GR
GS
[0.6 0 0 0.6 70.4 100.95999] CT
0.149 GC
/Helvetica 16.667 F
GS
[1 0 0 1 0 0] CT
-24 7 moveto 
1 -1 scale
(0.8) t 
GR
GR
GS
[0.6 0 0 0.6 70.4 63.27999] CT
0.149 GC
/Helvetica 16.667 F
GS
[1 0 0 1 0 0] CT
-10 7 moveto 
1 -1 scale
(1) t 
GR
GR
GS
[0.6 0 0 0.6 70.4 25.59998] CT
0.149 GC
/Helvetica 16.667 F
GS
[1 0 0 1 0 0] CT
-24 7 moveto 
1 -1 scale
(1.2) t 
GR
GR
GS
[0.6 0 0 0.6 0 -0.20001] CT
0 0.447 0.741 RC
1 LJ
2.5 LW
N
185.75 419.8 M
185.775 105.8 L
185.8 105.8 L
185.825 105.8 L
185.851 105.8 L
185.901 105.8 L
185.951 105.8 L
186.052 105.8 L
186.152 105.8 L
186.354 105.8 L
186.555 105.8 L
186.957 105.8 L
187.36 105.8 L
188.165 105.8 L
188.97 105.8 L
190.579 105.8 L
192.189 105.8 L
195.409 105.8 L
198.628 105.8 L
206.223 105.8 L
213.818 105.8 L
228.511 105.8 L
241.886 105.8 L
255.656 105.8 L
269.955 105.8 L
285.44 105.8 L
291.731 105.8 L
298.023 105.8 L
301.933 105.8 L
303.888 105.8 L
305.843 105.8 L
306.821 105.8 L
307.799 105.8 L
308.287 105.8 L
308.532 105.8 L
308.776 105.8 L
308.898 105.8 L
309.021 105.8 L
309.082 105.8 L
309.143 105.8 L
309.173 105.8 L
309.204 105.8 L
309.234 105.8 L
309.265 419.8 L
309.295 419.8 L
309.326 419.8 L
309.387 419.8 L
309.509 419.8 L
309.754 419.8 L
310.242 419.8 L
310.731 419.8 L
311.709 419.8 L
313.664 419.8 L
316.771 419.8 L
319.877 419.8 L
326.091 419.8 L
339.63 419.8 L
354.159 419.8 L
367.65 419.8 L
382.227 419.8 L
397.882 419.8 L
410.295 419.8 L
425.347 419.8 L
438.364 419.8 L
453.135 419.8 L
466.432 419.8 L
480.336 419.8 L
494.5 419.8 L
508.538 419.8 L
522.568 419.8 L
537.16 419.8 L
550.636 419.8 L
565.795 419.8 L
578.705 419.8 L
592.498 419.8 L
606.773 419.8 L
620.899 419.8 L
634.841 419.8 L
648.886 419.8 L
662.909 419.8 L
670.438 419.8 L
674.202 419.8 L
676.085 419.8 L
677.967 419.8 L
678.78 419.8 L
679.187 419.8 L
679.39 419.8 L
679.492 419.8 L
679.593 419.8 L
679.644 419.8 L
679.695 419.8 L
679.72 419.8 L
679.746 419.8 L
679.771 105.8 L
679.796 105.8 L
679.822 105.8 L
679.847 105.8 L
679.898 105.8 L
680 105.8 L
680.203 105.8 L
680.406 105.8 L
680.813 105.8 L
681.219 105.8 L
682.033 105.8 L
682.846 105.8 L
684.472 105.8 L
687.725 105.8 L
690.977 105.8 L
697.663 105.8 L
704.349 105.8 L
719.045 105.8 L
733.772 105.8 L
747.114 105.8 L
757.707 105.8 L
775.182 105.8 L
782.069 105.8 L
788.955 105.8 L
792.529 105.8 L
796.103 105.8 L
797.889 105.8 L
799.676 105.8 L
800.57 105.8 L
801.463 105.8 L
801.91 105.8 L
802.357 105.8 L
802.58 105.8 L
802.803 105.8 L
802.915 105.8 L
803.027 105.8 L
803.083 105.8 L
803.138 105.8 L
803.166 105.8 L
803.194 105.8 L
803.222 105.8 L
803.25 419.8 L
S
GR
GS
[0.6 0 0 0.6 0 -0.20001] CT
1 LJ
0.833 LW
N
199.833 462.585 M
786.167 462.992 L
S
GR
GS
[0.6 0 0 0.6 0 -0.20001] CT
1 LJ
0.833 LW
N
205.662 468.839 M
189 462.577 L
199.833 462.585 L
205.662 468.839 L
S
GR
GS
[0.6 0 0 0.6 0 -0.20001] CT
1 LJ
0.833 LW
N
189 462.577 M
205.671 456.339 L
199.833 462.585 L
189 462.577 L
S
GR
GS
[0.6 0 0 0.6 0 -0.20001] CT
N
205.662 468.839 M
189 462.577 L
199.833 462.585 L
cp
f
GR
GS
[0.6 0 0 0.6 0 -0.20001] CT
N
189 462.577 M
205.671 456.339 L
199.833 462.585 L
cp
f
GR
GS
[0.6 0 0 0.6 0 -0.20001] CT
1 LJ
0.833 LW
N
780.338 456.738 M
797 463 L
786.167 462.992 L
780.338 456.738 L
S
GR
GS
[0.6 0 0 0.6 0 -0.20001] CT
1 LJ
0.833 LW
N
797 463 M
780.329 469.238 L
786.167 462.992 L
797 463 L
S
GR
GS
[0.6 0 0 0.6 0 -0.20001] CT
N
780.338 456.738 M
797 463 L
786.167 462.992 L
cp
f
GR
GS
[0.6 0 0 0.6 0 -0.20001] CT
N
797 463 M
780.329 469.238 L
786.167 462.992 L
cp
f
GR
GS
[0.6 0 0 0.6 0 -0.20001] CT
1 GC
10.0 ML
0.833 LW
N
475 466.577 M
475 426.077 L
528.815 426.077 L
528.815 466.577 L
cp
S
GR
GS
[0.6 0 0 0.6 289.99999 258.44619] CT
N
1.063 19.303 M
1.063 19.241 1.102 19.092 QT
1.141 18.944 1.203 18.866 QT
1.266 18.787 1.375 18.787 QT
3.359 18.787 4 18.678 QT
4.609 18.522 4.734 18.022 QT
7.891 5.381 L
7.984 5.1 7.984 4.881 QT
7.984 4.694 7.172 4.694 QT
5.844 4.694 L
4.297 4.694 3.461 5.17 QT
2.625 5.647 2.234 6.42 QT
1.844 7.194 1.219 8.959 QT
1.141 9.162 0.984 9.162 QT
0.781 9.162 L
0.547 9.162 0.547 8.866 QT
2.188 4.1 L
2.234 3.881 2.422 3.881 QT
16 3.881 L
16.234 3.881 16.234 4.194 QT
15.469 8.959 L
15.469 9.022 15.391 9.092 QT
15.313 9.162 15.25 9.162 QT
15.031 9.162 L
14.813 9.162 14.813 8.866 QT
15.063 7.241 15.063 6.569 QT
15.063 5.756 14.727 5.342 QT
14.391 4.928 13.852 4.811 QT
13.313 4.694 12.438 4.694 QT
11.078 4.694 L
10.469 4.694 10.258 4.811 QT
10.047 4.928 9.891 5.491 QT
6.734 18.1 L
6.734 18.147 6.727 18.194 QT
6.719 18.241 6.688 18.303 QT
6.688 18.6 7.047 18.678 QT
7.641 18.787 9.594 18.787 QT
9.813 18.787 9.813 19.1 QT
9.734 19.412 9.688 19.506 QT
9.641 19.6 9.438 19.6 QT
1.297 19.6 L
1.063 19.6 1.063 19.303 QT
cp
f
GR
GS
[0.6 0 0 0.6 289.99999 258.44619] CT
N
15.51 21.194 M
15.51 21.881 15.87 22.366 QT
16.229 22.85 16.885 22.85 QT
17.839 22.85 18.721 22.412 QT
19.604 21.975 20.151 21.209 QT
20.198 21.162 20.276 21.162 QT
20.354 21.162 20.44 21.248 QT
20.526 21.334 20.526 21.412 QT
20.526 21.475 20.495 21.506 QT
19.901 22.334 18.909 22.811 QT
17.917 23.287 16.854 23.287 QT
16.089 23.287 15.503 22.92 QT
14.917 22.553 14.596 21.944 QT
14.276 21.334 14.276 20.569 QT
14.276 19.491 14.878 18.428 QT
15.479 17.366 16.479 16.694 QT
17.479 16.022 18.589 16.022 QT
19.307 16.022 19.878 16.373 QT
20.448 16.725 20.448 17.397 QT
20.448 17.834 20.198 18.147 QT
19.948 18.459 19.51 18.459 QT
19.26 18.459 19.081 18.295 QT
18.901 18.131 18.901 17.881 QT
18.901 17.506 19.174 17.241 QT
19.448 16.975 19.823 16.975 QT
19.854 16.975 L
19.667 16.694 19.307 16.569 QT
18.948 16.444 18.573 16.444 QT
17.635 16.444 16.932 17.241 QT
16.229 18.037 15.87 19.155 QT
15.51 20.272 15.51 21.194 QT
cp
f
GR
GS
[0.6 0 0 0.6 0 -0.20001] CT
1 GC
10.0 ML
0.833 LW
N
212 272.577 M
212 232.077 L
286.969 232.077 L
286.969 272.577 L
cp
S
GR
GS
[0.6 0 0 0.6 132.2 142.04618] CT
N
6.781 24.1 M
6.781 23.584 7.016 22.6 QT
7.25 21.616 7.578 20.498 QT
7.906 19.381 8.141 18.662 QT
8.234 17.506 8.234 16.928 QT
8.234 15.444 7.938 14.17 QT
7.641 12.897 6.836 12.037 QT
6.031 11.178 4.578 11.178 QT
3.813 11.178 3.055 11.506 QT
2.297 11.834 1.758 12.412 QT
1.219 12.991 1.016 13.741 QT
0.969 13.866 0.828 13.866 QT
0.547 13.866 L
0.375 13.866 0.375 13.662 QT
0.375 13.584 L
0.625 12.553 1.281 11.592 QT
1.938 10.631 2.891 10.037 QT
3.844 9.444 4.891 9.444 QT
5.969 9.444 6.758 10.17 QT
7.547 10.897 8.016 12.022 QT
8.484 13.147 8.695 14.287 QT
8.906 15.428 8.906 16.444 QT
10.063 13.303 11.5 10.491 QT
11.844 9.756 L
11.922 9.678 12 9.678 QT
12.281 9.678 L
12.469 9.678 12.469 9.897 QT
12.469 9.944 12.422 10.037 QT
12.078 10.756 L
11.078 12.741 10.242 14.78 QT
9.406 16.819 8.813 18.725 QT
8.719 19.506 8.461 20.85 QT
8.203 22.194 7.844 23.358 QT
7.484 24.522 7.125 24.569 QT
6.781 24.569 6.781 24.1 QT
cp
f
GR
GS
[0.6 0 0 0.6 132.2 142.04618] CT
N
22.217 19.303 M
22.217 19.241 22.256 19.092 QT
22.295 18.944 22.358 18.866 QT
22.42 18.787 22.529 18.787 QT
24.514 18.787 25.154 18.678 QT
25.764 18.522 25.889 18.022 QT
29.045 5.381 L
29.139 5.1 29.139 4.881 QT
29.139 4.694 28.326 4.694 QT
26.998 4.694 L
25.451 4.694 24.615 5.17 QT
23.779 5.647 23.389 6.42 QT
22.998 7.194 22.373 8.959 QT
22.295 9.162 22.139 9.162 QT
21.936 9.162 L
21.701 9.162 21.701 8.866 QT
23.342 4.1 L
23.389 3.881 23.576 3.881 QT
37.154 3.881 L
37.389 3.881 37.389 4.194 QT
36.623 8.959 L
36.623 9.022 36.545 9.092 QT
36.467 9.162 36.404 9.162 QT
36.186 9.162 L
35.967 9.162 35.967 8.866 QT
36.217 7.241 36.217 6.569 QT
36.217 5.756 35.881 5.342 QT
35.545 4.928 35.006 4.811 QT
34.467 4.694 33.592 4.694 QT
32.233 4.694 L
31.623 4.694 31.412 4.811 QT
31.201 4.928 31.045 5.491 QT
27.889 18.1 L
27.889 18.147 27.881 18.194 QT
27.873 18.241 27.842 18.303 QT
27.842 18.6 28.201 18.678 QT
28.795 18.787 30.748 18.787 QT
30.967 18.787 30.967 19.1 QT
30.889 19.412 30.842 19.506 QT
30.795 19.6 30.592 19.6 QT
22.451 19.6 L
22.217 19.6 22.217 19.303 QT
cp
f
GR
GS
[0.6 0 0 0.6 132.2 142.04618] CT
N
36.665 21.194 M
36.665 21.881 37.024 22.366 QT
37.384 22.85 38.04 22.85 QT
38.993 22.85 39.876 22.412 QT
40.759 21.975 41.305 21.209 QT
41.352 21.162 41.43 21.162 QT
41.509 21.162 41.595 21.248 QT
41.68 21.334 41.68 21.412 QT
41.68 21.475 41.649 21.506 QT
41.055 22.334 40.063 22.811 QT
39.071 23.287 38.009 23.287 QT
37.243 23.287 36.657 22.92 QT
36.071 22.553 35.751 21.944 QT
35.43 21.334 35.43 20.569 QT
35.43 19.491 36.032 18.428 QT
36.634 17.366 37.634 16.694 QT
38.634 16.022 39.743 16.022 QT
40.462 16.022 41.032 16.373 QT
41.602 16.725 41.602 17.397 QT
41.602 17.834 41.352 18.147 QT
41.102 18.459 40.665 18.459 QT
40.415 18.459 40.235 18.295 QT
40.055 18.131 40.055 17.881 QT
40.055 17.506 40.329 17.241 QT
40.602 16.975 40.977 16.975 QT
41.009 16.975 L
40.821 16.694 40.462 16.569 QT
40.102 16.444 39.727 16.444 QT
38.79 16.444 38.087 17.241 QT
37.384 18.037 37.024 19.155 QT
36.665 20.272 36.665 21.194 QT
cp
f
GR
GS
[0.6 0 0 0.6 0 -0.20001] CT
1 GC
10.0 ML
0.833 LW
N
707 272.577 M
707 232.077 L
781.969 232.077 L
781.969 272.577 L
cp
S
GR
GS
[0.6 0 0 0.6 429.19997 142.04618] CT
N
/f-1581627757{6.781 24.1 M
6.781 23.584 7.016 22.6 QT
7.25 21.616 7.578 20.498 QT
7.906 19.381 8.141 18.662 QT
8.234 17.506 8.234 16.928 QT
8.234 15.444 7.938 14.17 QT
7.641 12.897 6.836 12.037 QT
6.031 11.178 4.578 11.178 QT
3.813 11.178 3.055 11.506 QT
2.297 11.834 1.758 12.412 QT
1.219 12.991 1.016 13.741 QT
0.969 13.866 0.828 13.866 QT
0.547 13.866 L
0.375 13.866 0.375 13.662 QT
0.375 13.584 L
0.625 12.553 1.281 11.592 QT
1.938 10.631 2.891 10.037 QT
3.844 9.444 4.891 9.444 QT
5.969 9.444 6.758 10.17 QT
7.547 10.897 8.016 12.022 QT
8.484 13.147 8.695 14.287 QT
8.906 15.428 8.906 16.444 QT
10.063 13.303 11.5 10.491 QT
11.844 9.756 L
11.922 9.678 12 9.678 QT
12.281 9.678 L
12.469 9.678 12.469 9.897 QT
12.469 9.944 12.422 10.037 QT
12.078 10.756 L
11.078 12.741 10.242 14.78 QT
9.406 16.819 8.813 18.725 QT
8.719 19.506 8.461 20.85 QT
8.203 22.194 7.844 23.358 QT
7.484 24.522 7.125 24.569 QT
6.781 24.569 6.781 24.1 QT
cp}def
f-1581627757
f
GR
GS
[0.6 0 0 0.6 429.19997 142.04618] CT
N
/f-1569364388{22.217 19.303 M
22.217 19.241 22.256 19.092 QT
22.295 18.944 22.358 18.866 QT
22.42 18.787 22.529 18.787 QT
24.514 18.787 25.154 18.678 QT
25.764 18.522 25.889 18.022 QT
29.045 5.381 L
29.139 5.1 29.139 4.881 QT
29.139 4.694 28.326 4.694 QT
26.998 4.694 L
25.451 4.694 24.615 5.17 QT
23.779 5.647 23.389 6.42 QT
22.998 7.194 22.373 8.959 QT
22.295 9.162 22.139 9.162 QT
21.936 9.162 L
21.701 9.162 21.701 8.866 QT
23.342 4.1 L
23.389 3.881 23.576 3.881 QT
37.154 3.881 L
37.389 3.881 37.389 4.194 QT
36.623 8.959 L
36.623 9.022 36.545 9.092 QT
36.467 9.162 36.404 9.162 QT
36.186 9.162 L
35.967 9.162 35.967 8.866 QT
36.217 7.241 36.217 6.569 QT
36.217 5.756 35.881 5.342 QT
35.545 4.928 35.006 4.811 QT
34.467 4.694 33.592 4.694 QT
32.233 4.694 L
31.623 4.694 31.412 4.811 QT
31.201 4.928 31.045 5.491 QT
27.889 18.1 L
27.889 18.147 27.881 18.194 QT
27.873 18.241 27.842 18.303 QT
27.842 18.6 28.201 18.678 QT
28.795 18.787 30.748 18.787 QT
30.967 18.787 30.967 19.1 QT
30.889 19.412 30.842 19.506 QT
30.795 19.6 30.592 19.6 QT
22.451 19.6 L
22.217 19.6 22.217 19.303 QT
cp}def
f-1569364388
f
GR
GS
[0.6 0 0 0.6 429.19997 142.04618] CT
N
/f-742136284{36.665 21.194 M
36.665 21.881 37.024 22.366 QT
37.384 22.85 38.04 22.85 QT
38.993 22.85 39.876 22.412 QT
40.759 21.975 41.305 21.209 QT
41.352 21.162 41.43 21.162 QT
41.509 21.162 41.595 21.248 QT
41.68 21.334 41.68 21.412 QT
41.68 21.475 41.649 21.506 QT
41.055 22.334 40.063 22.811 QT
39.071 23.287 38.009 23.287 QT
37.243 23.287 36.657 22.92 QT
36.071 22.553 35.751 21.944 QT
35.43 21.334 35.43 20.569 QT
35.43 19.491 36.032 18.428 QT
36.634 17.366 37.634 16.694 QT
38.634 16.022 39.743 16.022 QT
40.462 16.022 41.032 16.373 QT
41.602 16.725 41.602 17.397 QT
41.602 17.834 41.352 18.147 QT
41.102 18.459 40.665 18.459 QT
40.415 18.459 40.235 18.295 QT
40.055 18.131 40.055 17.881 QT
40.055 17.506 40.329 17.241 QT
40.602 16.975 40.977 16.975 QT
41.009 16.975 L
40.821 16.694 40.462 16.569 QT
40.102 16.444 39.727 16.444 QT
38.79 16.444 38.087 17.241 QT
37.384 18.037 37.024 19.155 QT
36.665 20.272 36.665 21.194 QT
cp}def
f-742136284
f
GR
GS
[0.6 0 0 0.6 0 -0.20001] CT
1 LJ
0.833 LW
N
696.833 274.62 M
782.167 274.957 L
S
GR
GS
[0.6 0 0 0.6 0 -0.20001] CT
1 LJ
0.833 LW
N
702.642 280.893 M
686 274.577 L
696.833 274.62 L
702.642 280.893 L
S
GR
GS
[0.6 0 0 0.6 0 -0.20001] CT
1 LJ
0.833 LW
N
686 274.577 M
702.691 268.393 L
696.833 274.62 L
686 274.577 L
S
GR
GS
[0.6 0 0 0.6 0 -0.20001] CT
N
702.642 280.893 M
686 274.577 L
696.833 274.62 L
cp
f
GR
GS
[0.6 0 0 0.6 0 -0.20001] CT
N
686 274.577 M
702.691 268.393 L
696.833 274.62 L
cp
f
GR
GS
[0.6 0 0 0.6 0 -0.20001] CT
1 LJ
0.833 LW
N
776.358 268.684 M
793 275 L
782.167 274.957 L
776.358 268.684 L
S
GR
GS
[0.6 0 0 0.6 0 -0.20001] CT
1 LJ
0.833 LW
N
793 275 M
776.309 281.184 L
782.167 274.957 L
793 275 L
S
GR
GS
[0.6 0 0 0.6 0 -0.20001] CT
N
776.358 268.684 M
793 275 L
782.167 274.957 L
cp
f
GR
GS
[0.6 0 0 0.6 0 -0.20001] CT
N
793 275 M
776.309 281.184 L
782.167 274.957 L
cp
f
GR
GS
[0.6 0 0 0.6 0 -0.20001] CT
1 LJ
0.833 LW
N
203.083 274.62 M
288.417 274.957 L
S
GR
GS
[0.6 0 0 0.6 0 -0.20001] CT
1 LJ
0.833 LW
N
208.892 280.893 M
192.25 274.577 L
203.083 274.62 L
208.892 280.893 L
S
GR
GS
[0.6 0 0 0.6 0 -0.20001] CT
1 LJ
0.833 LW
N
192.25 274.577 M
208.941 268.393 L
203.083 274.62 L
192.25 274.577 L
S
GR
GS
[0.6 0 0 0.6 0 -0.20001] CT
N
208.892 280.893 M
192.25 274.577 L
203.083 274.62 L
cp
f
GR
GS
[0.6 0 0 0.6 0 -0.20001] CT
N
192.25 274.577 M
208.941 268.393 L
203.083 274.62 L
cp
f
GR
GS
[0.6 0 0 0.6 0 -0.20001] CT
1 LJ
0.833 LW
N
282.608 268.684 M
299.25 275 L
288.417 274.957 L
282.608 268.684 L
S
GR
GS
[0.6 0 0 0.6 0 -0.20001] CT
1 LJ
0.833 LW
N
299.25 275 M
282.559 281.184 L
288.417 274.957 L
299.25 275 L
S
GR
GS
[0.6 0 0 0.6 0 -0.20001] CT
N
282.608 268.684 M
299.25 275 L
288.417 274.957 L
cp
f
GR
GS
[0.6 0 0 0.6 0 -0.20001] CT
N
299.25 275 M
282.559 281.184 L
288.417 274.957 L
cp
f
GR
%%Trailer
%%Pages: 1
%%EOF
