%!PS-Adobe-3.0 EPSF-3.0
%%Creator: (MATLAB, The Mathworks, Inc. Version 9.2.0.538062 \(R2017a\). Operating System: Windows 8)
%%Title: C:/Users/chees/Documents/DottoratoLoc/GNSS/authProtocol/latex/figures/uniformQ.eps
%%CreationDate: 2017-10-12T14:29:03
%%Pages: (atend)
%%BoundingBox: 0 0 490 320
%%LanguageLevel: 3
%%EndComments
%%BeginProlog
%%BeginResource: procset (Apache XML Graphics Std ProcSet) 1.2 0
%%Version: 1.2 0
%%Copyright: (Copyright 2001-2003,2010 The Apache Software Foundation. License terms: http://www.apache.org/licenses/LICENSE-2.0)
/bd{bind def}bind def
/ld{load def}bd
/GR/grestore ld
/M/moveto ld
/LJ/setlinejoin ld
/C/curveto ld
/f/fill ld
/LW/setlinewidth ld
/GC/setgray ld
/t/show ld
/N/newpath ld
/CT/concat ld
/cp/closepath ld
/S/stroke ld
/L/lineto ld
/CC/setcmykcolor ld
/A/ashow ld
/GS/gsave ld
/RC/setrgbcolor ld
/RM/rmoveto ld
/ML/setmiterlimit ld
/re {4 2 roll M
1 index 0 rlineto
0 exch rlineto
neg 0 rlineto
cp } bd
/_ctm matrix def
/_tm matrix def
/BT { _ctm currentmatrix pop matrix _tm copy pop 0 0 moveto } bd
/ET { _ctm setmatrix } bd
/iTm { _ctm setmatrix _tm concat } bd
/Tm { _tm astore pop iTm 0 0 moveto } bd
/ux 0.0 def
/uy 0.0 def
/F {
  /Tp exch def
  /Tf exch def
  Tf findfont Tp scalefont setfont
  /cf Tf def  /cs Tp def
} bd
/ULS {currentpoint /uy exch def /ux exch def} bd
/ULE {
  /Tcx currentpoint pop def
  gsave
  newpath
  cf findfont cs scalefont dup
  /FontMatrix get 0 get /Ts exch def /FontInfo get dup
  /UnderlinePosition get Ts mul /To exch def
  /UnderlineThickness get Ts mul /Tt exch def
  ux uy To add moveto  Tcx uy To add lineto
  Tt setlinewidth stroke
  grestore
} bd
/OLE {
  /Tcx currentpoint pop def
  gsave
  newpath
  cf findfont cs scalefont dup
  /FontMatrix get 0 get /Ts exch def /FontInfo get dup
  /UnderlinePosition get Ts mul /To exch def
  /UnderlineThickness get Ts mul /Tt exch def
  ux uy To add cs add moveto Tcx uy To add cs add lineto
  Tt setlinewidth stroke
  grestore
} bd
/SOE {
  /Tcx currentpoint pop def
  gsave
  newpath
  cf findfont cs scalefont dup
  /FontMatrix get 0 get /Ts exch def /FontInfo get dup
  /UnderlinePosition get Ts mul /To exch def
  /UnderlineThickness get Ts mul /Tt exch def
  ux uy To add cs 10 mul 26 idiv add moveto Tcx uy To add cs 10 mul 26 idiv add lineto
  Tt setlinewidth stroke
  grestore
} bd
/QT {
/Y22 exch store
/X22 exch store
/Y21 exch store
/X21 exch store
currentpoint
/Y21 load 2 mul add 3 div exch
/X21 load 2 mul add 3 div exch
/X21 load 2 mul /X22 load add 3 div
/Y21 load 2 mul /Y22 load add 3 div
/X22 load /Y22 load curveto
} bd
/SSPD {
dup length /d exch dict def
{
/v exch def
/k exch def
currentpagedevice k known {
/cpdv currentpagedevice k get def
v cpdv ne {
/upd false def
/nullv v type /nulltype eq def
/nullcpdv cpdv type /nulltype eq def
nullv nullcpdv or
{
/upd true def
} {
/sametype v type cpdv type eq def
sametype {
v type /arraytype eq {
/vlen v length def
/cpdvlen cpdv length def
vlen cpdvlen eq {
0 1 vlen 1 sub {
/i exch def
/obj v i get def
/cpdobj cpdv i get def
obj cpdobj ne {
/upd true def
exit
} if
} for
} {
/upd true def
} ifelse
} {
v type /dicttype eq {
v {
/dv exch def
/dk exch def
/cpddv cpdv dk get def
dv cpddv ne {
/upd true def
exit
} if
} forall
} {
/upd true def
} ifelse
} ifelse
} if
} ifelse
upd true eq {
d k v put
} if
} if
} if
} forall
d length 0 gt {
d setpagedevice
} if
} bd
/RE { % /NewFontName [NewEncodingArray] /FontName RE -
  findfont dup length dict begin
  {
    1 index /FID ne
    {def} {pop pop} ifelse
  } forall
  /Encoding exch def
  /FontName 1 index def
  currentdict definefont pop
  end
} bind def
%%EndResource
%%BeginResource: procset (Apache XML Graphics EPS ProcSet) 1.0 0
%%Version: 1.0 0
%%Copyright: (Copyright 2002-2003 The Apache Software Foundation. License terms: http://www.apache.org/licenses/LICENSE-2.0)
/BeginEPSF { %def
/b4_Inc_state save def         % Save state for cleanup
/dict_count countdictstack def % Count objects on dict stack
/op_count count 1 sub def      % Count objects on operand stack
userdict begin                 % Push userdict on dict stack
/showpage { } def              % Redefine showpage, { } = null proc
0 setgray 0 setlinecap         % Prepare graphics state
1 setlinewidth 0 setlinejoin
10 setmiterlimit [ ] 0 setdash newpath
/languagelevel where           % If level not equal to 1 then
{pop languagelevel             % set strokeadjust and
1 ne                           % overprint to their defaults.
{false setstrokeadjust false setoverprint
} if
} if
} bd
/EndEPSF { %def
count op_count sub {pop} repeat            % Clean up stacks
countdictstack dict_count sub {end} repeat
b4_Inc_state restore
} bd
%%EndResource
%FOPBeginFontDict
%%IncludeResource: font Courier-Bold
%%IncludeResource: font Helvetica
%%IncludeResource: font Courier-BoldOblique
%%IncludeResource: font Courier-Oblique
%%IncludeResource: font Times-Roman
%%IncludeResource: font Helvetica-BoldOblique
%%IncludeResource: font Helvetica-Bold
%%IncludeResource: font Helvetica-Oblique
%%IncludeResource: font Times-BoldItalic
%%IncludeResource: font Courier
%%IncludeResource: font Times-Italic
%%IncludeResource: font Times-Bold
%%IncludeResource: font Symbol
%%IncludeResource: font ZapfDingbats
%FOPEndFontDict
%%BeginResource: encoding WinAnsiEncoding
/WinAnsiEncoding [
/.notdef /.notdef /.notdef /.notdef /.notdef
/.notdef /.notdef /.notdef /.notdef /.notdef
/.notdef /.notdef /.notdef /.notdef /.notdef
/.notdef /.notdef /.notdef /.notdef /.notdef
/.notdef /.notdef /.notdef /.notdef /.notdef
/.notdef /.notdef /.notdef /.notdef /.notdef
/.notdef /.notdef /space /exclam /quotedbl
/numbersign /dollar /percent /ampersand /quotesingle
/parenleft /parenright /asterisk /plus /comma
/hyphen /period /slash /zero /one
/two /three /four /five /six
/seven /eight /nine /colon /semicolon
/less /equal /greater /question /at
/A /B /C /D /E
/F /G /H /I /J
/K /L /M /N /O
/P /Q /R /S /T
/U /V /W /X /Y
/Z /bracketleft /backslash /bracketright /asciicircum
/underscore /quoteleft /a /b /c
/d /e /f /g /h
/i /j /k /l /m
/n /o /p /q /r
/s /t /u /v /w
/x /y /z /braceleft /bar
/braceright /asciitilde /bullet /Euro /bullet
/quotesinglbase /florin /quotedblbase /ellipsis /dagger
/daggerdbl /circumflex /perthousand /Scaron /guilsinglleft
/OE /bullet /Zcaron /bullet /bullet
/quoteleft /quoteright /quotedblleft /quotedblright /bullet
/endash /emdash /asciitilde /trademark /scaron
/guilsinglright /oe /bullet /zcaron /Ydieresis
/space /exclamdown /cent /sterling /currency
/yen /brokenbar /section /dieresis /copyright
/ordfeminine /guillemotleft /logicalnot /sfthyphen /registered
/macron /degree /plusminus /twosuperior /threesuperior
/acute /mu /paragraph /middot /cedilla
/onesuperior /ordmasculine /guillemotright /onequarter /onehalf
/threequarters /questiondown /Agrave /Aacute /Acircumflex
/Atilde /Adieresis /Aring /AE /Ccedilla
/Egrave /Eacute /Ecircumflex /Edieresis /Igrave
/Iacute /Icircumflex /Idieresis /Eth /Ntilde
/Ograve /Oacute /Ocircumflex /Otilde /Odieresis
/multiply /Oslash /Ugrave /Uacute /Ucircumflex
/Udieresis /Yacute /Thorn /germandbls /agrave
/aacute /acircumflex /atilde /adieresis /aring
/ae /ccedilla /egrave /eacute /ecircumflex
/edieresis /igrave /iacute /icircumflex /idieresis
/eth /ntilde /ograve /oacute /ocircumflex
/otilde /odieresis /divide /oslash /ugrave
/uacute /ucircumflex /udieresis /yacute /thorn
/ydieresis
] def
%%EndResource
%FOPBeginFontReencode
/Courier-Bold findfont
dup length dict begin
  {1 index /FID ne {def} {pop pop} ifelse} forall
  /Encoding WinAnsiEncoding def
  currentdict
end
/Courier-Bold exch definefont pop
/Helvetica findfont
dup length dict begin
  {1 index /FID ne {def} {pop pop} ifelse} forall
  /Encoding WinAnsiEncoding def
  currentdict
end
/Helvetica exch definefont pop
/Courier-BoldOblique findfont
dup length dict begin
  {1 index /FID ne {def} {pop pop} ifelse} forall
  /Encoding WinAnsiEncoding def
  currentdict
end
/Courier-BoldOblique exch definefont pop
/Courier-Oblique findfont
dup length dict begin
  {1 index /FID ne {def} {pop pop} ifelse} forall
  /Encoding WinAnsiEncoding def
  currentdict
end
/Courier-Oblique exch definefont pop
/Times-Roman findfont
dup length dict begin
  {1 index /FID ne {def} {pop pop} ifelse} forall
  /Encoding WinAnsiEncoding def
  currentdict
end
/Times-Roman exch definefont pop
/Helvetica-BoldOblique findfont
dup length dict begin
  {1 index /FID ne {def} {pop pop} ifelse} forall
  /Encoding WinAnsiEncoding def
  currentdict
end
/Helvetica-BoldOblique exch definefont pop
/Helvetica-Bold findfont
dup length dict begin
  {1 index /FID ne {def} {pop pop} ifelse} forall
  /Encoding WinAnsiEncoding def
  currentdict
end
/Helvetica-Bold exch definefont pop
/Helvetica-Oblique findfont
dup length dict begin
  {1 index /FID ne {def} {pop pop} ifelse} forall
  /Encoding WinAnsiEncoding def
  currentdict
end
/Helvetica-Oblique exch definefont pop
/Times-BoldItalic findfont
dup length dict begin
  {1 index /FID ne {def} {pop pop} ifelse} forall
  /Encoding WinAnsiEncoding def
  currentdict
end
/Times-BoldItalic exch definefont pop
/Courier findfont
dup length dict begin
  {1 index /FID ne {def} {pop pop} ifelse} forall
  /Encoding WinAnsiEncoding def
  currentdict
end
/Courier exch definefont pop
/Times-Italic findfont
dup length dict begin
  {1 index /FID ne {def} {pop pop} ifelse} forall
  /Encoding WinAnsiEncoding def
  currentdict
end
/Times-Italic exch definefont pop
/Times-Bold findfont
dup length dict begin
  {1 index /FID ne {def} {pop pop} ifelse} forall
  /Encoding WinAnsiEncoding def
  currentdict
end
/Times-Bold exch definefont pop
%FOPEndFontReencode
%%EndProlog
%%Page: 1 1
%%PageBoundingBox: 0 0 490 320
%%BeginPageSetup
[1 0 0 -1 0 320] CT
%%EndPageSetup
GS
[0.6 0 0 0.60113 0 -0.39999] CT
1 GC
N
0 0 816 533 re
f
GR
GS
[0.6 0 0 0.60113 0 -0.39999] CT
1 GC
N
0 0 816 533 re
f
GR
GS
[0.6 0 0 0.60113 0 -0.39999] CT
1 GC
N
106 475 M
738 475 L
738 40 L
106 40 L
cp
f
GR
GS
[0.6 0 0 0.60113 0 -0.39999] CT
0.873 GC
1 LJ
0.833 LW
N
106 475 M
106 40 L
S
GR
GS
[0.6 0 0 0.60113 0 -0.39999] CT
0.873 GC
1 LJ
0.833 LW
N
169.2 475 M
169.2 40 L
S
GR
GS
[0.6 0 0 0.60113 0 -0.39999] CT
0.873 GC
1 LJ
0.833 LW
N
232.4 475 M
232.4 40 L
S
GR
GS
[0.6 0 0 0.60113 0 -0.39999] CT
0.873 GC
1 LJ
0.833 LW
N
295.6 475 M
295.6 40 L
S
GR
GS
[0.6 0 0 0.60113 0 -0.39999] CT
0.873 GC
1 LJ
0.833 LW
N
358.8 475 M
358.8 40 L
S
GR
GS
[0.6 0 0 0.60113 0 -0.39999] CT
0.873 GC
1 LJ
0.833 LW
N
422 475 M
422 40 L
S
GR
GS
[0.6 0 0 0.60113 0 -0.39999] CT
0.873 GC
1 LJ
0.833 LW
N
485.2 475 M
485.2 40 L
S
GR
GS
[0.6 0 0 0.60113 0 -0.39999] CT
0.873 GC
1 LJ
0.833 LW
N
548.4 475 M
548.4 40 L
S
GR
GS
[0.6 0 0 0.60113 0 -0.39999] CT
0.873 GC
1 LJ
0.833 LW
N
611.6 475 M
611.6 40 L
S
GR
GS
[0.6 0 0 0.60113 0 -0.39999] CT
0.873 GC
1 LJ
0.833 LW
N
674.8 475 M
674.8 40 L
S
GR
GS
[0.6 0 0 0.60113 0 -0.39999] CT
0.873 GC
1 LJ
0.833 LW
N
738 475 M
738 40 L
S
GR
GS
[0.6 0 0 0.60113 0 -0.39999] CT
0.873 GC
1 LJ
0.833 LW
N
738 475 M
106 475 L
S
GR
GS
[0.6 0 0 0.60113 0 -0.39999] CT
0.873 GC
1 LJ
0.833 LW
N
738 402.5 M
106 402.5 L
S
GR
GS
[0.6 0 0 0.60113 0 -0.39999] CT
0.873 GC
1 LJ
0.833 LW
N
738 330 M
106 330 L
S
GR
GS
[0.6 0 0 0.60113 0 -0.39999] CT
0.873 GC
1 LJ
0.833 LW
N
738 257.5 M
106 257.5 L
S
GR
GS
[0.6 0 0 0.60113 0 -0.39999] CT
0.873 GC
1 LJ
0.833 LW
N
738 185 M
106 185 L
S
GR
GS
[0.6 0 0 0.60113 0 -0.39999] CT
0.873 GC
1 LJ
0.833 LW
N
738 112.5 M
106 112.5 L
S
GR
GS
[0.6 0 0 0.60113 0 -0.39999] CT
0.873 GC
1 LJ
0.833 LW
N
738 40 M
106 40 L
S
GR
GS
[0.6 0 0 0.60113 0 -0.39999] CT
0.149 GC
2 setlinecap
1 LJ
0.833 LW
N
106 475 M
738 475 L
S
GR
GS
[0.6 0 0 0.60113 0 -0.39999] CT
0.149 GC
2 setlinecap
1 LJ
0.833 LW
N
106 475 M
106 468.68 L
S
GR
GS
[0.6 0 0 0.60113 0 -0.39999] CT
0.149 GC
2 setlinecap
1 LJ
0.833 LW
N
169.2 475 M
169.2 468.68 L
S
GR
GS
[0.6 0 0 0.60113 0 -0.39999] CT
0.149 GC
2 setlinecap
1 LJ
0.833 LW
N
232.4 475 M
232.4 468.68 L
S
GR
GS
[0.6 0 0 0.60113 0 -0.39999] CT
0.149 GC
2 setlinecap
1 LJ
0.833 LW
N
295.6 475 M
295.6 468.68 L
S
GR
GS
[0.6 0 0 0.60113 0 -0.39999] CT
0.149 GC
2 setlinecap
1 LJ
0.833 LW
N
358.8 475 M
358.8 468.68 L
S
GR
GS
[0.6 0 0 0.60113 0 -0.39999] CT
0.149 GC
2 setlinecap
1 LJ
0.833 LW
N
422 475 M
422 468.68 L
S
GR
GS
[0.6 0 0 0.60113 0 -0.39999] CT
0.149 GC
2 setlinecap
1 LJ
0.833 LW
N
485.2 475 M
485.2 468.68 L
S
GR
GS
[0.6 0 0 0.60113 0 -0.39999] CT
0.149 GC
2 setlinecap
1 LJ
0.833 LW
N
548.4 475 M
548.4 468.68 L
S
GR
GS
[0.6 0 0 0.60113 0 -0.39999] CT
0.149 GC
2 setlinecap
1 LJ
0.833 LW
N
611.6 475 M
611.6 468.68 L
S
GR
GS
[0.6 0 0 0.60113 0 -0.39999] CT
0.149 GC
2 setlinecap
1 LJ
0.833 LW
N
674.8 475 M
674.8 468.68 L
S
GR
GS
[0.6 0 0 0.60113 0 -0.39999] CT
0.149 GC
2 setlinecap
1 LJ
0.833 LW
N
738 475 M
738 468.68 L
S
GR
GS
[0.6 0 0 0.60113 63.6 289.14221] CT
0.149 GC
/Helvetica 16.667 F
GS
[1 0 0 1 0 0] CT
-12.5 18 moveto 
1 -1 scale
(-20) t 
GR
GR
GS
[0.6 0 0 0.60113 101.52 289.14221] CT
0.149 GC
/Helvetica 16.667 F
GS
[1 0 0 1 0 0] CT
-12.5 18 moveto 
1 -1 scale
(-15) t 
GR
GR
GS
[0.6 0 0 0.60113 139.44 289.14221] CT
0.149 GC
/Helvetica 16.667 F
GS
[1 0 0 1 0 0] CT
-12.5 18 moveto 
1 -1 scale
(-10) t 
GR
GR
GS
[0.6 0 0 0.60113 177.36001 289.14221] CT
0.149 GC
/Helvetica 16.667 F
GS
[1 0 0 1 0 0] CT
-8 18 moveto 
1 -1 scale
(-5) t 
GR
GR
GS
[0.6 0 0 0.60113 215.28 289.14221] CT
0.149 GC
/Helvetica 16.667 F
GS
[1 0 0 1 0 0] CT
-5 18 moveto 
1 -1 scale
(0) t 
GR
GR
GS
[0.6 0 0 0.60113 253.2 289.14221] CT
0.149 GC
/Helvetica 16.667 F
GS
[1 0 0 1 0 0] CT
-5 18 moveto 
1 -1 scale
(5) t 
GR
GR
GS
[0.6 0 0 0.60113 291.12001 289.14221] CT
0.149 GC
/Helvetica 16.667 F
GS
[1 0 0 1 0 0] CT
-9.5 18 moveto 
1 -1 scale
(10) t 
GR
GR
GS
[0.6 0 0 0.60113 329.04002 289.14221] CT
0.149 GC
/Helvetica 16.667 F
GS
[1 0 0 1 0 0] CT
-9.5 18 moveto 
1 -1 scale
(15) t 
GR
GR
GS
[0.6 0 0 0.60113 366.95999 289.14221] CT
0.149 GC
/Helvetica 16.667 F
GS
[1 0 0 1 0 0] CT
-9.5 18 moveto 
1 -1 scale
(20) t 
GR
GR
GS
[0.6 0 0 0.60113 404.88 289.14221] CT
0.149 GC
/Helvetica 16.667 F
GS
[1 0 0 1 0 0] CT
-9.5 18 moveto 
1 -1 scale
(25) t 
GR
GR
GS
[0.6 0 0 0.60113 442.80001 289.14221] CT
0.149 GC
/Helvetica 16.667 F
GS
[1 0 0 1 0 0] CT
-9.5 18 moveto 
1 -1 scale
(30) t 
GR
GR
GS
[0.6 0 0 0.60113 253.20019 303.36886] CT
0.149 GC
N
-36.872 19.166 M
-37.888 19.166 -38.677 18.673 QT
-39.466 18.181 -39.903 17.353 QT
-40.341 16.525 -40.341 15.525 QT
-40.341 14.447 -39.856 13.267 QT
-39.372 12.087 -38.536 11.111 QT
-37.7 10.134 -36.645 9.556 QT
-35.591 8.978 -34.481 8.978 QT
-28.684 8.978 L
-28.45 8.978 -28.278 9.134 QT
-28.106 9.291 -28.106 9.572 QT
-28.106 9.9 -28.348 10.158 QT
-28.591 10.416 -28.934 10.416 QT
-31.731 10.416 L
-31.075 11.4 -31.075 12.806 QT
-31.075 13.962 -31.52 15.08 QT
-31.966 16.197 -32.763 17.126 QT
-33.559 18.056 -34.622 18.611 QT
-35.684 19.166 -36.872 19.166 QT
cp
-36.841 18.556 M
-35.591 18.556 -34.614 17.572 QT
-33.638 16.587 -33.122 15.166 QT
-32.606 13.744 -32.606 12.525 QT
-32.606 11.541 -33.153 10.978 QT
-33.7 10.416 -34.684 10.416 QT
-36.013 10.416 -36.95 11.314 QT
-37.888 12.212 -38.356 13.572 QT
-38.825 14.931 -38.825 16.181 QT
-38.825 17.166 -38.302 17.861 QT
-37.778 18.556 -36.841 18.556 QT
cp
f
GR
GS
[0.6 0 0 0.60113 253.20019 303.36886] CT
0.149 GC
N
-26.708 10.735 M
-26.708 10.297 L
-26.708 10.266 -26.677 10.219 QT
-24.192 7.469 L
-23.63 6.86 -23.278 6.446 QT
-22.927 6.032 -22.583 5.493 QT
-22.239 4.954 -22.036 4.391 QT
-21.833 3.829 -21.833 3.204 QT
-21.833 2.547 -22.075 1.954 QT
-22.317 1.36 -22.802 1 QT
-23.286 0.641 -23.958 0.641 QT
-24.661 0.641 -25.216 1.055 QT
-25.77 1.469 -25.989 2.141 QT
-25.927 2.125 -25.817 2.125 QT
-25.458 2.125 -25.208 2.368 QT
-24.958 2.61 -24.958 2.985 QT
-24.958 3.36 -25.208 3.61 QT
-25.458 3.86 -25.817 3.86 QT
-26.192 3.86 -26.45 3.602 QT
-26.708 3.344 -26.708 2.985 QT
-26.708 2.391 -26.481 1.86 QT
-26.255 1.329 -25.825 0.922 QT
-25.395 0.516 -24.864 0.297 QT
-24.333 0.079 -23.723 0.079 QT
-22.817 0.079 -22.028 0.461 QT
-21.239 0.844 -20.778 1.555 QT
-20.317 2.266 -20.317 3.204 QT
-20.317 3.907 -20.622 4.532 QT
-20.927 5.157 -21.403 5.665 QT
-21.88 6.172 -22.622 6.821 QT
-23.364 7.469 -23.598 7.688 QT
-25.411 9.438 L
-23.864 9.438 L
-22.739 9.438 -21.973 9.415 QT
-21.208 9.391 -21.161 9.36 QT
-20.973 9.157 -20.786 7.875 QT
-20.317 7.875 L
-20.77 10.735 L
-26.708 10.735 L
cp
f
GR
GS
[0.6 0 0 0.60113 253.20019 303.36886] CT
0.149 GC
N
-26.578 22.603 M
-26.578 22.259 -26.492 21.822 QT
-26.406 21.384 -26.296 21.048 QT
-26.187 20.712 -25.921 20.009 QT
-25.656 19.306 -25.64 19.244 QT
-25.421 18.65 -25.421 18.275 QT
-25.421 17.806 -25.781 17.806 QT
-26.406 17.806 -26.82 18.454 QT
-27.234 19.103 -27.421 19.915 QT
-27.453 20.009 -27.562 20.009 QT
-27.749 20.009 L
-27.874 20.009 -27.874 19.869 QT
-27.874 19.822 L
-27.624 18.869 -27.093 18.126 QT
-26.562 17.384 -25.749 17.384 QT
-25.171 17.384 -24.781 17.759 QT
-24.39 18.134 -24.39 18.712 QT
-24.39 19.009 -24.515 19.337 QT
-24.703 19.822 -24.96 20.501 QT
-25.218 21.181 -25.359 21.736 QT
-25.499 22.29 -25.499 22.806 QT
-25.499 23.431 -25.171 23.822 QT
-24.843 24.212 -24.218 24.212 QT
-23.359 24.212 -22.796 22.915 QT
-22.828 22.822 -22.828 22.65 QT
-22.828 22.228 -22.687 21.681 QT
-21.796 18.072 L
-21.734 17.869 -21.539 17.712 QT
-21.343 17.556 -21.124 17.556 QT
-20.937 17.556 -20.789 17.681 QT
-20.64 17.806 -20.64 18.009 QT
-20.64 18.103 -20.656 18.134 QT
-21.562 21.712 L
-21.718 22.353 -21.718 22.853 QT
-21.718 23.462 -21.437 23.837 QT
-21.156 24.212 -20.562 24.212 QT
-19.531 24.212 -18.874 22.853 QT
-18.624 22.369 -18.312 21.423 QT
-17.999 20.478 -17.999 19.978 QT
-17.999 19.525 -18.148 19.251 QT
-18.296 18.978 -18.562 18.665 QT
-18.828 18.353 -18.828 18.197 QT
-18.828 17.9 -18.562 17.634 QT
-18.296 17.369 -17.984 17.369 QT
-17.609 17.369 -17.437 17.72 QT
-17.265 18.072 -17.265 18.525 QT
-17.265 19.056 -17.445 19.892 QT
-17.624 20.728 -17.898 21.564 QT
-18.171 22.4 -18.421 22.9 QT
-19.296 24.65 -20.593 24.65 QT
-21.265 24.65 -21.82 24.384 QT
-22.374 24.119 -22.64 23.556 QT
-22.906 24.025 -23.32 24.337 QT
-23.734 24.65 -24.249 24.65 QT
-25.296 24.65 -25.937 24.142 QT
-26.578 23.634 -26.578 22.603 QT
cp
f
GR
GS
[0.6 0 0 0.60113 253.20019 303.36886] CT
0.149 GC
N
-15.581 18.522 M
-15.706 18.522 -15.8 18.412 QT
-15.894 18.303 -15.894 18.178 QT
-15.894 17.99 -15.737 17.912 QT
-14.159 17.162 L
-15.737 16.412 L
-15.894 16.35 -15.894 16.147 QT
-15.894 16.022 -15.8 15.92 QT
-15.706 15.819 -15.581 15.819 QT
-15.487 15.819 -15.425 15.865 QT
-14.019 16.897 L
-14.175 15.1 L
-14.175 14.975 -14.089 14.889 QT
-14.003 14.803 -13.862 14.803 QT
-13.737 14.803 -13.644 14.881 QT
-13.55 14.959 -13.55 15.084 QT
-13.55 15.1 L
-13.722 16.897 L
-12.316 15.865 L
-12.237 15.819 -12.159 15.819 QT
-12.019 15.819 -11.925 15.92 QT
-11.831 16.022 -11.831 16.147 QT
-11.831 16.35 -11.987 16.412 QT
-13.581 17.162 L
-11.987 17.912 L
-11.831 17.99 -11.831 18.178 QT
-11.831 18.303 -11.925 18.412 QT
-12.019 18.522 -12.159 18.522 QT
-12.237 18.522 -12.316 18.459 QT
-13.722 17.444 L
-13.55 19.225 L
-13.55 19.256 L
-13.55 19.381 -13.644 19.459 QT
-13.737 19.537 -13.862 19.537 QT
-13.987 19.537 -14.081 19.451 QT
-14.175 19.365 -14.175 19.225 QT
-14.019 17.444 L
-15.425 18.459 L
-15.487 18.522 -15.581 18.522 QT
cp
f
GR
GS
[0.6 0 0 0.60113 253.20019 303.36886] CT
0.149 GC
N
1.481 24.65 M
1.481 1.65 L
4.622 1.65 L
4.622 2.572 L
2.403 2.572 L
2.403 23.728 L
4.622 23.728 L
4.622 24.65 L
1.481 24.65 L
cp
f
GR
GS
[0.6 0 0 0.60113 253.20019 303.36886] CT
0.149 GC
N
9.013 19.166 M
7.559 19.166 6.723 18.064 QT
5.888 16.962 5.888 15.478 QT
5.888 14.009 6.653 12.423 QT
7.419 10.837 8.716 9.791 QT
10.013 8.744 11.497 8.744 QT
12.184 8.744 12.723 9.119 QT
13.263 9.494 13.575 10.119 QT
14.856 4.978 L
14.95 4.587 14.981 4.369 QT
14.981 3.994 13.481 3.994 QT
13.247 3.994 13.247 3.697 QT
13.263 3.634 13.302 3.494 QT
13.341 3.353 13.403 3.267 QT
13.466 3.181 13.575 3.181 QT
16.669 2.947 L
16.95 2.947 16.95 3.228 QT
13.638 16.462 L
13.481 16.837 13.481 17.556 QT
13.481 18.556 14.138 18.556 QT
14.856 18.556 15.239 17.642 QT
15.622 16.728 15.872 15.525 QT
15.919 15.384 16.059 15.384 QT
16.341 15.384 L
16.419 15.384 16.473 15.462 QT
16.528 15.541 16.528 15.603 QT
16.138 17.212 15.653 18.189 QT
15.169 19.166 14.091 19.166 QT
13.325 19.166 12.731 18.705 QT
12.138 18.244 11.981 17.494 QT
10.497 19.166 9.013 19.166 QT
cp
9.028 18.556 M
9.872 18.556 10.645 17.931 QT
11.419 17.306 11.981 16.462 QT
12.013 16.447 12.013 16.369 QT
13.263 11.306 L
13.138 10.494 12.677 9.916 QT
12.216 9.337 11.45 9.337 QT
10.669 9.337 10.005 9.97 QT
9.341 10.603 8.872 11.462 QT
8.434 12.384 8.02 13.994 QT
7.606 15.603 7.606 16.478 QT
7.606 17.275 7.95 17.916 QT
8.294 18.556 9.028 18.556 QT
cp
f
GR
GS
[0.6 0 0 0.60113 253.20019 303.36886] CT
0.149 GC
N
17.864 18.9 M
17.645 18.9 17.645 18.603 QT
17.661 18.541 17.692 18.408 QT
17.723 18.275 17.778 18.181 QT
17.833 18.087 17.942 18.087 QT
18.598 18.087 19.083 18.056 QT
19.567 18.025 19.895 17.931 QT
20.177 17.837 20.333 17.322 QT
23.489 4.681 L
23.536 4.462 23.536 4.369 QT
23.536 4.119 23.255 4.087 QT
22.817 3.994 21.598 3.994 QT
21.38 3.994 21.38 3.697 QT
21.38 3.634 21.419 3.494 QT
21.458 3.353 21.52 3.267 QT
21.583 3.181 21.661 3.181 QT
29.911 3.181 L
30.661 3.181 31.395 3.369 QT
32.13 3.556 32.755 3.962 QT
33.38 4.369 33.747 4.97 QT
34.114 5.572 34.114 6.369 QT
34.114 7.228 33.669 7.97 QT
33.223 8.712 32.52 9.267 QT
31.817 9.822 31.005 10.173 QT
30.192 10.525 29.302 10.697 QT
29.927 10.697 30.575 10.939 QT
31.223 11.181 31.731 11.611 QT
32.239 12.041 32.544 12.634 QT
32.848 13.228 32.848 13.916 QT
32.848 15.291 31.888 16.439 QT
30.927 17.587 29.458 18.244 QT
27.989 18.9 26.614 18.9 QT
17.864 18.9 L
cp
22.098 17.916 M
22.098 18.087 22.895 18.087 QT
26.177 18.087 L
27.302 18.087 28.333 17.462 QT
29.364 16.837 29.989 15.806 QT
30.614 14.775 30.614 13.65 QT
30.614 12.962 30.325 12.353 QT
30.036 11.744 29.497 11.392 QT
28.958 11.041 28.27 11.041 QT
23.786 11.041 L
22.192 17.4 L
22.098 17.728 22.098 17.916 QT
cp
23.942 10.431 M
27.442 10.431 L
28.536 10.431 29.575 9.869 QT
30.614 9.306 31.27 8.345 QT
31.927 7.384 31.927 6.306 QT
31.927 5.306 31.302 4.65 QT
30.677 3.994 29.692 3.994 QT
26.536 3.994 L
25.927 3.994 25.708 4.111 QT
25.489 4.228 25.348 4.791 QT
23.942 10.431 L
cp
f
GR
GS
[0.6 0 0 0.60113 253.20019 303.36886] CT
0.149 GC
N
35.419 24.65 M
35.419 23.728 L
37.653 23.728 L
37.653 2.572 L
35.419 2.572 L
35.419 1.65 L
38.575 1.65 L
38.575 24.65 L
35.419 24.65 L
cp
f
GR
GS
[0.6 0 0 0.60113 0 -0.39999] CT
0.149 GC
2 setlinecap
1 LJ
0.833 LW
N
106 475 M
106 40 L
S
GR
GS
[0.6 0 0 0.60113 0 -0.39999] CT
0.149 GC
2 setlinecap
1 LJ
0.833 LW
N
106 475 M
112.32 475 L
S
GR
GS
[0.6 0 0 0.60113 0 -0.39999] CT
0.149 GC
2 setlinecap
1 LJ
0.833 LW
N
106 402.5 M
112.32 402.5 L
S
GR
GS
[0.6 0 0 0.60113 0 -0.39999] CT
0.149 GC
2 setlinecap
1 LJ
0.833 LW
N
106 330 M
112.32 330 L
S
GR
GS
[0.6 0 0 0.60113 0 -0.39999] CT
0.149 GC
2 setlinecap
1 LJ
0.833 LW
N
106 257.5 M
112.32 257.5 L
S
GR
GS
[0.6 0 0 0.60113 0 -0.39999] CT
0.149 GC
2 setlinecap
1 LJ
0.833 LW
N
106 185 M
112.32 185 L
S
GR
GS
[0.6 0 0 0.60113 0 -0.39999] CT
0.149 GC
2 setlinecap
1 LJ
0.833 LW
N
106 112.5 M
112.32 112.5 L
S
GR
GS
[0.6 0 0 0.60113 0 -0.39999] CT
0.149 GC
2 setlinecap
1 LJ
0.833 LW
N
106 40 M
112.32 40 L
S
GR
GS
[0.6 0 0 0.60113 59.6 285.13471] CT
0.149 GC
/Helvetica 16.667 F
GS
[1 0 0 1 0 0] CT
-10 7 moveto 
1 -1 scale
(0) t 
GR
GR
GS
[0.6 0 0 0.60113 59.6 241.5531] CT
0.149 GC
/Helvetica 16.667 F
GS
[1 0 0 1 0 0] CT
-24 7 moveto 
1 -1 scale
(0.5) t 
GR
GR
GS
[0.6 0 0 0.60113 59.6 197.97148] CT
0.149 GC
/Helvetica 16.667 F
GS
[1 0 0 1 0 0] CT
-10 7 moveto 
1 -1 scale
(1) t 
GR
GR
GS
[0.6 0 0 0.60113 59.6 154.38987] CT
0.149 GC
/Helvetica 16.667 F
GS
[1 0 0 1 0 0] CT
-24 7 moveto 
1 -1 scale
(1.5) t 
GR
GR
GS
[0.6 0 0 0.60113 59.6 110.80826] CT
0.149 GC
/Helvetica 16.667 F
GS
[1 0 0 1 0 0] CT
-10 7 moveto 
1 -1 scale
(2) t 
GR
GR
GS
[0.6 0 0 0.60113 59.6 67.22665] CT
0.149 GC
/Helvetica 16.667 F
GS
[1 0 0 1 0 0] CT
-24 7 moveto 
1 -1 scale
(2.5) t 
GR
GR
GS
[0.6 0 0 0.60113 59.6 23.64503] CT
0.149 GC
/Helvetica 16.667 F
GS
[1 0 0 1 0 0] CT
-10 7 moveto 
1 -1 scale
(3) t 
GR
GR
GS
[0 -0.60113 0.6 0 42.2 154.38974] CT
0.149 GC
N
-61.81 -13.069 M
-61.81 -11.678 -61.279 -10.631 QT
-60.748 -9.584 -59.732 -8.991 QT
-58.717 -8.397 -57.326 -8.397 QT
-55.888 -8.397 -54.545 -9.139 QT
-53.201 -9.881 -52.248 -11.124 QT
-51.295 -12.366 -50.951 -13.756 QT
-50.904 -13.897 -50.779 -13.897 QT
-50.498 -13.897 L
-50.404 -13.897 -50.349 -13.834 QT
-50.295 -13.772 -50.295 -13.694 QT
-50.295 -13.678 -50.31 -13.631 QT
-50.701 -12.038 -51.834 -10.639 QT
-52.967 -9.241 -54.537 -8.42 QT
-56.107 -7.6 -57.763 -7.6 QT
-59.56 -7.6 -60.99 -8.405 QT
-62.42 -9.209 -63.209 -10.647 QT
-63.998 -12.084 -63.998 -13.897 QT
-63.998 -15.834 -63.138 -17.725 QT
-62.279 -19.616 -60.818 -21.092 QT
-59.357 -22.569 -57.482 -23.444 QT
-55.607 -24.319 -53.685 -24.319 QT
-52.935 -24.319 -52.232 -24.084 QT
-51.529 -23.85 -50.935 -23.381 QT
-50.342 -22.913 -49.967 -22.303 QT
-48.138 -24.272 L
-48.138 -24.319 -48.029 -24.319 QT
-47.904 -24.319 L
-47.81 -24.319 -47.756 -24.241 QT
-47.701 -24.163 -47.701 -24.084 QT
-49.263 -17.866 L
-49.263 -17.709 -49.435 -17.709 QT
-49.857 -17.709 L
-50.029 -17.709 -50.029 -17.975 QT
-49.935 -18.475 -49.935 -19.178 QT
-49.935 -20.303 -50.318 -21.303 QT
-50.701 -22.303 -51.506 -22.905 QT
-52.31 -23.506 -53.467 -23.506 QT
-55.342 -23.506 -56.904 -22.561 QT
-58.467 -21.616 -59.552 -20.084 QT
-60.638 -18.553 -61.224 -16.686 QT
-61.81 -14.819 -61.81 -13.069 QT
cp
f
GR
GS
[0 -0.60113 0.6 0 42.2 154.38974] CT
0.149 GC
N
-47.698 -5.709 M
-47.26 -4.975 -45.963 -4.975 QT
-45.401 -4.975 -44.893 -5.163 QT
-44.385 -5.35 -44.057 -5.733 QT
-43.729 -6.116 -43.729 -6.663 QT
-43.729 -7.084 -44.026 -7.35 QT
-44.323 -7.616 -44.745 -7.709 QT
-45.62 -7.881 L
-46.213 -8.022 -46.596 -8.428 QT
-46.979 -8.834 -46.979 -9.413 QT
-46.979 -10.131 -46.588 -10.678 QT
-46.198 -11.225 -45.565 -11.514 QT
-44.932 -11.803 -44.26 -11.803 QT
-43.526 -11.803 -42.956 -11.452 QT
-42.385 -11.1 -42.385 -10.428 QT
-42.385 -10.053 -42.588 -9.772 QT
-42.792 -9.491 -43.167 -9.491 QT
-43.37 -9.491 -43.526 -9.631 QT
-43.682 -9.772 -43.682 -9.975 QT
-43.682 -10.163 -43.573 -10.342 QT
-43.463 -10.522 -43.292 -10.624 QT
-43.12 -10.725 -42.932 -10.725 QT
-43.073 -11.069 -43.456 -11.225 QT
-43.838 -11.381 -44.292 -11.381 QT
-44.698 -11.381 -45.104 -11.217 QT
-45.51 -11.053 -45.752 -10.741 QT
-45.995 -10.428 -45.995 -9.991 QT
-45.995 -9.709 -45.792 -9.491 QT
-45.588 -9.272 -45.292 -9.178 QT
-44.37 -8.991 L
-43.917 -8.897 -43.549 -8.655 QT
-43.182 -8.413 -42.963 -8.053 QT
-42.745 -7.694 -42.745 -7.225 QT
-42.745 -6.631 -43.081 -6.053 QT
-43.417 -5.475 -43.901 -5.131 QT
-44.745 -4.538 -45.979 -4.538 QT
-46.838 -4.538 -47.549 -4.936 QT
-48.26 -5.334 -48.26 -6.1 QT
-48.26 -6.538 -48.002 -6.866 QT
-47.745 -7.194 -47.307 -7.194 QT
-47.057 -7.194 -46.877 -7.038 QT
-46.698 -6.881 -46.698 -6.616 QT
-46.698 -6.256 -46.971 -5.983 QT
-47.245 -5.709 -47.62 -5.709 QT
-47.698 -5.709 L
cp
f
GR
GS
[0 -0.60113 0.6 0 42.2 154.38974] CT
0.149 GC
N
-30.362 -2.35 M
-30.362 -25.35 L
-27.221 -25.35 L
-27.221 -24.428 L
-29.44 -24.428 L
-29.44 -3.272 L
-27.221 -3.272 L
-27.221 -2.35 L
-30.362 -2.35 L
cp
f
GR
GS
[0 -0.60113 0.6 0 42.2 154.38974] CT
0.149 GC
N
-24.44 -8.1 M
-24.44 -21.709 L
-24.44 -22.334 -24.627 -22.608 QT
-24.815 -22.881 -25.159 -22.944 QT
-25.502 -23.006 -26.237 -23.006 QT
-26.237 -23.819 L
-22.831 -24.053 L
-22.831 -16.866 L
-22.456 -17.288 -21.94 -17.608 QT
-21.424 -17.928 -20.846 -18.092 QT
-20.268 -18.256 -19.659 -18.256 QT
-18.627 -18.256 -17.745 -17.842 QT
-16.862 -17.428 -16.206 -16.702 QT
-15.549 -15.975 -15.19 -15.022 QT
-14.831 -14.069 -14.831 -13.069 QT
-14.831 -11.678 -15.51 -10.475 QT
-16.19 -9.272 -17.362 -8.553 QT
-18.534 -7.834 -19.94 -7.834 QT
-20.815 -7.834 -21.635 -8.288 QT
-22.456 -8.741 -22.987 -9.475 QT
-23.768 -8.1 L
-24.44 -8.1 L
cp
-22.768 -10.35 M
-22.377 -9.522 -21.659 -8.983 QT
-20.94 -8.444 -20.065 -8.444 QT
-18.877 -8.444 -18.143 -9.131 QT
-17.409 -9.819 -17.12 -10.866 QT
-16.831 -11.913 -16.831 -13.069 QT
-16.831 -15.006 -17.331 -16.022 QT
-17.549 -16.459 -17.94 -16.842 QT
-18.331 -17.225 -18.807 -17.444 QT
-19.284 -17.663 -19.815 -17.663 QT
-20.737 -17.663 -21.518 -17.178 QT
-22.299 -16.694 -22.768 -15.866 QT
-22.768 -10.35 L
cp
f
GR
GS
[0 -0.60113 0.6 0 42.2 154.38974] CT
0.149 GC
N
-13.627 -8.1 M
-13.627 -8.913 L
-12.831 -8.913 -12.331 -9.038 QT
-11.831 -9.163 -11.831 -9.631 QT
-11.831 -15.913 L
-11.831 -16.803 -12.174 -17.006 QT
-12.518 -17.209 -13.518 -17.209 QT
-13.518 -18.022 L
-10.206 -18.256 L
-10.206 -9.631 L
-10.206 -9.163 -9.768 -9.038 QT
-9.331 -8.913 -8.596 -8.913 QT
-8.596 -8.1 L
-13.627 -8.1 L
cp
-12.643 -22.209 M
-12.643 -22.725 -12.26 -23.108 QT
-11.877 -23.491 -11.393 -23.491 QT
-11.065 -23.491 -10.76 -23.319 QT
-10.456 -23.147 -10.284 -22.842 QT
-10.112 -22.538 -10.112 -22.209 QT
-10.112 -21.725 -10.495 -21.342 QT
-10.877 -20.959 -11.393 -20.959 QT
-11.877 -20.959 -12.26 -21.342 QT
-12.643 -21.725 -12.643 -22.209 QT
cp
f
GR
GS
[0 -0.60113 0.6 0 42.2 154.38974] CT
0.149 GC
N
-5.737 -10.866 M
-5.737 -17.209 L
-7.643 -17.209 L
-7.643 -17.803 L
-6.143 -17.803 -5.432 -19.209 QT
-4.721 -20.616 -4.721 -22.256 QT
-4.065 -22.256 L
-4.065 -18.022 L
-0.815 -18.022 L
-0.815 -17.209 L
-4.065 -17.209 L
-4.065 -10.913 L
-4.065 -9.959 -3.745 -9.241 QT
-3.424 -8.522 -2.596 -8.522 QT
-1.799 -8.522 -1.456 -9.28 QT
-1.112 -10.038 -1.112 -10.913 QT
-1.112 -12.272 L
-0.44 -12.272 L
-0.44 -10.866 L
-0.44 -10.147 -0.706 -9.444 QT
-0.971 -8.741 -1.487 -8.288 QT
-2.002 -7.834 -2.752 -7.834 QT
-4.127 -7.834 -4.932 -8.663 QT
-5.737 -9.491 -5.737 -10.866 QT
cp
f
GR
GS
[0 -0.60113 0.6 0 42.2 154.38974] CT
0.149 GC
N
1.966 -2.803 M
1.966 -2.881 1.982 -2.897 QT
9.982 -25.069 L
10.029 -25.209 10.138 -25.28 QT
10.248 -25.35 10.388 -25.35 QT
10.591 -25.35 10.724 -25.225 QT
10.857 -25.1 10.857 -24.897 QT
10.857 -24.803 L
2.857 -2.631 L
2.732 -2.35 2.42 -2.35 QT
2.232 -2.35 2.099 -2.483 QT
1.966 -2.616 1.966 -2.803 QT
cp
f
GR
GS
[0 -0.60113 0.6 0 42.2 154.38974] CT
0.149 GC
N
12.685 -8.038 M
12.685 -11.788 L
12.685 -11.959 12.888 -11.959 QT
13.17 -11.959 L
13.295 -11.959 13.341 -11.788 QT
13.982 -8.444 16.451 -8.444 QT
17.529 -8.444 18.271 -8.944 QT
19.013 -9.444 19.013 -10.475 QT
19.013 -11.209 18.435 -11.733 QT
17.857 -12.256 17.076 -12.444 QT
15.529 -12.756 L
14.763 -12.913 14.13 -13.264 QT
13.498 -13.616 13.091 -14.194 QT
12.685 -14.772 12.685 -15.538 QT
12.685 -16.553 13.216 -17.194 QT
13.748 -17.834 14.599 -18.124 QT
15.451 -18.413 16.451 -18.413 QT
17.623 -18.413 18.498 -17.788 QT
19.17 -18.35 L
19.17 -18.413 19.279 -18.413 QT
19.451 -18.413 L
19.513 -18.413 19.568 -18.35 QT
19.623 -18.288 19.623 -18.225 QT
19.623 -15.209 L
19.623 -14.991 19.451 -14.991 QT
19.17 -14.991 L
18.966 -14.991 18.966 -15.209 QT
18.966 -16.413 18.295 -17.139 QT
17.623 -17.866 16.42 -17.866 QT
15.388 -17.866 14.63 -17.483 QT
13.873 -17.1 13.873 -16.178 QT
13.873 -15.538 14.42 -15.124 QT
14.966 -14.709 15.701 -14.538 QT
17.248 -14.241 L
18.045 -14.069 18.724 -13.639 QT
19.404 -13.209 19.802 -12.561 QT
20.201 -11.913 20.201 -11.084 QT
20.201 -10.256 19.912 -9.647 QT
19.623 -9.038 19.115 -8.631 QT
18.607 -8.225 17.912 -8.03 QT
17.216 -7.834 16.451 -7.834 QT
15.013 -7.834 13.982 -8.803 QT
13.138 -7.897 L
13.138 -7.834 13.013 -7.834 QT
12.888 -7.834 L
12.685 -7.834 12.685 -8.038 QT
cp
f
GR
GS
[0 -0.60113 0.6 0 42.2 154.38974] CT
0.149 GC
N
22.091 -2.803 M
22.091 -2.881 22.107 -2.897 QT
30.107 -25.069 L
30.154 -25.209 30.263 -25.28 QT
30.373 -25.35 30.513 -25.35 QT
30.716 -25.35 30.849 -25.225 QT
30.982 -25.1 30.982 -24.897 QT
30.982 -24.803 L
22.982 -2.631 L
22.857 -2.35 22.545 -2.35 QT
22.357 -2.35 22.224 -2.483 QT
22.091 -2.616 22.091 -2.803 QT
cp
f
GR
GS
[0 -0.60113 0.6 0 42.2 154.38974] CT
0.149 GC
N
32.748 -8.1 M
32.748 -8.913 L
35.123 -8.913 35.123 -9.631 QT
35.123 -22.272 L
35.123 -23.006 32.748 -23.006 QT
32.748 -23.819 L
39.638 -23.819 L
39.638 -23.006 L
37.263 -23.006 37.263 -22.272 QT
37.263 -16.678 L
44.045 -16.678 L
44.045 -22.272 L
44.045 -23.006 41.685 -23.006 QT
41.685 -23.819 L
48.56 -23.819 L
48.56 -23.006 L
46.201 -23.006 46.201 -22.272 QT
46.201 -9.631 L
46.201 -8.913 48.56 -8.913 QT
48.56 -8.1 L
41.685 -8.1 L
41.685 -8.913 L
44.045 -8.913 44.045 -9.631 QT
44.045 -15.866 L
37.263 -15.866 L
37.263 -9.631 L
37.263 -8.913 39.638 -8.913 QT
39.638 -8.1 L
32.748 -8.1 L
cp
f
GR
GS
[0 -0.60113 0.6 0 42.2 154.38974] CT
0.149 GC
N
49.826 -8.1 M
49.56 -8.1 49.56 -8.366 QT
49.56 -8.538 L
49.56 -8.631 49.623 -8.694 QT
56.045 -17.413 L
53.982 -17.413 L
53.013 -17.413 52.373 -17.288 QT
51.732 -17.163 51.326 -16.819 QT
50.92 -16.475 50.732 -15.874 QT
50.545 -15.272 50.545 -14.225 QT
49.888 -14.225 L
50.138 -18.022 L
57.841 -18.022 L
57.951 -18.022 58.021 -17.944 QT
58.091 -17.866 58.091 -17.756 QT
58.091 -17.631 L
58.091 -17.553 58.045 -17.459 QT
51.623 -8.756 L
53.81 -8.756 L
54.81 -8.756 55.482 -8.881 QT
56.154 -9.006 56.623 -9.475 QT
57.06 -9.913 57.224 -10.655 QT
57.388 -11.397 57.482 -12.491 QT
58.138 -12.491 L
57.748 -8.1 L
49.826 -8.1 L
cp
f
GR
GS
[0 -0.60113 0.6 0 42.2 154.38974] CT
0.149 GC
N
59.42 -2.35 M
59.42 -3.272 L
61.654 -3.272 L
61.654 -24.428 L
59.42 -24.428 L
59.42 -25.35 L
62.576 -25.35 L
62.576 -2.35 L
59.42 -2.35 L
cp
f
GR
GS
[0.6 0 0 0.60113 0 -0.39999] CT
0 0.447 0.741 RC
1 LJ
2.5 LW
N
156.56 475 M
169.2 475 L
181.84 475 L
194.48 475 L
207.12 475 L
219.76 475 L
232.4 475 L
245.04 475 L
257.68 475 L
270.32 475 L
282.96 475 L
295.6 475 L
308.24 473.107 L
320.88 456.464 L
333.52 441.052 L
346.16 426.953 L
358.8 414.22 L
371.44 402.869 L
384.08 392.884 L
396.72 384.212 L
409.36 376.771 L
422 370.459 L
434.64 365.159 L
447.28 360.748 L
459.92 357.107 L
472.56 354.122 L
485.2 351.689 L
497.84 349.714 L
510.48 348.119 L
523.12 346.835 L
535.76 345.803 L
548.4 344.976 L
561.04 344.314 L
573.68 343.786 L
586.32 343.364 L
598.96 343.028 L
611.6 342.76 L
624.24 342.547 L
636.88 342.377 L
649.52 342.242 L
662.16 342.135 L
674.8 342.05 L
687.44 341.982 L
700.08 341.928 L
712.72 341.885 L
725.36 341.851 L
738 341.824 L
S
GR
GS
[0.6 0 0 0.60113 93.936 285.13471] CT
0 0.447 0.741 RC
10.0 ML
2.5 LW
N
-3.536 -3.536 M
3.536 3.536 L
-3.536 3.536 M
3.536 -3.536 L
S
GR
GS
[0.6 0 0 0.60113 101.52 285.13471] CT
0 0.447 0.741 RC
10.0 ML
2.5 LW
N
-3.536 -3.536 M
3.536 3.536 L
-3.536 3.536 M
3.536 -3.536 L
S
GR
GS
[0.6 0 0 0.60113 109.104 285.13471] CT
0 0.447 0.741 RC
10.0 ML
2.5 LW
N
-3.536 -3.536 M
3.536 3.536 L
-3.536 3.536 M
3.536 -3.536 L
S
GR
GS
[0.6 0 0 0.60113 116.688 285.13471] CT
0 0.447 0.741 RC
10.0 ML
2.5 LW
N
-3.536 -3.536 M
3.536 3.536 L
-3.536 3.536 M
3.536 -3.536 L
S
GR
GS
[0.6 0 0 0.60113 124.272 285.13471] CT
0 0.447 0.741 RC
10.0 ML
2.5 LW
N
-3.536 -3.536 M
3.536 3.536 L
-3.536 3.536 M
3.536 -3.536 L
S
GR
GS
[0.6 0 0 0.60113 131.856 285.13471] CT
0 0.447 0.741 RC
10.0 ML
2.5 LW
N
-3.536 -3.536 M
3.536 3.536 L
-3.536 3.536 M
3.536 -3.536 L
S
GR
GS
[0.6 0 0 0.60113 139.44 285.13471] CT
0 0.447 0.741 RC
10.0 ML
2.5 LW
N
-3.536 -3.536 M
3.536 3.536 L
-3.536 3.536 M
3.536 -3.536 L
S
GR
GS
[0.6 0 0 0.60113 147.024 285.13471] CT
0 0.447 0.741 RC
10.0 ML
2.5 LW
N
-3.536 -3.536 M
3.536 3.536 L
-3.536 3.536 M
3.536 -3.536 L
S
GR
GS
[0.6 0 0 0.60113 154.608 285.13471] CT
0 0.447 0.741 RC
10.0 ML
2.5 LW
N
-3.536 -3.536 M
3.536 3.536 L
-3.536 3.536 M
3.536 -3.536 L
S
GR
GS
[0.6 0 0 0.60113 162.19201 285.13471] CT
0 0.447 0.741 RC
10.0 ML
2.5 LW
N
-3.536 -3.536 M
3.536 3.536 L
-3.536 3.536 M
3.536 -3.536 L
S
GR
GS
[0.6 0 0 0.60113 169.776 285.13471] CT
0 0.447 0.741 RC
10.0 ML
2.5 LW
N
-3.536 -3.536 M
3.536 3.536 L
-3.536 3.536 M
3.536 -3.536 L
S
GR
GS
[0.6 0 0 0.60113 177.36001 285.13471] CT
0 0.447 0.741 RC
10.0 ML
2.5 LW
N
-3.536 -3.536 M
3.536 3.536 L
-3.536 3.536 M
3.536 -3.536 L
S
GR
GS
[0.6 0 0 0.60113 184.944 283.997] CT
0 0.447 0.741 RC
10.0 ML
2.5 LW
N
-3.536 -3.536 M
3.536 3.536 L
-3.536 3.536 M
3.536 -3.536 L
S
GR
GS
[0.6 0 0 0.60113 192.52801 273.99224] CT
0 0.447 0.741 RC
10.0 ML
2.5 LW
N
-3.536 -3.536 M
3.536 3.536 L
-3.536 3.536 M
3.536 -3.536 L
S
GR
GS
[0.6 0 0 0.60113 200.112 264.72775] CT
0 0.447 0.741 RC
10.0 ML
2.5 LW
N
-3.536 -3.536 M
3.536 3.536 L
-3.536 3.536 M
3.536 -3.536 L
S
GR
GS
[0.6 0 0 0.60113 207.696 256.25252] CT
0 0.447 0.741 RC
10.0 ML
2.5 LW
N
-3.536 -3.536 M
3.536 3.536 L
-3.536 3.536 M
3.536 -3.536 L
S
GR
GS
[0.6 0 0 0.60113 215.28 248.598] CT
0 0.447 0.741 RC
10.0 ML
2.5 LW
N
-3.536 -3.536 M
3.536 3.536 L
-3.536 3.536 M
3.536 -3.536 L
S
GR
GS
[0.6 0 0 0.60113 222.864 241.77502] CT
0 0.447 0.741 RC
10.0 ML
2.5 LW
N
-3.536 -3.536 M
3.536 3.536 L
-3.536 3.536 M
3.536 -3.536 L
S
GR
GS
[0.6 0 0 0.60113 230.44799 235.77275] CT
0 0.447 0.741 RC
10.0 ML
2.5 LW
N
-3.536 -3.536 M
3.536 3.536 L
-3.536 3.536 M
3.536 -3.536 L
S
GR
GS
[0.6 0 0 0.60113 238.032 230.55973] CT
0 0.447 0.741 RC
10.0 ML
2.5 LW
N
-3.536 -3.536 M
3.536 3.536 L
-3.536 3.536 M
3.536 -3.536 L
S
GR
GS
[0.6 0 0 0.60113 245.61599 226.08699] CT
0 0.447 0.741 RC
10.0 ML
2.5 LW
N
-3.536 -3.536 M
3.536 3.536 L
-3.536 3.536 M
3.536 -3.536 L
S
GR
GS
[0.6 0 0 0.60113 253.2 222.29253] CT
0 0.447 0.741 RC
10.0 ML
2.5 LW
N
-3.536 -3.536 M
3.536 3.536 L
-3.536 3.536 M
3.536 -3.536 L
S
GR
GS
[0.6 0 0 0.60113 260.78401 219.1063] CT
0 0.447 0.741 RC
10.0 ML
2.5 LW
N
-3.536 -3.536 M
3.536 3.536 L
-3.536 3.536 M
3.536 -3.536 L
S
GR
GS
[0.6 0 0 0.60113 268.368 216.45502] CT
0 0.447 0.741 RC
10.0 ML
2.5 LW
N
-3.536 -3.536 M
3.536 3.536 L
-3.536 3.536 M
3.536 -3.536 L
S
GR
GS
[0.6 0 0 0.60113 275.95201 214.26634] CT
0 0.447 0.741 RC
10.0 ML
2.5 LW
N
-3.536 -3.536 M
3.536 3.536 L
-3.536 3.536 M
3.536 -3.536 L
S
GR
GS
[0.6 0 0 0.60113 283.536 212.47184] CT
0 0.447 0.741 RC
10.0 ML
2.5 LW
N
-3.536 -3.536 M
3.536 3.536 L
-3.536 3.536 M
3.536 -3.536 L
S
GR
GS
[0.6 0 0 0.60113 291.12001 211.009] CT
0 0.447 0.741 RC
10.0 ML
2.5 LW
N
-3.536 -3.536 M
3.536 3.536 L
-3.536 3.536 M
3.536 -3.536 L
S
GR
GS
[0.6 0 0 0.60113 298.704 209.82227] CT
0 0.447 0.741 RC
10.0 ML
2.5 LW
N
-3.536 -3.536 M
3.536 3.536 L
-3.536 3.536 M
3.536 -3.536 L
S
GR
GS
[0.6 0 0 0.60113 306.28801 208.8634] CT
0 0.447 0.741 RC
10.0 ML
2.5 LW
N
-3.536 -3.536 M
3.536 3.536 L
-3.536 3.536 M
3.536 -3.536 L
S
GR
GS
[0.6 0 0 0.60113 313.872 208.09117] CT
0 0.447 0.741 RC
10.0 ML
2.5 LW
N
-3.536 -3.536 M
3.536 3.536 L
-3.536 3.536 M
3.536 -3.536 L
S
GR
GS
[0.6 0 0 0.60113 321.45601 207.47093] CT
0 0.447 0.741 RC
10.0 ML
2.5 LW
N
-3.536 -3.536 M
3.536 3.536 L
-3.536 3.536 M
3.536 -3.536 L
S
GR
GS
[0.6 0 0 0.60113 329.04002 206.97388] CT
0 0.447 0.741 RC
10.0 ML
2.5 LW
N
-3.536 -3.536 M
3.536 3.536 L
-3.536 3.536 M
3.536 -3.536 L
S
GR
GS
[0.6 0 0 0.60113 336.62399 206.57622] CT
0 0.447 0.741 RC
10.0 ML
2.5 LW
N
-3.536 -3.536 M
3.536 3.536 L
-3.536 3.536 M
3.536 -3.536 L
S
GR
GS
[0.6 0 0 0.60113 344.208 206.25855] CT
0 0.447 0.741 RC
10.0 ML
2.5 LW
N
-3.536 -3.536 M
3.536 3.536 L
-3.536 3.536 M
3.536 -3.536 L
S
GR
GS
[0.6 0 0 0.60113 351.79201 206.00506] CT
0 0.447 0.741 RC
10.0 ML
2.5 LW
N
-3.536 -3.536 M
3.536 3.536 L
-3.536 3.536 M
3.536 -3.536 L
S
GR
GS
[0.6 0 0 0.60113 359.37602 205.803] CT
0 0.447 0.741 RC
10.0 ML
2.5 LW
N
-3.536 -3.536 M
3.536 3.536 L
-3.536 3.536 M
3.536 -3.536 L
S
GR
GS
[0.6 0 0 0.60113 366.95999 205.642] CT
0 0.447 0.741 RC
10.0 ML
2.5 LW
N
-3.536 -3.536 M
3.536 3.536 L
-3.536 3.536 M
3.536 -3.536 L
S
GR
GS
[0.6 0 0 0.60113 374.544 205.51384] CT
0 0.447 0.741 RC
10.0 ML
2.5 LW
N
-3.536 -3.536 M
3.536 3.536 L
-3.536 3.536 M
3.536 -3.536 L
S
GR
GS
[0.6 0 0 0.60113 382.12801 205.41185] CT
0 0.447 0.741 RC
10.0 ML
2.5 LW
N
-3.536 -3.536 M
3.536 3.536 L
-3.536 3.536 M
3.536 -3.536 L
S
GR
GS
[0.6 0 0 0.60113 389.71202 205.33071] CT
0 0.447 0.741 RC
10.0 ML
2.5 LW
N
-3.536 -3.536 M
3.536 3.536 L
-3.536 3.536 M
3.536 -3.536 L
S
GR
GS
[0.6 0 0 0.60113 397.29599 205.26619] CT
0 0.447 0.741 RC
10.0 ML
2.5 LW
N
-3.536 -3.536 M
3.536 3.536 L
-3.536 3.536 M
3.536 -3.536 L
S
GR
GS
[0.6 0 0 0.60113 404.88 205.21489] CT
0 0.447 0.741 RC
10.0 ML
2.5 LW
N
-3.536 -3.536 M
3.536 3.536 L
-3.536 3.536 M
3.536 -3.536 L
S
GR
GS
[0.6 0 0 0.60113 412.46401 205.17411] CT
0 0.447 0.741 RC
10.0 ML
2.5 LW
N
-3.536 -3.536 M
3.536 3.536 L
-3.536 3.536 M
3.536 -3.536 L
S
GR
GS
[0.6 0 0 0.60113 420.04802 205.14172] CT
0 0.447 0.741 RC
10.0 ML
2.5 LW
N
-3.536 -3.536 M
3.536 3.536 L
-3.536 3.536 M
3.536 -3.536 L
S
GR
GS
[0.6 0 0 0.60113 427.63199 205.11594] CT
0 0.447 0.741 RC
10.0 ML
2.5 LW
N
-3.536 -3.536 M
3.536 3.536 L
-3.536 3.536 M
3.536 -3.536 L
S
GR
GS
[0.6 0 0 0.60113 435.216 205.09549] CT
0 0.447 0.741 RC
10.0 ML
2.5 LW
N
-3.536 -3.536 M
3.536 3.536 L
-3.536 3.536 M
3.536 -3.536 L
S
GR
GS
[0.6 0 0 0.60113 442.80001 205.07922] CT
0 0.447 0.741 RC
10.0 ML
2.5 LW
N
-3.536 -3.536 M
3.536 3.536 L
-3.536 3.536 M
3.536 -3.536 L
S
GR
GS
[0.6 0 0 0.60113 0 -0.39999] CT
0.851 0.325 0.098 RC
1 LJ
2.5 LW
N
156.56 475 M
169.2 475 L
181.84 475 L
194.48 475 L
207.12 475 L
219.76 475 L
232.4 475 L
245.04 475 L
257.68 466.269 L
270.32 445.826 L
282.96 426.152 L
295.6 407.369 L
308.24 389.597 L
320.88 372.954 L
333.52 357.542 L
346.16 343.443 L
358.8 330.709 L
371.44 319.359 L
384.08 309.374 L
396.72 300.702 L
409.36 293.261 L
422 286.949 L
434.64 281.648 L
447.28 277.238 L
459.92 273.597 L
472.56 270.612 L
485.2 268.178 L
497.84 266.204 L
510.48 264.609 L
523.12 263.324 L
535.76 262.293 L
548.4 261.466 L
561.04 260.804 L
573.68 260.276 L
586.32 259.854 L
598.96 259.518 L
611.6 259.25 L
624.24 259.037 L
636.88 258.867 L
649.52 258.732 L
662.16 258.625 L
674.8 258.54 L
687.44 258.472 L
700.08 258.418 L
712.72 258.375 L
725.36 258.341 L
738 258.314 L
S
GR
GS
[0.6 0 0 0.60113 93.936 285.13471] CT
0.851 0.325 0.098 RC
10.0 ML
2.5 LW
N
0 6.665 M
-5.772 -3.332 L
5.772 -3.332 L
cp
S
GR
GS
[0.6 0 0 0.60113 101.52 285.13471] CT
0.851 0.325 0.098 RC
10.0 ML
2.5 LW
N
0 6.665 M
-5.772 -3.332 L
5.772 -3.332 L
cp
S
GR
GS
[0.6 0 0 0.60113 109.104 285.13471] CT
0.851 0.325 0.098 RC
10.0 ML
2.5 LW
N
0 6.665 M
-5.772 -3.332 L
5.772 -3.332 L
cp
S
GR
GS
[0.6 0 0 0.60113 116.688 285.13471] CT
0.851 0.325 0.098 RC
10.0 ML
2.5 LW
N
0 6.665 M
-5.772 -3.332 L
5.772 -3.332 L
cp
S
GR
GS
[0.6 0 0 0.60113 124.272 285.13471] CT
0.851 0.325 0.098 RC
10.0 ML
2.5 LW
N
0 6.665 M
-5.772 -3.332 L
5.772 -3.332 L
cp
S
GR
GS
[0.6 0 0 0.60113 131.856 285.13471] CT
0.851 0.325 0.098 RC
10.0 ML
2.5 LW
N
0 6.665 M
-5.772 -3.332 L
5.772 -3.332 L
cp
S
GR
GS
[0.6 0 0 0.60113 139.44 285.13471] CT
0.851 0.325 0.098 RC
10.0 ML
2.5 LW
N
0 6.665 M
-5.772 -3.332 L
5.772 -3.332 L
cp
S
GR
GS
[0.6 0 0 0.60113 147.024 285.13471] CT
0.851 0.325 0.098 RC
10.0 ML
2.5 LW
N
0 6.665 M
-5.772 -3.332 L
5.772 -3.332 L
cp
S
GR
GS
[0.6 0 0 0.60113 154.608 279.88618] CT
0.851 0.325 0.098 RC
10.0 ML
2.5 LW
N
0 6.665 M
-5.772 -3.332 L
5.772 -3.332 L
cp
S
GR
GS
[0.6 0 0 0.60113 162.19201 267.59735] CT
0.851 0.325 0.098 RC
10.0 ML
2.5 LW
N
0 6.665 M
-5.772 -3.332 L
5.772 -3.332 L
cp
S
GR
GS
[0.6 0 0 0.60113 169.776 255.77113] CT
0.851 0.325 0.098 RC
10.0 ML
2.5 LW
N
0 6.665 M
-5.772 -3.332 L
5.772 -3.332 L
cp
S
GR
GS
[0.6 0 0 0.60113 177.36001 244.47986] CT
0.851 0.325 0.098 RC
10.0 ML
2.5 LW
N
0 6.665 M
-5.772 -3.332 L
5.772 -3.332 L
cp
S
GR
GS
[0.6 0 0 0.60113 184.944 233.79684] CT
0.851 0.325 0.098 RC
10.0 ML
2.5 LW
N
0 6.665 M
-5.772 -3.332 L
5.772 -3.332 L
cp
S
GR
GS
[0.6 0 0 0.60113 192.52801 223.79208] CT
0.851 0.325 0.098 RC
10.0 ML
2.5 LW
N
0 6.665 M
-5.772 -3.332 L
5.772 -3.332 L
cp
S
GR
GS
[0.6 0 0 0.60113 200.112 214.52759] CT
0.851 0.325 0.098 RC
10.0 ML
2.5 LW
N
0 6.665 M
-5.772 -3.332 L
5.772 -3.332 L
cp
S
GR
GS
[0.6 0 0 0.60113 207.696 206.05238] CT
0.851 0.325 0.098 RC
10.0 ML
2.5 LW
N
0 6.665 M
-5.772 -3.332 L
5.772 -3.332 L
cp
S
GR
GS
[0.6 0 0 0.60113 215.28 198.39784] CT
0.851 0.325 0.098 RC
10.0 ML
2.5 LW
N
0 6.665 M
-5.772 -3.332 L
5.772 -3.332 L
cp
S
GR
GS
[0.6 0 0 0.60113 222.864 191.57487] CT
0.851 0.325 0.098 RC
10.0 ML
2.5 LW
N
0 6.665 M
-5.772 -3.332 L
5.772 -3.332 L
cp
S
GR
GS
[0.6 0 0 0.60113 230.44799 185.57261] CT
0.851 0.325 0.098 RC
10.0 ML
2.5 LW
N
0 6.665 M
-5.772 -3.332 L
5.772 -3.332 L
cp
S
GR
GS
[0.6 0 0 0.60113 238.032 180.35959] CT
0.851 0.325 0.098 RC
10.0 ML
2.5 LW
N
0 6.665 M
-5.772 -3.332 L
5.772 -3.332 L
cp
S
GR
GS
[0.6 0 0 0.60113 245.61599 175.88685] CT
0.851 0.325 0.098 RC
10.0 ML
2.5 LW
N
0 6.665 M
-5.772 -3.332 L
5.772 -3.332 L
cp
S
GR
GS
[0.6 0 0 0.60113 253.2 172.09237] CT
0.851 0.325 0.098 RC
10.0 ML
2.5 LW
N
0 6.665 M
-5.772 -3.332 L
5.772 -3.332 L
cp
S
GR
GS
[0.6 0 0 0.60113 260.78401 168.90614] CT
0.851 0.325 0.098 RC
10.0 ML
2.5 LW
N
0 6.665 M
-5.772 -3.332 L
5.772 -3.332 L
cp
S
GR
GS
[0.6 0 0 0.60113 268.368 166.25486] CT
0.851 0.325 0.098 RC
10.0 ML
2.5 LW
N
0 6.665 M
-5.772 -3.332 L
5.772 -3.332 L
cp
S
GR
GS
[0.6 0 0 0.60113 275.95201 164.06618] CT
0.851 0.325 0.098 RC
10.0 ML
2.5 LW
N
0 6.665 M
-5.772 -3.332 L
5.772 -3.332 L
cp
S
GR
GS
[0.6 0 0 0.60113 283.536 162.27168] CT
0.851 0.325 0.098 RC
10.0 ML
2.5 LW
N
0 6.665 M
-5.772 -3.332 L
5.772 -3.332 L
cp
S
GR
GS
[0.6 0 0 0.60113 291.12001 160.80884] CT
0.851 0.325 0.098 RC
10.0 ML
2.5 LW
N
0 6.665 M
-5.772 -3.332 L
5.772 -3.332 L
cp
S
GR
GS
[0.6 0 0 0.60113 298.704 159.62213] CT
0.851 0.325 0.098 RC
10.0 ML
2.5 LW
N
0 6.665 M
-5.772 -3.332 L
5.772 -3.332 L
cp
S
GR
GS
[0.6 0 0 0.60113 306.28801 158.66324] CT
0.851 0.325 0.098 RC
10.0 ML
2.5 LW
N
0 6.665 M
-5.772 -3.332 L
5.772 -3.332 L
cp
S
GR
GS
[0.6 0 0 0.60113 313.872 157.89101] CT
0.851 0.325 0.098 RC
10.0 ML
2.5 LW
N
0 6.665 M
-5.772 -3.332 L
5.772 -3.332 L
cp
S
GR
GS
[0.6 0 0 0.60113 321.45601 157.27079] CT
0.851 0.325 0.098 RC
10.0 ML
2.5 LW
N
0 6.665 M
-5.772 -3.332 L
5.772 -3.332 L
cp
S
GR
GS
[0.6 0 0 0.60113 329.04002 156.77372] CT
0.851 0.325 0.098 RC
10.0 ML
2.5 LW
N
0 6.665 M
-5.772 -3.332 L
5.772 -3.332 L
cp
S
GR
GS
[0.6 0 0 0.60113 336.62399 156.37607] CT
0.851 0.325 0.098 RC
10.0 ML
2.5 LW
N
0 6.665 M
-5.772 -3.332 L
5.772 -3.332 L
cp
S
GR
GS
[0.6 0 0 0.60113 344.208 156.0584] CT
0.851 0.325 0.098 RC
10.0 ML
2.5 LW
N
0 6.665 M
-5.772 -3.332 L
5.772 -3.332 L
cp
S
GR
GS
[0.6 0 0 0.60113 351.79201 155.80491] CT
0.851 0.325 0.098 RC
10.0 ML
2.5 LW
N
0 6.665 M
-5.772 -3.332 L
5.772 -3.332 L
cp
S
GR
GS
[0.6 0 0 0.60113 359.37602 155.60284] CT
0.851 0.325 0.098 RC
10.0 ML
2.5 LW
N
0 6.665 M
-5.772 -3.332 L
5.772 -3.332 L
cp
S
GR
GS
[0.6 0 0 0.60113 366.95999 155.44186] CT
0.851 0.325 0.098 RC
10.0 ML
2.5 LW
N
0 6.665 M
-5.772 -3.332 L
5.772 -3.332 L
cp
S
GR
GS
[0.6 0 0 0.60113 374.544 155.31368] CT
0.851 0.325 0.098 RC
10.0 ML
2.5 LW
N
0 6.665 M
-5.772 -3.332 L
5.772 -3.332 L
cp
S
GR
GS
[0.6 0 0 0.60113 382.12801 155.21169] CT
0.851 0.325 0.098 RC
10.0 ML
2.5 LW
N
0 6.665 M
-5.772 -3.332 L
5.772 -3.332 L
cp
S
GR
GS
[0.6 0 0 0.60113 389.71202 155.13057] CT
0.851 0.325 0.098 RC
10.0 ML
2.5 LW
N
0 6.665 M
-5.772 -3.332 L
5.772 -3.332 L
cp
S
GR
GS
[0.6 0 0 0.60113 397.29599 155.06605] CT
0.851 0.325 0.098 RC
10.0 ML
2.5 LW
N
0 6.665 M
-5.772 -3.332 L
5.772 -3.332 L
cp
S
GR
GS
[0.6 0 0 0.60113 404.88 155.01475] CT
0.851 0.325 0.098 RC
10.0 ML
2.5 LW
N
0 6.665 M
-5.772 -3.332 L
5.772 -3.332 L
cp
S
GR
GS
[0.6 0 0 0.60113 412.46401 154.97396] CT
0.851 0.325 0.098 RC
10.0 ML
2.5 LW
N
0 6.665 M
-5.772 -3.332 L
5.772 -3.332 L
cp
S
GR
GS
[0.6 0 0 0.60113 420.04802 154.94156] CT
0.851 0.325 0.098 RC
10.0 ML
2.5 LW
N
0 6.665 M
-5.772 -3.332 L
5.772 -3.332 L
cp
S
GR
GS
[0.6 0 0 0.60113 427.63199 154.9158] CT
0.851 0.325 0.098 RC
10.0 ML
2.5 LW
N
0 6.665 M
-5.772 -3.332 L
5.772 -3.332 L
cp
S
GR
GS
[0.6 0 0 0.60113 435.216 154.89533] CT
0.851 0.325 0.098 RC
10.0 ML
2.5 LW
N
0 6.665 M
-5.772 -3.332 L
5.772 -3.332 L
cp
S
GR
GS
[0.6 0 0 0.60113 442.80001 154.87908] CT
0.851 0.325 0.098 RC
10.0 ML
2.5 LW
N
0 6.665 M
-5.772 -3.332 L
5.772 -3.332 L
cp
S
GR
GS
[0.6 0 0 0.60113 0 -0.39999] CT
0.929 0.694 0.125 RC
1 LJ
2.5 LW
N
156.56 475 M
169.2 475 L
181.84 475 L
194.48 475 L
207.12 474.113 L
219.76 451.625 L
232.4 429.515 L
245.04 407.864 L
257.68 386.766 L
270.32 366.323 L
282.96 346.649 L
295.6 327.866 L
308.24 310.094 L
320.88 293.451 L
333.52 278.039 L
346.16 263.94 L
358.8 251.206 L
371.44 239.856 L
384.08 229.871 L
396.72 221.199 L
409.36 213.758 L
422 207.446 L
434.64 202.145 L
447.28 197.735 L
459.92 194.094 L
472.56 191.109 L
485.2 188.675 L
497.84 186.701 L
510.48 185.106 L
523.12 183.821 L
535.76 182.789 L
548.4 181.962 L
561.04 181.301 L
573.68 180.772 L
586.32 180.351 L
598.96 180.015 L
611.6 179.747 L
624.24 179.534 L
636.88 179.364 L
649.52 179.229 L
662.16 179.122 L
674.8 179.036 L
687.44 178.968 L
700.08 178.915 L
712.72 178.872 L
725.36 178.838 L
738 178.811 L
S
GR
GS
[0.6 0 0 0.60113 93.936 285.13471] CT
0.929 0.694 0.125 RC
10.0 ML
2.5 LW
N
0 -5 M
0 5 L
-5 0 M
5 0 L
-3.536 -3.536 M
3.536 3.536 L
-3.536 3.536 M
3.536 -3.536 L
S
GR
GS
[0.6 0 0 0.60113 101.52 285.13471] CT
0.929 0.694 0.125 RC
10.0 ML
2.5 LW
N
0 -5 M
0 5 L
-5 0 M
5 0 L
-3.536 -3.536 M
3.536 3.536 L
-3.536 3.536 M
3.536 -3.536 L
S
GR
GS
[0.6 0 0 0.60113 109.104 285.13471] CT
0.929 0.694 0.125 RC
10.0 ML
2.5 LW
N
0 -5 M
0 5 L
-5 0 M
5 0 L
-3.536 -3.536 M
3.536 3.536 L
-3.536 3.536 M
3.536 -3.536 L
S
GR
GS
[0.6 0 0 0.60113 116.688 285.13471] CT
0.929 0.694 0.125 RC
10.0 ML
2.5 LW
N
0 -5 M
0 5 L
-5 0 M
5 0 L
-3.536 -3.536 M
3.536 3.536 L
-3.536 3.536 M
3.536 -3.536 L
S
GR
GS
[0.6 0 0 0.60113 124.272 284.60181] CT
0.929 0.694 0.125 RC
10.0 ML
2.5 LW
N
0 -5 M
0 5 L
-5 0 M
5 0 L
-3.536 -3.536 M
3.536 3.536 L
-3.536 3.536 M
3.536 -3.536 L
S
GR
GS
[0.6 0 0 0.60113 131.856 271.0832] CT
0.929 0.694 0.125 RC
10.0 ML
2.5 LW
N
0 -5 M
0 5 L
-5 0 M
5 0 L
-3.536 -3.536 M
3.536 3.536 L
-3.536 3.536 M
3.536 -3.536 L
S
GR
GS
[0.6 0 0 0.60113 139.44 257.79242] CT
0.929 0.694 0.125 RC
10.0 ML
2.5 LW
N
0 -5 M
0 5 L
-5 0 M
5 0 L
-3.536 -3.536 M
3.536 3.536 L
-3.536 3.536 M
3.536 -3.536 L
S
GR
GS
[0.6 0 0 0.60113 147.024 244.77776] CT
0.929 0.694 0.125 RC
10.0 ML
2.5 LW
N
0 -5 M
0 5 L
-5 0 M
5 0 L
-3.536 -3.536 M
3.536 3.536 L
-3.536 3.536 M
3.536 -3.536 L
S
GR
GS
[0.6 0 0 0.60113 154.608 232.09476] CT
0.929 0.694 0.125 RC
10.0 ML
2.5 LW
N
0 -5 M
0 5 L
-5 0 M
5 0 L
-3.536 -3.536 M
3.536 3.536 L
-3.536 3.536 M
3.536 -3.536 L
S
GR
GS
[0.6 0 0 0.60113 162.19201 219.80593] CT
0.929 0.694 0.125 RC
10.0 ML
2.5 LW
N
0 -5 M
0 5 L
-5 0 M
5 0 L
-3.536 -3.536 M
3.536 3.536 L
-3.536 3.536 M
3.536 -3.536 L
S
GR
GS
[0.6 0 0 0.60113 169.776 207.97971] CT
0.929 0.694 0.125 RC
10.0 ML
2.5 LW
N
0 -5 M
0 5 L
-5 0 M
5 0 L
-3.536 -3.536 M
3.536 3.536 L
-3.536 3.536 M
3.536 -3.536 L
S
GR
GS
[0.6 0 0 0.60113 177.36001 196.68846] CT
0.929 0.694 0.125 RC
10.0 ML
2.5 LW
N
0 -5 M
0 5 L
-5 0 M
5 0 L
-3.536 -3.536 M
3.536 3.536 L
-3.536 3.536 M
3.536 -3.536 L
S
GR
GS
[0.6 0 0 0.60113 184.944 186.00544] CT
0.929 0.694 0.125 RC
10.0 ML
2.5 LW
N
0 -5 M
0 5 L
-5 0 M
5 0 L
-3.536 -3.536 M
3.536 3.536 L
-3.536 3.536 M
3.536 -3.536 L
S
GR
GS
[0.6 0 0 0.60113 192.52801 176.00066] CT
0.929 0.694 0.125 RC
10.0 ML
2.5 LW
N
0 -5 M
0 5 L
-5 0 M
5 0 L
-3.536 -3.536 M
3.536 3.536 L
-3.536 3.536 M
3.536 -3.536 L
S
GR
GS
[0.6 0 0 0.60113 200.112 166.73619] CT
0.929 0.694 0.125 RC
10.0 ML
2.5 LW
N
0 -5 M
0 5 L
-5 0 M
5 0 L
-3.536 -3.536 M
3.536 3.536 L
-3.536 3.536 M
3.536 -3.536 L
S
GR
GS
[0.6 0 0 0.60113 207.696 158.26096] CT
0.929 0.694 0.125 RC
10.0 ML
2.5 LW
N
0 -5 M
0 5 L
-5 0 M
5 0 L
-3.536 -3.536 M
3.536 3.536 L
-3.536 3.536 M
3.536 -3.536 L
S
GR
GS
[0.6 0 0 0.60113 215.28 150.60642] CT
0.929 0.694 0.125 RC
10.0 ML
2.5 LW
N
0 -5 M
0 5 L
-5 0 M
5 0 L
-3.536 -3.536 M
3.536 3.536 L
-3.536 3.536 M
3.536 -3.536 L
S
GR
GS
[0.6 0 0 0.60113 222.864 143.78346] CT
0.929 0.694 0.125 RC
10.0 ML
2.5 LW
N
0 -5 M
0 5 L
-5 0 M
5 0 L
-3.536 -3.536 M
3.536 3.536 L
-3.536 3.536 M
3.536 -3.536 L
S
GR
GS
[0.6 0 0 0.60113 230.44799 137.78118] CT
0.929 0.694 0.125 RC
10.0 ML
2.5 LW
N
0 -5 M
0 5 L
-5 0 M
5 0 L
-3.536 -3.536 M
3.536 3.536 L
-3.536 3.536 M
3.536 -3.536 L
S
GR
GS
[0.6 0 0 0.60113 238.032 132.56816] CT
0.929 0.694 0.125 RC
10.0 ML
2.5 LW
N
0 -5 M
0 5 L
-5 0 M
5 0 L
-3.536 -3.536 M
3.536 3.536 L
-3.536 3.536 M
3.536 -3.536 L
S
GR
GS
[0.6 0 0 0.60113 245.61599 128.09543] CT
0.929 0.694 0.125 RC
10.0 ML
2.5 LW
N
0 -5 M
0 5 L
-5 0 M
5 0 L
-3.536 -3.536 M
3.536 3.536 L
-3.536 3.536 M
3.536 -3.536 L
S
GR
GS
[0.6 0 0 0.60113 253.2 124.30096] CT
0.929 0.694 0.125 RC
10.0 ML
2.5 LW
N
0 -5 M
0 5 L
-5 0 M
5 0 L
-3.536 -3.536 M
3.536 3.536 L
-3.536 3.536 M
3.536 -3.536 L
S
GR
GS
[0.6 0 0 0.60113 260.78401 121.11472] CT
0.929 0.694 0.125 RC
10.0 ML
2.5 LW
N
0 -5 M
0 5 L
-5 0 M
5 0 L
-3.536 -3.536 M
3.536 3.536 L
-3.536 3.536 M
3.536 -3.536 L
S
GR
GS
[0.6 0 0 0.60113 268.368 118.46345] CT
0.929 0.694 0.125 RC
10.0 ML
2.5 LW
N
0 -5 M
0 5 L
-5 0 M
5 0 L
-3.536 -3.536 M
3.536 3.536 L
-3.536 3.536 M
3.536 -3.536 L
S
GR
GS
[0.6 0 0 0.60113 275.95201 116.27478] CT
0.929 0.694 0.125 RC
10.0 ML
2.5 LW
N
0 -5 M
0 5 L
-5 0 M
5 0 L
-3.536 -3.536 M
3.536 3.536 L
-3.536 3.536 M
3.536 -3.536 L
S
GR
GS
[0.6 0 0 0.60113 283.536 114.48028] CT
0.929 0.694 0.125 RC
10.0 ML
2.5 LW
N
0 -5 M
0 5 L
-5 0 M
5 0 L
-3.536 -3.536 M
3.536 3.536 L
-3.536 3.536 M
3.536 -3.536 L
S
GR
GS
[0.6 0 0 0.60113 291.12001 113.01744] CT
0.929 0.694 0.125 RC
10.0 ML
2.5 LW
N
0 -5 M
0 5 L
-5 0 M
5 0 L
-3.536 -3.536 M
3.536 3.536 L
-3.536 3.536 M
3.536 -3.536 L
S
GR
GS
[0.6 0 0 0.60113 298.704 111.83071] CT
0.929 0.694 0.125 RC
10.0 ML
2.5 LW
N
0 -5 M
0 5 L
-5 0 M
5 0 L
-3.536 -3.536 M
3.536 3.536 L
-3.536 3.536 M
3.536 -3.536 L
S
GR
GS
[0.6 0 0 0.60113 306.28801 110.87183] CT
0.929 0.694 0.125 RC
10.0 ML
2.5 LW
N
0 -5 M
0 5 L
-5 0 M
5 0 L
-3.536 -3.536 M
3.536 3.536 L
-3.536 3.536 M
3.536 -3.536 L
S
GR
GS
[0.6 0 0 0.60113 313.872 110.0996] CT
0.929 0.694 0.125 RC
10.0 ML
2.5 LW
N
0 -5 M
0 5 L
-5 0 M
5 0 L
-3.536 -3.536 M
3.536 3.536 L
-3.536 3.536 M
3.536 -3.536 L
S
GR
GS
[0.6 0 0 0.60113 321.45601 109.47937] CT
0.929 0.694 0.125 RC
10.0 ML
2.5 LW
N
0 -5 M
0 5 L
-5 0 M
5 0 L
-3.536 -3.536 M
3.536 3.536 L
-3.536 3.536 M
3.536 -3.536 L
S
GR
GS
[0.6 0 0 0.60113 329.04002 108.98231] CT
0.929 0.694 0.125 RC
10.0 ML
2.5 LW
N
0 -5 M
0 5 L
-5 0 M
5 0 L
-3.536 -3.536 M
3.536 3.536 L
-3.536 3.536 M
3.536 -3.536 L
S
GR
GS
[0.6 0 0 0.60113 336.62399 108.58466] CT
0.929 0.694 0.125 RC
10.0 ML
2.5 LW
N
0 -5 M
0 5 L
-5 0 M
5 0 L
-3.536 -3.536 M
3.536 3.536 L
-3.536 3.536 M
3.536 -3.536 L
S
GR
GS
[0.6 0 0 0.60113 344.208 108.26698] CT
0.929 0.694 0.125 RC
10.0 ML
2.5 LW
N
0 -5 M
0 5 L
-5 0 M
5 0 L
-3.536 -3.536 M
3.536 3.536 L
-3.536 3.536 M
3.536 -3.536 L
S
GR
GS
[0.6 0 0 0.60113 351.79201 108.01351] CT
0.929 0.694 0.125 RC
10.0 ML
2.5 LW
N
0 -5 M
0 5 L
-5 0 M
5 0 L
-3.536 -3.536 M
3.536 3.536 L
-3.536 3.536 M
3.536 -3.536 L
S
GR
GS
[0.6 0 0 0.60113 359.37602 107.81143] CT
0.929 0.694 0.125 RC
10.0 ML
2.5 LW
N
0 -5 M
0 5 L
-5 0 M
5 0 L
-3.536 -3.536 M
3.536 3.536 L
-3.536 3.536 M
3.536 -3.536 L
S
GR
GS
[0.6 0 0 0.60113 366.95999 107.65043] CT
0.929 0.694 0.125 RC
10.0 ML
2.5 LW
N
0 -5 M
0 5 L
-5 0 M
5 0 L
-3.536 -3.536 M
3.536 3.536 L
-3.536 3.536 M
3.536 -3.536 L
S
GR
GS
[0.6 0 0 0.60113 374.544 107.52227] CT
0.929 0.694 0.125 RC
10.0 ML
2.5 LW
N
0 -5 M
0 5 L
-5 0 M
5 0 L
-3.536 -3.536 M
3.536 3.536 L
-3.536 3.536 M
3.536 -3.536 L
S
GR
GS
[0.6 0 0 0.60113 382.12801 107.42028] CT
0.929 0.694 0.125 RC
10.0 ML
2.5 LW
N
0 -5 M
0 5 L
-5 0 M
5 0 L
-3.536 -3.536 M
3.536 3.536 L
-3.536 3.536 M
3.536 -3.536 L
S
GR
GS
[0.6 0 0 0.60113 389.71202 107.33915] CT
0.929 0.694 0.125 RC
10.0 ML
2.5 LW
N
0 -5 M
0 5 L
-5 0 M
5 0 L
-3.536 -3.536 M
3.536 3.536 L
-3.536 3.536 M
3.536 -3.536 L
S
GR
GS
[0.6 0 0 0.60113 397.29599 107.27462] CT
0.929 0.694 0.125 RC
10.0 ML
2.5 LW
N
0 -5 M
0 5 L
-5 0 M
5 0 L
-3.536 -3.536 M
3.536 3.536 L
-3.536 3.536 M
3.536 -3.536 L
S
GR
GS
[0.6 0 0 0.60113 404.88 107.22334] CT
0.929 0.694 0.125 RC
10.0 ML
2.5 LW
N
0 -5 M
0 5 L
-5 0 M
5 0 L
-3.536 -3.536 M
3.536 3.536 L
-3.536 3.536 M
3.536 -3.536 L
S
GR
GS
[0.6 0 0 0.60113 412.46401 107.18254] CT
0.929 0.694 0.125 RC
10.0 ML
2.5 LW
N
0 -5 M
0 5 L
-5 0 M
5 0 L
-3.536 -3.536 M
3.536 3.536 L
-3.536 3.536 M
3.536 -3.536 L
S
GR
GS
[0.6 0 0 0.60113 420.04802 107.15014] CT
0.929 0.694 0.125 RC
10.0 ML
2.5 LW
N
0 -5 M
0 5 L
-5 0 M
5 0 L
-3.536 -3.536 M
3.536 3.536 L
-3.536 3.536 M
3.536 -3.536 L
S
GR
GS
[0.6 0 0 0.60113 427.63199 107.12437] CT
0.929 0.694 0.125 RC
10.0 ML
2.5 LW
N
0 -5 M
0 5 L
-5 0 M
5 0 L
-3.536 -3.536 M
3.536 3.536 L
-3.536 3.536 M
3.536 -3.536 L
S
GR
GS
[0.6 0 0 0.60113 435.216 107.10393] CT
0.929 0.694 0.125 RC
10.0 ML
2.5 LW
N
0 -5 M
0 5 L
-5 0 M
5 0 L
-3.536 -3.536 M
3.536 3.536 L
-3.536 3.536 M
3.536 -3.536 L
S
GR
GS
[0.6 0 0 0.60113 442.80001 107.08766] CT
0.929 0.694 0.125 RC
10.0 ML
2.5 LW
N
0 -5 M
0 5 L
-5 0 M
5 0 L
-3.536 -3.536 M
3.536 3.536 L
-3.536 3.536 M
3.536 -3.536 L
S
GR
GS
[0.6 0 0 0.60113 0 -0.39999] CT
0.494 0.184 0.557 RC
1 LJ
2.5 LW
N
156.56 475 M
169.2 475 L
181.84 466.675 L
194.48 443.623 L
207.12 420.824 L
219.76 398.335 L
232.4 376.225 L
245.04 354.575 L
257.68 333.476 L
270.32 313.033 L
282.96 293.359 L
295.6 274.576 L
308.24 256.804 L
320.88 240.161 L
333.52 224.749 L
346.16 210.65 L
358.8 197.916 L
371.44 186.566 L
384.08 176.581 L
396.72 167.909 L
409.36 160.468 L
422 154.156 L
434.64 148.856 L
447.28 144.445 L
459.92 140.804 L
472.56 137.819 L
485.2 135.385 L
497.84 133.411 L
510.48 131.816 L
523.12 130.531 L
535.76 129.5 L
548.4 128.673 L
561.04 128.011 L
573.68 127.483 L
586.32 127.061 L
598.96 126.725 L
611.6 126.457 L
624.24 126.244 L
636.88 126.074 L
649.52 125.939 L
662.16 125.832 L
674.8 125.747 L
687.44 125.679 L
700.08 125.625 L
712.72 125.582 L
725.36 125.548 L
738 125.521 L
S
GR
GS
[0.6 0 0 0.60113 93.936 285.13471] CT
0.494 0.184 0.557 RC
10.0 ML
2.5 LW
N
4.5 -0.5 M
4.5 -3.261 2.261 -5.5 -0.5 -5.5 C
-3.261 -5.5 -5.5 -3.261 -5.5 -0.5 C
-5.5 2.261 -3.261 4.5 -0.5 4.5 C
2.261 4.5 4.5 2.261 4.5 -0.5 C
S
GR
GS
[0.6 0 0 0.60113 101.52 285.13471] CT
0.494 0.184 0.557 RC
10.0 ML
2.5 LW
N
4.5 -0.5 M
4.5 -3.261 2.261 -5.5 -0.5 -5.5 C
-3.261 -5.5 -5.5 -3.261 -5.5 -0.5 C
-5.5 2.261 -3.261 4.5 -0.5 4.5 C
2.261 4.5 4.5 2.261 4.5 -0.5 C
S
GR
GS
[0.6 0 0 0.60113 109.104 280.13055] CT
0.494 0.184 0.557 RC
10.0 ML
2.5 LW
N
4.5 -0.5 M
4.5 -3.261 2.261 -5.5 -0.5 -5.5 C
-3.261 -5.5 -5.5 -3.261 -5.5 -0.5 C
-5.5 2.261 -3.261 4.5 -0.5 4.5 C
2.261 4.5 4.5 2.261 4.5 -0.5 C
S
GR
GS
[0.6 0 0 0.60113 116.688 266.27329] CT
0.494 0.184 0.557 RC
10.0 ML
2.5 LW
N
4.5 -0.5 M
4.5 -3.261 2.261 -5.5 -0.5 -5.5 C
-3.261 -5.5 -5.5 -3.261 -5.5 -0.5 C
-5.5 2.261 -3.261 4.5 -0.5 4.5 C
2.261 4.5 4.5 2.261 4.5 -0.5 C
S
GR
GS
[0.6 0 0 0.60113 124.272 252.56802] CT
0.494 0.184 0.557 RC
10.0 ML
2.5 LW
N
4.5 -0.5 M
4.5 -3.261 2.261 -5.5 -0.5 -5.5 C
-3.261 -5.5 -5.5 -3.261 -5.5 -0.5 C
-5.5 2.261 -3.261 4.5 -0.5 4.5 C
2.261 4.5 4.5 2.261 4.5 -0.5 C
S
GR
GS
[0.6 0 0 0.60113 131.856 239.0494] CT
0.494 0.184 0.557 RC
10.0 ML
2.5 LW
N
4.5 -0.5 M
4.5 -3.261 2.261 -5.5 -0.5 -5.5 C
-3.261 -5.5 -5.5 -3.261 -5.5 -0.5 C
-5.5 2.261 -3.261 4.5 -0.5 4.5 C
2.261 4.5 4.5 2.261 4.5 -0.5 C
S
GR
GS
[0.6 0 0 0.60113 139.44 225.75863] CT
0.494 0.184 0.557 RC
10.0 ML
2.5 LW
N
4.5 -0.5 M
4.5 -3.261 2.261 -5.5 -0.5 -5.5 C
-3.261 -5.5 -5.5 -3.261 -5.5 -0.5 C
-5.5 2.261 -3.261 4.5 -0.5 4.5 C
2.261 4.5 4.5 2.261 4.5 -0.5 C
S
GR
GS
[0.6 0 0 0.60113 147.024 212.74397] CT
0.494 0.184 0.557 RC
10.0 ML
2.5 LW
N
4.5 -0.5 M
4.5 -3.261 2.261 -5.5 -0.5 -5.5 C
-3.261 -5.5 -5.5 -3.261 -5.5 -0.5 C
-5.5 2.261 -3.261 4.5 -0.5 4.5 C
2.261 4.5 4.5 2.261 4.5 -0.5 C
S
GR
GS
[0.6 0 0 0.60113 154.608 200.06097] CT
0.494 0.184 0.557 RC
10.0 ML
2.5 LW
N
4.5 -0.5 M
4.5 -3.261 2.261 -5.5 -0.5 -5.5 C
-3.261 -5.5 -5.5 -3.261 -5.5 -0.5 C
-5.5 2.261 -3.261 4.5 -0.5 4.5 C
2.261 4.5 4.5 2.261 4.5 -0.5 C
S
GR
GS
[0.6 0 0 0.60113 162.19201 187.77214] CT
0.494 0.184 0.557 RC
10.0 ML
2.5 LW
N
4.5 -0.5 M
4.5 -3.261 2.261 -5.5 -0.5 -5.5 C
-3.261 -5.5 -5.5 -3.261 -5.5 -0.5 C
-5.5 2.261 -3.261 4.5 -0.5 4.5 C
2.261 4.5 4.5 2.261 4.5 -0.5 C
S
GR
GS
[0.6 0 0 0.60113 169.776 175.94592] CT
0.494 0.184 0.557 RC
10.0 ML
2.5 LW
N
4.5 -0.5 M
4.5 -3.261 2.261 -5.5 -0.5 -5.5 C
-3.261 -5.5 -5.5 -3.261 -5.5 -0.5 C
-5.5 2.261 -3.261 4.5 -0.5 4.5 C
2.261 4.5 4.5 2.261 4.5 -0.5 C
S
GR
GS
[0.6 0 0 0.60113 177.36001 164.65467] CT
0.494 0.184 0.557 RC
10.0 ML
2.5 LW
N
4.5 -0.5 M
4.5 -3.261 2.261 -5.5 -0.5 -5.5 C
-3.261 -5.5 -5.5 -3.261 -5.5 -0.5 C
-5.5 2.261 -3.261 4.5 -0.5 4.5 C
2.261 4.5 4.5 2.261 4.5 -0.5 C
S
GR
GS
[0.6 0 0 0.60113 184.944 153.97164] CT
0.494 0.184 0.557 RC
10.0 ML
2.5 LW
N
4.5 -0.5 M
4.5 -3.261 2.261 -5.5 -0.5 -5.5 C
-3.261 -5.5 -5.5 -3.261 -5.5 -0.5 C
-5.5 2.261 -3.261 4.5 -0.5 4.5 C
2.261 4.5 4.5 2.261 4.5 -0.5 C
S
GR
GS
[0.6 0 0 0.60113 192.52801 143.96687] CT
0.494 0.184 0.557 RC
10.0 ML
2.5 LW
N
4.5 -0.5 M
4.5 -3.261 2.261 -5.5 -0.5 -5.5 C
-3.261 -5.5 -5.5 -3.261 -5.5 -0.5 C
-5.5 2.261 -3.261 4.5 -0.5 4.5 C
2.261 4.5 4.5 2.261 4.5 -0.5 C
S
GR
GS
[0.6 0 0 0.60113 200.112 134.7024] CT
0.494 0.184 0.557 RC
10.0 ML
2.5 LW
N
4.5 -0.5 M
4.5 -3.261 2.261 -5.5 -0.5 -5.5 C
-3.261 -5.5 -5.5 -3.261 -5.5 -0.5 C
-5.5 2.261 -3.261 4.5 -0.5 4.5 C
2.261 4.5 4.5 2.261 4.5 -0.5 C
S
GR
GS
[0.6 0 0 0.60113 207.696 126.22717] CT
0.494 0.184 0.557 RC
10.0 ML
2.5 LW
N
4.5 -0.5 M
4.5 -3.261 2.261 -5.5 -0.5 -5.5 C
-3.261 -5.5 -5.5 -3.261 -5.5 -0.5 C
-5.5 2.261 -3.261 4.5 -0.5 4.5 C
2.261 4.5 4.5 2.261 4.5 -0.5 C
S
GR
GS
[0.6 0 0 0.60113 215.28 118.57263] CT
0.494 0.184 0.557 RC
10.0 ML
2.5 LW
N
4.5 -0.5 M
4.5 -3.261 2.261 -5.5 -0.5 -5.5 C
-3.261 -5.5 -5.5 -3.261 -5.5 -0.5 C
-5.5 2.261 -3.261 4.5 -0.5 4.5 C
2.261 4.5 4.5 2.261 4.5 -0.5 C
S
GR
GS
[0.6 0 0 0.60113 222.864 111.74966] CT
0.494 0.184 0.557 RC
10.0 ML
2.5 LW
N
4.5 -0.5 M
4.5 -3.261 2.261 -5.5 -0.5 -5.5 C
-3.261 -5.5 -5.5 -3.261 -5.5 -0.5 C
-5.5 2.261 -3.261 4.5 -0.5 4.5 C
2.261 4.5 4.5 2.261 4.5 -0.5 C
S
GR
GS
[0.6 0 0 0.60113 230.44799 105.74741] CT
0.494 0.184 0.557 RC
10.0 ML
2.5 LW
N
4.5 -0.5 M
4.5 -3.261 2.261 -5.5 -0.5 -5.5 C
-3.261 -5.5 -5.5 -3.261 -5.5 -0.5 C
-5.5 2.261 -3.261 4.5 -0.5 4.5 C
2.261 4.5 4.5 2.261 4.5 -0.5 C
S
GR
GS
[0.6 0 0 0.60113 238.032 100.53438] CT
0.494 0.184 0.557 RC
10.0 ML
2.5 LW
N
4.5 -0.5 M
4.5 -3.261 2.261 -5.5 -0.5 -5.5 C
-3.261 -5.5 -5.5 -3.261 -5.5 -0.5 C
-5.5 2.261 -3.261 4.5 -0.5 4.5 C
2.261 4.5 4.5 2.261 4.5 -0.5 C
S
GR
GS
[0.6 0 0 0.60113 245.61599 96.06164] CT
0.494 0.184 0.557 RC
10.0 ML
2.5 LW
N
4.5 -0.5 M
4.5 -3.261 2.261 -5.5 -0.5 -5.5 C
-3.261 -5.5 -5.5 -3.261 -5.5 -0.5 C
-5.5 2.261 -3.261 4.5 -0.5 4.5 C
2.261 4.5 4.5 2.261 4.5 -0.5 C
S
GR
GS
[0.6 0 0 0.60113 253.2 92.26718] CT
0.494 0.184 0.557 RC
10.0 ML
2.5 LW
N
4.5 -0.5 M
4.5 -3.261 2.261 -5.5 -0.5 -5.5 C
-3.261 -5.5 -5.5 -3.261 -5.5 -0.5 C
-5.5 2.261 -3.261 4.5 -0.5 4.5 C
2.261 4.5 4.5 2.261 4.5 -0.5 C
S
GR
GS
[0.6 0 0 0.60113 260.78401 89.08092] CT
0.494 0.184 0.557 RC
10.0 ML
2.5 LW
N
4.5 -0.5 M
4.5 -3.261 2.261 -5.5 -0.5 -5.5 C
-3.261 -5.5 -5.5 -3.261 -5.5 -0.5 C
-5.5 2.261 -3.261 4.5 -0.5 4.5 C
2.261 4.5 4.5 2.261 4.5 -0.5 C
S
GR
GS
[0.6 0 0 0.60113 268.368 86.42966] CT
0.494 0.184 0.557 RC
10.0 ML
2.5 LW
N
4.5 -0.5 M
4.5 -3.261 2.261 -5.5 -0.5 -5.5 C
-3.261 -5.5 -5.5 -3.261 -5.5 -0.5 C
-5.5 2.261 -3.261 4.5 -0.5 4.5 C
2.261 4.5 4.5 2.261 4.5 -0.5 C
S
GR
GS
[0.6 0 0 0.60113 275.95201 84.24099] CT
0.494 0.184 0.557 RC
10.0 ML
2.5 LW
N
4.5 -0.5 M
4.5 -3.261 2.261 -5.5 -0.5 -5.5 C
-3.261 -5.5 -5.5 -3.261 -5.5 -0.5 C
-5.5 2.261 -3.261 4.5 -0.5 4.5 C
2.261 4.5 4.5 2.261 4.5 -0.5 C
S
GR
GS
[0.6 0 0 0.60113 283.536 82.4465] CT
0.494 0.184 0.557 RC
10.0 ML
2.5 LW
N
4.5 -0.5 M
4.5 -3.261 2.261 -5.5 -0.5 -5.5 C
-3.261 -5.5 -5.5 -3.261 -5.5 -0.5 C
-5.5 2.261 -3.261 4.5 -0.5 4.5 C
2.261 4.5 4.5 2.261 4.5 -0.5 C
S
GR
GS
[0.6 0 0 0.60113 291.12001 80.98364] CT
0.494 0.184 0.557 RC
10.0 ML
2.5 LW
N
4.5 -0.5 M
4.5 -3.261 2.261 -5.5 -0.5 -5.5 C
-3.261 -5.5 -5.5 -3.261 -5.5 -0.5 C
-5.5 2.261 -3.261 4.5 -0.5 4.5 C
2.261 4.5 4.5 2.261 4.5 -0.5 C
S
GR
GS
[0.6 0 0 0.60113 298.704 79.79692] CT
0.494 0.184 0.557 RC
10.0 ML
2.5 LW
N
4.5 -0.5 M
4.5 -3.261 2.261 -5.5 -0.5 -5.5 C
-3.261 -5.5 -5.5 -3.261 -5.5 -0.5 C
-5.5 2.261 -3.261 4.5 -0.5 4.5 C
2.261 4.5 4.5 2.261 4.5 -0.5 C
S
GR
GS
[0.6 0 0 0.60113 306.28801 78.83803] CT
0.494 0.184 0.557 RC
10.0 ML
2.5 LW
N
4.5 -0.5 M
4.5 -3.261 2.261 -5.5 -0.5 -5.5 C
-3.261 -5.5 -5.5 -3.261 -5.5 -0.5 C
-5.5 2.261 -3.261 4.5 -0.5 4.5 C
2.261 4.5 4.5 2.261 4.5 -0.5 C
S
GR
GS
[0.6 0 0 0.60113 313.872 78.06581] CT
0.494 0.184 0.557 RC
10.0 ML
2.5 LW
N
4.5 -0.5 M
4.5 -3.261 2.261 -5.5 -0.5 -5.5 C
-3.261 -5.5 -5.5 -3.261 -5.5 -0.5 C
-5.5 2.261 -3.261 4.5 -0.5 4.5 C
2.261 4.5 4.5 2.261 4.5 -0.5 C
S
GR
GS
[0.6 0 0 0.60113 321.45601 77.44557] CT
0.494 0.184 0.557 RC
10.0 ML
2.5 LW
N
4.5 -0.5 M
4.5 -3.261 2.261 -5.5 -0.5 -5.5 C
-3.261 -5.5 -5.5 -3.261 -5.5 -0.5 C
-5.5 2.261 -3.261 4.5 -0.5 4.5 C
2.261 4.5 4.5 2.261 4.5 -0.5 C
S
GR
GS
[0.6 0 0 0.60113 329.04002 76.94851] CT
0.494 0.184 0.557 RC
10.0 ML
2.5 LW
N
4.5 -0.5 M
4.5 -3.261 2.261 -5.5 -0.5 -5.5 C
-3.261 -5.5 -5.5 -3.261 -5.5 -0.5 C
-5.5 2.261 -3.261 4.5 -0.5 4.5 C
2.261 4.5 4.5 2.261 4.5 -0.5 C
S
GR
GS
[0.6 0 0 0.60113 336.62399 76.55085] CT
0.494 0.184 0.557 RC
10.0 ML
2.5 LW
N
4.5 -0.5 M
4.5 -3.261 2.261 -5.5 -0.5 -5.5 C
-3.261 -5.5 -5.5 -3.261 -5.5 -0.5 C
-5.5 2.261 -3.261 4.5 -0.5 4.5 C
2.261 4.5 4.5 2.261 4.5 -0.5 C
S
GR
GS
[0.6 0 0 0.60113 344.208 76.23319] CT
0.494 0.184 0.557 RC
10.0 ML
2.5 LW
N
4.5 -0.5 M
4.5 -3.261 2.261 -5.5 -0.5 -5.5 C
-3.261 -5.5 -5.5 -3.261 -5.5 -0.5 C
-5.5 2.261 -3.261 4.5 -0.5 4.5 C
2.261 4.5 4.5 2.261 4.5 -0.5 C
S
GR
GS
[0.6 0 0 0.60113 351.79201 75.9797] CT
0.494 0.184 0.557 RC
10.0 ML
2.5 LW
N
4.5 -0.5 M
4.5 -3.261 2.261 -5.5 -0.5 -5.5 C
-3.261 -5.5 -5.5 -3.261 -5.5 -0.5 C
-5.5 2.261 -3.261 4.5 -0.5 4.5 C
2.261 4.5 4.5 2.261 4.5 -0.5 C
S
GR
GS
[0.6 0 0 0.60113 359.37602 75.77763] CT
0.494 0.184 0.557 RC
10.0 ML
2.5 LW
N
4.5 -0.5 M
4.5 -3.261 2.261 -5.5 -0.5 -5.5 C
-3.261 -5.5 -5.5 -3.261 -5.5 -0.5 C
-5.5 2.261 -3.261 4.5 -0.5 4.5 C
2.261 4.5 4.5 2.261 4.5 -0.5 C
S
GR
GS
[0.6 0 0 0.60113 366.95999 75.61665] CT
0.494 0.184 0.557 RC
10.0 ML
2.5 LW
N
4.5 -0.5 M
4.5 -3.261 2.261 -5.5 -0.5 -5.5 C
-3.261 -5.5 -5.5 -3.261 -5.5 -0.5 C
-5.5 2.261 -3.261 4.5 -0.5 4.5 C
2.261 4.5 4.5 2.261 4.5 -0.5 C
S
GR
GS
[0.6 0 0 0.60113 374.544 75.48847] CT
0.494 0.184 0.557 RC
10.0 ML
2.5 LW
N
4.5 -0.5 M
4.5 -3.261 2.261 -5.5 -0.5 -5.5 C
-3.261 -5.5 -5.5 -3.261 -5.5 -0.5 C
-5.5 2.261 -3.261 4.5 -0.5 4.5 C
2.261 4.5 4.5 2.261 4.5 -0.5 C
S
GR
GS
[0.6 0 0 0.60113 382.12801 75.38648] CT
0.494 0.184 0.557 RC
10.0 ML
2.5 LW
N
4.5 -0.5 M
4.5 -3.261 2.261 -5.5 -0.5 -5.5 C
-3.261 -5.5 -5.5 -3.261 -5.5 -0.5 C
-5.5 2.261 -3.261 4.5 -0.5 4.5 C
2.261 4.5 4.5 2.261 4.5 -0.5 C
S
GR
GS
[0.6 0 0 0.60113 389.71202 75.30535] CT
0.494 0.184 0.557 RC
10.0 ML
2.5 LW
N
4.5 -0.5 M
4.5 -3.261 2.261 -5.5 -0.5 -5.5 C
-3.261 -5.5 -5.5 -3.261 -5.5 -0.5 C
-5.5 2.261 -3.261 4.5 -0.5 4.5 C
2.261 4.5 4.5 2.261 4.5 -0.5 C
S
GR
GS
[0.6 0 0 0.60113 397.29599 75.24084] CT
0.494 0.184 0.557 RC
10.0 ML
2.5 LW
N
4.5 -0.5 M
4.5 -3.261 2.261 -5.5 -0.5 -5.5 C
-3.261 -5.5 -5.5 -3.261 -5.5 -0.5 C
-5.5 2.261 -3.261 4.5 -0.5 4.5 C
2.261 4.5 4.5 2.261 4.5 -0.5 C
S
GR
GS
[0.6 0 0 0.60113 404.88 75.18953] CT
0.494 0.184 0.557 RC
10.0 ML
2.5 LW
N
4.5 -0.5 M
4.5 -3.261 2.261 -5.5 -0.5 -5.5 C
-3.261 -5.5 -5.5 -3.261 -5.5 -0.5 C
-5.5 2.261 -3.261 4.5 -0.5 4.5 C
2.261 4.5 4.5 2.261 4.5 -0.5 C
S
GR
GS
[0.6 0 0 0.60113 412.46401 75.14876] CT
0.494 0.184 0.557 RC
10.0 ML
2.5 LW
N
4.5 -0.5 M
4.5 -3.261 2.261 -5.5 -0.5 -5.5 C
-3.261 -5.5 -5.5 -3.261 -5.5 -0.5 C
-5.5 2.261 -3.261 4.5 -0.5 4.5 C
2.261 4.5 4.5 2.261 4.5 -0.5 C
S
GR
GS
[0.6 0 0 0.60113 420.04802 75.11634] CT
0.494 0.184 0.557 RC
10.0 ML
2.5 LW
N
4.5 -0.5 M
4.5 -3.261 2.261 -5.5 -0.5 -5.5 C
-3.261 -5.5 -5.5 -3.261 -5.5 -0.5 C
-5.5 2.261 -3.261 4.5 -0.5 4.5 C
2.261 4.5 4.5 2.261 4.5 -0.5 C
S
GR
GS
[0.6 0 0 0.60113 427.63199 75.09059] CT
0.494 0.184 0.557 RC
10.0 ML
2.5 LW
N
4.5 -0.5 M
4.5 -3.261 2.261 -5.5 -0.5 -5.5 C
-3.261 -5.5 -5.5 -3.261 -5.5 -0.5 C
-5.5 2.261 -3.261 4.5 -0.5 4.5 C
2.261 4.5 4.5 2.261 4.5 -0.5 C
S
GR
GS
[0.6 0 0 0.60113 435.216 75.07012] CT
0.494 0.184 0.557 RC
10.0 ML
2.5 LW
N
4.5 -0.5 M
4.5 -3.261 2.261 -5.5 -0.5 -5.5 C
-3.261 -5.5 -5.5 -3.261 -5.5 -0.5 C
-5.5 2.261 -3.261 4.5 -0.5 4.5 C
2.261 4.5 4.5 2.261 4.5 -0.5 C
S
GR
GS
[0.6 0 0 0.60113 442.80001 75.05387] CT
0.494 0.184 0.557 RC
10.0 ML
2.5 LW
N
4.5 -0.5 M
4.5 -3.261 2.261 -5.5 -0.5 -5.5 C
-3.261 -5.5 -5.5 -3.261 -5.5 -0.5 C
-5.5 2.261 -3.261 4.5 -0.5 4.5 C
2.261 4.5 4.5 2.261 4.5 -0.5 C
S
GR
GS
[0.6 0 0 0.60113 0 -0.39999] CT
0.467 0.675 0.188 RC
1 LJ
2.5 LW
N
156.56 475 M
169.2 464.835 L
181.84 441.578 L
194.48 418.525 L
207.12 395.726 L
219.76 373.237 L
232.4 351.127 L
245.04 329.477 L
257.68 308.378 L
270.32 287.935 L
282.96 268.262 L
295.6 249.478 L
308.24 231.706 L
320.88 215.063 L
333.52 199.651 L
346.16 185.552 L
358.8 172.819 L
371.44 161.468 L
384.08 151.483 L
396.72 142.811 L
409.36 135.371 L
422 129.058 L
434.64 123.758 L
447.28 119.347 L
459.92 115.706 L
472.56 112.721 L
485.2 110.288 L
497.84 108.313 L
510.48 106.718 L
523.12 105.434 L
535.76 104.402 L
548.4 103.575 L
561.04 102.913 L
573.68 102.385 L
586.32 101.963 L
598.96 101.627 L
611.6 101.359 L
624.24 101.146 L
636.88 100.976 L
649.52 100.841 L
662.16 100.734 L
674.8 100.649 L
687.44 100.581 L
700.08 100.527 L
712.72 100.484 L
725.36 100.45 L
738 100.423 L
S
GR
GS
[0.6 0 0 0.60113 93.936 285.13471] CT
0.467 0.675 0.188 RC
10.0 ML
2.5 LW
N
0 -5 M
0 5 L
-5 0 M
5 0 L
S
GR
GS
[0.6 0 0 0.60113 101.52 279.02404] CT
0.467 0.675 0.188 RC
10.0 ML
2.5 LW
N
0 -5 M
0 5 L
-5 0 M
5 0 L
S
GR
GS
[0.6 0 0 0.60113 109.104 265.04361] CT
0.467 0.675 0.188 RC
10.0 ML
2.5 LW
N
0 -5 M
0 5 L
-5 0 M
5 0 L
S
GR
GS
[0.6 0 0 0.60113 116.688 251.18635] CT
0.467 0.675 0.188 RC
10.0 ML
2.5 LW
N
0 -5 M
0 5 L
-5 0 M
5 0 L
S
GR
GS
[0.6 0 0 0.60113 124.272 237.48108] CT
0.467 0.675 0.188 RC
10.0 ML
2.5 LW
N
0 -5 M
0 5 L
-5 0 M
5 0 L
S
GR
GS
[0.6 0 0 0.60113 131.856 223.96247] CT
0.467 0.675 0.188 RC
10.0 ML
2.5 LW
N
0 -5 M
0 5 L
-5 0 M
5 0 L
S
GR
GS
[0.6 0 0 0.60113 139.44 210.6717] CT
0.467 0.675 0.188 RC
10.0 ML
2.5 LW
N
0 -5 M
0 5 L
-5 0 M
5 0 L
S
GR
GS
[0.6 0 0 0.60113 147.024 197.65703] CT
0.467 0.675 0.188 RC
10.0 ML
2.5 LW
N
0 -5 M
0 5 L
-5 0 M
5 0 L
S
GR
GS
[0.6 0 0 0.60113 154.608 184.97403] CT
0.467 0.675 0.188 RC
10.0 ML
2.5 LW
N
0 -5 M
0 5 L
-5 0 M
5 0 L
S
GR
GS
[0.6 0 0 0.60113 162.19201 172.6852] CT
0.467 0.675 0.188 RC
10.0 ML
2.5 LW
N
0 -5 M
0 5 L
-5 0 M
5 0 L
S
GR
GS
[0.6 0 0 0.60113 169.776 160.85898] CT
0.467 0.675 0.188 RC
10.0 ML
2.5 LW
N
0 -5 M
0 5 L
-5 0 M
5 0 L
S
GR
GS
[0.6 0 0 0.60113 177.36001 149.56772] CT
0.467 0.675 0.188 RC
10.0 ML
2.5 LW
N
0 -5 M
0 5 L
-5 0 M
5 0 L
S
GR
GS
[0.6 0 0 0.60113 184.944 138.88469] CT
0.467 0.675 0.188 RC
10.0 ML
2.5 LW
N
0 -5 M
0 5 L
-5 0 M
5 0 L
S
GR
GS
[0.6 0 0 0.60113 192.52801 128.87992] CT
0.467 0.675 0.188 RC
10.0 ML
2.5 LW
N
0 -5 M
0 5 L
-5 0 M
5 0 L
S
GR
GS
[0.6 0 0 0.60113 200.112 119.61545] CT
0.467 0.675 0.188 RC
10.0 ML
2.5 LW
N
0 -5 M
0 5 L
-5 0 M
5 0 L
S
GR
GS
[0.6 0 0 0.60113 207.696 111.14022] CT
0.467 0.675 0.188 RC
10.0 ML
2.5 LW
N
0 -5 M
0 5 L
-5 0 M
5 0 L
S
GR
GS
[0.6 0 0 0.60113 215.28 103.48569] CT
0.467 0.675 0.188 RC
10.0 ML
2.5 LW
N
0 -5 M
0 5 L
-5 0 M
5 0 L
S
GR
GS
[0.6 0 0 0.60113 222.864 96.66272] CT
0.467 0.675 0.188 RC
10.0 ML
2.5 LW
N
0 -5 M
0 5 L
-5 0 M
5 0 L
S
GR
GS
[0.6 0 0 0.60113 230.44799 90.66045] CT
0.467 0.675 0.188 RC
10.0 ML
2.5 LW
N
0 -5 M
0 5 L
-5 0 M
5 0 L
S
GR
GS
[0.6 0 0 0.60113 238.032 85.44743] CT
0.467 0.675 0.188 RC
10.0 ML
2.5 LW
N
0 -5 M
0 5 L
-5 0 M
5 0 L
S
GR
GS
[0.6 0 0 0.60113 245.61599 80.9747] CT
0.467 0.675 0.188 RC
10.0 ML
2.5 LW
N
0 -5 M
0 5 L
-5 0 M
5 0 L
S
GR
GS
[0.6 0 0 0.60113 253.2 77.18022] CT
0.467 0.675 0.188 RC
10.0 ML
2.5 LW
N
0 -5 M
0 5 L
-5 0 M
5 0 L
S
GR
GS
[0.6 0 0 0.60113 260.78401 73.99398] CT
0.467 0.675 0.188 RC
10.0 ML
2.5 LW
N
0 -5 M
0 5 L
-5 0 M
5 0 L
S
GR
GS
[0.6 0 0 0.60113 268.368 71.34272] CT
0.467 0.675 0.188 RC
10.0 ML
2.5 LW
N
0 -5 M
0 5 L
-5 0 M
5 0 L
S
GR
GS
[0.6 0 0 0.60113 275.95201 69.15405] CT
0.467 0.675 0.188 RC
10.0 ML
2.5 LW
N
0 -5 M
0 5 L
-5 0 M
5 0 L
S
GR
GS
[0.6 0 0 0.60113 283.536 67.35954] CT
0.467 0.675 0.188 RC
10.0 ML
2.5 LW
N
0 -5 M
0 5 L
-5 0 M
5 0 L
S
GR
GS
[0.6 0 0 0.60113 291.12001 65.89671] CT
0.467 0.675 0.188 RC
10.0 ML
2.5 LW
N
0 -5 M
0 5 L
-5 0 M
5 0 L
S
GR
GS
[0.6 0 0 0.60113 298.704 64.70996] CT
0.467 0.675 0.188 RC
10.0 ML
2.5 LW
N
0 -5 M
0 5 L
-5 0 M
5 0 L
S
GR
GS
[0.6 0 0 0.60113 306.28801 63.7511] CT
0.467 0.675 0.188 RC
10.0 ML
2.5 LW
N
0 -5 M
0 5 L
-5 0 M
5 0 L
S
GR
GS
[0.6 0 0 0.60113 313.872 62.97886] CT
0.467 0.675 0.188 RC
10.0 ML
2.5 LW
N
0 -5 M
0 5 L
-5 0 M
5 0 L
S
GR
GS
[0.6 0 0 0.60113 321.45601 62.35864] CT
0.467 0.675 0.188 RC
10.0 ML
2.5 LW
N
0 -5 M
0 5 L
-5 0 M
5 0 L
S
GR
GS
[0.6 0 0 0.60113 329.04002 61.86157] CT
0.467 0.675 0.188 RC
10.0 ML
2.5 LW
N
0 -5 M
0 5 L
-5 0 M
5 0 L
S
GR
GS
[0.6 0 0 0.60113 336.62399 61.46392] CT
0.467 0.675 0.188 RC
10.0 ML
2.5 LW
N
0 -5 M
0 5 L
-5 0 M
5 0 L
S
GR
GS
[0.6 0 0 0.60113 344.208 61.14626] CT
0.467 0.675 0.188 RC
10.0 ML
2.5 LW
N
0 -5 M
0 5 L
-5 0 M
5 0 L
S
GR
GS
[0.6 0 0 0.60113 351.79201 60.89277] CT
0.467 0.675 0.188 RC
10.0 ML
2.5 LW
N
0 -5 M
0 5 L
-5 0 M
5 0 L
S
GR
GS
[0.6 0 0 0.60113 359.37602 60.69069] CT
0.467 0.675 0.188 RC
10.0 ML
2.5 LW
N
0 -5 M
0 5 L
-5 0 M
5 0 L
S
GR
GS
[0.6 0 0 0.60113 366.95999 60.52969] CT
0.467 0.675 0.188 RC
10.0 ML
2.5 LW
N
0 -5 M
0 5 L
-5 0 M
5 0 L
S
GR
GS
[0.6 0 0 0.60113 374.544 60.40154] CT
0.467 0.675 0.188 RC
10.0 ML
2.5 LW
N
0 -5 M
0 5 L
-5 0 M
5 0 L
S
GR
GS
[0.6 0 0 0.60113 382.12801 60.29954] CT
0.467 0.675 0.188 RC
10.0 ML
2.5 LW
N
0 -5 M
0 5 L
-5 0 M
5 0 L
S
GR
GS
[0.6 0 0 0.60113 389.71202 60.21841] CT
0.467 0.675 0.188 RC
10.0 ML
2.5 LW
N
0 -5 M
0 5 L
-5 0 M
5 0 L
S
GR
GS
[0.6 0 0 0.60113 397.29599 60.15388] CT
0.467 0.675 0.188 RC
10.0 ML
2.5 LW
N
0 -5 M
0 5 L
-5 0 M
5 0 L
S
GR
GS
[0.6 0 0 0.60113 404.88 60.1026] CT
0.467 0.675 0.188 RC
10.0 ML
2.5 LW
N
0 -5 M
0 5 L
-5 0 M
5 0 L
S
GR
GS
[0.6 0 0 0.60113 412.46401 60.06183] CT
0.467 0.675 0.188 RC
10.0 ML
2.5 LW
N
0 -5 M
0 5 L
-5 0 M
5 0 L
S
GR
GS
[0.6 0 0 0.60113 420.04802 60.02941] CT
0.467 0.675 0.188 RC
10.0 ML
2.5 LW
N
0 -5 M
0 5 L
-5 0 M
5 0 L
S
GR
GS
[0.6 0 0 0.60113 427.63199 60.00366] CT
0.467 0.675 0.188 RC
10.0 ML
2.5 LW
N
0 -5 M
0 5 L
-5 0 M
5 0 L
S
GR
GS
[0.6 0 0 0.60113 435.216 59.98319] CT
0.467 0.675 0.188 RC
10.0 ML
2.5 LW
N
0 -5 M
0 5 L
-5 0 M
5 0 L
S
GR
GS
[0.6 0 0 0.60113 442.80001 59.96692] CT
0.467 0.675 0.188 RC
10.0 ML
2.5 LW
N
0 -5 M
0 5 L
-5 0 M
5 0 L
S
GR
GS
[0.6 0 0 0.60113 0 -0.39999] CT
0.302 0.745 0.933 RC
1 LJ
2.5 LW
N
156.56 475 M
169.2 455.714 L
181.84 432.457 L
194.48 409.405 L
207.12 386.606 L
219.76 364.117 L
232.4 342.007 L
245.04 320.357 L
257.68 299.258 L
270.32 278.815 L
282.96 259.142 L
295.6 240.358 L
308.24 222.586 L
320.88 205.943 L
333.52 190.531 L
346.16 176.432 L
358.8 163.698 L
371.44 152.348 L
384.08 142.363 L
396.72 133.691 L
409.36 126.25 L
422 119.938 L
434.64 114.638 L
447.28 110.227 L
459.92 106.586 L
472.56 103.601 L
485.2 101.167 L
497.84 99.193 L
510.48 97.598 L
523.12 96.313 L
535.76 95.282 L
548.4 94.455 L
561.04 93.793 L
573.68 93.265 L
586.32 92.843 L
598.96 92.507 L
611.6 92.239 L
624.24 92.026 L
636.88 91.856 L
649.52 91.721 L
662.16 91.614 L
674.8 91.529 L
687.44 91.461 L
700.08 91.407 L
712.72 91.364 L
725.36 91.33 L
738 91.303 L
S
GR
GS
[0.6 0 0 0.60113 93.936 285.13471] CT
0.302 0.745 0.933 RC
10.0 ML
2.5 LW
N
4.5 -0.5 M
4.5 -3.261 2.261 -5.5 -0.5 -5.5 C
-3.261 -5.5 -5.5 -3.261 -5.5 -0.5 C
-5.5 2.261 -3.261 4.5 -0.5 4.5 C
2.261 4.5 4.5 2.261 4.5 -0.5 C
S
GR
GS
[0.6 0 0 0.60113 101.52 273.54169] CT
0.302 0.745 0.933 RC
10.0 ML
2.5 LW
N
4.5 -0.5 M
4.5 -3.261 2.261 -5.5 -0.5 -5.5 C
-3.261 -5.5 -5.5 -3.261 -5.5 -0.5 C
-5.5 2.261 -3.261 4.5 -0.5 4.5 C
2.261 4.5 4.5 2.261 4.5 -0.5 C
S
GR
GS
[0.6 0 0 0.60113 109.104 259.56126] CT
0.302 0.745 0.933 RC
10.0 ML
2.5 LW
N
4.5 -0.5 M
4.5 -3.261 2.261 -5.5 -0.5 -5.5 C
-3.261 -5.5 -5.5 -3.261 -5.5 -0.5 C
-5.5 2.261 -3.261 4.5 -0.5 4.5 C
2.261 4.5 4.5 2.261 4.5 -0.5 C
S
GR
GS
[0.6 0 0 0.60113 116.688 245.704] CT
0.302 0.745 0.933 RC
10.0 ML
2.5 LW
N
4.5 -0.5 M
4.5 -3.261 2.261 -5.5 -0.5 -5.5 C
-3.261 -5.5 -5.5 -3.261 -5.5 -0.5 C
-5.5 2.261 -3.261 4.5 -0.5 4.5 C
2.261 4.5 4.5 2.261 4.5 -0.5 C
S
GR
GS
[0.6 0 0 0.60113 124.272 231.99872] CT
0.302 0.745 0.933 RC
10.0 ML
2.5 LW
N
4.5 -0.5 M
4.5 -3.261 2.261 -5.5 -0.5 -5.5 C
-3.261 -5.5 -5.5 -3.261 -5.5 -0.5 C
-5.5 2.261 -3.261 4.5 -0.5 4.5 C
2.261 4.5 4.5 2.261 4.5 -0.5 C
S
GR
GS
[0.6 0 0 0.60113 131.856 218.48011] CT
0.302 0.745 0.933 RC
10.0 ML
2.5 LW
N
4.5 -0.5 M
4.5 -3.261 2.261 -5.5 -0.5 -5.5 C
-3.261 -5.5 -5.5 -3.261 -5.5 -0.5 C
-5.5 2.261 -3.261 4.5 -0.5 4.5 C
2.261 4.5 4.5 2.261 4.5 -0.5 C
S
GR
GS
[0.6 0 0 0.60113 139.44 205.18934] CT
0.302 0.745 0.933 RC
10.0 ML
2.5 LW
N
4.5 -0.5 M
4.5 -3.261 2.261 -5.5 -0.5 -5.5 C
-3.261 -5.5 -5.5 -3.261 -5.5 -0.5 C
-5.5 2.261 -3.261 4.5 -0.5 4.5 C
2.261 4.5 4.5 2.261 4.5 -0.5 C
S
GR
GS
[0.6 0 0 0.60113 147.024 192.17468] CT
0.302 0.745 0.933 RC
10.0 ML
2.5 LW
N
4.5 -0.5 M
4.5 -3.261 2.261 -5.5 -0.5 -5.5 C
-3.261 -5.5 -5.5 -3.261 -5.5 -0.5 C
-5.5 2.261 -3.261 4.5 -0.5 4.5 C
2.261 4.5 4.5 2.261 4.5 -0.5 C
S
GR
GS
[0.6 0 0 0.60113 154.608 179.49168] CT
0.302 0.745 0.933 RC
10.0 ML
2.5 LW
N
4.5 -0.5 M
4.5 -3.261 2.261 -5.5 -0.5 -5.5 C
-3.261 -5.5 -5.5 -3.261 -5.5 -0.5 C
-5.5 2.261 -3.261 4.5 -0.5 4.5 C
2.261 4.5 4.5 2.261 4.5 -0.5 C
S
GR
GS
[0.6 0 0 0.60113 162.19201 167.20285] CT
0.302 0.745 0.933 RC
10.0 ML
2.5 LW
N
4.5 -0.5 M
4.5 -3.261 2.261 -5.5 -0.5 -5.5 C
-3.261 -5.5 -5.5 -3.261 -5.5 -0.5 C
-5.5 2.261 -3.261 4.5 -0.5 4.5 C
2.261 4.5 4.5 2.261 4.5 -0.5 C
S
GR
GS
[0.6 0 0 0.60113 169.776 155.37663] CT
0.302 0.745 0.933 RC
10.0 ML
2.5 LW
N
4.5 -0.5 M
4.5 -3.261 2.261 -5.5 -0.5 -5.5 C
-3.261 -5.5 -5.5 -3.261 -5.5 -0.5 C
-5.5 2.261 -3.261 4.5 -0.5 4.5 C
2.261 4.5 4.5 2.261 4.5 -0.5 C
S
GR
GS
[0.6 0 0 0.60113 177.36001 144.08538] CT
0.302 0.745 0.933 RC
10.0 ML
2.5 LW
N
4.5 -0.5 M
4.5 -3.261 2.261 -5.5 -0.5 -5.5 C
-3.261 -5.5 -5.5 -3.261 -5.5 -0.5 C
-5.5 2.261 -3.261 4.5 -0.5 4.5 C
2.261 4.5 4.5 2.261 4.5 -0.5 C
S
GR
GS
[0.6 0 0 0.60113 184.944 133.40233] CT
0.302 0.745 0.933 RC
10.0 ML
2.5 LW
N
4.5 -0.5 M
4.5 -3.261 2.261 -5.5 -0.5 -5.5 C
-3.261 -5.5 -5.5 -3.261 -5.5 -0.5 C
-5.5 2.261 -3.261 4.5 -0.5 4.5 C
2.261 4.5 4.5 2.261 4.5 -0.5 C
S
GR
GS
[0.6 0 0 0.60113 192.52801 123.39758] CT
0.302 0.745 0.933 RC
10.0 ML
2.5 LW
N
4.5 -0.5 M
4.5 -3.261 2.261 -5.5 -0.5 -5.5 C
-3.261 -5.5 -5.5 -3.261 -5.5 -0.5 C
-5.5 2.261 -3.261 4.5 -0.5 4.5 C
2.261 4.5 4.5 2.261 4.5 -0.5 C
S
GR
GS
[0.6 0 0 0.60113 200.112 114.1331] CT
0.302 0.745 0.933 RC
10.0 ML
2.5 LW
N
4.5 -0.5 M
4.5 -3.261 2.261 -5.5 -0.5 -5.5 C
-3.261 -5.5 -5.5 -3.261 -5.5 -0.5 C
-5.5 2.261 -3.261 4.5 -0.5 4.5 C
2.261 4.5 4.5 2.261 4.5 -0.5 C
S
GR
GS
[0.6 0 0 0.60113 207.696 105.65787] CT
0.302 0.745 0.933 RC
10.0 ML
2.5 LW
N
4.5 -0.5 M
4.5 -3.261 2.261 -5.5 -0.5 -5.5 C
-3.261 -5.5 -5.5 -3.261 -5.5 -0.5 C
-5.5 2.261 -3.261 4.5 -0.5 4.5 C
2.261 4.5 4.5 2.261 4.5 -0.5 C
S
GR
GS
[0.6 0 0 0.60113 215.28 98.00334] CT
0.302 0.745 0.933 RC
10.0 ML
2.5 LW
N
4.5 -0.5 M
4.5 -3.261 2.261 -5.5 -0.5 -5.5 C
-3.261 -5.5 -5.5 -3.261 -5.5 -0.5 C
-5.5 2.261 -3.261 4.5 -0.5 4.5 C
2.261 4.5 4.5 2.261 4.5 -0.5 C
S
GR
GS
[0.6 0 0 0.60113 222.864 91.18037] CT
0.302 0.745 0.933 RC
10.0 ML
2.5 LW
N
4.5 -0.5 M
4.5 -3.261 2.261 -5.5 -0.5 -5.5 C
-3.261 -5.5 -5.5 -3.261 -5.5 -0.5 C
-5.5 2.261 -3.261 4.5 -0.5 4.5 C
2.261 4.5 4.5 2.261 4.5 -0.5 C
S
GR
GS
[0.6 0 0 0.60113 230.44799 85.1781] CT
0.302 0.745 0.933 RC
10.0 ML
2.5 LW
N
4.5 -0.5 M
4.5 -3.261 2.261 -5.5 -0.5 -5.5 C
-3.261 -5.5 -5.5 -3.261 -5.5 -0.5 C
-5.5 2.261 -3.261 4.5 -0.5 4.5 C
2.261 4.5 4.5 2.261 4.5 -0.5 C
S
GR
GS
[0.6 0 0 0.60113 238.032 79.96508] CT
0.302 0.745 0.933 RC
10.0 ML
2.5 LW
N
4.5 -0.5 M
4.5 -3.261 2.261 -5.5 -0.5 -5.5 C
-3.261 -5.5 -5.5 -3.261 -5.5 -0.5 C
-5.5 2.261 -3.261 4.5 -0.5 4.5 C
2.261 4.5 4.5 2.261 4.5 -0.5 C
S
GR
GS
[0.6 0 0 0.60113 245.61599 75.49234] CT
0.302 0.745 0.933 RC
10.0 ML
2.5 LW
N
4.5 -0.5 M
4.5 -3.261 2.261 -5.5 -0.5 -5.5 C
-3.261 -5.5 -5.5 -3.261 -5.5 -0.5 C
-5.5 2.261 -3.261 4.5 -0.5 4.5 C
2.261 4.5 4.5 2.261 4.5 -0.5 C
S
GR
GS
[0.6 0 0 0.60113 253.2 71.69788] CT
0.302 0.745 0.933 RC
10.0 ML
2.5 LW
N
4.5 -0.5 M
4.5 -3.261 2.261 -5.5 -0.5 -5.5 C
-3.261 -5.5 -5.5 -3.261 -5.5 -0.5 C
-5.5 2.261 -3.261 4.5 -0.5 4.5 C
2.261 4.5 4.5 2.261 4.5 -0.5 C
S
GR
GS
[0.6 0 0 0.60113 260.78401 68.51164] CT
0.302 0.745 0.933 RC
10.0 ML
2.5 LW
N
4.5 -0.5 M
4.5 -3.261 2.261 -5.5 -0.5 -5.5 C
-3.261 -5.5 -5.5 -3.261 -5.5 -0.5 C
-5.5 2.261 -3.261 4.5 -0.5 4.5 C
2.261 4.5 4.5 2.261 4.5 -0.5 C
S
GR
GS
[0.6 0 0 0.60113 268.368 65.86035] CT
0.302 0.745 0.933 RC
10.0 ML
2.5 LW
N
4.5 -0.5 M
4.5 -3.261 2.261 -5.5 -0.5 -5.5 C
-3.261 -5.5 -5.5 -3.261 -5.5 -0.5 C
-5.5 2.261 -3.261 4.5 -0.5 4.5 C
2.261 4.5 4.5 2.261 4.5 -0.5 C
S
GR
GS
[0.6 0 0 0.60113 275.95201 63.67169] CT
0.302 0.745 0.933 RC
10.0 ML
2.5 LW
N
4.5 -0.5 M
4.5 -3.261 2.261 -5.5 -0.5 -5.5 C
-3.261 -5.5 -5.5 -3.261 -5.5 -0.5 C
-5.5 2.261 -3.261 4.5 -0.5 4.5 C
2.261 4.5 4.5 2.261 4.5 -0.5 C
S
GR
GS
[0.6 0 0 0.60113 283.536 61.8772] CT
0.302 0.745 0.933 RC
10.0 ML
2.5 LW
N
4.5 -0.5 M
4.5 -3.261 2.261 -5.5 -0.5 -5.5 C
-3.261 -5.5 -5.5 -3.261 -5.5 -0.5 C
-5.5 2.261 -3.261 4.5 -0.5 4.5 C
2.261 4.5 4.5 2.261 4.5 -0.5 C
S
GR
GS
[0.6 0 0 0.60113 291.12001 60.41436] CT
0.302 0.745 0.933 RC
10.0 ML
2.5 LW
N
4.5 -0.5 M
4.5 -3.261 2.261 -5.5 -0.5 -5.5 C
-3.261 -5.5 -5.5 -3.261 -5.5 -0.5 C
-5.5 2.261 -3.261 4.5 -0.5 4.5 C
2.261 4.5 4.5 2.261 4.5 -0.5 C
S
GR
GS
[0.6 0 0 0.60113 298.704 59.22762] CT
0.302 0.745 0.933 RC
10.0 ML
2.5 LW
N
4.5 -0.5 M
4.5 -3.261 2.261 -5.5 -0.5 -5.5 C
-3.261 -5.5 -5.5 -3.261 -5.5 -0.5 C
-5.5 2.261 -3.261 4.5 -0.5 4.5 C
2.261 4.5 4.5 2.261 4.5 -0.5 C
S
GR
GS
[0.6 0 0 0.60113 306.28801 58.26875] CT
0.302 0.745 0.933 RC
10.0 ML
2.5 LW
N
4.5 -0.5 M
4.5 -3.261 2.261 -5.5 -0.5 -5.5 C
-3.261 -5.5 -5.5 -3.261 -5.5 -0.5 C
-5.5 2.261 -3.261 4.5 -0.5 4.5 C
2.261 4.5 4.5 2.261 4.5 -0.5 C
S
GR
GS
[0.6 0 0 0.60113 313.872 57.49652] CT
0.302 0.745 0.933 RC
10.0 ML
2.5 LW
N
4.5 -0.5 M
4.5 -3.261 2.261 -5.5 -0.5 -5.5 C
-3.261 -5.5 -5.5 -3.261 -5.5 -0.5 C
-5.5 2.261 -3.261 4.5 -0.5 4.5 C
2.261 4.5 4.5 2.261 4.5 -0.5 C
S
GR
GS
[0.6 0 0 0.60113 321.45601 56.8763] CT
0.302 0.745 0.933 RC
10.0 ML
2.5 LW
N
4.5 -0.5 M
4.5 -3.261 2.261 -5.5 -0.5 -5.5 C
-3.261 -5.5 -5.5 -3.261 -5.5 -0.5 C
-5.5 2.261 -3.261 4.5 -0.5 4.5 C
2.261 4.5 4.5 2.261 4.5 -0.5 C
S
GR
GS
[0.6 0 0 0.60113 329.04002 56.37923] CT
0.302 0.745 0.933 RC
10.0 ML
2.5 LW
N
4.5 -0.5 M
4.5 -3.261 2.261 -5.5 -0.5 -5.5 C
-3.261 -5.5 -5.5 -3.261 -5.5 -0.5 C
-5.5 2.261 -3.261 4.5 -0.5 4.5 C
2.261 4.5 4.5 2.261 4.5 -0.5 C
S
GR
GS
[0.6 0 0 0.60113 336.62399 55.98158] CT
0.302 0.745 0.933 RC
10.0 ML
2.5 LW
N
4.5 -0.5 M
4.5 -3.261 2.261 -5.5 -0.5 -5.5 C
-3.261 -5.5 -5.5 -3.261 -5.5 -0.5 C
-5.5 2.261 -3.261 4.5 -0.5 4.5 C
2.261 4.5 4.5 2.261 4.5 -0.5 C
S
GR
GS
[0.6 0 0 0.60113 344.208 55.66389] CT
0.302 0.745 0.933 RC
10.0 ML
2.5 LW
N
4.5 -0.5 M
4.5 -3.261 2.261 -5.5 -0.5 -5.5 C
-3.261 -5.5 -5.5 -3.261 -5.5 -0.5 C
-5.5 2.261 -3.261 4.5 -0.5 4.5 C
2.261 4.5 4.5 2.261 4.5 -0.5 C
S
GR
GS
[0.6 0 0 0.60113 351.79201 55.41042] CT
0.302 0.745 0.933 RC
10.0 ML
2.5 LW
N
4.5 -0.5 M
4.5 -3.261 2.261 -5.5 -0.5 -5.5 C
-3.261 -5.5 -5.5 -3.261 -5.5 -0.5 C
-5.5 2.261 -3.261 4.5 -0.5 4.5 C
2.261 4.5 4.5 2.261 4.5 -0.5 C
S
GR
GS
[0.6 0 0 0.60113 359.37602 55.20834] CT
0.302 0.745 0.933 RC
10.0 ML
2.5 LW
N
4.5 -0.5 M
4.5 -3.261 2.261 -5.5 -0.5 -5.5 C
-3.261 -5.5 -5.5 -3.261 -5.5 -0.5 C
-5.5 2.261 -3.261 4.5 -0.5 4.5 C
2.261 4.5 4.5 2.261 4.5 -0.5 C
S
GR
GS
[0.6 0 0 0.60113 366.95999 55.04735] CT
0.302 0.745 0.933 RC
10.0 ML
2.5 LW
N
4.5 -0.5 M
4.5 -3.261 2.261 -5.5 -0.5 -5.5 C
-3.261 -5.5 -5.5 -3.261 -5.5 -0.5 C
-5.5 2.261 -3.261 4.5 -0.5 4.5 C
2.261 4.5 4.5 2.261 4.5 -0.5 C
S
GR
GS
[0.6 0 0 0.60113 374.544 54.9192] CT
0.302 0.745 0.933 RC
10.0 ML
2.5 LW
N
4.5 -0.5 M
4.5 -3.261 2.261 -5.5 -0.5 -5.5 C
-3.261 -5.5 -5.5 -3.261 -5.5 -0.5 C
-5.5 2.261 -3.261 4.5 -0.5 4.5 C
2.261 4.5 4.5 2.261 4.5 -0.5 C
S
GR
GS
[0.6 0 0 0.60113 382.12801 54.8172] CT
0.302 0.745 0.933 RC
10.0 ML
2.5 LW
N
4.5 -0.5 M
4.5 -3.261 2.261 -5.5 -0.5 -5.5 C
-3.261 -5.5 -5.5 -3.261 -5.5 -0.5 C
-5.5 2.261 -3.261 4.5 -0.5 4.5 C
2.261 4.5 4.5 2.261 4.5 -0.5 C
S
GR
GS
[0.6 0 0 0.60113 389.71202 54.73607] CT
0.302 0.745 0.933 RC
10.0 ML
2.5 LW
N
4.5 -0.5 M
4.5 -3.261 2.261 -5.5 -0.5 -5.5 C
-3.261 -5.5 -5.5 -3.261 -5.5 -0.5 C
-5.5 2.261 -3.261 4.5 -0.5 4.5 C
2.261 4.5 4.5 2.261 4.5 -0.5 C
S
GR
GS
[0.6 0 0 0.60113 397.29599 54.67154] CT
0.302 0.745 0.933 RC
10.0 ML
2.5 LW
N
4.5 -0.5 M
4.5 -3.261 2.261 -5.5 -0.5 -5.5 C
-3.261 -5.5 -5.5 -3.261 -5.5 -0.5 C
-5.5 2.261 -3.261 4.5 -0.5 4.5 C
2.261 4.5 4.5 2.261 4.5 -0.5 C
S
GR
GS
[0.6 0 0 0.60113 404.88 54.62026] CT
0.302 0.745 0.933 RC
10.0 ML
2.5 LW
N
4.5 -0.5 M
4.5 -3.261 2.261 -5.5 -0.5 -5.5 C
-3.261 -5.5 -5.5 -3.261 -5.5 -0.5 C
-5.5 2.261 -3.261 4.5 -0.5 4.5 C
2.261 4.5 4.5 2.261 4.5 -0.5 C
S
GR
GS
[0.6 0 0 0.60113 412.46401 54.57946] CT
0.302 0.745 0.933 RC
10.0 ML
2.5 LW
N
4.5 -0.5 M
4.5 -3.261 2.261 -5.5 -0.5 -5.5 C
-3.261 -5.5 -5.5 -3.261 -5.5 -0.5 C
-5.5 2.261 -3.261 4.5 -0.5 4.5 C
2.261 4.5 4.5 2.261 4.5 -0.5 C
S
GR
GS
[0.6 0 0 0.60113 420.04802 54.54706] CT
0.302 0.745 0.933 RC
10.0 ML
2.5 LW
N
4.5 -0.5 M
4.5 -3.261 2.261 -5.5 -0.5 -5.5 C
-3.261 -5.5 -5.5 -3.261 -5.5 -0.5 C
-5.5 2.261 -3.261 4.5 -0.5 4.5 C
2.261 4.5 4.5 2.261 4.5 -0.5 C
S
GR
GS
[0.6 0 0 0.60113 427.63199 54.52129] CT
0.302 0.745 0.933 RC
10.0 ML
2.5 LW
N
4.5 -0.5 M
4.5 -3.261 2.261 -5.5 -0.5 -5.5 C
-3.261 -5.5 -5.5 -3.261 -5.5 -0.5 C
-5.5 2.261 -3.261 4.5 -0.5 4.5 C
2.261 4.5 4.5 2.261 4.5 -0.5 C
S
GR
GS
[0.6 0 0 0.60113 435.216 54.50084] CT
0.302 0.745 0.933 RC
10.0 ML
2.5 LW
N
4.5 -0.5 M
4.5 -3.261 2.261 -5.5 -0.5 -5.5 C
-3.261 -5.5 -5.5 -3.261 -5.5 -0.5 C
-5.5 2.261 -3.261 4.5 -0.5 4.5 C
2.261 4.5 4.5 2.261 4.5 -0.5 C
S
GR
GS
[0.6 0 0 0.60113 442.80001 54.48457] CT
0.302 0.745 0.933 RC
10.0 ML
2.5 LW
N
4.5 -0.5 M
4.5 -3.261 2.261 -5.5 -0.5 -5.5 C
-3.261 -5.5 -5.5 -3.261 -5.5 -0.5 C
-5.5 2.261 -3.261 4.5 -0.5 4.5 C
2.261 4.5 4.5 2.261 4.5 -0.5 C
S
GR
GS
[0.6 0 0 0.60113 0 -0.39999] CT
1 LJ
2.5 LW
N
156.56 475 M
169.2 451.578 L
181.84 428.32 L
194.48 405.268 L
207.12 382.469 L
219.76 359.98 L
232.4 337.87 L
245.04 316.22 L
257.68 295.121 L
270.32 274.678 L
282.96 255.005 L
295.6 236.221 L
308.24 218.449 L
320.88 201.806 L
333.52 186.394 L
346.16 172.295 L
358.8 159.561 L
371.44 148.211 L
384.08 138.226 L
396.72 129.554 L
409.36 122.113 L
422 115.801 L
434.64 110.501 L
447.28 106.09 L
459.92 102.449 L
472.56 99.464 L
485.2 97.03 L
497.84 95.056 L
510.48 93.461 L
523.12 92.177 L
535.76 91.145 L
548.4 90.318 L
561.04 89.656 L
573.68 89.128 L
586.32 88.706 L
598.96 88.37 L
611.6 88.102 L
624.24 87.889 L
636.88 87.719 L
649.52 87.584 L
662.16 87.477 L
674.8 87.392 L
687.44 87.324 L
700.08 87.27 L
712.72 87.227 L
725.36 87.193 L
738 87.166 L
S
GR
GS
[0.6 0 0 0.60113 0 -0.39999] CT
1 GC
N
110 207 M
110 59 L
278 59 L
278 207 L
cp
f
GR
GS
[0.6 0 0 0.60113 101.09334 42.54261] CT
/Helvetica 15 F
GS
[1 0 0 1 0 0] CT
0 6 moveto 
1 -1 scale
(b= 1) t 
GR
GR
GS
[0.6 0 0 0.60113 0 -0.39999] CT
0 0.447 0.741 RC
1 LJ
2.5 LW
N
114.978 71.437 M
164.756 71.437 L
S
GR
GS
[0.6 0 0 0.60113 83.92 42.54261] CT
0 0.447 0.741 RC
10.0 ML
2.5 LW
N
-3.536 -3.536 M
3.536 3.536 L
-3.536 3.536 M
3.536 -3.536 L
S
GR
GS
[0.6 0 0 0.60113 101.09334 54.87831] CT
/Helvetica 15 F
GS
[1 0 0 1 0 0] CT
0 6 moveto 
1 -1 scale
(b= 2) t 
GR
GR
GS
[0.6 0 0 0.60113 0 -0.39999] CT
0.851 0.325 0.098 RC
1 LJ
2.5 LW
N
114.978 91.958 M
164.756 91.958 L
S
GR
GS
[0.6 0 0 0.60113 83.92 54.87831] CT
0.851 0.325 0.098 RC
10.0 ML
2.5 LW
N
0 6.665 M
-5.772 -3.332 L
5.772 -3.332 L
cp
S
GR
GS
[0.6 0 0 0.60113 101.09334 67.21402] CT
/Helvetica 15 F
GS
[1 0 0 1 0 0] CT
0 6 moveto 
1 -1 scale
(b= 3) t 
GR
GR
GS
[0.6 0 0 0.60113 0 -0.39999] CT
0.929 0.694 0.125 RC
1 LJ
2.5 LW
N
114.978 112.479 M
164.756 112.479 L
S
GR
GS
[0.6 0 0 0.60113 83.92 67.21402] CT
0.929 0.694 0.125 RC
10.0 ML
2.5 LW
N
0 -5 M
0 5 L
-5 0 M
5 0 L
-3.536 -3.536 M
3.536 3.536 L
-3.536 3.536 M
3.536 -3.536 L
S
GR
GS
[0.6 0 0 0.60113 101.09334 79.54972] CT
/Helvetica 15 F
GS
[1 0 0 1 0 0] CT
0 6 moveto 
1 -1 scale
(b= 4) t 
GR
GR
GS
[0.6 0 0 0.60113 0 -0.39999] CT
0.494 0.184 0.557 RC
1 LJ
2.5 LW
N
114.978 133 M
164.756 133 L
S
GR
GS
[0.6 0 0 0.60113 83.92 79.54972] CT
0.494 0.184 0.557 RC
10.0 ML
2.5 LW
N
4.5 -0.5 M
4.5 -3.261 2.261 -5.5 -0.5 -5.5 C
-3.261 -5.5 -5.5 -3.261 -5.5 -0.5 C
-5.5 2.261 -3.261 4.5 -0.5 4.5 C
2.261 4.5 4.5 2.261 4.5 -0.5 C
S
GR
GS
[0.6 0 0 0.60113 101.09334 91.88543] CT
/Helvetica 15 F
GS
[1 0 0 1 0 0] CT
0 6 moveto 
1 -1 scale
(b= 5) t 
GR
GR
GS
[0.6 0 0 0.60113 0 -0.39999] CT
0.467 0.675 0.188 RC
1 LJ
2.5 LW
N
114.978 153.521 M
164.756 153.521 L
S
GR
GS
[0.6 0 0 0.60113 83.92 91.88543] CT
0.467 0.675 0.188 RC
10.0 ML
2.5 LW
N
0 -5 M
0 5 L
-5 0 M
5 0 L
S
GR
GS
[0.6 0 0 0.60113 101.09334 104.22114] CT
/Helvetica 15 F
GS
[1 0 0 1 0 0] CT
0 6 moveto 
1 -1 scale
(b= 6) t 
GR
GR
GS
[0.6 0 0 0.60113 0 -0.39999] CT
0.302 0.745 0.933 RC
1 LJ
2.5 LW
N
114.978 174.042 M
164.756 174.042 L
S
GR
GS
[0.6 0 0 0.60113 83.92 104.22114] CT
0.302 0.745 0.933 RC
10.0 ML
2.5 LW
N
4.5 -0.5 M
4.5 -3.261 2.261 -5.5 -0.5 -5.5 C
-3.261 -5.5 -5.5 -3.261 -5.5 -0.5 C
-5.5 2.261 -3.261 4.5 -0.5 4.5 C
2.261 4.5 4.5 2.261 4.5 -0.5 C
S
GR
GS
[0.6 0 0 0.60113 101.09334 116.55684] CT
/Helvetica 15 F
GS
[1 0 0 1 0 0] CT
0 6 moveto 
1 -1 scale
(No quantization) t 
GR
GR
GS
[0.6 0 0 0.60113 0 -0.39999] CT
1 LJ
2.5 LW
N
114.978 194.563 M
164.756 194.563 L
S
GR
GS
[0.6 0 0 0.60113 0 -0.39999] CT
0.149 GC
10.0 ML
0.833 LW
N
110 207 M
110 59 L
278 59 L
278 207 L
cp
S
GR
%%Trailer
%%Pages: 1
%%EOF
